                           |canTro         |canSoj         |canVis         |canFri         |canNer         |canDub         |canAlb         |canMal         |debHan         |picFar         
canTro                    |  0,00000000000|806,52675848075|806,52675848075|806,52675848075|806,52675848075|806,52675848075|806,52675848075|806,52675848075|806,52675848075|806,52675848075
canSoj                    |806,52675848075|  0,00000000000|773,07336759709|773,07336759709|773,07336759709|773,07336759709|773,07336759709|801,23580097706|787,10216294762|804,69187200210
canVis                    |806,52675848075|773,07336759709|  0,00000000000|768,96392684563|768,96392684563|768,96392684563|768,96392684563|801,23580097706|787,10216294762|804,69187200210
canFri                    |806,52675848075|773,07336759709|768,96392684563|  0,00000000000|672,68432296635|767,08081926986|767,08081926986|801,23580097706|787,10216294762|804,69187200210
canNer                    |806,52675848075|773,07336759709|768,96392684563|672,68432296635|  0,00000000000|767,08081926986|767,08081926986|801,23580097706|787,10216294762|804,69187200210
canDub                    |806,52675848075|773,07336759709|768,96392684563|767,08081926986|767,08081926986|  0,00000000000|599,71968262259|801,23580097706|787,10216294762|804,69187200210
canAlb                    |806,52675848075|773,07336759709|768,96392684563|767,08081926986|767,08081926986|599,71968262259|  0,00000000000|801,23580097706|787,10216294762|804,69187200210
canMal                    |806,52675848075|801,23580097706|801,23580097706|801,23580097706|801,23580097706|801,23580097706|801,23580097706|  0,00000000000|801,23580097706|804,69187200210
debHan                    |806,52675848075|787,10216294762|787,10216294762|787,10216294762|787,10216294762|787,10216294762|787,10216294762|801,23580097706|  0,00000000000|804,69187200210
picFar                    |806,52675848075|804,69187200210|804,69187200210|804,69187200210|804,69187200210|804,69187200210|804,69187200210|804,69187200210|804,69187200210|  0,00000000000
                           |canTro         |canSoj         |canVis         |canFri         |canNer         |canDub         |canAlb         |canMal         |debHan         |picFar         
canTro                    |  0,00000000000| 10,60348193007| 10,60348193007| 10,60348193007| 10,60348193007| 10,60348193007| 10,60348193007| 10,60348193007| 10,60348193007| 10,60348193007
canSoj                    | 10,60348193007|  0,00000000000|  9,68042818951|  9,68042818951|  9,68042818951|  9,68042818951|  9,68042818951| 10,45749260026| 10,06751397310| 10,55285331566
canVis                    | 10,60348193007|  9,68042818951|  0,00000000000|  9,56703954468|  9,56703954468|  9,56703954468|  9,56703954468| 10,45749260026| 10,06751397310| 10,55285331566
canFri                    | 10,60348193007|  9,68042818951|  9,56703954468|  0,00000000000|  6,91047032544|  9,51508040255|  9,51508040255| 10,45749260026| 10,06751397310| 10,55285331566
canNer                    | 10,60348193007|  9,68042818951|  9,56703954468|  6,91047032544|  0,00000000000|  9,51508040255|  9,51508040255| 10,45749260026| 10,06751397310| 10,55285331566
canDub                    | 10,60348193007|  9,68042818951|  9,56703954468|  9,51508040255|  9,51508040255|  0,00000000000|  4,89721300177| 10,45749260026| 10,06751397310| 10,55285331566
canAlb                    | 10,60348193007|  9,68042818951|  9,56703954468|  9,51508040255|  9,51508040255|  4,89721300177|  0,00000000000| 10,45749260026| 10,06751397310| 10,55285331566
canMal                    | 10,60348193007| 10,45749260026| 10,45749260026| 10,45749260026| 10,45749260026| 10,45749260026| 10,45749260026|  0,00000000000| 10,45749260026| 10,55285331566
debHan                    | 10,60348193007| 10,06751397310| 10,06751397310| 10,06751397310| 10,06751397310| 10,06751397310| 10,06751397310| 10,45749260026|  0,00000000000| 10,55285331566
picFar                    | 10,60348193007| 10,55285331566| 10,55285331566| 10,55285331566| 10,55285331566| 10,55285331566| 10,55285331566| 10,55285331566| 10,55285331566|  0,00000000000
                           |canTro         |canSoj         |canVis         |canFri         |canNer         |canDub         |canAlb         |canMal         |debHan         |picFar         
canTro                    |  0,00000000000|  6,00000000000|  7,00000000000|  9,00000000000|  9,00000000000|  9,00000000000|  9,00000000000|  4,00000000000|  5,00000000000|  3,00000000000
canSoj                    |  6,00000000000|  0,00000000000|  3,00000000000|  5,00000000000|  5,00000000000|  5,00000000000|  5,00000000000|  4,00000000000|  3,00000000000|  5,00000000000
canVis                    |  7,00000000000|  3,00000000000|  0,00000000000|  4,00000000000|  4,00000000000|  4,00000000000|  4,00000000000|  5,00000000000|  4,00000000000|  6,00000000000
canFri                    |  9,00000000000|  5,00000000000|  4,00000000000|  0,00000000000|  2,00000000000|  4,00000000000|  4,00000000000|  7,00000000000|  6,00000000000|  8,00000000000
canNer                    |  9,00000000000|  5,00000000000|  4,00000000000|  2,00000000000|  0,00000000000|  4,00000000000|  4,00000000000|  7,00000000000|  6,00000000000|  8,00000000000
canDub                    |  9,00000000000|  5,00000000000|  4,00000000000|  4,00000000000|  4,00000000000|  0,00000000000|  2,00000000000|  7,00000000000|  6,00000000000|  8,00000000000
canAlb                    |  9,00000000000|  5,00000000000|  4,00000000000|  4,00000000000|  4,00000000000|  2,00000000000|  0,00000000000|  7,00000000000|  6,00000000000|  8,00000000000
canMal                    |  4,00000000000|  4,00000000000|  5,00000000000|  7,00000000000|  7,00000000000|  7,00000000000|  7,00000000000|  0,00000000000|  3,00000000000|  3,00000000000
debHan                    |  5,00000000000|  3,00000000000|  4,00000000000|  6,00000000000|  6,00000000000|  6,00000000000|  6,00000000000|  3,00000000000|  0,00000000000|  4,00000000000
picFar                    |  3,00000000000|  5,00000000000|  6,00000000000|  8,00000000000|  8,00000000000|  8,00000000000|  8,00000000000|  3,00000000000|  4,00000000000|  0,00000000000
