                           |canTro         |canSoj         |canVis         |canFri         |canNer         |canDub         |canAlb         |canMal         |debHan         |picFar         
canTro                    |  0,00000000000|826,14634547034|826,14634547034|826,14634547034|826,14634547034|826,14634547034|826,14634547034|826,42547177460|837,50195681832|851,52825251894
canSoj                    |826,14634547034|  0,00000000000|818,67549059032|818,67549059032|818,67549059032|818,67549059032|818,67549059032|826,42547177460|837,50195681832|851,52825251894
canVis                    |826,14634547034|818,67549059032|  0,00000000000|807,68146250350|807,68146250350|807,68146250350|807,68146250350|826,42547177460|837,50195681832|851,52825251894
canFri                    |826,14634547034|818,67549059032|807,68146250350|  0,00000000000|691,43116476619|805,79562196540|805,79562196540|826,42547177460|837,50195681832|851,52825251894
canNer                    |826,14634547034|818,67549059032|807,68146250350|691,43116476619|  0,00000000000|805,79562196540|805,79562196540|826,42547177460|837,50195681832|851,52825251894
canDub                    |826,14634547034|818,67549059032|807,68146250350|805,79562196540|805,79562196540|  0,00000000000|634,15442412145|826,42547177460|837,50195681832|851,52825251894
canAlb                    |826,14634547034|818,67549059032|807,68146250350|805,79562196540|805,79562196540|634,15442412145|  0,00000000000|826,42547177460|837,50195681832|851,52825251894
canMal                    |826,42547177460|826,42547177460|826,42547177460|826,42547177460|826,42547177460|826,42547177460|826,42547177460|  0,00000000000|837,50195681832|851,52825251894
debHan                    |837,50195681832|837,50195681832|837,50195681832|837,50195681832|837,50195681832|837,50195681832|837,50195681832|837,50195681832|  0,00000000000|851,52825251894
picFar                    |851,52825251894|851,52825251894|851,52825251894|851,52825251894|851,52825251894|851,52825251894|851,52825251894|851,52825251894|851,52825251894|  0,00000000000
                           |canTro         |canSoj         |canVis         |canFri         |canNer         |canDub         |canAlb         |canMal         |debHan         |picFar         
canTro                    |  0,00000000000| 10,11648175995| 10,11648175995| 10,11648175995| 10,11648175995| 10,11648175995| 10,11648175995| 10,12386782850| 10,41696696171| 10,78812216987
canSoj                    | 10,11648175995|  0,00000000000|  9,91879259402|  9,91879259402|  9,91879259402|  9,91879259402|  9,91879259402| 10,12386782850| 10,41696696171| 10,78812216987
canVis                    | 10,11648175995|  9,91879259402|  0,00000000000|  9,62787538607|  9,62787538607|  9,62787538607|  9,62787538607| 10,12386782850| 10,41696696171| 10,78812216987
canFri                    | 10,11648175995|  9,91879259402|  9,62787538607|  0,00000000000|  6,55173152198|  9,57797343388|  9,57797343388| 10,12386782850| 10,41696696171| 10,78812216987
canNer                    | 10,11648175995|  9,91879259402|  9,62787538607|  6,55173152198|  0,00000000000|  9,57797343388|  9,57797343388| 10,12386782850| 10,41696696171| 10,78812216987
canDub                    | 10,11648175995|  9,91879259402|  9,62787538607|  9,57797343388|  9,57797343388|  0,00000000000|  5,03610964643| 10,12386782850| 10,41696696171| 10,78812216987
canAlb                    | 10,11648175995|  9,91879259402|  9,62787538607|  9,57797343388|  9,57797343388|  5,03610964643|  0,00000000000| 10,12386782850| 10,41696696171| 10,78812216987
canMal                    | 10,12386782850| 10,12386782850| 10,12386782850| 10,12386782850| 10,12386782850| 10,12386782850| 10,12386782850|  0,00000000000| 10,41696696171| 10,78812216987
debHan                    | 10,41696696171| 10,41696696171| 10,41696696171| 10,41696696171| 10,41696696171| 10,41696696171| 10,41696696171| 10,41696696171|  0,00000000000| 10,78812216987
picFar                    | 10,78812216987| 10,78812216987| 10,78812216987| 10,78812216987| 10,78812216987| 10,78812216987| 10,78812216987| 10,78812216987| 10,78812216987|  0,00000000000
                           |canTro         |canSoj         |canVis         |canFri         |canNer         |canDub         |canAlb         |canMal         |debHan         |picFar         
canTro                    |  0,00000000000|  3,00000000000|  4,00000000000|  6,00000000000|  6,00000000000|  6,00000000000|  6,00000000000|  3,00000000000|  4,00000000000|  5,00000000000
canSoj                    |  3,00000000000|  0,00000000000|  3,00000000000|  5,00000000000|  5,00000000000|  5,00000000000|  5,00000000000|  4,00000000000|  5,00000000000|  6,00000000000
canVis                    |  4,00000000000|  3,00000000000|  0,00000000000|  4,00000000000|  4,00000000000|  4,00000000000|  4,00000000000|  5,00000000000|  6,00000000000|  7,00000000000
canFri                    |  6,00000000000|  5,00000000000|  4,00000000000|  0,00000000000|  2,00000000000|  4,00000000000|  4,00000000000|  7,00000000000|  8,00000000000|  9,00000000000
canNer                    |  6,00000000000|  5,00000000000|  4,00000000000|  2,00000000000|  0,00000000000|  4,00000000000|  4,00000000000|  7,00000000000|  8,00000000000|  9,00000000000
canDub                    |  6,00000000000|  5,00000000000|  4,00000000000|  4,00000000000|  4,00000000000|  0,00000000000|  2,00000000000|  7,00000000000|  8,00000000000|  9,00000000000
canAlb                    |  6,00000000000|  5,00000000000|  4,00000000000|  4,00000000000|  4,00000000000|  2,00000000000|  0,00000000000|  7,00000000000|  8,00000000000|  9,00000000000
canMal                    |  3,00000000000|  4,00000000000|  5,00000000000|  7,00000000000|  7,00000000000|  7,00000000000|  7,00000000000|  0,00000000000|  3,00000000000|  4,00000000000
debHan                    |  4,00000000000|  5,00000000000|  6,00000000000|  8,00000000000|  8,00000000000|  8,00000000000|  8,00000000000|  3,00000000000|  0,00000000000|  3,00000000000
picFar                    |  5,00000000000|  6,00000000000|  7,00000000000|  9,00000000000|  9,00000000000|  9,00000000000|  9,00000000000|  4,00000000000|  3,00000000000|  0,00000000000
