                           |canTro         |canSoj         |canVis         |canFri         |canNer         |canDub         |canAlb         |canMal         |debHan         |picFar         
canTro                    |  0,00000000000|8857,73884945784|9522,38315085569|9267,42691200533|9267,42691200533|9454,52777028887|9454,52777028887|9594,58628937315|10099,94366636511|10134,61666635726
canSoj                    |8857,73884945784|  0,00000000000|9522,38315085569|9267,42691200533|9267,42691200533|9454,52777028887|9454,52777028887|9594,58628937315|10099,94366636511|10134,61666635726
canVis                    |9522,38315085569|9522,38315085569|  0,00000000000|9522,38315085569|9522,38315085569|9522,38315085569|9522,38315085569|9594,58628937315|10099,94366636511|10134,61666635726
canFri                    |9267,42691200533|9267,42691200533|9522,38315085569|  0,00000000000|7106,32765203583|9454,52777028887|9454,52777028887|9594,58628937315|10099,94366636511|10134,61666635726
canNer                    |9267,42691200533|9267,42691200533|9522,38315085569|7106,32765203583|  0,00000000000|9454,52777028887|9454,52777028887|9594,58628937315|10099,94366636511|10134,61666635726
canDub                    |9454,52777028887|9454,52777028887|9522,38315085569|9454,52777028887|9454,52777028887|  0,00000000000|7106,35097349778|9594,58628937315|10099,94366636511|10134,61666635726
canAlb                    |9454,52777028887|9454,52777028887|9522,38315085569|9454,52777028887|9454,52777028887|7106,35097349778|  0,00000000000|9594,58628937315|10099,94366636511|10134,61666635726
canMal                    |9594,58628937315|9594,58628937315|9594,58628937315|9594,58628937315|9594,58628937315|9594,58628937315|9594,58628937315|  0,00000000000|10099,94366636511|10134,61666635726
debHan                    |10099,94366636511|10099,94366636511|10099,94366636511|10099,94366636511|10099,94366636511|10099,94366636511|10099,94366636511|10099,94366636511|  0,00000000000|10134,61666635726
picFar                    |10134,61666635726|10134,61666635726|10134,61666635726|10134,61666635726|10134,61666635726|10134,61666635726|10134,61666635726|10134,61666635726|10134,61666635726|  0,00000000000
                           |canTro         |canSoj         |canVis         |canFri         |canNer         |canDub         |canAlb         |canMal         |debHan         |picFar         
canTro                    |  0,00000000000|  8,83015732194|  9,87504873048|  9,47423045375|  9,47423045375|  9,76837286788|  9,76837286788|  9,98855973020| 10,78303518173| 10,83754481903
canSoj                    |  8,83015732194|  0,00000000000|  9,87504873048|  9,47423045375|  9,47423045375|  9,76837286788|  9,76837286788|  9,98855973020| 10,78303518173| 10,83754481903
canVis                    |  9,87504873048|  9,87504873048|  0,00000000000|  9,87504873048|  9,87504873048|  9,87504873048|  9,87504873048|  9,98855973020| 10,78303518173| 10,83754481903
canFri                    |  9,47423045375|  9,47423045375|  9,87504873048|  0,00000000000|  6,07675296843|  9,76837286788|  9,76837286788|  9,98855973020| 10,78303518173| 10,83754481903
canNer                    |  9,47423045375|  9,47423045375|  9,87504873048|  6,07675296843|  0,00000000000|  9,76837286788|  9,76837286788|  9,98855973020| 10,78303518173| 10,83754481903
canDub                    |  9,76837286788|  9,76837286788|  9,87504873048|  9,76837286788|  9,76837286788|  0,00000000000|  6,07678963224|  9,98855973020| 10,78303518173| 10,83754481903
canAlb                    |  9,76837286788|  9,76837286788|  9,87504873048|  9,76837286788|  9,76837286788|  6,07678963224|  0,00000000000|  9,98855973020| 10,78303518173| 10,83754481903
canMal                    |  9,98855973020|  9,98855973020|  9,98855973020|  9,98855973020|  9,98855973020|  9,98855973020|  9,98855973020|  0,00000000000| 10,78303518173| 10,83754481903
debHan                    | 10,78303518173| 10,78303518173| 10,78303518173| 10,78303518173| 10,78303518173| 10,78303518173| 10,78303518173| 10,78303518173|  0,00000000000| 10,83754481903
picFar                    | 10,83754481903| 10,83754481903| 10,83754481903| 10,83754481903| 10,83754481903| 10,83754481903| 10,83754481903| 10,83754481903| 10,83754481903|  0,00000000000
                           |canTro         |canSoj         |canVis         |canFri         |canNer         |canDub         |canAlb         |canMal         |debHan         |picFar         
canTro                    |  0,00000000000|  2,00000000000|  5,00000000000|  4,00000000000|  4,00000000000|  5,00000000000|  5,00000000000|  6,00000000000|  7,00000000000|  8,00000000000
canSoj                    |  2,00000000000|  0,00000000000|  5,00000000000|  4,00000000000|  4,00000000000|  5,00000000000|  5,00000000000|  6,00000000000|  7,00000000000|  8,00000000000
canVis                    |  5,00000000000|  5,00000000000|  0,00000000000|  5,00000000000|  5,00000000000|  4,00000000000|  4,00000000000|  3,00000000000|  4,00000000000|  5,00000000000
canFri                    |  4,00000000000|  4,00000000000|  5,00000000000|  0,00000000000|  2,00000000000|  5,00000000000|  5,00000000000|  6,00000000000|  7,00000000000|  8,00000000000
canNer                    |  4,00000000000|  4,00000000000|  5,00000000000|  2,00000000000|  0,00000000000|  5,00000000000|  5,00000000000|  6,00000000000|  7,00000000000|  8,00000000000
canDub                    |  5,00000000000|  5,00000000000|  4,00000000000|  5,00000000000|  5,00000000000|  0,00000000000|  2,00000000000|  5,00000000000|  6,00000000000|  7,00000000000
canAlb                    |  5,00000000000|  5,00000000000|  4,00000000000|  5,00000000000|  5,00000000000|  2,00000000000|  0,00000000000|  5,00000000000|  6,00000000000|  7,00000000000
canMal                    |  6,00000000000|  6,00000000000|  3,00000000000|  6,00000000000|  6,00000000000|  5,00000000000|  5,00000000000|  0,00000000000|  3,00000000000|  4,00000000000
debHan                    |  7,00000000000|  7,00000000000|  4,00000000000|  7,00000000000|  7,00000000000|  6,00000000000|  6,00000000000|  3,00000000000|  0,00000000000|  3,00000000000
picFar                    |  8,00000000000|  8,00000000000|  5,00000000000|  8,00000000000|  8,00000000000|  7,00000000000|  7,00000000000|  4,00000000000|  3,00000000000|  0,00000000000
