                           |canTro         |canSoj         |canVis         |canFri         |canNer         |canDub         |canAlb         |canMal         |debHan         |picFar         
canTro                    |  0,00000000000|9161,73607256113|9824,46269939024|9750,83146401588|9750,83146401588|9812,09854652515|9812,09854652515|10069,52925598964|10563,44244683651|10955,05106610340
canSoj                    |9161,73607256113|  0,00000000000|9824,46269939024|9750,83146401588|9750,83146401588|9812,09854652515|9812,09854652515|10069,52925598964|10563,44244683651|10955,05106610340
canVis                    |9824,46269939024|9824,46269939024|  0,00000000000|9824,46269939024|9824,46269939024|9824,46269939024|9824,46269939024|10069,52925598964|10563,44244683651|10955,05106610340
canFri                    |9750,83146401588|9750,83146401588|9824,46269939024|  0,00000000000|7871,33597792994|9812,09854652515|9812,09854652515|10069,52925598964|10563,44244683651|10955,05106610340
canNer                    |9750,83146401588|9750,83146401588|9824,46269939024|7871,33597792994|  0,00000000000|9812,09854652515|9812,09854652515|10069,52925598964|10563,44244683651|10955,05106610340
canDub                    |9812,09854652515|9812,09854652515|9824,46269939024|9812,09854652515|9812,09854652515|  0,00000000000|7516,86738617228|10069,52925598964|10563,44244683651|10955,05106610340
canAlb                    |9812,09854652515|9812,09854652515|9824,46269939024|9812,09854652515|9812,09854652515|7516,86738617228|  0,00000000000|10069,52925598964|10563,44244683651|10955,05106610340
canMal                    |10069,52925598964|10069,52925598964|10069,52925598964|10069,52925598964|10069,52925598964|10069,52925598964|10069,52925598964|  0,00000000000|10563,44244683651|10955,05106610340
debHan                    |10563,44244683651|10563,44244683651|10563,44244683651|10563,44244683651|10563,44244683651|10563,44244683651|10563,44244683651|10563,44244683651|  0,00000000000|10955,05106610340
picFar                    |10955,05106610340|10955,05106610340|10955,05106610340|10955,05106610340|10955,05106610340|10955,05106610340|10955,05106610340|10955,05106610340|10955,05106610340|  0,00000000000
                           |canTro         |canSoj         |canVis         |canFri         |canNer         |canDub         |canAlb         |canMal         |debHan         |picFar         
canTro                    |  0,00000000000|  8,66832343182|  9,60700649458|  9,50271553849|  9,50271553849|  9,58949396315|  9,58949396315|  9,95411768133| 10,65369414008| 11,20836685618
canSoj                    |  8,66832343182|  0,00000000000|  9,60700649458|  9,50271553849|  9,50271553849|  9,58949396315|  9,58949396315|  9,95411768133| 10,65369414008| 11,20836685618
canVis                    |  9,60700649458|  9,60700649458|  0,00000000000|  9,60700649458|  9,60700649458|  9,60700649458|  9,60700649458|  9,95411768133| 10,65369414008| 11,20836685618
canFri                    |  9,50271553849|  9,50271553849|  9,60700649458|  0,00000000000|  6,84060644569|  9,58949396315|  9,58949396315|  9,95411768133| 10,65369414008| 11,20836685618
canNer                    |  9,50271553849|  9,50271553849|  9,60700649458|  6,84060644569|  0,00000000000|  9,58949396315|  9,58949396315|  9,95411768133| 10,65369414008| 11,20836685618
canDub                    |  9,58949396315|  9,58949396315|  9,60700649458|  9,58949396315|  9,58949396315|  0,00000000000|  6,33853870027|  9,95411768133| 10,65369414008| 11,20836685618
canAlb                    |  9,58949396315|  9,58949396315|  9,60700649458|  9,58949396315|  9,58949396315|  6,33853870027|  0,00000000000|  9,95411768133| 10,65369414008| 11,20836685618
canMal                    |  9,95411768133|  9,95411768133|  9,95411768133|  9,95411768133|  9,95411768133|  9,95411768133|  9,95411768133|  0,00000000000| 10,65369414008| 11,20836685618
debHan                    | 10,65369414008| 10,65369414008| 10,65369414008| 10,65369414008| 10,65369414008| 10,65369414008| 10,65369414008| 10,65369414008|  0,00000000000| 11,20836685618
picFar                    | 11,20836685618| 11,20836685618| 11,20836685618| 11,20836685618| 11,20836685618| 11,20836685618| 11,20836685618| 11,20836685618| 11,20836685618|  0,00000000000
                           |canTro         |canSoj         |canVis         |canFri         |canNer         |canDub         |canAlb         |canMal         |debHan         |picFar         
canTro                    |  0,00000000000|  2,00000000000|  5,00000000000|  4,00000000000|  4,00000000000|  5,00000000000|  5,00000000000|  6,00000000000|  7,00000000000|  8,00000000000
canSoj                    |  2,00000000000|  0,00000000000|  5,00000000000|  4,00000000000|  4,00000000000|  5,00000000000|  5,00000000000|  6,00000000000|  7,00000000000|  8,00000000000
canVis                    |  5,00000000000|  5,00000000000|  0,00000000000|  5,00000000000|  5,00000000000|  4,00000000000|  4,00000000000|  3,00000000000|  4,00000000000|  5,00000000000
canFri                    |  4,00000000000|  4,00000000000|  5,00000000000|  0,00000000000|  2,00000000000|  5,00000000000|  5,00000000000|  6,00000000000|  7,00000000000|  8,00000000000
canNer                    |  4,00000000000|  4,00000000000|  5,00000000000|  2,00000000000|  0,00000000000|  5,00000000000|  5,00000000000|  6,00000000000|  7,00000000000|  8,00000000000
canDub                    |  5,00000000000|  5,00000000000|  4,00000000000|  5,00000000000|  5,00000000000|  0,00000000000|  2,00000000000|  5,00000000000|  6,00000000000|  7,00000000000
canAlb                    |  5,00000000000|  5,00000000000|  4,00000000000|  5,00000000000|  5,00000000000|  2,00000000000|  0,00000000000|  5,00000000000|  6,00000000000|  7,00000000000
canMal                    |  6,00000000000|  6,00000000000|  3,00000000000|  6,00000000000|  6,00000000000|  5,00000000000|  5,00000000000|  0,00000000000|  3,00000000000|  4,00000000000
debHan                    |  7,00000000000|  7,00000000000|  4,00000000000|  7,00000000000|  7,00000000000|  6,00000000000|  6,00000000000|  3,00000000000|  0,00000000000|  3,00000000000
picFar                    |  8,00000000000|  8,00000000000|  5,00000000000|  8,00000000000|  8,00000000000|  7,00000000000|  7,00000000000|  4,00000000000|  3,00000000000|  0,00000000000
