                           |canTro         |canSoj         |canVis         |canFri         |canNer         |canDub         |canAlb         |canMal         |debHan         |picFar         
canTro                    |  0,00000000000|34695,10492139717|35595,47469094866|35913,50360026367|35913,50360026367|35913,50360026367|35913,50360026367|36791,83922595178|39899,26486956156|41969,83761966790
canSoj                    |34695,10492139717|  0,00000000000|35595,47469094866|35913,50360026367|35913,50360026367|35913,50360026367|35913,50360026367|36791,83922595178|39899,26486956156|41969,83761966790
canVis                    |35595,47469094866|35595,47469094866|  0,00000000000|35913,50360026367|35913,50360026367|35913,50360026367|35913,50360026367|36791,83922595178|39899,26486956156|41969,83761966790
canFri                    |35913,50360026367|35913,50360026367|35913,50360026367|  0,00000000000|29104,12894044015|35586,36276530108|35586,36276530108|36791,83922595178|39899,26486956156|41969,83761966790
canNer                    |35913,50360026367|35913,50360026367|35913,50360026367|29104,12894044015|  0,00000000000|35586,36276530108|35586,36276530108|36791,83922595178|39899,26486956156|41969,83761966790
canDub                    |35913,50360026367|35913,50360026367|35913,50360026367|35586,36276530108|35586,36276530108|  0,00000000000|26820,69635280713|36791,83922595178|39899,26486956156|41969,83761966790
canAlb                    |35913,50360026367|35913,50360026367|35913,50360026367|35586,36276530108|35586,36276530108|26820,69635280713|  0,00000000000|36791,83922595178|39899,26486956156|41969,83761966790
canMal                    |36791,83922595178|36791,83922595178|36791,83922595178|36791,83922595178|36791,83922595178|36791,83922595178|36791,83922595178|  0,00000000000|39899,26486956156|41969,83761966790
debHan                    |39899,26486956156|39899,26486956156|39899,26486956156|39899,26486956156|39899,26486956156|39899,26486956156|39899,26486956156|39899,26486956156|  0,00000000000|41969,83761966790
picFar                    |41969,83761966790|41969,83761966790|41969,83761966790|41969,83761966790|41969,83761966790|41969,83761966790|41969,83761966790|41969,83761966790|41969,83761966790|  0,00000000000
                           |canTro         |canSoj         |canVis         |canFri         |canNer         |canDub         |canAlb         |canMal         |debHan         |picFar         
canTro                    |  0,00000000000|  9,12130028754|  9,39878117974|  9,49679307273|  9,49679307273|  9,49679307273|  9,49679307273|  9,76748336168| 10,72514683419| 11,36326729704
canSoj                    |  9,12130028754|  0,00000000000|  9,39878117974|  9,49679307273|  9,49679307273|  9,49679307273|  9,49679307273|  9,76748336168| 10,72514683419| 11,36326729704
canVis                    |  9,39878117974|  9,39878117974|  0,00000000000|  9,49679307273|  9,49679307273|  9,49679307273|  9,49679307273|  9,76748336168| 10,72514683419| 11,36326729704
canFri                    |  9,49679307273|  9,49679307273|  9,49679307273|  0,00000000000|  7,39824265503|  9,39597301654|  9,39597301654|  9,76748336168| 10,72514683419| 11,36326729704
canNer                    |  9,49679307273|  9,49679307273|  9,49679307273|  7,39824265503|  0,00000000000|  9,39597301654|  9,39597301654|  9,76748336168| 10,72514683419| 11,36326729704
canDub                    |  9,49679307273|  9,49679307273|  9,49679307273|  9,39597301654|  9,39597301654|  0,00000000000|  6,69452188036|  9,76748336168| 10,72514683419| 11,36326729704
canAlb                    |  9,49679307273|  9,49679307273|  9,49679307273|  9,39597301654|  9,39597301654|  6,69452188036|  0,00000000000|  9,76748336168| 10,72514683419| 11,36326729704
canMal                    |  9,76748336168|  9,76748336168|  9,76748336168|  9,76748336168|  9,76748336168|  9,76748336168|  9,76748336168|  0,00000000000| 10,72514683419| 11,36326729704
debHan                    | 10,72514683419| 10,72514683419| 10,72514683419| 10,72514683419| 10,72514683419| 10,72514683419| 10,72514683419| 10,72514683419|  0,00000000000| 11,36326729704
picFar                    | 11,36326729704| 11,36326729704| 11,36326729704| 11,36326729704| 11,36326729704| 11,36326729704| 11,36326729704| 11,36326729704| 11,36326729704|  0,00000000000
                           |canTro         |canSoj         |canVis         |canFri         |canNer         |canDub         |canAlb         |canMal         |debHan         |picFar         
canTro                    |  0,00000000000|  2,00000000000|  3,00000000000|  6,00000000000|  6,00000000000|  6,00000000000|  6,00000000000|  5,00000000000|  6,00000000000|  7,00000000000
canSoj                    |  2,00000000000|  0,00000000000|  3,00000000000|  6,00000000000|  6,00000000000|  6,00000000000|  6,00000000000|  5,00000000000|  6,00000000000|  7,00000000000
canVis                    |  3,00000000000|  3,00000000000|  0,00000000000|  5,00000000000|  5,00000000000|  5,00000000000|  5,00000000000|  4,00000000000|  5,00000000000|  6,00000000000
canFri                    |  6,00000000000|  6,00000000000|  5,00000000000|  0,00000000000|  2,00000000000|  4,00000000000|  4,00000000000|  5,00000000000|  6,00000000000|  7,00000000000
canNer                    |  6,00000000000|  6,00000000000|  5,00000000000|  2,00000000000|  0,00000000000|  4,00000000000|  4,00000000000|  5,00000000000|  6,00000000000|  7,00000000000
canDub                    |  6,00000000000|  6,00000000000|  5,00000000000|  4,00000000000|  4,00000000000|  0,00000000000|  2,00000000000|  5,00000000000|  6,00000000000|  7,00000000000
canAlb                    |  6,00000000000|  6,00000000000|  5,00000000000|  4,00000000000|  4,00000000000|  2,00000000000|  0,00000000000|  5,00000000000|  6,00000000000|  7,00000000000
canMal                    |  5,00000000000|  5,00000000000|  4,00000000000|  5,00000000000|  5,00000000000|  5,00000000000|  5,00000000000|  0,00000000000|  3,00000000000|  4,00000000000
debHan                    |  6,00000000000|  6,00000000000|  5,00000000000|  6,00000000000|  6,00000000000|  6,00000000000|  6,00000000000|  3,00000000000|  0,00000000000|  3,00000000000
picFar                    |  7,00000000000|  7,00000000000|  6,00000000000|  7,00000000000|  7,00000000000|  7,00000000000|  7,00000000000|  4,00000000000|  3,00000000000|  0,00000000000
