                           |canTro         |canSoj         |canVis         |canFri         |canNer         |canDub         |canAlb         |canMal         |debHan         |picFar         
canTro                    |  0,00000000000|1493,37847094462|1493,37847094462|1531,90897835646|1282,64712865319|1390,44522391320|1282,64712865319|1493,37847094462|1494,52747016593|1797,90600996611
canSoj                    |1493,37847094462|  0,00000000000|1257,80299143266|1531,90897835646|1493,37847094462|1493,37847094462|1493,37847094462|1236,92480796889|1494,52747016593|1797,90600996611
canVis                    |1493,37847094462|1257,80299143266|  0,00000000000|1531,90897835646|1493,37847094462|1493,37847094462|1493,37847094462|1257,80299143266|1494,52747016593|1797,90600996611
canFri                    |1531,90897835646|1531,90897835646|1531,90897835646|  0,00000000000|1531,90897835646|1531,90897835646|1531,90897835646|1531,90897835646|1531,90897835646|1797,90600996611
canNer                    |1282,64712865319|1493,37847094462|1493,37847094462|1531,90897835646|  0,00000000000|1390,44522391320|1174,07254116190|1493,37847094462|1494,52747016593|1797,90600996611
canDub                    |1390,44522391320|1493,37847094462|1493,37847094462|1531,90897835646|1390,44522391320|  0,00000000000|1390,44522391320|1493,37847094462|1494,52747016593|1797,90600996611
canAlb                    |1282,64712865319|1493,37847094462|1493,37847094462|1531,90897835646|1174,07254116190|1390,44522391320|  0,00000000000|1493,37847094462|1494,52747016593|1797,90600996611
canMal                    |1493,37847094462|1236,92480796889|1257,80299143266|1531,90897835646|1493,37847094462|1493,37847094462|1493,37847094462|  0,00000000000|1494,52747016593|1797,90600996611
debHan                    |1494,52747016593|1494,52747016593|1494,52747016593|1531,90897835646|1494,52747016593|1494,52747016593|1494,52747016593|1494,52747016593|  0,00000000000|1797,90600996611
picFar                    |1797,90600996611|1797,90600996611|1797,90600996611|1797,90600996611|1797,90600996611|1797,90600996611|1797,90600996611|1797,90600996611|1797,90600996611|  0,00000000000
                           |canTro         |canSoj         |canVis         |canFri         |canNer         |canDub         |canAlb         |canMal         |debHan         |picFar         
canTro                    |  0,00000000000|  9,82651358794|  9,82651358794| 10,06154157836|  8,54109672671|  9,19864243276|  8,54109672671|  9,82651358794|  9,83352224150| 11,68406751945
canSoj                    |  9,82651358794|  0,00000000000|  8,38955271556| 10,06154157836|  9,82651358794|  9,82651358794|  9,82651358794|  8,26220018809|  9,83352224150| 11,68406751945
canVis                    |  9,82651358794|  8,38955271556|  0,00000000000| 10,06154157836|  9,82651358794|  9,82651358794|  9,82651358794|  8,38955271556|  9,83352224150| 11,68406751945
canFri                    | 10,06154157836| 10,06154157836| 10,06154157836|  0,00000000000| 10,06154157836| 10,06154157836| 10,06154157836| 10,06154157836| 10,06154157836| 11,68406751945
canNer                    |  8,54109672671|  9,82651358794|  9,82651358794| 10,06154157836|  0,00000000000|  9,19864243276|  7,87881458137|  9,82651358794|  9,83352224150| 11,68406751945
canDub                    |  9,19864243276|  9,82651358794|  9,82651358794| 10,06154157836|  9,19864243276|  0,00000000000|  9,19864243276|  9,82651358794|  9,83352224150| 11,68406751945
canAlb                    |  8,54109672671|  9,82651358794|  9,82651358794| 10,06154157836|  7,87881458137|  9,19864243276|  0,00000000000|  9,82651358794|  9,83352224150| 11,68406751945
canMal                    |  9,82651358794|  8,26220018809|  8,38955271556| 10,06154157836|  9,82651358794|  9,82651358794|  9,82651358794|  0,00000000000|  9,83352224150| 11,68406751945
debHan                    |  9,83352224150|  9,83352224150|  9,83352224150| 10,06154157836|  9,83352224150|  9,83352224150|  9,83352224150|  9,83352224150|  0,00000000000| 11,68406751945
picFar                    | 11,68406751945| 11,68406751945| 11,68406751945| 11,68406751945| 11,68406751945| 11,68406751945| 11,68406751945| 11,68406751945| 11,68406751945|  0,00000000000
                           |canTro         |canSoj         |canVis         |canFri         |canNer         |canDub         |canAlb         |canMal         |debHan         |picFar         
canTro                    |  0,00000000000|  6,00000000000|  5,00000000000|  6,00000000000|  3,00000000000|  3,00000000000|  3,00000000000|  6,00000000000|  5,00000000000|  7,00000000000
canSoj                    |  6,00000000000|  0,00000000000|  3,00000000000|  6,00000000000|  7,00000000000|  5,00000000000|  7,00000000000|  2,00000000000|  5,00000000000|  7,00000000000
canVis                    |  5,00000000000|  3,00000000000|  0,00000000000|  5,00000000000|  6,00000000000|  4,00000000000|  6,00000000000|  3,00000000000|  4,00000000000|  6,00000000000
canFri                    |  6,00000000000|  6,00000000000|  5,00000000000|  0,00000000000|  7,00000000000|  5,00000000000|  7,00000000000|  6,00000000000|  3,00000000000|  3,00000000000
canNer                    |  3,00000000000|  7,00000000000|  6,00000000000|  7,00000000000|  0,00000000000|  4,00000000000|  2,00000000000|  7,00000000000|  6,00000000000|  8,00000000000
canDub                    |  3,00000000000|  5,00000000000|  4,00000000000|  5,00000000000|  4,00000000000|  0,00000000000|  4,00000000000|  5,00000000000|  4,00000000000|  6,00000000000
canAlb                    |  3,00000000000|  7,00000000000|  6,00000000000|  7,00000000000|  2,00000000000|  4,00000000000|  0,00000000000|  7,00000000000|  6,00000000000|  8,00000000000
canMal                    |  6,00000000000|  2,00000000000|  3,00000000000|  6,00000000000|  7,00000000000|  5,00000000000|  7,00000000000|  0,00000000000|  5,00000000000|  7,00000000000
debHan                    |  5,00000000000|  5,00000000000|  4,00000000000|  3,00000000000|  6,00000000000|  4,00000000000|  6,00000000000|  5,00000000000|  0,00000000000|  4,00000000000
picFar                    |  7,00000000000|  7,00000000000|  6,00000000000|  3,00000000000|  8,00000000000|  6,00000000000|  8,00000000000|  7,00000000000|  4,00000000000|  0,00000000000
