<?xml version="1.0" encoding="UTF-8"?>
<svg xmlns="http://www.w3.org/2000/svg" xmlns:xlink="http://www.w3.org/1999/xlink" contentScriptType="text/ecmascript" width="20cm" zoomAndPan="magnify" contentStyleType="text/css" height="15.037593984962406cm" viewBox="0 0 1.33 1.0" preserveAspectRatio="xMidYMid meet" version="1.0">
<defs/>
<style type="text/css" xml:space="preserve">
.axis-label{fill:black;
font-family:'Times New Roman', serif;
font-size:2.0;
}

.key-caption{font-size:0.7000000000000001;
font-family:'Times New Roman', serif;
fill:black;
font-weight:bold;
}

.key-hierarchy{stroke:black;
stroke-width:0.43429448190325176;
stroke-linecap:round;
fill:none;
}

.axis{stroke:black;
stroke-width:0.2;
}

.key-hierarchy_0{stroke:#ed420e;
stroke-width:0.43429448190325176;
stroke-linecap:round;
fill:none;
}

.key-hierarchy_1{stroke:#fdca19;
stroke-width:0.43429448190325176;
stroke-linecap:round;
fill:none;
}

.axis-tick{stroke:grey;
stroke-width:0.2;
}
</style>
<g transform="scale(0.0105055292) translate(13.3 10)">
<line y2="0" x1="0" x2="0" class="axis" y1="75.1879699248"/>
<line y2="75.1879699248" x1="0.7518796992" x2="-0.7518796992" class="axis-tick" y1="75.1879699248"/>
<text x="-1.8796992481" y="75.8879699248" class="axis-label" text-anchor="end">0</text>
<line y2="64.4468313641" x1="0.7518796992" x2="-0.7518796992" class="axis-tick" y1="64.4468313641"/>
<text x="-1.8796992481" y="65.1468313641" class="axis-label" text-anchor="end">1,000</text>
<line y2="53.7056928034" x1="0.7518796992" x2="-0.7518796992" class="axis-tick" y1="53.7056928034"/>
<text x="-1.8796992481" y="54.4056928034" class="axis-label" text-anchor="end">2,000</text>
<line y2="42.9645542427" x1="0.7518796992" x2="-0.7518796992" class="axis-tick" y1="42.9645542427"/>
<text x="-1.8796992481" y="43.6645542427" class="axis-label" text-anchor="end">3,000</text>
<line y2="32.2234156821" x1="0.7518796992" x2="-0.7518796992" class="axis-tick" y1="32.2234156821"/>
<text x="-1.8796992481" y="32.9234156821" class="axis-label" text-anchor="end">4,000</text>
<line y2="21.4822771214" x1="0.7518796992" x2="-0.7518796992" class="axis-tick" y1="21.4822771214"/>
<text x="-1.8796992481" y="22.1822771214" class="axis-label" text-anchor="end">5,000</text>
<line y2="10.7411385607" x1="0.7518796992" x2="-0.7518796992" class="axis-tick" y1="10.7411385607"/>
<text x="-1.8796992481" y="11.4411385607" class="axis-label" text-anchor="end">6,000</text>
<line y2="0" x1="0.7518796992" x2="-0.7518796992" class="axis-tick" y1="0"/>
<text x="-1.8796992481" y="0.7" class="axis-label" text-anchor="end">7,000</text>
<path class="key-hierarchy_0" d="M72.2222222222 75.1879699248 V55.1279062373 H83.3333333333 V75.1879699248 M5.5555555556 75.1879699248 V50.0293475204 H16.6666666667 V75.1879699248 M61.1111111111 75.1879699248 V46.9558450128 H77.7777777778 V55.1279062373 M69.4444444444 46.9558450128 V46.8229027026 H94.4444444444 V75.1879699248 M27.7777777778 75.1879699248 V39.812362964 H38.8888888889 V75.1879699248 M50 75.1879699248 V38.9439920137 H81.9444444444 V46.8229027026 M33.3333333333 39.812362964 V38.1554077084 H65.9722222222 V38.9439920137 M11.1111111111 50.0293475204 V5.7103591843 H49.6527777778 V38.1554077084 M30.3819444444 5.7103591843 "/>
</g>
</svg>
