                            Human          Pig_Chim       Com_Chim       Gibbon         Baboon         Ver_Monkey     Macaca_Thibet  Bor_Oran       Sum_Oran       Gorilla        Cat            Dog            Pig            Sheep          Goat           Cow            Buffalo        Wolf           Tiger          Leopard        Indian_Rhino   White_Rhino    Black_Bear     Brown_Bear     Polar_Bear     Giant_Panda    Rabbit         Hedgehog       Dormouse       Squirrel       Blue_Whale     
Human                       0,00000000000  6,90685015893  7,03341676050  8,34970721523  9,15973213273  9,26098545262  9,13441856136  8,22314061366  8,19782762166  7,36248942246 10,19757697169 10,90634837619 10,55196262566 10,50133644853 10,52664934397 10,52664934397 10,90634885900 11,00760150294 10,32414328358 10,29882961564 10,24820314882 10,12163683693 10,93166194756 10,77978235399 10,67852961348 11,08354154114 10,60258976841 11,89356645864 10,88103548075 10,60258918904 10,80509573224
Pig_Chim                    6,90685015893  0,00000000000  5,38805325755  8,02063464983  9,53943155120  9,81787726354  9,61537139627  8,88128622727  8,80534667189  6,75497066191 10,32414338014 10,75446868605 10,02038390330  9,86850411660 10,37476975039 10,40008274239 10,40008312864 10,80509544255 10,62790276041 10,62790285698 10,32414347670  9,81787745666 10,77978216086 10,93166223725 10,85572210249 10,90634866587 10,47602326340 11,26073470609 10,42539641033 10,88103528762 10,24820363163
Com_Chim                    7,03341676050  5,38805325755  0,00000000000  8,09657410865  9,69131133790  9,74193761159  9,74193780472  9,08379228766  8,88128584102  6,98278932806 10,60258947872 10,85572210249 10,34945646870  9,94444425136 10,67852951692 10,62790266385 10,50133596572 11,03291478463 10,83040872424 10,83040891737 10,34945656527  9,86850382691 10,85572181281 10,93166156131 10,88103528762 10,90634876244 10,67852874442 11,48855414473 10,60258918904 11,03291497776 10,60258928560
Gibbon                      8,34970721523  8,02063464983  8,09657410865  0,00000000000  9,36223886906  9,51411817295  9,64068467796  8,67877987719  8,60283993556  8,04594802808 10,14695011862 10,50133596572  9,66599786309  9,69131104821 10,27351691332 10,17226349688 10,27351662363 10,80509563568 10,52664973022 10,55196262566  9,89381749485  9,66599795965 10,55196291534 10,75446878261 10,70384250892 11,08354183082 10,55196301191 11,23542132784 10,12163664381 10,93166204413 10,37476984696
Baboon                      9,15973213273  9,53943155120  9,69131133790  9,36223886906  0,00000000000  9,33692539425  9,08379248079  9,61537129971  9,51411817295  9,05847919910 10,95697493956 10,67852884098 10,12163712662 10,07101027356 10,42539660346 10,37477004008 10,47602258746 10,95697503613 10,85572239218 10,72915598373 10,32414309045 10,19757658544 11,10885520908 11,10885520908 11,13416839420 11,31136136603 10,88103509450 11,84294008839 10,70384270204 10,72915598373  9,76725079672
Ver_Monkey                  9,26098545262  9,81787726354  9,74193761159  9,51411817295  9,33692539425  0,00000000000  9,08379238423  9,38755186106  9,15973203617  9,43817784507 10,47602278059 10,55196262566 10,22289034994 10,37476984696 10,65321594554 10,09632365181 10,34945637214 10,80509544255 10,75446907230 10,50133606228 10,32414289733 10,07101017699 10,62790266385 10,93166194756 11,05822845257 10,83040891737 10,83040843455 11,86825288726 10,75446878261 10,93166194756 10,55196301191
Macaca_Thibet               9,13441856136  9,61537139627  9,74193780472  9,64068467796  9,08379248079  9,08379238423  0,00000000000  9,28629902399  9,64068467796  9,33692471831 10,32414338014 11,15948119308  9,79256494747 10,07101027356 10,02038399986  9,91913048686 10,04569747468 11,08354125145 10,42539631377 10,57727619703  9,94444386511  9,76725079672 11,00760179263 10,98228841438 11,03291468807 10,95697571206 10,65321604210 11,79231333188 10,93166175444 11,05822796976  9,38755186106
Bor_Oran                    8,22314061366  8,88128622727  9,08379228766  8,67877987719  9,61537129971  9,38755186106  9,28629902399  0,00000000000  6,60309097178  8,52689989737 10,02038428955 10,65321536617  9,61537149283  9,81787793947  9,94444396167  9,99507013880 10,14695021519 10,85572171624 10,09632355525 10,09632345868  9,96975733992  9,61537110658 10,85572210249 10,98228812469 11,00760121326 10,83040920705  9,99507062161 11,48855395161 10,80509534599 11,03291526745  9,66599786309
Sum_Oran                    8,19782762166  8,80534667189  8,88128584102  8,60283993556  9,51411817295  9,15973203617  9,64068467796  6,60309097178  0,00000000000  8,90659941240 10,27351700988 10,65321555929 10,02038390330 10,14695011862 10,17226426938 10,57727590735 10,45070998171 10,67852922723 10,19757745450 10,22289025338  9,96975724336  9,69131124134 10,80509524943 10,67852893754 10,77978245055 11,00760179263 10,42539631377 11,76699985707 10,70384289517 11,33667464772  9,81787764979
Gorilla                     7,36248942246  6,75497066191  6,98278932806  8,04594802808  9,05847919910  9,43817784507  9,33692471831  8,52689989737  8,90659941240  0,00000000000 10,03219680672 10,81522067798  9,76218877769  9,65418554548 10,54521275196  9,97819534511 10,19420180953 10,92322380719 10,51821202115 10,05919743452  9,81619023930  9,57318201408 10,70721785777 10,57221337976 10,65321577817 10,86922244858 10,19420180953 11,43623995843 10,46421004455 10,92322421919 10,27520451693
Cat                        10,19757697169 10,32414338014 10,60258947872 10,14695011862 10,95697493956 10,47602278059 10,32414338014 10,02038428955 10,27351700988 10,03219680672  0,00000000000  9,21035821330  9,13441914073 10,12163693350  9,86850430973  9,48880460157  9,48880498782  9,18504541442  8,42564734999  8,04594783496  9,33692520112  8,62815350694  9,81787745666 10,32414299389 10,32414299389 10,04569747468  9,86850479254 11,00760179263 10,93166165788 10,83040872424 10,47602307028
Dog                        10,90634837619 10,75446868605 10,85572210249 10,50133596572 10,67852884098 10,55196262566 11,15948119308 10,65321536617 10,65321555929 10,81522067798  9,21035821330  0,00000000000  9,76725156922  9,03316562772  9,51411836607  9,74193751503  9,71662452303  5,36273968618  9,41286543244  9,56474473633  9,26098583887  9,26098525949  9,56474444664  9,48880508438  9,46349122332  8,93191298378 10,32414347670 10,95697532581 10,60258947872 10,77978187118  9,53943126151
Pig                        10,55196262566 10,02038390330 10,34945646870  9,66599786309 10,12163712662 10,22289034994  9,79256494747  9,61537149283 10,02038390330  9,76218877769  9,13441914073  9,76725156922  0,00000000000  8,85597313871  9,56474492945  9,36223867594  9,64068458140  9,61537091346  9,64068496765  9,74193838409  9,18504551098  9,13441875448 10,07101008043 10,19757648888 10,14695031175 10,32414328358 10,12163722318 11,28604798778  9,79256446466 10,22288996369  9,21035888924
Sheep                      10,50133644853  9,86850411660  9,94444425136  9,69131104821 10,07101027356 10,37476984696 10,07101027356  9,81787793947 10,14695011862  9,65418554548 10,12163693350  9,03316562772  8,85597313871  0,00000000000  6,98279029368  7,89406804826  7,86875505625  8,80534599595  9,36223906219  9,23567265374  8,60284012869  8,42564744655  9,15973174648  8,98253925747  8,98253964372  9,56474502602  9,53943174433 10,47602258746  9,81787793947 10,07101046668  8,88128690321
Goat                       10,52664934397 10,37476975039 10,67852951692 10,27351691332 10,42539660346 10,65321594554 10,02038399986  9,94444396167 10,17226426938 10,54521275196  9,86850430973  9,51411836607  9,56474492945  6,98279029368  0,00000000000  8,34970702210  8,32439393354  9,53943155120  9,28629883087  9,13441894761  8,95722607234  8,95722607234  9,15973242242  9,28629844462  9,18504551098  9,74193799784  9,96975695367 10,90634866587 10,37476946071 10,09632403806  9,26098583887
Cow                        10,52664934397 10,40008274239 10,62790266385 10,17226349688 10,37477004008 10,09632365181  9,91913048686  9,99507013880 10,57727590735  9,97819534511  9,48880460157  9,74193751503  9,36223867594  7,89406804826  8,34970702210  0,00000000000  7,17010873269  9,24917252345  9,27617315125  9,49218002767  8,62815324300  8,43914750939  9,95119379031  9,68118586429  9,65418492748  9,38417689846  9,24917283245  9,89719232870 10,38320764614 10,30220504174  9,19517106185
Buffalo                    10,90634885900 10,40008312864 10,50133596572 10,27351662363 10,47602258746 10,34945637214 10,04569747468 10,14695021519 10,45070998171 10,19420180953  9,48880498782  9,71662452303  9,64068458140  7,86875505625  8,32439393354  7,17010873269  0,00000000000  9,84319076410  9,27617356325  8,92516262083  9,03316585303  9,11416804544  9,30317388206  9,54618148928  9,57318263208  9,81619003330  9,97819544811 11,32823652022 10,30220483574 10,32920566954  8,76315772101
Wolf                       11,00760150294 10,80509544255 11,03291478463 10,80509563568 10,95697503613 10,80509544255 11,08354125145 10,85572171624 10,67852922723 10,92322380719  9,18504541442  5,36273968618  9,61537091346  8,80534599595  9,53943155120  9,24917252345  9,84319076410  0,00000000000  9,64068516077  9,71662413678  9,38755205419  9,43817832788  9,69131066196  9,56474435008  9,59005772833  9,21035888924 10,42539621721 11,03291507432 10,77978225743 10,77978196774  9,66599786309
Tiger                      10,32414328358 10,62790276041 10,83040872424 10,52664973022 10,85572239218 10,75446907230 10,42539631377 10,09632355525 10,19757745450 10,51821202115  8,42564734999  9,41286543244  9,64068496765  9,36223906219  9,28629883087  9,27617315125  9,27617356325  9,64068516077  0,00000000000  6,98279039025  8,90659931584  9,03316582085  9,84319064179  9,81787774635  9,71662432990  9,64068448483  9,89381749485 11,00760198576 11,51386732986 10,80509553911  9,71662442646
Leopard                    10,29882961564 10,62790285698 10,83040891737 10,55196262566 10,72915598373 10,50133606228 10,57727619703 10,09632345868 10,22289025338 10,05919743452  8,04594783496  9,56474473633  9,74193838409  9,23567265374  9,13441894761  9,49218002767  8,92516262083  9,71662413678  6,98279039025  0,00000000000  9,48880508438  9,74193761159  9,91913019717  9,99507033192  9,94444347886  9,33692500800  9,94444386511 11,26073422328 11,26073480265 10,57727619703 10,07101065981
Indian_Rhino               10,24820314882 10,32414347670 10,34945656527  9,89381749485 10,32414309045 10,32414289733  9,94444386511  9,96975733992  9,96975724336  9,81619023930  9,33692520112  9,26098583887  9,18504551098  8,60284012869  8,95722607234  8,62815324300  9,03316585303  9,38755205419  8,90659931584  9,48880508438  0,00000000000  7,03341666394  9,53943145464  9,59005830770  9,56474502602  9,64068438827 10,02038419299 11,00760208232 10,50133615884 10,22289034994  8,93191259753
White_Rhino                10,12163683693  9,81787745666  9,86850382691  9,66599795965 10,19757658544 10,07101017699  9,76725079672  9,61537110658  9,69131124134  9,57318201408  8,62815350694  9,26098525949  9,13441875448  8,42564744655  8,95722607234  8,43914750939  9,11416804544  9,43817832788  9,03316582085  9,74193761159  7,03341666394  0,00000000000  9,36223838625  9,41286494963  9,46349170613  9,61537178252  9,99507071817 11,23542113471 10,14695060144 10,47602307028  9,28629863774
Black_Bear                 10,93166194756 10,77978216086 10,85572181281 10,55196291534 11,10885520908 10,62790266385 11,00760179263 10,85572210249 10,80509524943 10,70721785777  9,81787745666  9,56474444664 10,07101008043  9,15973174648  9,15973242242  9,95119379031  9,30317388206  9,69131066196  9,84319064179  9,91913019717  9,53943145464  9,36223838625  0,00000000000  6,37527172626  6,52715122327  8,85597255933 10,88103557731 12,12138618697 11,43792738823 11,58980736805 10,02038390330
Brown_Bear                 10,77978235399 10,93166223725 10,93166156131 10,75446878261 11,10885520908 10,93166194756 10,98228841438 10,98228812469 10,67852893754 10,57221337976 10,32414299389  9,48880508438 10,19757648888  8,98253925747  9,28629844462  9,68118586429  9,54618148928  9,56474435008  9,81787774635  9,99507033192  9,59005830770  9,41286494963  6,37527172626  0,00000000000  5,41336634612  9,15973271211 10,65321613867 11,64043364174 11,21010823927 10,70384221923 10,47602258746
Polar_Bear                 10,67852961348 10,85572210249 10,88103528762 10,70384250892 11,13416839420 11,05822845257 11,03291468807 11,00760121326 10,77978245055 10,65321577817 10,32414299389  9,46349122332 10,14695031175  8,98253964372  9,18504551098  9,65418492748  9,57318263208  9,59005772833  9,71662432990  9,94444347886  9,56474502602  9,46349170613  6,52715122327  5,41336634612  0,00000000000  9,10910566592 10,57727619703 11,61512103599 11,23542132784 10,60258909247 10,22289044651
Giant_Panda                11,08354154114 10,90634866587 10,90634876244 11,08354183082 11,31136136603 10,83040891737 10,95697571206 10,83040920705 11,00760179263 10,86922244858 10,04569747468  8,93191298378 10,32414328358  9,56474502602  9,74193799784  9,38417689846  9,81619003330  9,21035888924  9,64068448483  9,33692500800  9,64068438827  9,61537178252  8,85597255933  9,15973271211  9,10910566592  0,00000000000 10,22288996369 11,21010775646 11,61512064974 10,77978216086  9,94444396167
Rabbit                     10,60258976841 10,47602326340 10,67852874442 10,55196301191 10,88103509450 10,83040843455 10,65321604210  9,99507062161 10,42539631377 10,19420180953  9,86850479254 10,32414347670 10,12163722318  9,53943174433  9,96975695367  9,24917283245  9,97819544811 10,42539621721  9,89381749485  9,94444386511 10,02038419299  9,99507071817 10,88103557731 10,65321613867 10,57727619703 10,22288996369  0,00000000000 11,26073431984 10,70384231579 10,83040872424 10,12163722318
Hedgehog                   11,89356645864 11,26073470609 11,48855414473 11,23542132784 11,84294008839 11,86825288726 11,79231333188 11,48855395161 11,76699985707 11,43623995843 11,00760179263 10,95697532581 11,28604798778 10,47602258746 10,90634866587  9,89719232870 11,32823652022 11,03291507432 11,00760198576 11,26073422328 11,00760208232 11,23542113471 12,12138618697 11,64043364174 11,61512103599 11,21010775646 11,26073431984  0,00000000000 11,53471372088 11,24882244857 11,05822841849
Dormouse                   10,88103548075 10,42539641033 10,60258918904 10,12163664381 10,70384270204 10,75446878261 10,93166175444 10,80509534599 10,70384289517 10,46421004455 10,93166165788 10,60258947872  9,79256446466  9,81787793947 10,37476946071 10,38320764614 10,30220483574 10,77978225743 11,51386732986 11,26073480265 10,50133615884 10,14695060144 11,43792738823 11,21010823927 11,23542132784 11,61512064974 10,70384231579 11,53471372088  0,00000000000 10,57727619703 10,57727590735
Squirrel                   10,60258918904 10,88103528762 11,03291497776 10,93166204413 10,72915598373 10,93166194756 11,05822796976 11,03291526745 11,33667464772 10,92322421919 10,83040872424 10,77978187118 10,22288996369 10,07101046668 10,09632403806 10,30220504174 10,32920566954 10,77978196774 10,80509553911 10,57727619703 10,22289034994 10,47602307028 11,58980736805 10,70384221923 10,60258909247 10,77978216086 10,83040872424 11,24882244857 10,57727619703  0,00000000000 10,27351691332
Blue_Whale                 10,80509573224 10,24820363163 10,60258928560 10,37476984696  9,76725079672 10,55196301191  9,38755186106  9,66599786309  9,81787764979 10,27520451693 10,47602307028  9,53943126151  9,21035888924  8,88128690321  9,26098583887  9,19517106185  8,76315772101  9,66599786309  9,71662442646 10,07101065981  8,93191259753  9,28629863774 10,02038390330 10,47602258746 10,22289044651  9,94444396167 10,12163722318 11,05822841849 10,57727590735 10,27351691332  0,00000000000
