                           |aspNig         |debHan         |canMal         |canAlb         |canDub         |canSoj         |canTro         |canPar         |sacPas         |sacCer         
aspNig                    |  0,00000000000|  0,03427202332|  0,03427202332|  0,04595393793|  0,03903488170|  0,40207177429|  0,13267737838|  0,17852227546|  0,02649700918|  0,09776742125
debHan                    |  0,03427202332|  0,00000000000|  0,00711116516|  0,04595393793|  0,03903488170|  0,40207177429|  0,13267737838|  0,17852227546|  0,03427202332|  0,09776742125
canMal                    |  0,03427202332|  0,00711116516|  0,00000000000|  0,04595393793|  0,03903488170|  0,40207177429|  0,13267737838|  0,17852227546|  0,03427202332|  0,09776742125
canAlb                    |  0,04595393793|  0,04595393793|  0,04595393793|  0,00000000000|  0,04595393793|  0,40207177429|  0,13267737838|  0,17852227546|  0,04595393793|  0,09776742125
canDub                    |  0,03903488170|  0,03903488170|  0,03903488170|  0,04595393793|  0,00000000000|  0,40207177429|  0,13267737838|  0,17852227546|  0,03903488170|  0,09776742125
canSoj                    |  0,40207177429|  0,40207177429|  0,40207177429|  0,40207177429|  0,40207177429|  0,00000000000|  0,40207177429|  0,40207177429|  0,40207177429|  0,40207177429
canTro                    |  0,13267737838|  0,13267737838|  0,13267737838|  0,13267737838|  0,13267737838|  0,40207177429|  0,00000000000|  0,17852227546|  0,13267737838|  0,13267737838
canPar                    |  0,17852227546|  0,17852227546|  0,17852227546|  0,17852227546|  0,17852227546|  0,40207177429|  0,17852227546|  0,00000000000|  0,17852227546|  0,17852227546
sacPas                    |  0,02649700918|  0,03427202332|  0,03427202332|  0,04595393793|  0,03903488170|  0,40207177429|  0,13267737838|  0,17852227546|  0,00000000000|  0,09776742125
sacCer                    |  0,09776742125|  0,09776742125|  0,09776742125|  0,09776742125|  0,09776742125|  0,40207177429|  0,13267737838|  0,17852227546|  0,09776742125|  0,00000000000
                           |aspNig         |debHan         |canMal         |canAlb         |canDub         |canSoj         |canTro         |canPar         |sacPas         |sacCer         
aspNig                    |  0,00000000000|  9,06259948535|  9,06259948535|  9,15096591606|  9,09862755170| 11,84477623430|  9,80697489640| 10,15376307767|  9,00378633089|  9,54290274635
debHan                    |  9,06259948535|  0,00000000000|  8,85714445755|  9,15096591606|  9,09862755170| 11,84477623430|  9,80697489640| 10,15376307767|  9,06259948535|  9,54290274635
canMal                    |  9,06259948535|  8,85714445755|  0,00000000000|  9,15096591606|  9,09862755170| 11,84477623430|  9,80697489640| 10,15376307767|  9,06259948535|  9,54290274635
canAlb                    |  9,15096591606|  9,15096591606|  9,15096591606|  0,00000000000|  9,15096591606| 11,84477623430|  9,80697489640| 10,15376307767|  9,15096591606|  9,54290274635
canDub                    |  9,09862755170|  9,09862755170|  9,09862755170|  9,15096591606|  0,00000000000| 11,84477623430|  9,80697489640| 10,15376307767|  9,09862755170|  9,54290274635
canSoj                    | 11,84477623430| 11,84477623430| 11,84477623430| 11,84477623430| 11,84477623430|  0,00000000000| 11,84477623430| 11,84477623430| 11,84477623430| 11,84477623430
canTro                    |  9,80697489640|  9,80697489640|  9,80697489640|  9,80697489640|  9,80697489640| 11,84477623430|  0,00000000000| 10,15376307767|  9,80697489640|  9,80697489640
canPar                    | 10,15376307767| 10,15376307767| 10,15376307767| 10,15376307767| 10,15376307767| 11,84477623430| 10,15376307767|  0,00000000000| 10,15376307767| 10,15376307767
sacPas                    |  9,00378633089|  9,06259948535|  9,06259948535|  9,15096591606|  9,09862755170| 11,84477623430|  9,80697489640| 10,15376307767|  0,00000000000|  9,54290274635
sacCer                    |  9,54290274635|  9,54290274635|  9,54290274635|  9,54290274635|  9,54290274635| 11,84477623430|  9,80697489640| 10,15376307767|  9,54290274635|  0,00000000000
                           |aspNig         |debHan         |canMal         |canAlb         |canDub         |canSoj         |canTro         |canPar         |sacPas         |sacCer         
aspNig                    |  0,00000000000|  4,00000000000|  4,00000000000|  5,00000000000|  4,00000000000|  9,00000000000|  7,00000000000|  8,00000000000|  2,00000000000|  6,00000000000
debHan                    |  4,00000000000|  0,00000000000|  2,00000000000|  5,00000000000|  4,00000000000|  9,00000000000|  7,00000000000|  8,00000000000|  4,00000000000|  6,00000000000
canMal                    |  4,00000000000|  2,00000000000|  0,00000000000|  5,00000000000|  4,00000000000|  9,00000000000|  7,00000000000|  8,00000000000|  4,00000000000|  6,00000000000
canAlb                    |  5,00000000000|  5,00000000000|  5,00000000000|  0,00000000000|  3,00000000000|  6,00000000000|  4,00000000000|  5,00000000000|  5,00000000000|  3,00000000000
canDub                    |  4,00000000000|  4,00000000000|  4,00000000000|  3,00000000000|  0,00000000000|  7,00000000000|  5,00000000000|  6,00000000000|  4,00000000000|  4,00000000000
canSoj                    |  9,00000000000|  9,00000000000|  9,00000000000|  6,00000000000|  7,00000000000|  0,00000000000|  4,00000000000|  3,00000000000|  9,00000000000|  5,00000000000
canTro                    |  7,00000000000|  7,00000000000|  7,00000000000|  4,00000000000|  5,00000000000|  4,00000000000|  0,00000000000|  3,00000000000|  7,00000000000|  3,00000000000
canPar                    |  8,00000000000|  8,00000000000|  8,00000000000|  5,00000000000|  6,00000000000|  3,00000000000|  3,00000000000|  0,00000000000|  8,00000000000|  4,00000000000
sacPas                    |  2,00000000000|  4,00000000000|  4,00000000000|  5,00000000000|  4,00000000000|  9,00000000000|  7,00000000000|  8,00000000000|  0,00000000000|  6,00000000000
sacCer                    |  6,00000000000|  6,00000000000|  6,00000000000|  3,00000000000|  4,00000000000|  5,00000000000|  3,00000000000|  4,00000000000|  6,00000000000|  0,00000000000
