                           |aspNig         |debHan         |canMal         |canAlb         |canDub         |canSoj         |canTro         |canPar         |sacPas         |sacCer         
aspNig                    |  0,00000000000|  0,48818320475|  0,22703794479|  0,22703794479|  0,22703794479|  0,22703794479|  0,64068121554|  0,48818320475|  0,48818320475|  0,22703794479
debHan                    |  0,48818320475|  0,00000000000|  0,48818320475|  0,48818320475|  0,48818320475|  0,48818320475|  0,64068121554|  0,40996141613|  0,40996141613|  0,48818320475
canMal                    |  0,22703794479|  0,48818320475|  0,00000000000|  0,05647659422|  0,21429186305|  0,09265761456|  0,64068121554|  0,48818320475|  0,48818320475|  0,21429186305
canAlb                    |  0,22703794479|  0,48818320475|  0,05647659422|  0,00000000000|  0,21429186305|  0,09265761456|  0,64068121554|  0,48818320475|  0,48818320475|  0,21429186305
canDub                    |  0,22703794479|  0,48818320475|  0,21429186305|  0,21429186305|  0,00000000000|  0,21429186305|  0,64068121554|  0,48818320475|  0,48818320475|  0,06198212547
canSoj                    |  0,22703794479|  0,48818320475|  0,09265761456|  0,09265761456|  0,21429186305|  0,00000000000|  0,64068121554|  0,48818320475|  0,48818320475|  0,21429186305
canTro                    |  0,64068121554|  0,64068121554|  0,64068121554|  0,64068121554|  0,64068121554|  0,64068121554|  0,00000000000|  0,64068121554|  0,64068121554|  0,64068121554
canPar                    |  0,48818320475|  0,40996141613|  0,48818320475|  0,48818320475|  0,48818320475|  0,48818320475|  0,64068121554|  0,00000000000|  0,07573361380|  0,48818320475
sacPas                    |  0,48818320475|  0,40996141613|  0,48818320475|  0,48818320475|  0,48818320475|  0,48818320475|  0,64068121554|  0,07573361380|  0,00000000000|  0,48818320475
sacCer                    |  0,22703794479|  0,48818320475|  0,21429186305|  0,21429186305|  0,06198212547|  0,21429186305|  0,64068121554|  0,48818320475|  0,48818320475|  0,00000000000
                           |aspNig         |debHan         |canMal         |canAlb         |canDub         |canSoj         |canTro         |canPar         |sacPas         |sacCer         
aspNig                    |  0,00000000000| 10,45526346527|  9,04529538855|  9,04529538855|  9,04529538855|  9,04529538855| 11,27862639753| 10,45526346527| 10,45526346527|  9,04529538855
debHan                    | 10,45526346527|  0,00000000000| 10,45526346527| 10,45526346527| 10,45526346527| 10,45526346527| 11,27862639753| 10,03293060397| 10,03293060397| 10,45526346527
canMal                    |  9,04529538855| 10,45526346527|  0,00000000000|  8,12440538477|  8,97647710574|  8,31975292303| 11,27862639753| 10,45526346527| 10,45526346527|  8,97647710574
canAlb                    |  9,04529538855| 10,45526346527|  8,12440538477|  0,00000000000|  8,97647710574|  8,31975292303| 11,27862639753| 10,45526346527| 10,45526346527|  8,97647710574
canDub                    |  9,04529538855| 10,45526346527|  8,97647710574|  8,97647710574|  0,00000000000|  8,97647710574| 11,27862639753| 10,45526346527| 10,45526346527|  8,15413069288
canSoj                    |  9,04529538855| 10,45526346527|  8,31975292303|  8,31975292303|  8,97647710574|  0,00000000000| 11,27862639753| 10,45526346527| 10,45526346527|  8,97647710574
canTro                    | 11,27862639753| 11,27862639753| 11,27862639753| 11,27862639753| 11,27862639753| 11,27862639753|  0,00000000000| 11,27862639753| 11,27862639753| 11,27862639753
canPar                    | 10,45526346527| 10,03293060397| 10,45526346527| 10,45526346527| 10,45526346527| 10,45526346527| 11,27862639753|  0,00000000000|  8,22837733844| 10,45526346527
sacPas                    | 10,45526346527| 10,03293060397| 10,45526346527| 10,45526346527| 10,45526346527| 10,45526346527| 11,27862639753|  8,22837733844|  0,00000000000| 10,45526346527
sacCer                    |  9,04529538855| 10,45526346527|  8,97647710574|  8,97647710574|  8,15413069288|  8,97647710574| 11,27862639753| 10,45526346527| 10,45526346527|  0,00000000000
                           |aspNig         |debHan         |canMal         |canAlb         |canDub         |canSoj         |canTro         |canPar         |sacPas         |sacCer         
aspNig                    |  0,00000000000|  4,00000000000|  5,00000000000|  5,00000000000|  4,00000000000|  4,00000000000|  4,00000000000|  5,00000000000|  5,00000000000|  4,00000000000
debHan                    |  4,00000000000|  0,00000000000|  7,00000000000|  7,00000000000|  6,00000000000|  6,00000000000|  4,00000000000|  3,00000000000|  3,00000000000|  6,00000000000
canMal                    |  5,00000000000|  7,00000000000|  0,00000000000|  2,00000000000|  5,00000000000|  3,00000000000|  7,00000000000|  8,00000000000|  8,00000000000|  5,00000000000
canAlb                    |  5,00000000000|  7,00000000000|  2,00000000000|  0,00000000000|  5,00000000000|  3,00000000000|  7,00000000000|  8,00000000000|  8,00000000000|  5,00000000000
canDub                    |  4,00000000000|  6,00000000000|  5,00000000000|  5,00000000000|  0,00000000000|  4,00000000000|  6,00000000000|  7,00000000000|  7,00000000000|  2,00000000000
canSoj                    |  4,00000000000|  6,00000000000|  3,00000000000|  3,00000000000|  4,00000000000|  0,00000000000|  6,00000000000|  7,00000000000|  7,00000000000|  4,00000000000
canTro                    |  4,00000000000|  4,00000000000|  7,00000000000|  7,00000000000|  6,00000000000|  6,00000000000|  0,00000000000|  5,00000000000|  5,00000000000|  6,00000000000
canPar                    |  5,00000000000|  3,00000000000|  8,00000000000|  8,00000000000|  7,00000000000|  7,00000000000|  5,00000000000|  0,00000000000|  2,00000000000|  7,00000000000
sacPas                    |  5,00000000000|  3,00000000000|  8,00000000000|  8,00000000000|  7,00000000000|  7,00000000000|  5,00000000000|  2,00000000000|  0,00000000000|  7,00000000000
sacCer                    |  4,00000000000|  6,00000000000|  5,00000000000|  5,00000000000|  2,00000000000|  4,00000000000|  6,00000000000|  7,00000000000|  7,00000000000|  0,00000000000
