                           |Human          |Pig_Chim       |Com_Chim       |Gibbon         |Baboon         |Ver_Monkey     |Macaca_Thibet  |Bor_Oran       |Sum_Oran       |Gorilla        |Cat            |Dog            |Pig            |Sheep          |Goat           |Cow            |Buffalo        |Wolf           |Tiger          |Leopard        |Indian_Rhino   |White_Rhino    |Black_Bear     |Brown_Bear     |Polar_Bear     |Giant_Panda    |Rabbit         |Hedgehog       |Dormouse       |Squirrel       |Blue_Whale     
Human                     |  0,00000000000|  7,83509444143|  7,81536871851|  8,53213640789|  8,93358654976|  8,94689589452|  8,88130178040|  8,56786471986|  8,49251277598|  8,05945636692| 10,36249689643| 10,18896956530|  9,95390384697|  9,98617370909|  9,86702302156|  9,77910813945|  9,78193097466| 10,20725518337| 10,42509187016| 10,47072837905|  9,60945390562|  9,37816370921| 10,36795037355| 11,64732985118| 11,68127777421| 11,07087135973|  9,79897643567| 12,58443229648| 11,02631171739| 10,62014933274|  9,45919407180
Pig_Chim                  |  7,83509444143|  0,00000000000|  6,86952633016|  8,61057371881|  8,90446687969|  8,84614493417|  8,88727535039|  8,58606738528|  8,63076088917|  7,94511346069| 10,23483185510|  9,95977314642|  9,77317517087|  9,85019852526|  9,68004020978|  9,67615250574|  9,63042857476|  9,98576643828| 10,35805420612| 10,43086299459|  9,40669496219|  9,20485153481| 10,25141676119| 11,57579487044| 11,63154230450| 10,85916173176|  9,59000313587| 12,29789221962| 10,75598096426| 10,37365198389|  9,35500015047
Com_Chim                  |  7,81536871851|  6,86952633016|  0,00000000000|  8,61112065414|  8,93054831787|  8,92885948967|  8,92175920307|  8,66148362709|  8,70090073905|  8,00963521773| 10,19929522057|  9,98698815833|  9,89664788157|  9,86757828552|  9,71989745813|  9,72760357282|  9,72132539139| 10,01176997053| 10,32187737422| 10,33119815699|  9,49801248481|  9,30972859305| 10,20895010841| 11,54659569876| 11,61186215174| 10,86243170547|  9,62839321103| 12,31781225153| 10,78513022754| 10,39564542722|  9,39435735335
Gibbon                    |  8,53213640789|  8,61057371881|  8,61112065414|  0,00000000000|  8,91566394357|  8,94622298343|  8,85955589199|  8,60053331626|  8,62822033604|  8,59852220966| 10,40623313013| 10,21754722242| 10,12343429892| 10,18975446171| 10,11442526408|  9,99891929593|  9,94953181625| 10,22911950645| 10,46686619838| 10,53834081291|  9,64334846031|  9,42006298619| 10,43374641553| 11,69190471843| 11,71485817819| 11,18722472575| 10,01014841203| 12,90878145393| 11,29904814726| 10,87176509182|  9,70817334635
Baboon                    |  8,93358654976|  8,90446687969|  8,93054831787|  8,91566394357|  0,00000000000|  8,55383408451|  8,41720552740|  9,01582201306|  9,11732021328|  8,88863956931| 10,20960186627|  9,96195543148|  9,71432470834|  9,78404709217|  9,69756989929|  9,66591504329|  9,60624170244|  9,92583336388| 10,30049716705| 10,36807713724|  9,33064133389|  9,18352430163| 10,21728689717| 11,53100063357| 11,56918851394| 10,89143634386|  9,77882577129| 12,40850894845| 10,85997938535| 10,41554441947|  9,18862638343
Ver_Monkey                |  8,94689589452|  8,84614493417|  8,92885948967|  8,94622298343|  8,55383408451|  0,00000000000|  8,53863969901|  9,20532787962|  9,18352430163|  8,89681578513| 10,22808027459|  9,88891161452|  9,63856180623|  9,71589712429|  9,59058922733|  9,61237230366|  9,54067119761|  9,96359156249| 10,29947095214| 10,36744329091|  9,28372953700|  9,20945413884| 10,11707650757| 11,49610085070| 11,53289920473| 10,83141499988|  9,79503700591| 12,35504795336| 10,78359325867| 10,34317797708|  9,38015267415
Macaca_Thibet             |  8,88130178040|  8,88727535039|  8,92175920307|  8,85955589199|  8,41720552740|  8,53863969901|  0,00000000000|  9,08564502098|  9,12346698675|  8,89681578513| 10,22132058369| 10,02755477291|  9,68723181505|  9,77444709405|  9,69154190158|  9,66114973571|  9,64305848942| 10,02162400047| 10,33770095106| 10,44439019115|  9,30227053416|  9,14282323771| 10,26653393234| 11,49472239363| 11,56845408767| 10,86044656802|  9,78305967820| 12,38863316056| 10,82378351824| 10,40572939170|  9,28747480280
Bor_Oran                  |  8,56786471986|  8,58606738528|  8,66148362709|  8,60053331626|  9,01582201306|  9,20532787962|  9,08564502098|  0,00000000000|  7,36487936935|  8,55845491520| 10,72788629496| 10,63337326949| 10,35170155198| 10,48229970386| 10,33617154518| 10,30613804954| 10,19380800505| 10,63894532321| 10,82695465409| 10,88585550285|  9,85047705437|  9,68349345024| 10,83047624511| 12,02905791098| 12,07742029628| 11,55921468767| 10,28688478837| 13,28456155005| 11,62186531364| 11,16309422737|  9,85493151206
Sum_Oran                  |  8,49251277598|  8,63076088917|  8,70090073905|  8,62822033604|  9,11732021328|  9,18352430163|  9,12346698675|  7,36487936935|  0,00000000000|  8,68374734265| 10,89468954914| 10,71988675714| 10,46599374109| 10,51081965817| 10,34712329230| 10,33642647448| 10,28598471043| 10,72346993197| 10,92851616237| 10,94155816782|  9,91992661359|  9,75420051485| 10,91845662801| 12,11302553193| 12,13091064560| 11,63570035714| 10,36592177541| 13,34195650810| 11,75063295208| 11,27477426318|  9,97611868851
Gorilla                   |  8,05945636692|  7,94511346069|  8,00963521773|  8,59852220966|  8,88863956931|  8,89681578513|  8,89681578513|  8,55845491520|  8,68374734265|  0,00000000000| 10,25167551412|  9,95567896481|  9,86007727556|  9,86216196216|  9,73116729856|  9,63696524384|  9,64682681127|  9,94884836358| 10,30703494851| 10,35297264408|  9,43354530848|  9,23081982835| 10,14351919250| 11,44224207651| 11,49641891704| 10,83294017479|  9,58002902584| 12,35778158990| 10,69558525175| 10,29433710305|  9,44125420819
Cat                       | 10,36249689643| 10,23483185510| 10,19929522057| 10,40623313013| 10,20960186627| 10,22808027459| 10,22132058369| 10,72788629496| 10,89468954914| 10,25167551412|  0,00000000000|  9,80698677820|  9,80600371591|  9,80277234606|  9,79742915872|  9,86230091190|  9,87243435034|  9,69957764815|  8,36396290482|  8,16993327209|  9,83723055978|  9,75831288946|  9,92940171082| 11,28856214463| 11,35675486798| 10,37985400649|  9,96618108286| 11,63757067922| 10,46050674929| 10,20151470795|  9,81147841530
Dog                       | 10,18896956530|  9,95977314642|  9,98698815833| 10,21754722242|  9,96195543148|  9,88891161452| 10,02755477291| 10,63337326949| 10,71988675714|  9,95567896481|  9,80698677820|  0,00000000000|  9,43369658157|  9,22465765897|  9,12782935916|  9,13138077911|  9,26433108018|  6,53634656978| 10,01541670159| 10,02903645352|  9,29900391047|  9,29168465244|  9,17570071145| 10,76144212344| 10,83880275680|  9,52659162320|  9,09004414743| 10,53279749997|  9,41049647471|  9,28903444715|  9,32166795170
Pig                       |  9,95390384697|  9,77317517087|  9,89664788157| 10,12343429892|  9,71432470834|  9,63856180623|  9,68723181505| 10,35170155198| 10,46599374109|  9,86007727556|  9,80600371591|  9,43369658157|  0,00000000000|  8,95395518075|  8,85749541790|  8,91515561656|  8,99024729915|  9,42036637398| 10,05871954213| 10,06594791397|  8,84045829666|  8,88556946592|  9,72489348359| 11,20662059771| 11,27685521142| 10,11773911936|  9,55928348265| 11,22021911386| 10,09037327993|  9,80277234606|  8,95563427650
Sheep                     |  9,98617370909|  9,85019852526|  9,86757828552| 10,18975446171|  9,78404709217|  9,71589712429|  9,77444709405| 10,48229970386| 10,51081965817|  9,86216196216|  9,80277234606|  9,22465765897|  8,95395518075|  0,00000000000|  8,02525550600|  8,37889229201|  8,50919614869|  9,24689763051| 10,00690383583| 10,00406323340|  9,00886180677|  9,13170349743|  9,61878680472| 11,08283753827| 11,14077529118|  9,96168269443|  9,32182280969| 10,82718948879|  9,67038746397|  9,44729182385|  9,05440117869
Goat                      |  9,86702302156|  9,68004020978|  9,71989745813| 10,11442526408|  9,69756989929|  9,59058922733|  9,69154190158| 10,33617154518| 10,34712329230|  9,73116729856|  9,79742915872|  9,12782935916|  8,85749541790|  8,02525550600|  0,00000000000|  8,30699837368|  8,46252824802|  9,18240746384|  9,91332527441| 10,00054422664|  8,99440916048|  8,96921116544|  9,53667371961| 10,98178461298| 11,04709918477|  9,89650983305|  9,15712601357| 10,63821882523|  9,53756232779|  9,31345319634|  8,92581793704
Cow                       |  9,77910813945|  9,67615250574|  9,72760357282|  9,99891929593|  9,66591504329|  9,61237230366|  9,66114973571| 10,30613804954| 10,33642647448|  9,63696524384|  9,86230091190|  9,13138077911|  8,91515561656|  8,37889229201|  8,30699837368|  0,00000000000|  8,22118355783|  9,18272658813|  9,96767970778| 10,13586381925|  8,96385250478|  8,90972973044|  9,47301827053| 10,94870257409| 10,99082926597|  9,78855859121|  9,09460165574| 10,76666131473|  9,57503447082|  9,32306149077|  8,79486192993
Buffalo                   |  9,78193097466|  9,63042857476|  9,72132539139|  9,94953181625|  9,60624170244|  9,54067119761|  9,64305848942| 10,19380800505| 10,28598471043|  9,64682681127|  9,87243435034|  9,26433108018|  8,99024729915|  8,50919614869|  8,46252824802|  8,22118355783|  0,00000000000|  9,29277547833| 10,02256796641| 10,07423538344|  8,90871161595|  8,92547985470|  9,53119043012| 10,98533530811| 11,03165698790| 10,01109438022|  9,26041031856| 11,09770800527|  9,86077226290|  9,56164195064|  8,93206770022
Wolf                      | 10,20725518337|  9,98576643828| 10,01176997053| 10,22911950645|  9,92583336388|  9,96359156249| 10,02162400047| 10,63894532321| 10,72346993197|  9,94884836358|  9,69957764815|  6,53634656978|  9,42036637398|  9,24689763051|  9,18240746384|  9,18272658813|  9,29277547833|  0,00000000000|  9,96836076261|  9,93365315770|  9,27122362625|  9,28700680827|  9,21104017823| 10,77969000526| 10,85822713969|  9,50904706999|  9,08270987115| 10,48801474786|  9,37846975771|  9,26354719161|  9,29807017215
Tiger                     | 10,42509187016| 10,35805420612| 10,32187737422| 10,46686619838| 10,30049716705| 10,29947095214| 10,33770095106| 10,82695465409| 10,92851616237| 10,30703494851|  8,36396290482| 10,01541670159| 10,05871954213| 10,00690383583|  9,91332527441|  9,96767970778| 10,02256796641|  9,96836076261|  0,00000000000|  7,96972522028| 10,08584346083|  9,96059160745| 10,14879260559| 11,39430806955| 11,47943485357| 10,57479767412| 10,10433889059| 11,82701474889| 10,67888926147| 10,45226661416|  9,95772644676
Leopard                   | 10,47072837905| 10,43086299459| 10,33119815699| 10,53834081291| 10,36807713724| 10,36744329091| 10,44439019115| 10,88585550285| 10,94155816782| 10,35297264408|  8,16993327209| 10,02903645352| 10,06594791397| 10,00406323340| 10,00054422664| 10,13586381925| 10,07423538344|  9,93365315770|  7,96972522028|  0,00000000000| 10,06875636683|  9,95813584925| 10,06915745664| 11,35036737471| 11,43550662860| 10,48689702371| 10,15879830587| 11,89999393621| 10,69630491235| 10,45451507412| 10,08690963711
Indian_Rhino              |  9,60945390562|  9,40669496219|  9,49801248481|  9,64334846031|  9,33064133389|  9,28372953700|  9,30227053416|  9,85047705437|  9,91992661359|  9,43354530848|  9,83723055978|  9,29900391047|  8,84045829666|  9,00886180677|  8,99440916048|  8,96385250478|  8,90871161595|  9,27122362625| 10,08584346083| 10,06875636683|  0,00000000000|  8,10648515663|  9,71418173746| 11,13607863037| 11,19155217733| 10,23742646344|  9,38045859530| 11,43839406157|  9,98413704690|  9,71946900048|  8,96703500275
White_Rhino               |  9,37816370921|  9,20485153481|  9,30972859305|  9,42006298619|  9,18352430163|  9,20945413884|  9,14282323771|  9,68349345024|  9,75420051485|  9,23081982835|  9,75831288946|  9,29168465244|  8,88556946592|  9,13170349743|  8,96921116544|  8,90972973044|  8,92547985470|  9,28700680827|  9,96059160745|  9,95813584925|  8,10648515663|  0,00000000000|  9,64682681127| 11,07335672551| 11,13171442099| 10,29125457035|  9,28560254418| 11,60163584763| 10,07076152175|  9,84755176123|  8,77984415430
Black_Bear                | 10,36795037355| 10,25141676119| 10,20895010841| 10,43374641553| 10,21728689717| 10,11707650757| 10,26653393234| 10,83047624511| 10,91845662801| 10,14351919250|  9,92940171082|  9,17570071145|  9,72489348359|  9,61878680472|  9,53667371961|  9,47301827053|  9,53119043012|  9,21104017823| 10,14879260559| 10,06915745664|  9,71418173746|  9,64682681127|  0,00000000000|  9,87451415213|  9,94611367903|  9,21436908615|  9,46160110456| 11,11097254698|  9,85367907764|  9,71904050695|  9,64682681127
Brown_Bear                | 11,64732985118| 11,57579487044| 11,54659569876| 11,69190471843| 11,53100063357| 11,49610085070| 11,49472239363| 12,02905791098| 12,11302553193| 11,44224207651| 11,28856214463| 10,76144212344| 11,20662059771| 11,08283753827| 10,98178461298| 10,94870257409| 10,98533530811| 10,77969000526| 11,39430806955| 11,35036737471| 11,13607863037| 11,07335672551|  9,87451415213|  0,00000000000|  6,31947028284|  9,37831673591| 10,95710424247| 12,34769062727| 11,33258047027| 11,22452500906| 11,09444392767
Polar_Bear                | 11,68127777421| 11,63154230450| 11,61186215174| 11,71485817819| 11,56918851394| 11,53289920473| 11,56845408767| 12,07742029628| 12,13091064560| 11,49641891704| 11,35675486798| 10,83880275680| 11,27685521142| 11,14077529118| 11,04709918477| 10,99082926597| 11,03165698790| 10,85822713969| 11,47943485357| 11,43550662860| 11,19155217733| 11,13171442099|  9,94611367903|  6,31947028284|  0,00000000000|  9,42415711121| 11,03540739678| 12,40907073453| 11,40677975701| 11,27926392036| 11,14267536191
Giant_Panda               | 11,07087135973| 10,85916173176| 10,86243170547| 11,18722472575| 10,89143634386| 10,83141499988| 10,86044656802| 11,55921468767| 11,63570035714| 10,83294017479| 10,37985400649|  9,52659162320| 10,11773911936|  9,96168269443|  9,89650983305|  9,78855859121| 10,01109438022|  9,50904706999| 10,57479767412| 10,48689702371| 10,23742646344| 10,29125457035|  9,21436908615|  9,37831673591|  9,42415711121|  0,00000000000|  9,82157046956| 10,73444528214|  9,89236670276|  9,82688897426| 10,12555193680
Rabbit                    |  9,79897643567|  9,59000313587|  9,62839321103| 10,01014841203|  9,77882577129|  9,79503700591|  9,78305967820| 10,28688478837| 10,36592177541|  9,58002902584|  9,96618108286|  9,09004414743|  9,55928348265|  9,32182280969|  9,15712601357|  9,09460165574|  9,26041031856|  9,08270987115| 10,10433889059| 10,15879830587|  9,38045859530|  9,28560254418|  9,46160110456| 10,95710424247| 11,03540739678|  9,82157046956|  0,00000000000| 10,80519400673|  9,36467810971|  9,28201195541|  9,30755454665
Hedgehog                  | 12,58443229648| 12,29789221962| 12,31781225153| 12,90878145393| 12,40850894845| 12,35504795336| 12,38863316056| 13,28456155005| 13,34195650810| 12,35778158990| 11,63757067922| 10,53279749997| 11,22021911386| 10,82718948879| 10,63821882523| 10,76666131473| 11,09770800527| 10,48801474786| 11,82701474889| 11,89999393621| 11,43839406157| 11,60163584763| 11,11097254698| 12,34769062727| 12,40907073453| 10,73444528214| 10,80519400673|  0,00000000000|  9,55338239890|  9,97298964562| 11,45643962405
Dormouse                  | 11,02631171739| 10,75598096426| 10,78513022754| 11,29904814726| 10,85997938535| 10,78359325867| 10,82378351824| 11,62186531364| 11,75063295208| 10,69558525175| 10,46050674929|  9,41049647471| 10,09037327993|  9,67038746397|  9,53756232779|  9,57503447082|  9,86077226290|  9,37846975771| 10,67888926147| 10,69630491235|  9,98413704690| 10,07076152175|  9,85367907764| 11,33258047027| 11,40677975701|  9,89236670276|  9,36467810971|  9,55338239890|  0,00000000000|  9,00438157902| 10,07463607177
Squirrel                  | 10,62014933274| 10,37365198389| 10,39564542722| 10,87176509182| 10,41554441947| 10,34317797708| 10,40572939170| 11,16309422737| 11,27477426318| 10,29433710305| 10,20151470795|  9,28903444715|  9,80277234606|  9,44729182385|  9,31345319634|  9,32306149077|  9,56164195064|  9,26354719161| 10,45226661416| 10,45451507412|  9,71946900048|  9,84755176123|  9,71904050695| 11,22452500906| 11,27926392036|  9,82688897426|  9,28201195541|  9,97298964562|  9,00438157902|  0,00000000000|  9,70359077591
Blue_Whale                |  9,45919407180|  9,35500015047|  9,39435735335|  9,70817334635|  9,18862638343|  9,38015267415|  9,28747480280|  9,85493151206|  9,97611868851|  9,44125420819|  9,81147841530|  9,32166795170|  8,95563427650|  9,05440117869|  8,92581793704|  8,79486192993|  8,93206770022|  9,29807017215|  9,95772644676| 10,08690963711|  8,96703500275|  8,77984415430|  9,64682681127| 11,09444392767| 11,14267536191| 10,12555193680|  9,30755454665| 11,45643962405| 10,07463607177|  9,70359077591|  0,00000000000
