                           |Human          |Pig_Chim       |Com_Chim       |Gibbon         |Baboon         |Ver_Monkey     |Macaca_Thibet  |Bor_Oran       |Sum_Oran       |Gorilla        |Cat            |Dog            |Pig            |Sheep          |Goat           |Cow            |Buffalo        |Wolf           |Tiger          |Leopard        |Indian_Rhino   |White_Rhino    |Black_Bear     |Brown_Bear     |Polar_Bear     |Giant_Panda    |Rabbit         |Hedgehog       |Dormouse       |Squirrel       |Blue_Whale     
Human                     |  0,00000000000| 10,19281117943| 10,60173656871| 10,47905895192| 10,54039776031| 10,98568656957| 10,07013356265| 10,47905895192| 10,21325744889| 10,43816641300| 10,10318608346| 10,96061994687| 10,58129029924| 10,25414998782| 10,17236490997| 10,37682760460| 11,25601719155|  9,74299325123| 10,02924102372|  9,74299325123| 10,14090911079| 10,49950522139| 10,39727387407|  9,78388579015| 11,20684017331|  9,37496040088| 11,35844728753|  9,90656340694|  9,90656340694| 10,21325744889| 10,07013356265
Pig_Chim                  | 10,19281117943|  0,00000000000|  4,14727226157|  7,94309355905| 10,03384004910|  8,44572684538|  9,26249668384|  8,71443692431|  9,95264601065|  7,63861591486| 11,19046592898| 11,32999720946|  9,68876538569|  9,18130264539|  9,85115346259| 10,58189980863|  9,92397053302|  9,48578028957|  9,93234750104| 10,62249682785| 10,67591982843|  9,97294452026| 10,27742216445|  9,30309370306| 10,44640725697|  9,81055644337| 10,72365024529|  9,34369072229| 10,22356722036| 10,17592961639| 10,31801918367
Com_Chim                  | 10,60173656871|  4,14727226157|  0,00000000000|  6,70914061182|  9,53857344658|  9,22410159957|  9,48454301293|  9,62377438664| 10,48561109271|  4,00822015155|  9,95958308500| 10,26290733977|  8,65650271650|  9,53277054017|  9,78833996434|  9,84098908222|  9,72031086408| 10,18695999621| 11,06476426676| 10,14220532089| 10,71707449901|  9,88716675309| 11,01954241596| 10,04390938851| 10,32309381107|  9,63106647254|  9,35166954107| 10,20118288031|  9,81550819844|  9,50514629504|  9,64242316330
Gibbon                    | 10,47905895192|  7,94309355905|  6,70914061182|  0,00000000000|  9,84159120394|  9,16265096108|  9,64882315710|  8,84343067894| 10,23273270377|  7,55298767675| 10,24678908192| 10,40655405299| 10,37367638745|  9,87030608860|  9,52801428538| 10,55488969503|  9,88323859923| 10,39381119940| 10,27300232768| 10,61529413089| 10,07917710491| 10,93745112216| 11,17906886561| 10,07165420814| 11,00131776349| 10,11192383204| 10,12980785092| 10,31327195158|  8,87697244801|  9,80990165273| 10,11192383204
Baboon                    | 10,54039776031| 10,03384004910|  9,53857344658|  9,84159120394|  0,00000000000|  8,60959521468|  9,63957936570|  9,67998173335|  8,95273911567|  9,35575516099| 11,21098064304|  9,72936240492|  9,49817107893| 10,20521251278|  9,57897581423| 11,51828946137| 10,06653230129| 10,00320067454| 10,18501132896|  9,76078646864| 10,51130114608| 10,18501132896| 11,39708235842| 10,54863263780| 10,48751173893|  9,37696397598| 10,76460489317| 10,14460896131|  9,26462851884|  9,76078646864| 10,64963855692
Ver_Monkey                | 10,98568656957|  8,44572684538|  9,22410159957|  9,16265096108|  8,60959521468|  0,00000000000|  9,71570670748|  9,26506869189|  9,16265096108|  8,03605592212| 11,08789235865| 10,71436843848| 10,45311436934|  9,83860798445|  9,53135479201| 11,21100557737| 10,88326883876|  9,30603578422| 10,53504855399| 10,88326883876| 11,08746653430|  9,63377252282| 10,08441053841| 10,24827890771| 10,89855655858| 10,12537763073| 10,94471947725| 10,08441053841| 10,24827890771|  9,55183833817| 10,98568656957
Macaca_Thibet             | 10,07013356265|  9,26249668384|  9,48454301293|  9,64882315710|  9,63957936570|  9,71570670748|  0,00000000000|  9,18678969834|  9,84184699043|  9,15319701670| 10,49296565072|  9,54467377362| 10,00751121303|  9,86169721140|  9,84184699043| 10,80544357410| 10,59604744056| 10,13960030501| 10,39765317765| 10,25870163085| 10,30552779314|  9,96718022540| 10,53988857364|  9,48454301293| 10,75469087170| 10,93360914391| 10,35505841430|  9,96094831626| 10,79484985106| 10,08455624235| 10,56531665122
Bor_Oran                  | 10,47905895192|  8,71443692431|  9,62377438664|  8,84343067894|  9,67998173335|  9,26506869189|  9,18678969834|  0,00000000000|  9,14862830437|  9,86215052174| 10,04164194126| 10,20134446267| 10,50420551322|  9,36640359207| 10,35629126347| 10,28303072433| 10,04616633439| 10,05932496205| 11,08459696768| 10,07912271548|  9,93513575785| 10,56728126773| 10,55987415041|  9,98013394834| 10,09701916027| 10,31669575661| 10,08885320304|  9,76235866063| 11,30492362846| 10,52410861618| 10,04368120153
Sum_Oran                  | 10,21325744889|  9,95264601065| 10,48561109271| 10,23273270377|  8,95273911567|  9,16265096108|  9,84184699043|  9,14862830437|  0,00000000000|  9,88240633616| 10,30833322412| 10,69384747945| 10,02737898503|  9,91349252021|  9,63729734727| 10,22275231859|  9,78140876476| 10,38696995952| 10,27145623002|  9,49919976081|  9,66763039904|  9,60711960000|  9,42069627491|  9,95294897348| 10,79579535367| 11,09718611849| 10,66221827346| 10,11077478659| 10,81525280215| 10,00463762893| 10,06374410344
Gorilla                   | 10,43816641300|  7,63861591486|  4,00822015155|  7,55298767675|  9,35575516099|  8,03605592212|  9,15319701670|  9,86215052174|  9,88240633616|  0,00000000000| 11,10840707271| 11,04270378300|  9,33549934656| 10,02419703717|  9,98368540831| 10,57110402677| 10,61641340745| 10,69263891335| 10,63187147006|  9,57856911972| 11,43728123429| 10,14573192375| 10,79391798550| 10,26726681033| 10,24088484714|  9,92291796502|  9,98646658332|  9,70010400630|  9,69309049186| 10,55084821234| 11,01673194423
Cat                       | 10,10318608346| 11,19046592898|  9,95958308500| 10,24678908192| 11,21098064304| 11,08789235865| 10,49296565072| 10,04164194126| 10,30833322412| 11,10840707271|  0,00000000000| 11,63781159495|  9,98009779906| 10,28781851006| 10,04164194126|  9,89803894280| 10,73914221952| 10,43142150852|  7,27215554230| 10,18524493973| 11,49901324017| 10,00061251313| 10,47245093665|  9,75443594433| 10,24088484714|  9,36465637707| 10,73914221952|  9,56980351774| 10,86223050392|  9,89803894280|  9,91855365686
Dog                       | 10,96061994687| 11,32999720946| 10,26290733977| 10,40655405299|  9,72936240492| 10,71436843848|  9,54467377362| 10,20134446267| 10,69384747945| 11,04270378300| 11,63781159495|  0,00000000000|  9,40102706040|  9,68832048685| 10,03717679041| 10,13978158557| 10,07821870847| -1,82393753042| 10,87853611074| 10,18082350363|  9,64705306374|  9,85248815911| 10,75541035655| 10,38603309396| 10,69303414876| 10,36551213493| 10,26290733977|  9,74988336395| 10,24238638073| 10,50915884816| 10,01665583137
Pig                       | 10,58129029924|  9,68876538569|  8,65650271650| 10,37367638745|  9,49817107893| 10,45311436934| 10,00751121303| 10,50420551322| 10,02737898503|  9,33549934656|  9,98009779906|  9,40102706040|  0,00000000000|  8,35848613639|  8,93465152461|  9,84098908222|  9,67957893029|  9,05385815666| 10,64327991727| 10,94129649739|  9,44127971081|  9,54710949577| 10,18014819191|  9,37174250878| 11,10407896840| 10,12671784507|  9,82264799177|  9,19293256071|  9,10140491007|  9,28537010813| 10,38475053402
Sheep                     | 10,25414998782|  9,18130264539|  9,53277054017|  9,87030608860| 10,20521251278|  9,83860798445|  9,86169721140|  9,36640359207|  9,91349252021| 10,02419703717| 10,28781851006|  9,68832048685|  8,35848613639|  0,00000000000|  7,35528132967|  9,98163869562|  9,02786798965|  9,51698457547|  9,79547140798|  9,92063727553|  9,31781569904|  9,70713644039|  9,54060973549|  9,87605889201| 10,30254157009| 10,49432306851|  9,53596545656|  9,99034324279|  8,55052523047|  9,22543114806|  9,84305218242
Goat                      | 10,17236490997|  9,85115346259|  9,78833996434|  9,52801428538|  9,57897581423|  9,53135479201|  9,84184699043| 10,35629126347|  9,63729734727|  9,98368540831| 10,04164194126| 10,03717679041|  8,93465152461|  7,35528132967|  0,00000000000| 10,12228830902|  4,81211284241|  9,65492069150| 10,29128893094| 10,07713489694|  9,42070237551| 10,20722064233| 10,32004722925|  9,20563622423| 10,32309381107| 10,04316528177|  9,18785094952|  8,93337084941|  8,79536064362|  9,78486144202| 10,14399571109
Cow                       | 10,37682760460| 10,58189980863|  9,84098908222| 10,55488969503| 11,51828946137| 11,21100557737| 10,80544357410| 10,28303072433| 10,22275231859| 10,57110402677|  9,89803894280| 10,13978158557|  9,84098908222|  9,98163869562| 10,12228830902|  0,00000000000| 10,31092390403| 10,68488676261| 10,10219550710| 10,08210270519| 10,94342518724| 10,54423714921| 10,28303072433|  9,66015386499| 10,83689983563|  9,80080347839| 10,27314911853|  9,19801942097| 11,26411772627| 10,72507236644| 10,44377313964
Buffalo                   | 11,25601719155|  9,92397053302|  9,72031086408|  9,88323859923| 10,06653230129| 10,88326883876| 10,59604744056| 10,04616633439|  9,78140876476| 10,61641340745| 10,73914221952| 10,07821870847|  9,67957893029|  9,02786798965|  4,81211284241| 10,31092390403|  0,00000000000|  9,06859992344| 10,98300081156| 10,77934114261| 10,20264111667| 10,65714534124| 10,22946003645| 10,08689826818| 11,24794465528|  9,74067683097| 10,47792235796| 10,82007307640| 10,34598492694|  9,49628522823|  9,72031086408
Wolf                      |  9,74299325123|  9,48578028957| 10,18695999621| 10,39381119940| 10,00320067454|  9,30603578422| 10,13960030501| 10,05932496205| 10,38696995952| 10,69263891335| 10,43142150852| -1,82393753042|  9,05385815666|  9,51698457547|  9,65492069150| 10,68488676261|  9,06859992344|  0,00000000000| 10,68794294931| 11,19192312732|  8,92684632847|  9,66712970423| 10,61983088070|  9,63521553207|  9,93260123241|  9,85197228584|  9,90455728755| 10,24607547451|  9,55026983418| 10,22441381584| 10,36468763211
Tiger                     | 10,02924102372|  9,93234750104| 11,06476426676| 10,27300232768| 10,18501132896| 10,53504855399| 10,39765317765| 11,08459696768| 10,27145623002| 10,63187147006|  7,27215554230| 10,87853611074| 10,64327991727|  9,79547140798| 10,29128893094| 10,10219550710| 10,98300081156| 10,68794294931|  0,00000000000|  8,98233067032| 11,35497189312| 10,80732168466|  9,46066742844| 10,19212542635|  9,89149675045| 10,41028513645| 10,78508221712| 10,17229272543|  9,71349344295| 10,24439346920|  9,00041030214
Leopard                   |  9,74299325123| 10,62249682785| 10,14220532089| 10,61529413089|  9,76078646864| 10,88326883876| 10,25870163085| 10,07912271548|  9,49919976081|  9,57856911972| 10,18524493973| 10,18082350363| 10,94129649739|  9,92063727553| 10,07713489694| 10,08210270519| 10,77934114261| 11,19192312732|  8,98233067032|  0,00000000000| 10,20264111667| 10,26723074656|  9,20085493052|  9,97932388356|  9,27492952098| 10,68356317990| 10,19123982275|  9,57929842314| 10,03994066049| 10,30433242926| 10,10386990726
Indian_Rhino              | 10,14090911079| 10,67591982843| 10,71707449901| 10,07917710491| 10,51130114608| 11,08746653430| 10,30552779314|  9,93513575785|  9,66763039904| 11,43728123429| 11,49901324017|  9,64705306374|  9,44127971081|  9,31781569904|  9,42070237551| 10,94342518724| 10,20264111667|  8,92684632847| 11,35497189312| 10,20264111667|  0,00000000000|  6,08717405794| 10,63476515784| 10,98457985783| 11,25208521665| 10,28495045785|  9,42070237551|  9,68820773433| 10,20264111667|  9,77051707551|  9,58532105786
White_Rhino               | 10,49950522139|  9,97294452026|  9,88716675309| 10,93745112216| 10,18501132896|  9,63377252282|  9,96718022540| 10,56728126773|  9,60711960000| 10,14573192375| 10,00061251313|  9,85248815911|  9,54710949577|  9,70713644039| 10,20722064233| 10,54423714921| 10,65714534124|  9,66712970423| 10,80732168466| 10,26723074656|  6,08717405794|  0,00000000000| 10,70730484427| 10,64729474004| 10,36419829304|  9,88716675309|  9,31071489318| 10,12720717002| 10,20316426926|  9,48709939153|  9,80292637859
Black_Bear                | 10,39727387407| 10,27742216445| 11,01954241596| 11,17906886561| 11,39708235842| 10,08441053841| 10,53988857364| 10,55987415041|  9,42069627491| 10,79391798550| 10,47245093665| 10,75541035655| 10,18014819191|  9,54060973549| 10,32004722925| 10,28303072433| 10,22946003645| 10,61983088070|  9,46066742844|  9,20085493052| 10,63476515784| 10,70730484427|  0,00000000000|  9,76045107988| 10,32309381107|  9,96030684751| 10,31410376642| 10,32004722925| 11,26411772627| 10,10020588486| 10,92644888563
Brown_Bear                |  9,78388579015|  9,30309370306| 10,04390938851| 10,07165420814| 10,54863263780| 10,24827890771|  9,48454301293|  9,98013394834|  9,95294897348| 10,26726681033|  9,75443594433| 10,38603309396|  9,37174250878|  9,87605889201|  9,20563622423|  9,66015386499| 10,08689826818|  9,63521553207| 10,19212542635|  9,97932388356| 10,98457985783| 10,64729474004|  9,76045107988|  0,00000000000|  6,95252628997|  9,70131748827| 10,21171714670|  9,95119611711| 10,22356722036| 10,74388480309| 10,14399571109
Polar_Bear                | 11,20684017331| 10,44640725697| 10,32309381107| 11,00131776349| 10,48751173893| 10,89855655858| 10,75469087170| 10,09701916027| 10,79579535367| 10,24088484714| 10,24088484714| 10,69303414876| 11,10407896840| 10,30254157009| 10,32309381107| 10,83689983563| 11,24794465528|  9,93260123241|  9,89149675045|  9,27492952098| 11,25208521665| 10,36419829304| 10,32309381107|  6,95252628997|  0,00000000000| 10,40530277500| 11,10407896840|  9,56266089473| 10,15867588322| 11,24794465528| 10,34364605206
Giant_Panda               |  9,37496040088|  9,81055644337|  9,63106647254| 10,11192383204|  9,37696397598| 10,12537763073| 10,93360914391| 10,31669575661| 11,09718611849|  9,92291796502|  9,36465637707| 10,36551213493| 10,12671784507| 10,49432306851| 10,04316528177|  9,80080347839|  9,74067683097|  9,85197228584| 10,41028513645| 10,68356317990| 10,28495045785|  9,88716675309|  9,96030684751|  9,70131748827| 10,40530277500|  0,00000000000| 10,00694390726| 10,12735818267| 10,44799968242| 10,36427138933| 10,58537955313
Rabbit                    | 11,35844728753| 10,72365024529|  9,35166954107| 10,12980785092| 10,76460489317| 10,94471947725| 10,35505841430| 10,08885320304| 10,66221827346|  9,98646658332| 10,73914221952| 10,26290733977|  9,82264799177|  9,53596545656|  9,18785094952| 10,27314911853| 10,47792235796|  9,90455728755| 10,78508221712| 10,19123982275|  9,42070237551|  9,31071489318| 10,31410376642| 10,21171714670| 11,10407896840| 10,00694390726|  0,00000000000|  9,92503461149| 10,08885320304| 10,27314911853| 10,43696771008
Hedgehog                  |  9,90656340694|  9,34369072229| 10,20118288031| 10,31327195158| 10,14460896131| 10,08441053841|  9,96094831626|  9,76235866063| 10,11077478659|  9,70010400630|  9,56980351774|  9,74988336395|  9,19293256071|  9,99034324279|  8,93337084941|  9,19801942097| 10,82007307640| 10,24607547451| 10,17229272543|  9,57929842314|  9,68820773433| 10,12720717002| 10,32004722925|  9,95119611711|  9,56266089473| 10,12735818267|  9,92503461149|  0,00000000000|  9,91752295392|  9,88475970880| 10,12393280917
Dormouse                  |  9,90656340694| 10,22356722036|  9,81550819844|  8,87697244801|  9,26462851884| 10,24827890771| 10,79484985106| 11,30492362846| 10,81525280215|  9,69309049186| 10,86223050392| 10,24238638073|  9,10140491007|  8,55052523047|  8,79536064362| 11,26411772627| 10,34598492694|  9,55026983418|  9,71349344295| 10,03994066049| 10,20264111667| 10,20316426926| 11,26411772627| 10,22356722036| 10,15867588322| 10,44799968242| 10,08885320304|  9,91752295392|  0,00000000000|  9,81550819844| 11,20290887298
Squirrel                  | 10,21325744889| 10,17592961639|  9,50514629504|  9,80990165273|  9,76078646864|  9,55183833817| 10,08455624235| 10,52410861618| 10,00463762893| 10,55084821234|  9,89803894280| 10,50915884816|  9,28537010813|  9,22543114806|  9,78486144202| 10,72507236644|  9,49628522823| 10,22441381584| 10,24439346920| 10,30433242926|  9,77051707551|  9,48709939153| 10,10020588486| 10,74388480309| 11,24794465528| 10,36427138933| 10,27314911853|  9,88475970880|  9,81550819844|  0,00000000000| 10,26437312255
Blue_Whale                | 10,07013356265| 10,31801918367|  9,64242316330| 10,11192383204| 10,64963855692| 10,98568656957| 10,56531665122| 10,04368120153| 10,06374410344| 11,01673194423|  9,91855365686| 10,01665583137| 10,38475053402|  9,84305218242| 10,14399571109| 10,44377313964|  9,72031086408| 10,36468763211|  9,00041030214| 10,10386990726|  9,58532105786|  9,80292637859| 10,92644888563| 10,14399571109| 10,34364605206| 10,58537955313| 10,43696771008| 10,12393280917| 11,20290887298| 10,26437312255|  0,00000000000
