                           |Human          |Pig_Chim       |Com_Chim       |Gibbon         |Baboon         |Ver_Monkey     |Macaca_Thibet  |Bor_Oran       |Sum_Oran       |Gorilla        |Cat            |Dog            |Pig            |Sheep          |Goat           |Cow            |Buffalo        |Wolf           |Tiger          |Leopard        |Indian_Rhino   |White_Rhino    |Black_Bear     |Brown_Bear     |Polar_Bear     |Giant_Panda    |Rabbit         |Hedgehog       |Dormouse       |Squirrel       |Blue_Whale     
Human                     |  0,00000000000|  1,09035409035|  1,09035409035|  1,35001525786|  1,41880341880|  1,38949938950|  1,46764346764|  1,45421245421|  1,45421245421|  1,16239316239|  1,48229548230|  1,48229548230|  1,48229548230|  1,48229548230|  1,48229548230|  1,48229548230|  1,48229548230|  1,48229548230|  1,48229548230|  1,48229548230|  1,48229548230|  1,48229548230|  1,48229548230|  1,48229548230|  1,48229548230|  1,48229548230|  1,48229548230|  1,51648351648|  1,48229548230|  1,48962148962|  1,48229548230
Pig_Chim                  |  1,09035409035|  0,00000000000|  1,00366300366|  1,35001525786|  1,41880341880|  1,38949938950|  1,46764346764|  1,45421245421|  1,45421245421|  1,16239316239|  1,48229548230|  1,48229548230|  1,48229548230|  1,48229548230|  1,48229548230|  1,48229548230|  1,48229548230|  1,48229548230|  1,48229548230|  1,48229548230|  1,48229548230|  1,48229548230|  1,48229548230|  1,48229548230|  1,48229548230|  1,48229548230|  1,48229548230|  1,51648351648|  1,48229548230|  1,48962148962|  1,48229548230
Com_Chim                  |  1,09035409035|  1,00366300366|  0,00000000000|  1,35001525786|  1,41880341880|  1,38949938950|  1,46764346764|  1,45421245421|  1,45421245421|  1,16239316239|  1,48229548230|  1,48229548230|  1,48229548230|  1,48229548230|  1,48229548230|  1,48229548230|  1,48229548230|  1,48229548230|  1,48229548230|  1,48229548230|  1,48229548230|  1,48229548230|  1,48229548230|  1,48229548230|  1,48229548230|  1,48229548230|  1,48229548230|  1,51648351648|  1,48229548230|  1,48962148962|  1,48229548230
Gibbon                    |  1,35001525786|  1,35001525786|  1,35001525786|  0,00000000000|  1,41880341880|  1,38949938950|  1,46764346764|  1,45421245421|  1,45421245421|  1,35001525786|  1,48229548230|  1,48229548230|  1,48229548230|  1,48229548230|  1,48229548230|  1,48229548230|  1,48229548230|  1,48229548230|  1,48229548230|  1,48229548230|  1,48229548230|  1,48229548230|  1,48229548230|  1,48229548230|  1,48229548230|  1,48229548230|  1,48229548230|  1,51648351648|  1,48229548230|  1,48962148962|  1,48229548230
Baboon                    |  1,41880341880|  1,41880341880|  1,41880341880|  1,41880341880|  0,00000000000|  1,41880341880|  1,46764346764|  1,45421245421|  1,45421245421|  1,41880341880|  1,48229548230|  1,48229548230|  1,48229548230|  1,48229548230|  1,48229548230|  1,48229548230|  1,48229548230|  1,48229548230|  1,48229548230|  1,48229548230|  1,48229548230|  1,48229548230|  1,48229548230|  1,48229548230|  1,48229548230|  1,48229548230|  1,48229548230|  1,51648351648|  1,48229548230|  1,48962148962|  1,48229548230
Ver_Monkey                |  1,38949938950|  1,38949938950|  1,38949938950|  1,38949938950|  1,41880341880|  0,00000000000|  1,46764346764|  1,45421245421|  1,45421245421|  1,38949938950|  1,48229548230|  1,48229548230|  1,48229548230|  1,48229548230|  1,48229548230|  1,48229548230|  1,48229548230|  1,48229548230|  1,48229548230|  1,48229548230|  1,48229548230|  1,48229548230|  1,48229548230|  1,48229548230|  1,48229548230|  1,48229548230|  1,48229548230|  1,51648351648|  1,48229548230|  1,48962148962|  1,48229548230
Macaca_Thibet             |  1,46764346764|  1,46764346764|  1,46764346764|  1,46764346764|  1,46764346764|  1,46764346764|  0,00000000000|  1,46764346764|  1,46764346764|  1,46764346764|  1,48229548230|  1,48229548230|  1,48229548230|  1,48229548230|  1,48229548230|  1,48229548230|  1,48229548230|  1,48229548230|  1,48229548230|  1,48229548230|  1,48229548230|  1,48229548230|  1,48229548230|  1,48229548230|  1,48229548230|  1,48229548230|  1,48229548230|  1,51648351648|  1,48229548230|  1,48962148962|  1,48229548230
Bor_Oran                  |  1,45421245421|  1,45421245421|  1,45421245421|  1,45421245421|  1,45421245421|  1,45421245421|  1,46764346764|  0,00000000000|  1,42246642247|  1,45421245421|  1,48229548230|  1,48229548230|  1,48229548230|  1,48229548230|  1,48229548230|  1,48229548230|  1,48229548230|  1,48229548230|  1,48229548230|  1,48229548230|  1,48229548230|  1,48229548230|  1,48229548230|  1,48229548230|  1,48229548230|  1,48229548230|  1,48229548230|  1,51648351648|  1,48229548230|  1,48962148962|  1,48229548230
Sum_Oran                  |  1,45421245421|  1,45421245421|  1,45421245421|  1,45421245421|  1,45421245421|  1,45421245421|  1,46764346764|  1,42246642247|  0,00000000000|  1,45421245421|  1,48229548230|  1,48229548230|  1,48229548230|  1,48229548230|  1,48229548230|  1,48229548230|  1,48229548230|  1,48229548230|  1,48229548230|  1,48229548230|  1,48229548230|  1,48229548230|  1,48229548230|  1,48229548230|  1,48229548230|  1,48229548230|  1,48229548230|  1,51648351648|  1,48229548230|  1,48962148962|  1,48229548230
Gorilla                   |  1,16239316239|  1,16239316239|  1,16239316239|  1,35001525786|  1,41880341880|  1,38949938950|  1,46764346764|  1,45421245421|  1,45421245421|  0,00000000000|  1,48229548230|  1,48229548230|  1,48229548230|  1,48229548230|  1,48229548230|  1,48229548230|  1,48229548230|  1,48229548230|  1,48229548230|  1,48229548230|  1,48229548230|  1,48229548230|  1,48229548230|  1,48229548230|  1,48229548230|  1,48229548230|  1,48229548230|  1,51648351648|  1,48229548230|  1,48962148962|  1,48229548230
Cat                       |  1,48229548230|  1,48229548230|  1,48229548230|  1,48229548230|  1,48229548230|  1,48229548230|  1,48229548230|  1,48229548230|  1,48229548230|  1,48229548230|  0,00000000000|  1,46275946276|  1,42979242979|  1,45299145299|  1,45299145299|  1,45299145299|  1,45299145299|  1,46275946276|  1,26090936832|  0,99481232835|  1,44688644689|  1,44688644689|  1,39273725969|  1,39273725969|  1,39273725969|  1,39273725969|  1,46398046398|  1,51648351648|  1,48229548230|  1,48962148962|  1,45299145299
Dog                       |  1,48229548230|  1,48229548230|  1,48229548230|  1,48229548230|  1,48229548230|  1,48229548230|  1,48229548230|  1,48229548230|  1,48229548230|  1,48229548230|  1,46275946276|  0,00000000000|  1,46275946276|  1,46275946276|  1,46275946276|  1,46275946276|  1,46275946276|  1,12332112332|  1,46275946276|  1,46275946276|  1,46275946276|  1,46275946276|  1,46275946276|  1,46275946276|  1,46275946276|  1,46275946276|  1,46398046398|  1,51648351648|  1,48229548230|  1,48962148962|  1,46275946276
Pig                       |  1,48229548230|  1,48229548230|  1,48229548230|  1,48229548230|  1,48229548230|  1,48229548230|  1,48229548230|  1,48229548230|  1,48229548230|  1,48229548230|  1,42979242979|  1,46275946276|  0,00000000000|  1,45299145299|  1,45299145299|  1,45299145299|  1,45299145299|  1,46275946276|  1,42979242979|  1,42979242979|  1,44688644689|  1,44688644689|  1,42979242979|  1,42979242979|  1,42979242979|  1,42979242979|  1,46398046398|  1,51648351648|  1,48229548230|  1,48962148962|  1,45299145299
Sheep                     |  1,48229548230|  1,48229548230|  1,48229548230|  1,48229548230|  1,48229548230|  1,48229548230|  1,48229548230|  1,48229548230|  1,48229548230|  1,48229548230|  1,45299145299|  1,46275946276|  1,45299145299|  0,00000000000|  1,28571428571|  1,37606837607|  1,37606837607|  1,46275946276|  1,45299145299|  1,45299145299|  1,45299145299|  1,45299145299|  1,45299145299|  1,45299145299|  1,45299145299|  1,45299145299|  1,46398046398|  1,51648351648|  1,48229548230|  1,48962148962|  1,42857142857
Goat                      |  1,48229548230|  1,48229548230|  1,48229548230|  1,48229548230|  1,48229548230|  1,48229548230|  1,48229548230|  1,48229548230|  1,48229548230|  1,48229548230|  1,45299145299|  1,46275946276|  1,45299145299|  1,28571428571|  0,00000000000|  1,37606837607|  1,37606837607|  1,46275946276|  1,45299145299|  1,45299145299|  1,45299145299|  1,45299145299|  1,45299145299|  1,45299145299|  1,45299145299|  1,45299145299|  1,46398046398|  1,51648351648|  1,48229548230|  1,48962148962|  1,42857142857
Cow                       |  1,48229548230|  1,48229548230|  1,48229548230|  1,48229548230|  1,48229548230|  1,48229548230|  1,48229548230|  1,48229548230|  1,48229548230|  1,48229548230|  1,45299145299|  1,46275946276|  1,45299145299|  1,37606837607|  1,37606837607|  0,00000000000|  1,30402930403|  1,46275946276|  1,45299145299|  1,45299145299|  1,45299145299|  1,45299145299|  1,45299145299|  1,45299145299|  1,45299145299|  1,45299145299|  1,46398046398|  1,51648351648|  1,48229548230|  1,48962148962|  1,42857142857
Buffalo                   |  1,48229548230|  1,48229548230|  1,48229548230|  1,48229548230|  1,48229548230|  1,48229548230|  1,48229548230|  1,48229548230|  1,48229548230|  1,48229548230|  1,45299145299|  1,46275946276|  1,45299145299|  1,37606837607|  1,37606837607|  1,30402930403|  0,00000000000|  1,46275946276|  1,45299145299|  1,45299145299|  1,45299145299|  1,45299145299|  1,45299145299|  1,45299145299|  1,45299145299|  1,45299145299|  1,46398046398|  1,51648351648|  1,48229548230|  1,48962148962|  1,42857142857
Wolf                      |  1,48229548230|  1,48229548230|  1,48229548230|  1,48229548230|  1,48229548230|  1,48229548230|  1,48229548230|  1,48229548230|  1,48229548230|  1,48229548230|  1,46275946276|  1,12332112332|  1,46275946276|  1,46275946276|  1,46275946276|  1,46275946276|  1,46275946276|  0,00000000000|  1,46275946276|  1,46275946276|  1,46275946276|  1,46275946276|  1,46275946276|  1,46275946276|  1,46275946276|  1,46275946276|  1,46398046398|  1,51648351648|  1,48229548230|  1,48962148962|  1,46275946276
Tiger                     |  1,48229548230|  1,48229548230|  1,48229548230|  1,48229548230|  1,48229548230|  1,48229548230|  1,48229548230|  1,48229548230|  1,48229548230|  1,48229548230|  1,26090936832|  1,46275946276|  1,42979242979|  1,45299145299|  1,45299145299|  1,45299145299|  1,45299145299|  1,46275946276|  0,00000000000|  1,26090936832|  1,44688644689|  1,44688644689|  1,39273725969|  1,39273725969|  1,39273725969|  1,39273725969|  1,46398046398|  1,51648351648|  1,48229548230|  1,48962148962|  1,45299145299
Leopard                   |  1,48229548230|  1,48229548230|  1,48229548230|  1,48229548230|  1,48229548230|  1,48229548230|  1,48229548230|  1,48229548230|  1,48229548230|  1,48229548230|  0,99481232835|  1,46275946276|  1,42979242979|  1,45299145299|  1,45299145299|  1,45299145299|  1,45299145299|  1,46275946276|  1,26090936832|  0,00000000000|  1,44688644689|  1,44688644689|  1,39273725969|  1,39273725969|  1,39273725969|  1,39273725969|  1,46398046398|  1,51648351648|  1,48229548230|  1,48962148962|  1,45299145299
Indian_Rhino              |  1,48229548230|  1,48229548230|  1,48229548230|  1,48229548230|  1,48229548230|  1,48229548230|  1,48229548230|  1,48229548230|  1,48229548230|  1,48229548230|  1,44688644689|  1,46275946276|  1,44688644689|  1,45299145299|  1,45299145299|  1,45299145299|  1,45299145299|  1,46275946276|  1,44688644689|  1,44688644689|  0,00000000000|  1,25763125763|  1,44688644689|  1,44688644689|  1,44688644689|  1,44688644689|  1,46398046398|  1,51648351648|  1,48229548230|  1,48962148962|  1,45299145299
White_Rhino               |  1,48229548230|  1,48229548230|  1,48229548230|  1,48229548230|  1,48229548230|  1,48229548230|  1,48229548230|  1,48229548230|  1,48229548230|  1,48229548230|  1,44688644689|  1,46275946276|  1,44688644689|  1,45299145299|  1,45299145299|  1,45299145299|  1,45299145299|  1,46275946276|  1,44688644689|  1,44688644689|  1,25763125763|  0,00000000000|  1,44688644689|  1,44688644689|  1,44688644689|  1,44688644689|  1,46398046398|  1,51648351648|  1,48229548230|  1,48962148962|  1,45299145299
Black_Bear                |  1,48229548230|  1,48229548230|  1,48229548230|  1,48229548230|  1,48229548230|  1,48229548230|  1,48229548230|  1,48229548230|  1,48229548230|  1,48229548230|  1,39273725969|  1,46275946276|  1,42979242979|  1,45299145299|  1,45299145299|  1,45299145299|  1,45299145299|  1,46275946276|  1,39273725969|  1,39273725969|  1,44688644689|  1,44688644689|  0,00000000000|  0,92551892552|  0,99755799756|  1,27311565456|  1,46398046398|  1,51648351648|  1,48229548230|  1,48962148962|  1,45299145299
Brown_Bear                |  1,48229548230|  1,48229548230|  1,48229548230|  1,48229548230|  1,48229548230|  1,48229548230|  1,48229548230|  1,48229548230|  1,48229548230|  1,48229548230|  1,39273725969|  1,46275946276|  1,42979242979|  1,45299145299|  1,45299145299|  1,45299145299|  1,45299145299|  1,46275946276|  1,39273725969|  1,39273725969|  1,44688644689|  1,44688644689|  0,92551892552|  0,00000000000|  0,99755799756|  1,27311565456|  1,46398046398|  1,51648351648|  1,48229548230|  1,48962148962|  1,45299145299
Polar_Bear                |  1,48229548230|  1,48229548230|  1,48229548230|  1,48229548230|  1,48229548230|  1,48229548230|  1,48229548230|  1,48229548230|  1,48229548230|  1,48229548230|  1,39273725969|  1,46275946276|  1,42979242979|  1,45299145299|  1,45299145299|  1,45299145299|  1,45299145299|  1,46275946276|  1,39273725969|  1,39273725969|  1,44688644689|  1,44688644689|  0,99755799756|  0,99755799756|  0,00000000000|  1,27311565456|  1,46398046398|  1,51648351648|  1,48229548230|  1,48962148962|  1,45299145299
Giant_Panda               |  1,48229548230|  1,48229548230|  1,48229548230|  1,48229548230|  1,48229548230|  1,48229548230|  1,48229548230|  1,48229548230|  1,48229548230|  1,48229548230|  1,39273725969|  1,46275946276|  1,42979242979|  1,45299145299|  1,45299145299|  1,45299145299|  1,45299145299|  1,46275946276|  1,39273725969|  1,39273725969|  1,44688644689|  1,44688644689|  1,27311565456|  1,27311565456|  1,27311565456|  0,00000000000|  1,46398046398|  1,51648351648|  1,48229548230|  1,48962148962|  1,45299145299
Rabbit                    |  1,48229548230|  1,48229548230|  1,48229548230|  1,48229548230|  1,48229548230|  1,48229548230|  1,48229548230|  1,48229548230|  1,48229548230|  1,48229548230|  1,46398046398|  1,46398046398|  1,46398046398|  1,46398046398|  1,46398046398|  1,46398046398|  1,46398046398|  1,46398046398|  1,46398046398|  1,46398046398|  1,46398046398|  1,46398046398|  1,46398046398|  1,46398046398|  1,46398046398|  1,46398046398|  0,00000000000|  1,51648351648|  1,48229548230|  1,48962148962|  1,46398046398
Hedgehog                  |  1,51648351648|  1,51648351648|  1,51648351648|  1,51648351648|  1,51648351648|  1,51648351648|  1,51648351648|  1,51648351648|  1,51648351648|  1,51648351648|  1,51648351648|  1,51648351648|  1,51648351648|  1,51648351648|  1,51648351648|  1,51648351648|  1,51648351648|  1,51648351648|  1,51648351648|  1,51648351648|  1,51648351648|  1,51648351648|  1,51648351648|  1,51648351648|  1,51648351648|  1,51648351648|  1,51648351648|  0,00000000000|  1,51648351648|  1,51648351648|  1,51648351648
Dormouse                  |  1,48229548230|  1,48229548230|  1,48229548230|  1,48229548230|  1,48229548230|  1,48229548230|  1,48229548230|  1,48229548230|  1,48229548230|  1,48229548230|  1,48229548230|  1,48229548230|  1,48229548230|  1,48229548230|  1,48229548230|  1,48229548230|  1,48229548230|  1,48229548230|  1,48229548230|  1,48229548230|  1,48229548230|  1,48229548230|  1,48229548230|  1,48229548230|  1,48229548230|  1,48229548230|  1,48229548230|  1,51648351648|  0,00000000000|  1,48962148962|  1,48229548230
Squirrel                  |  1,48962148962|  1,48962148962|  1,48962148962|  1,48962148962|  1,48962148962|  1,48962148962|  1,48962148962|  1,48962148962|  1,48962148962|  1,48962148962|  1,48962148962|  1,48962148962|  1,48962148962|  1,48962148962|  1,48962148962|  1,48962148962|  1,48962148962|  1,48962148962|  1,48962148962|  1,48962148962|  1,48962148962|  1,48962148962|  1,48962148962|  1,48962148962|  1,48962148962|  1,48962148962|  1,48962148962|  1,51648351648|  1,48962148962|  0,00000000000|  1,48962148962
Blue_Whale                |  1,48229548230|  1,48229548230|  1,48229548230|  1,48229548230|  1,48229548230|  1,48229548230|  1,48229548230|  1,48229548230|  1,48229548230|  1,48229548230|  1,45299145299|  1,46275946276|  1,45299145299|  1,42857142857|  1,42857142857|  1,42857142857|  1,42857142857|  1,46275946276|  1,45299145299|  1,45299145299|  1,45299145299|  1,45299145299|  1,45299145299|  1,45299145299|  1,45299145299|  1,45299145299|  1,46398046398|  1,51648351648|  1,48229548230|  1,48962148962|  0,00000000000
                           |Human          |Pig_Chim       |Com_Chim       |Gibbon         |Baboon         |Ver_Monkey     |Macaca_Thibet  |Bor_Oran       |Sum_Oran       |Gorilla        |Cat            |Dog            |Pig            |Sheep          |Goat           |Cow            |Buffalo        |Wolf           |Tiger          |Leopard        |Indian_Rhino   |White_Rhino    |Black_Bear     |Brown_Bear     |Polar_Bear     |Giant_Panda    |Rabbit         |Hedgehog       |Dormouse       |Squirrel       |Blue_Whale     
Human                     |  0,00000000000|  4,97955251735|  4,97955251735|  8,53996276688|  9,48316916017|  9,08135949687| 10,15285193233|  9,96868916999|  9,96868916999|  5,96733460630| 10,35375676398| 10,35375676398| 10,35375676398| 10,35375676398| 10,35375676398| 10,35375676398| 10,35375676398| 10,35375676398| 10,35375676398| 10,35375676398| 10,35375676398| 10,35375676398| 10,35375676398| 10,35375676398| 10,35375676398| 10,35375676398| 10,35375676398| 10,82253470450| 10,35375676398| 10,45420917981| 10,35375676398
Pig_Chim                  |  4,97955251735|  0,00000000000|  3,79086559676|  8,53996276688|  9,48316916017|  9,08135949687| 10,15285193233|  9,96868916999|  9,96868916999|  5,96733460630| 10,35375676398| 10,35375676398| 10,35375676398| 10,35375676398| 10,35375676398| 10,35375676398| 10,35375676398| 10,35375676398| 10,35375676398| 10,35375676398| 10,35375676398| 10,35375676398| 10,35375676398| 10,35375676398| 10,35375676398| 10,35375676398| 10,35375676398| 10,82253470450| 10,35375676398| 10,45420917981| 10,35375676398
Com_Chim                  |  4,97955251735|  3,79086559676|  0,00000000000|  8,53996276688|  9,48316916017|  9,08135949687| 10,15285193233|  9,96868916999|  9,96868916999|  5,96733460630| 10,35375676398| 10,35375676398| 10,35375676398| 10,35375676398| 10,35375676398| 10,35375676398| 10,35375676398| 10,35375676398| 10,35375676398| 10,35375676398| 10,35375676398| 10,35375676398| 10,35375676398| 10,35375676398| 10,35375676398| 10,35375676398| 10,35375676398| 10,82253470450| 10,35375676398| 10,45420917981| 10,35375676398
Gibbon                    |  8,53996276688|  8,53996276688|  8,53996276688|  0,00000000000|  9,48316916017|  9,08135949687| 10,15285193233|  9,96868916999|  9,96868916999|  8,53996276688| 10,35375676398| 10,35375676398| 10,35375676398| 10,35375676398| 10,35375676398| 10,35375676398| 10,35375676398| 10,35375676398| 10,35375676398| 10,35375676398| 10,35375676398| 10,35375676398| 10,35375676398| 10,35375676398| 10,35375676398| 10,35375676398| 10,35375676398| 10,82253470450| 10,35375676398| 10,45420917981| 10,35375676398
Baboon                    |  9,48316916017|  9,48316916017|  9,48316916017|  9,48316916017|  0,00000000000|  9,48316916017| 10,15285193233|  9,96868916999|  9,96868916999|  9,48316916017| 10,35375676398| 10,35375676398| 10,35375676398| 10,35375676398| 10,35375676398| 10,35375676398| 10,35375676398| 10,35375676398| 10,35375676398| 10,35375676398| 10,35375676398| 10,35375676398| 10,35375676398| 10,35375676398| 10,35375676398| 10,35375676398| 10,35375676398| 10,82253470450| 10,35375676398| 10,45420917981| 10,35375676398
Ver_Monkey                |  9,08135949687|  9,08135949687|  9,08135949687|  9,08135949687|  9,48316916017|  0,00000000000| 10,15285193233|  9,96868916999|  9,96868916999|  9,08135949687| 10,35375676398| 10,35375676398| 10,35375676398| 10,35375676398| 10,35375676398| 10,35375676398| 10,35375676398| 10,35375676398| 10,35375676398| 10,35375676398| 10,35375676398| 10,35375676398| 10,35375676398| 10,35375676398| 10,35375676398| 10,35375676398| 10,35375676398| 10,82253470450| 10,35375676398| 10,45420917981| 10,35375676398
Macaca_Thibet             | 10,15285193233| 10,15285193233| 10,15285193233| 10,15285193233| 10,15285193233| 10,15285193233|  0,00000000000| 10,15285193233| 10,15285193233| 10,15285193233| 10,35375676398| 10,35375676398| 10,35375676398| 10,35375676398| 10,35375676398| 10,35375676398| 10,35375676398| 10,35375676398| 10,35375676398| 10,35375676398| 10,35375676398| 10,35375676398| 10,35375676398| 10,35375676398| 10,35375676398| 10,35375676398| 10,35375676398| 10,82253470450| 10,35375676398| 10,45420917981| 10,35375676398
Bor_Oran                  |  9,96868916999|  9,96868916999|  9,96868916999|  9,96868916999|  9,96868916999|  9,96868916999| 10,15285193233|  0,00000000000|  9,53339536808|  9,96868916999| 10,35375676398| 10,35375676398| 10,35375676398| 10,35375676398| 10,35375676398| 10,35375676398| 10,35375676398| 10,35375676398| 10,35375676398| 10,35375676398| 10,35375676398| 10,35375676398| 10,35375676398| 10,35375676398| 10,35375676398| 10,35375676398| 10,35375676398| 10,82253470450| 10,35375676398| 10,45420917981| 10,35375676398
Sum_Oran                  |  9,96868916999|  9,96868916999|  9,96868916999|  9,96868916999|  9,96868916999|  9,96868916999| 10,15285193233|  9,53339536808|  0,00000000000|  9,96868916999| 10,35375676398| 10,35375676398| 10,35375676398| 10,35375676398| 10,35375676398| 10,35375676398| 10,35375676398| 10,35375676398| 10,35375676398| 10,35375676398| 10,35375676398| 10,35375676398| 10,35375676398| 10,35375676398| 10,35375676398| 10,35375676398| 10,35375676398| 10,82253470450| 10,35375676398| 10,45420917981| 10,35375676398
Gorilla                   |  5,96733460630|  5,96733460630|  5,96733460630|  8,53996276688|  9,48316916017|  9,08135949687| 10,15285193233|  9,96868916999|  9,96868916999|  0,00000000000| 10,35375676398| 10,35375676398| 10,35375676398| 10,35375676398| 10,35375676398| 10,35375676398| 10,35375676398| 10,35375676398| 10,35375676398| 10,35375676398| 10,35375676398| 10,35375676398| 10,35375676398| 10,35375676398| 10,35375676398| 10,35375676398| 10,35375676398| 10,82253470450| 10,35375676398| 10,45420917981| 10,35375676398
Cat                       | 10,35375676398| 10,35375676398| 10,35375676398| 10,35375676398| 10,35375676398| 10,35375676398| 10,35375676398| 10,35375676398| 10,35375676398| 10,35375676398|  0,00000000000| 10,08588365512|  9,63384778390|  9,95194710068|  9,95194710068|  9,95194710068|  9,95194710068| 10,08588365512|  7,31816466192|  3,66950730739|  9,86823675416|  9,86823675416|  9,12575637885|  9,12575637885|  9,12575637885|  9,12575637885| 10,10262572442| 10,82253470450| 10,35375676398| 10,45420917981|  9,95194710068
Dog                       | 10,35375676398| 10,35375676398| 10,35375676398| 10,35375676398| 10,35375676398| 10,35375676398| 10,35375676398| 10,35375676398| 10,35375676398| 10,35375676398| 10,08588365512|  0,00000000000| 10,08588365512| 10,08588365512| 10,08588365512| 10,08588365512| 10,08588365512|  5,43158838856| 10,08588365512| 10,08588365512| 10,08588365512| 10,08588365512| 10,08588365512| 10,08588365512| 10,08588365512| 10,08588365512| 10,10262572442| 10,82253470450| 10,35375676398| 10,45420917981| 10,08588365512
Pig                       | 10,35375676398| 10,35375676398| 10,35375676398| 10,35375676398| 10,35375676398| 10,35375676398| 10,35375676398| 10,35375676398| 10,35375676398| 10,35375676398|  9,63384778390| 10,08588365512|  0,00000000000|  9,95194710068|  9,95194710068|  9,95194710068|  9,95194710068| 10,08588365512|  9,63384778390|  9,63384778390|  9,86823675416|  9,86823675416|  9,63384778390|  9,63384778390|  9,63384778390|  9,63384778390| 10,10262572442| 10,82253470450| 10,35375676398| 10,45420917981|  9,95194710068
Sheep                     | 10,35375676398| 10,35375676398| 10,35375676398| 10,35375676398| 10,35375676398| 10,35375676398| 10,35375676398| 10,35375676398| 10,35375676398| 10,35375676398|  9,95194710068| 10,08588365512|  9,95194710068|  0,00000000000|  7,65828360601|  8,89719673452|  8,89719673452| 10,08588365512|  9,95194710068|  9,95194710068|  9,95194710068|  9,95194710068|  9,95194710068|  9,95194710068|  9,95194710068|  9,95194710068| 10,10262572442| 10,82253470450| 10,35375676398| 10,45420917981|  9,61710571460
Goat                      | 10,35375676398| 10,35375676398| 10,35375676398| 10,35375676398| 10,35375676398| 10,35375676398| 10,35375676398| 10,35375676398| 10,35375676398| 10,35375676398|  9,95194710068| 10,08588365512|  9,95194710068|  7,65828360601|  0,00000000000|  8,89719673452|  8,89719673452| 10,08588365512|  9,95194710068|  9,95194710068|  9,95194710068|  9,95194710068|  9,95194710068|  9,95194710068|  9,95194710068|  9,95194710068| 10,10262572442| 10,82253470450| 10,35375676398| 10,45420917981|  9,61710571460
Cow                       | 10,35375676398| 10,35375676398| 10,35375676398| 10,35375676398| 10,35375676398| 10,35375676398| 10,35375676398| 10,35375676398| 10,35375676398| 10,35375676398|  9,95194710068| 10,08588365512|  9,95194710068|  8,89719673452|  8,89719673452|  0,00000000000|  7,90941464558| 10,08588365512|  9,95194710068|  9,95194710068|  9,95194710068|  9,95194710068|  9,95194710068|  9,95194710068|  9,95194710068|  9,95194710068| 10,10262572442| 10,82253470450| 10,35375676398| 10,45420917981|  9,61710571460
Buffalo                   | 10,35375676398| 10,35375676398| 10,35375676398| 10,35375676398| 10,35375676398| 10,35375676398| 10,35375676398| 10,35375676398| 10,35375676398| 10,35375676398|  9,95194710068| 10,08588365512|  9,95194710068|  8,89719673452|  8,89719673452|  7,90941464558|  0,00000000000| 10,08588365512|  9,95194710068|  9,95194710068|  9,95194710068|  9,95194710068|  9,95194710068|  9,95194710068|  9,95194710068|  9,95194710068| 10,10262572442| 10,82253470450| 10,35375676398| 10,45420917981|  9,61710571460
Wolf                      | 10,35375676398| 10,35375676398| 10,35375676398| 10,35375676398| 10,35375676398| 10,35375676398| 10,35375676398| 10,35375676398| 10,35375676398| 10,35375676398| 10,08588365512|  5,43158838856| 10,08588365512| 10,08588365512| 10,08588365512| 10,08588365512| 10,08588365512|  0,00000000000| 10,08588365512| 10,08588365512| 10,08588365512| 10,08588365512| 10,08588365512| 10,08588365512| 10,08588365512| 10,08588365512| 10,10262572442| 10,82253470450| 10,35375676398| 10,45420917981| 10,08588365512
Tiger                     | 10,35375676398| 10,35375676398| 10,35375676398| 10,35375676398| 10,35375676398| 10,35375676398| 10,35375676398| 10,35375676398| 10,35375676398| 10,35375676398|  7,31816466192| 10,08588365512|  9,63384778390|  9,95194710068|  9,95194710068|  9,95194710068|  9,95194710068| 10,08588365512|  0,00000000000|  7,31816466192|  9,86823675416|  9,86823675416|  9,12575637885|  9,12575637885|  9,12575637885|  9,12575637885| 10,10262572442| 10,82253470450| 10,35375676398| 10,45420917981|  9,95194710068
Leopard                   | 10,35375676398| 10,35375676398| 10,35375676398| 10,35375676398| 10,35375676398| 10,35375676398| 10,35375676398| 10,35375676398| 10,35375676398| 10,35375676398|  3,66950730739| 10,08588365512|  9,63384778390|  9,95194710068|  9,95194710068|  9,95194710068|  9,95194710068| 10,08588365512|  7,31816466192|  0,00000000000|  9,86823675416|  9,86823675416|  9,12575637885|  9,12575637885|  9,12575637885|  9,12575637885| 10,10262572442| 10,82253470450| 10,35375676398| 10,45420917981|  9,95194710068
Indian_Rhino              | 10,35375676398| 10,35375676398| 10,35375676398| 10,35375676398| 10,35375676398| 10,35375676398| 10,35375676398| 10,35375676398| 10,35375676398| 10,35375676398|  9,86823675416| 10,08588365512|  9,86823675416|  9,95194710068|  9,95194710068|  9,95194710068|  9,95194710068| 10,08588365512|  9,86823675416|  9,86823675416|  0,00000000000|  7,27321601202|  9,86823675416|  9,86823675416|  9,86823675416|  9,86823675416| 10,10262572442| 10,82253470450| 10,35375676398| 10,45420917981|  9,95194710068
White_Rhino               | 10,35375676398| 10,35375676398| 10,35375676398| 10,35375676398| 10,35375676398| 10,35375676398| 10,35375676398| 10,35375676398| 10,35375676398| 10,35375676398|  9,86823675416| 10,08588365512|  9,86823675416|  9,95194710068|  9,95194710068|  9,95194710068|  9,95194710068| 10,08588365512|  9,86823675416|  9,86823675416|  7,27321601202|  0,00000000000|  9,86823675416|  9,86823675416|  9,86823675416|  9,86823675416| 10,10262572442| 10,82253470450| 10,35375676398| 10,45420917981|  9,95194710068
Black_Bear                | 10,35375676398| 10,35375676398| 10,35375676398| 10,35375676398| 10,35375676398| 10,35375676398| 10,35375676398| 10,35375676398| 10,35375676398| 10,35375676398|  9,12575637885| 10,08588365512|  9,63384778390|  9,95194710068|  9,95194710068|  9,95194710068|  9,95194710068| 10,08588365512|  9,12575637885|  9,12575637885|  9,86823675416|  9,86823675416|  0,00000000000|  2,71937316129|  3,70715525024|  7,48553426534| 10,10262572442| 10,82253470450| 10,35375676398| 10,45420917981|  9,95194710068
Brown_Bear                | 10,35375676398| 10,35375676398| 10,35375676398| 10,35375676398| 10,35375676398| 10,35375676398| 10,35375676398| 10,35375676398| 10,35375676398| 10,35375676398|  9,12575637885| 10,08588365512|  9,63384778390|  9,95194710068|  9,95194710068|  9,95194710068|  9,95194710068| 10,08588365512|  9,12575637885|  9,12575637885|  9,86823675416|  9,86823675416|  2,71937316129|  0,00000000000|  3,70715525024|  7,48553426534| 10,10262572442| 10,82253470450| 10,35375676398| 10,45420917981|  9,95194710068
Polar_Bear                | 10,35375676398| 10,35375676398| 10,35375676398| 10,35375676398| 10,35375676398| 10,35375676398| 10,35375676398| 10,35375676398| 10,35375676398| 10,35375676398|  9,12575637885| 10,08588365512|  9,63384778390|  9,95194710068|  9,95194710068|  9,95194710068|  9,95194710068| 10,08588365512|  9,12575637885|  9,12575637885|  9,86823675416|  9,86823675416|  3,70715525024|  3,70715525024|  0,00000000000|  7,48553426534| 10,10262572442| 10,82253470450| 10,35375676398| 10,45420917981|  9,95194710068
Giant_Panda               | 10,35375676398| 10,35375676398| 10,35375676398| 10,35375676398| 10,35375676398| 10,35375676398| 10,35375676398| 10,35375676398| 10,35375676398| 10,35375676398|  9,12575637885| 10,08588365512|  9,63384778390|  9,95194710068|  9,95194710068|  9,95194710068|  9,95194710068| 10,08588365512|  9,12575637885|  9,12575637885|  9,86823675416|  9,86823675416|  7,48553426534|  7,48553426534|  7,48553426534|  0,00000000000| 10,10262572442| 10,82253470450| 10,35375676398| 10,45420917981|  9,95194710068
Rabbit                    | 10,35375676398| 10,35375676398| 10,35375676398| 10,35375676398| 10,35375676398| 10,35375676398| 10,35375676398| 10,35375676398| 10,35375676398| 10,35375676398| 10,10262572442| 10,10262572442| 10,10262572442| 10,10262572442| 10,10262572442| 10,10262572442| 10,10262572442| 10,10262572442| 10,10262572442| 10,10262572442| 10,10262572442| 10,10262572442| 10,10262572442| 10,10262572442| 10,10262572442| 10,10262572442|  0,00000000000| 10,82253470450| 10,35375676398| 10,45420917981| 10,10262572442
Hedgehog                  | 10,82253470450| 10,82253470450| 10,82253470450| 10,82253470450| 10,82253470450| 10,82253470450| 10,82253470450| 10,82253470450| 10,82253470450| 10,82253470450| 10,82253470450| 10,82253470450| 10,82253470450| 10,82253470450| 10,82253470450| 10,82253470450| 10,82253470450| 10,82253470450| 10,82253470450| 10,82253470450| 10,82253470450| 10,82253470450| 10,82253470450| 10,82253470450| 10,82253470450| 10,82253470450| 10,82253470450|  0,00000000000| 10,82253470450| 10,82253470450| 10,82253470450
Dormouse                  | 10,35375676398| 10,35375676398| 10,35375676398| 10,35375676398| 10,35375676398| 10,35375676398| 10,35375676398| 10,35375676398| 10,35375676398| 10,35375676398| 10,35375676398| 10,35375676398| 10,35375676398| 10,35375676398| 10,35375676398| 10,35375676398| 10,35375676398| 10,35375676398| 10,35375676398| 10,35375676398| 10,35375676398| 10,35375676398| 10,35375676398| 10,35375676398| 10,35375676398| 10,35375676398| 10,35375676398| 10,82253470450|  0,00000000000| 10,45420917981| 10,35375676398
Squirrel                  | 10,45420917981| 10,45420917981| 10,45420917981| 10,45420917981| 10,45420917981| 10,45420917981| 10,45420917981| 10,45420917981| 10,45420917981| 10,45420917981| 10,45420917981| 10,45420917981| 10,45420917981| 10,45420917981| 10,45420917981| 10,45420917981| 10,45420917981| 10,45420917981| 10,45420917981| 10,45420917981| 10,45420917981| 10,45420917981| 10,45420917981| 10,45420917981| 10,45420917981| 10,45420917981| 10,45420917981| 10,82253470450| 10,45420917981|  0,00000000000| 10,45420917981
Blue_Whale                | 10,35375676398| 10,35375676398| 10,35375676398| 10,35375676398| 10,35375676398| 10,35375676398| 10,35375676398| 10,35375676398| 10,35375676398| 10,35375676398|  9,95194710068| 10,08588365512|  9,95194710068|  9,61710571460|  9,61710571460|  9,61710571460|  9,61710571460| 10,08588365512|  9,95194710068|  9,95194710068|  9,95194710068|  9,95194710068|  9,95194710068|  9,95194710068|  9,95194710068|  9,95194710068| 10,10262572442| 10,82253470450| 10,35375676398| 10,45420917981|  0,00000000000
                           |Human          |Pig_Chim       |Com_Chim       |Gibbon         |Baboon         |Ver_Monkey     |Macaca_Thibet  |Bor_Oran       |Sum_Oran       |Gorilla        |Cat            |Dog            |Pig            |Sheep          |Goat           |Cow            |Buffalo        |Wolf           |Tiger          |Leopard        |Indian_Rhino   |White_Rhino    |Black_Bear     |Brown_Bear     |Polar_Bear     |Giant_Panda    |Rabbit         |Hedgehog       |Dormouse       |Squirrel       |Blue_Whale     
Human                     |  0,00000000000|  3,00000000000|  3,00000000000|  4,00000000000|  6,00000000000|  5,00000000000|  8,00000000000|  8,00000000000|  8,00000000000|  3,00000000000| 18,00000000000| 13,00000000000| 15,00000000000| 16,00000000000| 16,00000000000| 16,00000000000| 16,00000000000| 13,00000000000| 17,00000000000| 18,00000000000| 15,00000000000| 15,00000000000| 19,00000000000| 19,00000000000| 18,00000000000| 17,00000000000| 11,00000000000| 11,00000000000| 10,00000000000| 10,00000000000| 14,00000000000
Pig_Chim                  |  3,00000000000|  0,00000000000|  2,00000000000|  5,00000000000|  7,00000000000|  6,00000000000|  9,00000000000|  9,00000000000|  9,00000000000|  4,00000000000| 19,00000000000| 14,00000000000| 16,00000000000| 17,00000000000| 17,00000000000| 17,00000000000| 17,00000000000| 14,00000000000| 18,00000000000| 19,00000000000| 16,00000000000| 16,00000000000| 20,00000000000| 20,00000000000| 19,00000000000| 18,00000000000| 12,00000000000| 12,00000000000| 11,00000000000| 11,00000000000| 15,00000000000
Com_Chim                  |  3,00000000000|  2,00000000000|  0,00000000000|  5,00000000000|  7,00000000000|  6,00000000000|  9,00000000000|  9,00000000000|  9,00000000000|  4,00000000000| 19,00000000000| 14,00000000000| 16,00000000000| 17,00000000000| 17,00000000000| 17,00000000000| 17,00000000000| 14,00000000000| 18,00000000000| 19,00000000000| 16,00000000000| 16,00000000000| 20,00000000000| 20,00000000000| 19,00000000000| 18,00000000000| 12,00000000000| 12,00000000000| 11,00000000000| 11,00000000000| 15,00000000000
Gibbon                    |  4,00000000000|  5,00000000000|  5,00000000000|  0,00000000000|  4,00000000000|  3,00000000000|  6,00000000000|  6,00000000000|  6,00000000000|  3,00000000000| 16,00000000000| 11,00000000000| 13,00000000000| 14,00000000000| 14,00000000000| 14,00000000000| 14,00000000000| 11,00000000000| 15,00000000000| 16,00000000000| 13,00000000000| 13,00000000000| 17,00000000000| 17,00000000000| 16,00000000000| 15,00000000000|  9,00000000000|  9,00000000000|  8,00000000000|  8,00000000000| 12,00000000000
Baboon                    |  6,00000000000|  7,00000000000|  7,00000000000|  4,00000000000|  0,00000000000|  3,00000000000|  4,00000000000|  4,00000000000|  4,00000000000|  5,00000000000| 14,00000000000|  9,00000000000| 11,00000000000| 12,00000000000| 12,00000000000| 12,00000000000| 12,00000000000|  9,00000000000| 13,00000000000| 14,00000000000| 11,00000000000| 11,00000000000| 15,00000000000| 15,00000000000| 14,00000000000| 13,00000000000|  7,00000000000|  7,00000000000|  6,00000000000|  6,00000000000| 10,00000000000
Ver_Monkey                |  5,00000000000|  6,00000000000|  6,00000000000|  3,00000000000|  3,00000000000|  0,00000000000|  5,00000000000|  5,00000000000|  5,00000000000|  4,00000000000| 15,00000000000| 10,00000000000| 12,00000000000| 13,00000000000| 13,00000000000| 13,00000000000| 13,00000000000| 10,00000000000| 14,00000000000| 15,00000000000| 12,00000000000| 12,00000000000| 16,00000000000| 16,00000000000| 15,00000000000| 14,00000000000|  8,00000000000|  8,00000000000|  7,00000000000|  7,00000000000| 11,00000000000
Macaca_Thibet             |  8,00000000000|  9,00000000000|  9,00000000000|  6,00000000000|  4,00000000000|  5,00000000000|  0,00000000000|  4,00000000000|  4,00000000000|  7,00000000000| 12,00000000000|  7,00000000000|  9,00000000000| 10,00000000000| 10,00000000000| 10,00000000000| 10,00000000000|  7,00000000000| 11,00000000000| 12,00000000000|  9,00000000000|  9,00000000000| 13,00000000000| 13,00000000000| 12,00000000000| 11,00000000000|  5,00000000000|  5,00000000000|  4,00000000000|  4,00000000000|  8,00000000000
Bor_Oran                  |  8,00000000000|  9,00000000000|  9,00000000000|  6,00000000000|  4,00000000000|  5,00000000000|  4,00000000000|  0,00000000000|  2,00000000000|  7,00000000000| 14,00000000000|  9,00000000000| 11,00000000000| 12,00000000000| 12,00000000000| 12,00000000000| 12,00000000000|  9,00000000000| 13,00000000000| 14,00000000000| 11,00000000000| 11,00000000000| 15,00000000000| 15,00000000000| 14,00000000000| 13,00000000000|  7,00000000000|  7,00000000000|  6,00000000000|  6,00000000000| 10,00000000000
Sum_Oran                  |  8,00000000000|  9,00000000000|  9,00000000000|  6,00000000000|  4,00000000000|  5,00000000000|  4,00000000000|  2,00000000000|  0,00000000000|  7,00000000000| 14,00000000000|  9,00000000000| 11,00000000000| 12,00000000000| 12,00000000000| 12,00000000000| 12,00000000000|  9,00000000000| 13,00000000000| 14,00000000000| 11,00000000000| 11,00000000000| 15,00000000000| 15,00000000000| 14,00000000000| 13,00000000000|  7,00000000000|  7,00000000000|  6,00000000000|  6,00000000000| 10,00000000000
Gorilla                   |  3,00000000000|  4,00000000000|  4,00000000000|  3,00000000000|  5,00000000000|  4,00000000000|  7,00000000000|  7,00000000000|  7,00000000000|  0,00000000000| 17,00000000000| 12,00000000000| 14,00000000000| 15,00000000000| 15,00000000000| 15,00000000000| 15,00000000000| 12,00000000000| 16,00000000000| 17,00000000000| 14,00000000000| 14,00000000000| 18,00000000000| 18,00000000000| 17,00000000000| 16,00000000000| 10,00000000000| 10,00000000000|  9,00000000000|  9,00000000000| 13,00000000000
Cat                       | 18,00000000000| 19,00000000000| 19,00000000000| 16,00000000000| 14,00000000000| 15,00000000000| 12,00000000000| 14,00000000000| 14,00000000000| 17,00000000000|  0,00000000000|  9,00000000000|  5,00000000000| 10,00000000000| 10,00000000000| 10,00000000000| 10,00000000000|  9,00000000000|  3,00000000000|  2,00000000000|  7,00000000000|  7,00000000000|  7,00000000000|  7,00000000000|  6,00000000000|  5,00000000000|  9,00000000000| 13,00000000000| 10,00000000000| 12,00000000000|  8,00000000000
Dog                       | 13,00000000000| 14,00000000000| 14,00000000000| 11,00000000000|  9,00000000000| 10,00000000000|  7,00000000000|  9,00000000000|  9,00000000000| 12,00000000000|  9,00000000000|  0,00000000000|  6,00000000000|  7,00000000000|  7,00000000000|  7,00000000000|  7,00000000000|  2,00000000000|  8,00000000000|  9,00000000000|  6,00000000000|  6,00000000000| 10,00000000000| 10,00000000000|  9,00000000000|  8,00000000000|  4,00000000000|  8,00000000000|  5,00000000000|  7,00000000000|  5,00000000000
Pig                       | 15,00000000000| 16,00000000000| 16,00000000000| 13,00000000000| 11,00000000000| 12,00000000000|  9,00000000000| 11,00000000000| 11,00000000000| 14,00000000000|  5,00000000000|  6,00000000000|  0,00000000000|  7,00000000000|  7,00000000000|  7,00000000000|  7,00000000000|  6,00000000000|  4,00000000000|  5,00000000000|  4,00000000000|  4,00000000000|  6,00000000000|  6,00000000000|  5,00000000000|  4,00000000000|  6,00000000000| 10,00000000000|  7,00000000000|  9,00000000000|  5,00000000000
Sheep                     | 16,00000000000| 17,00000000000| 17,00000000000| 14,00000000000| 12,00000000000| 13,00000000000| 10,00000000000| 12,00000000000| 12,00000000000| 15,00000000000| 10,00000000000|  7,00000000000|  7,00000000000|  0,00000000000|  2,00000000000|  4,00000000000|  4,00000000000|  7,00000000000|  9,00000000000| 10,00000000000|  7,00000000000|  7,00000000000| 11,00000000000| 11,00000000000| 10,00000000000|  9,00000000000|  7,00000000000| 11,00000000000|  8,00000000000| 10,00000000000|  4,00000000000
Goat                      | 16,00000000000| 17,00000000000| 17,00000000000| 14,00000000000| 12,00000000000| 13,00000000000| 10,00000000000| 12,00000000000| 12,00000000000| 15,00000000000| 10,00000000000|  7,00000000000|  7,00000000000|  2,00000000000|  0,00000000000|  4,00000000000|  4,00000000000|  7,00000000000|  9,00000000000| 10,00000000000|  7,00000000000|  7,00000000000| 11,00000000000| 11,00000000000| 10,00000000000|  9,00000000000|  7,00000000000| 11,00000000000|  8,00000000000| 10,00000000000|  4,00000000000
Cow                       | 16,00000000000| 17,00000000000| 17,00000000000| 14,00000000000| 12,00000000000| 13,00000000000| 10,00000000000| 12,00000000000| 12,00000000000| 15,00000000000| 10,00000000000|  7,00000000000|  7,00000000000|  4,00000000000|  4,00000000000|  0,00000000000|  2,00000000000|  7,00000000000|  9,00000000000| 10,00000000000|  7,00000000000|  7,00000000000| 11,00000000000| 11,00000000000| 10,00000000000|  9,00000000000|  7,00000000000| 11,00000000000|  8,00000000000| 10,00000000000|  4,00000000000
Buffalo                   | 16,00000000000| 17,00000000000| 17,00000000000| 14,00000000000| 12,00000000000| 13,00000000000| 10,00000000000| 12,00000000000| 12,00000000000| 15,00000000000| 10,00000000000|  7,00000000000|  7,00000000000|  4,00000000000|  4,00000000000|  2,00000000000|  0,00000000000|  7,00000000000|  9,00000000000| 10,00000000000|  7,00000000000|  7,00000000000| 11,00000000000| 11,00000000000| 10,00000000000|  9,00000000000|  7,00000000000| 11,00000000000|  8,00000000000| 10,00000000000|  4,00000000000
Wolf                      | 13,00000000000| 14,00000000000| 14,00000000000| 11,00000000000|  9,00000000000| 10,00000000000|  7,00000000000|  9,00000000000|  9,00000000000| 12,00000000000|  9,00000000000|  2,00000000000|  6,00000000000|  7,00000000000|  7,00000000000|  7,00000000000|  7,00000000000|  0,00000000000|  8,00000000000|  9,00000000000|  6,00000000000|  6,00000000000| 10,00000000000| 10,00000000000|  9,00000000000|  8,00000000000|  4,00000000000|  8,00000000000|  5,00000000000|  7,00000000000|  5,00000000000
Tiger                     | 17,00000000000| 18,00000000000| 18,00000000000| 15,00000000000| 13,00000000000| 14,00000000000| 11,00000000000| 13,00000000000| 13,00000000000| 16,00000000000|  3,00000000000|  8,00000000000|  4,00000000000|  9,00000000000|  9,00000000000|  9,00000000000|  9,00000000000|  8,00000000000|  0,00000000000|  3,00000000000|  6,00000000000|  6,00000000000|  6,00000000000|  6,00000000000|  5,00000000000|  4,00000000000|  8,00000000000| 12,00000000000|  9,00000000000| 11,00000000000|  7,00000000000
Leopard                   | 18,00000000000| 19,00000000000| 19,00000000000| 16,00000000000| 14,00000000000| 15,00000000000| 12,00000000000| 14,00000000000| 14,00000000000| 17,00000000000|  2,00000000000|  9,00000000000|  5,00000000000| 10,00000000000| 10,00000000000| 10,00000000000| 10,00000000000|  9,00000000000|  3,00000000000|  0,00000000000|  7,00000000000|  7,00000000000|  7,00000000000|  7,00000000000|  6,00000000000|  5,00000000000|  9,00000000000| 13,00000000000| 10,00000000000| 12,00000000000|  8,00000000000
Indian_Rhino              | 15,00000000000| 16,00000000000| 16,00000000000| 13,00000000000| 11,00000000000| 12,00000000000|  9,00000000000| 11,00000000000| 11,00000000000| 14,00000000000|  7,00000000000|  6,00000000000|  4,00000000000|  7,00000000000|  7,00000000000|  7,00000000000|  7,00000000000|  6,00000000000|  6,00000000000|  7,00000000000|  0,00000000000|  2,00000000000|  8,00000000000|  8,00000000000|  7,00000000000|  6,00000000000|  6,00000000000| 10,00000000000|  7,00000000000|  9,00000000000|  5,00000000000
White_Rhino               | 15,00000000000| 16,00000000000| 16,00000000000| 13,00000000000| 11,00000000000| 12,00000000000|  9,00000000000| 11,00000000000| 11,00000000000| 14,00000000000|  7,00000000000|  6,00000000000|  4,00000000000|  7,00000000000|  7,00000000000|  7,00000000000|  7,00000000000|  6,00000000000|  6,00000000000|  7,00000000000|  2,00000000000|  0,00000000000|  8,00000000000|  8,00000000000|  7,00000000000|  6,00000000000|  6,00000000000| 10,00000000000|  7,00000000000|  9,00000000000|  5,00000000000
Black_Bear                | 19,00000000000| 20,00000000000| 20,00000000000| 17,00000000000| 15,00000000000| 16,00000000000| 13,00000000000| 15,00000000000| 15,00000000000| 18,00000000000|  7,00000000000| 10,00000000000|  6,00000000000| 11,00000000000| 11,00000000000| 11,00000000000| 11,00000000000| 10,00000000000|  6,00000000000|  7,00000000000|  8,00000000000|  8,00000000000|  0,00000000000|  2,00000000000|  3,00000000000|  4,00000000000| 10,00000000000| 14,00000000000| 11,00000000000| 13,00000000000|  9,00000000000
Brown_Bear                | 19,00000000000| 20,00000000000| 20,00000000000| 17,00000000000| 15,00000000000| 16,00000000000| 13,00000000000| 15,00000000000| 15,00000000000| 18,00000000000|  7,00000000000| 10,00000000000|  6,00000000000| 11,00000000000| 11,00000000000| 11,00000000000| 11,00000000000| 10,00000000000|  6,00000000000|  7,00000000000|  8,00000000000|  8,00000000000|  2,00000000000|  0,00000000000|  3,00000000000|  4,00000000000| 10,00000000000| 14,00000000000| 11,00000000000| 13,00000000000|  9,00000000000
Polar_Bear                | 18,00000000000| 19,00000000000| 19,00000000000| 16,00000000000| 14,00000000000| 15,00000000000| 12,00000000000| 14,00000000000| 14,00000000000| 17,00000000000|  6,00000000000|  9,00000000000|  5,00000000000| 10,00000000000| 10,00000000000| 10,00000000000| 10,00000000000|  9,00000000000|  5,00000000000|  6,00000000000|  7,00000000000|  7,00000000000|  3,00000000000|  3,00000000000|  0,00000000000|  3,00000000000|  9,00000000000| 13,00000000000| 10,00000000000| 12,00000000000|  8,00000000000
Giant_Panda               | 17,00000000000| 18,00000000000| 18,00000000000| 15,00000000000| 13,00000000000| 14,00000000000| 11,00000000000| 13,00000000000| 13,00000000000| 16,00000000000|  5,00000000000|  8,00000000000|  4,00000000000|  9,00000000000|  9,00000000000|  9,00000000000|  9,00000000000|  8,00000000000|  4,00000000000|  5,00000000000|  6,00000000000|  6,00000000000|  4,00000000000|  4,00000000000|  3,00000000000|  0,00000000000|  8,00000000000| 12,00000000000|  9,00000000000| 11,00000000000|  7,00000000000
Rabbit                    | 11,00000000000| 12,00000000000| 12,00000000000|  9,00000000000|  7,00000000000|  8,00000000000|  5,00000000000|  7,00000000000|  7,00000000000| 10,00000000000|  9,00000000000|  4,00000000000|  6,00000000000|  7,00000000000|  7,00000000000|  7,00000000000|  7,00000000000|  4,00000000000|  8,00000000000|  9,00000000000|  6,00000000000|  6,00000000000| 10,00000000000| 10,00000000000|  9,00000000000|  8,00000000000|  0,00000000000|  6,00000000000|  3,00000000000|  5,00000000000|  5,00000000000
Hedgehog                  | 11,00000000000| 12,00000000000| 12,00000000000|  9,00000000000|  7,00000000000|  8,00000000000|  5,00000000000|  7,00000000000|  7,00000000000| 10,00000000000| 13,00000000000|  8,00000000000| 10,00000000000| 11,00000000000| 11,00000000000| 11,00000000000| 11,00000000000|  8,00000000000| 12,00000000000| 13,00000000000| 10,00000000000| 10,00000000000| 14,00000000000| 14,00000000000| 13,00000000000| 12,00000000000|  6,00000000000|  0,00000000000|  5,00000000000|  3,00000000000|  9,00000000000
Dormouse                  | 10,00000000000| 11,00000000000| 11,00000000000|  8,00000000000|  6,00000000000|  7,00000000000|  4,00000000000|  6,00000000000|  6,00000000000|  9,00000000000| 10,00000000000|  5,00000000000|  7,00000000000|  8,00000000000|  8,00000000000|  8,00000000000|  8,00000000000|  5,00000000000|  9,00000000000| 10,00000000000|  7,00000000000|  7,00000000000| 11,00000000000| 11,00000000000| 10,00000000000|  9,00000000000|  3,00000000000|  5,00000000000|  0,00000000000|  4,00000000000|  6,00000000000
Squirrel                  | 10,00000000000| 11,00000000000| 11,00000000000|  8,00000000000|  6,00000000000|  7,00000000000|  4,00000000000|  6,00000000000|  6,00000000000|  9,00000000000| 12,00000000000|  7,00000000000|  9,00000000000| 10,00000000000| 10,00000000000| 10,00000000000| 10,00000000000|  7,00000000000| 11,00000000000| 12,00000000000|  9,00000000000|  9,00000000000| 13,00000000000| 13,00000000000| 12,00000000000| 11,00000000000|  5,00000000000|  3,00000000000|  4,00000000000|  0,00000000000|  8,00000000000
Blue_Whale                | 14,00000000000| 15,00000000000| 15,00000000000| 12,00000000000| 10,00000000000| 11,00000000000|  8,00000000000| 10,00000000000| 10,00000000000| 13,00000000000|  8,00000000000|  5,00000000000|  5,00000000000|  4,00000000000|  4,00000000000|  4,00000000000|  4,00000000000|  5,00000000000|  7,00000000000|  8,00000000000|  5,00000000000|  5,00000000000|  9,00000000000|  9,00000000000|  8,00000000000|  7,00000000000|  5,00000000000|  9,00000000000|  6,00000000000|  8,00000000000|  0,00000000000
