                           |Human          |Pig_Chim       |Com_Chim       |Gibbon         |Baboon         |Ver_Monkey     |Macaca_Thibet  |Bor_Oran       |Sum_Oran       |Gorilla        |Cat            |Dog            |Pig            |Sheep          |Goat           |Cow            |Buffalo        |Wolf           |Tiger          |Leopard        |Indian_Rhino   |White_Rhino    |Black_Bear     |Brown_Bear     |Polar_Bear     |Giant_Panda    |Rabbit         |Hedgehog       |Dormouse       |Squirrel       |Blue_Whale     
Human                     |  0,00000000000|  6,52289359378|  5,10735749717|  8,71841896810|  9,49840824582|  9,44063126229| 10,24950903178|  9,55618522936|  9,90284713057|  7,38954834680| 10,74061339182| 10,48061696592| 10,24950903178| 10,36506299885| 10,45172847415| 10,27839752354| 10,33617450708| 10,16284355647| 10,30728601531| 10,42283998238| 10,59617093299| 10,01840109764| 10,85616735889| 10,39395149061| 10,71172490006| 10,68283640829| 10,56728244122| 10,62505942475| 10,45172847415| 10,62505942475| 10,62505942475
Pig_Chim                  |  6,52289359378|  0,00000000000|  3,66293290880|  8,34286857513|  9,32507729522|  8,92063841048|  9,96062411410|  9,46951975406|  9,64285070466|  5,77179280783| 10,19173204824| 10,65394791652| 10,39395149061| 10,62505942475| 10,36506299885| 10,71172490006| 10,48061696592| 10,50950545768|  9,98951260587| 10,22062054001|  9,81618165527|  9,75840467173| 10,91394434243| 10,74061339182| 10,79839037536| 10,65394791652| 10,59617093299| 10,48061696592| 10,13395506471| 10,27839752354| 10,59617093299
Com_Chim                  |  5,10735749717|  3,66293290880|  0,00000000000|  8,48731103396|  9,32507729522|  9,12285785285| 10,42283998238|  9,72951617996|  9,67173919643|  5,84890516382| 10,32388940716| 10,19173204824| 10,16284355647| 10,13395506471| 10,13395506471| 10,36506299885| 10,50950545768| 10,04728958940| 10,06405161239| 10,20840594282| 10,33617450708|  9,72951617996| 10,69921066628| 10,68283640829| 10,49711460368| 10,75695239845| 10,30728601531| 10,76950188359| 10,71172490006| 10,48061696592| 10,85616735889
Gibbon                    |  8,71841896810|  8,34286857513|  8,48731103396|  0,00000000000| 10,07617808117|  9,52729673759|  9,26730031168|  9,70062768820| 10,13395506471|  7,62065628094| 10,50950545768| 10,45172847415| 10,48061696592| 10,71172490006| 10,45172847415| 10,74061339182| 10,27839752354| 10,42283998238| 10,56728244122| 10,59617093299| 10,62505942475| 10,33617450708| 10,65394791652| 10,53839394945| 10,74061339182| 10,91394434243| 10,22062054001| 10,65394791652| 10,33617450708| 10,79839037536| 10,50950545768
Baboon                    |  9,49840824582|  9,32507729522|  9,32507729522| 10,07617808117|  0,00000000000|  9,75840467173|  9,46951975406| 10,19173204824| 10,07617808117|  9,41174277052| 10,68283640829| 10,74061339182| 10,76950188359| 10,59617093299| 10,91394434243| 10,48061696592|  9,84507014703| 10,65394791652| 10,76950188359| 10,48061696592| 10,48061696592| 10,33617450708| 10,74061339182| 10,62505942475| 10,50950545768| 11,02949830950| 10,50950545768| 10,36506299885| 10,94283283420| 10,76950188359| 11,28949473540
Ver_Monkey                |  9,44063126229|  8,92063841048|  9,12285785285|  9,52729673759|  9,75840467173|  0,00000000000|  9,35396578699|  9,98951260587|  9,23841181992|  9,23841181992| 10,42283998238| 10,36506299885| 10,56728244122| 10,33617450708| 10,27839752354| 10,68283640829| 10,65394791652| 10,16284355647| 10,79839037536| 10,53839394945| 10,27839752354| 10,01840109764| 10,94283283420| 10,76950188359| 10,82727886713| 10,48061696592| 10,16284355647| 10,48061696592| 10,59617093299| 10,10506657294| 10,59617093299
Macaca_Thibet             | 10,24950903178|  9,96062411410| 10,42283998238|  9,26730031168|  9,46951975406|  9,35396578699|  0,00000000000| 10,42283998238|  9,67173919643|  9,72951617996| 10,88505585066| 10,36506299885| 10,42283998238| 10,45172847415| 10,59617093299| 10,10506657294| 10,59617093299| 10,42283998238| 10,59617093299| 10,79839037536| 10,59617093299| 10,33617450708| 10,82727886713| 10,53839394945| 11,11616378480| 11,02949830950|  9,98951260587| 10,68283640829| 10,36506299885| 10,68283640829| 10,39395149061
Bor_Oran                  |  9,55618522936|  9,46951975406|  9,72951617996|  9,70062768820| 10,19173204824|  9,98951260587| 10,42283998238|  0,00000000000|  9,15174634461|  9,03619237754| 10,16284355647| 10,74061339182|  9,84507014703| 10,42283998238| 10,42283998238| 10,50950545768| 10,48061696592| 10,19173204824| 10,59617093299|  9,84507014703| 10,01840109764| 10,07617808117| 10,79839037536| 10,62505942475| 11,08727529303| 10,56728244122|  9,96062411410| 10,74061339182| 11,14505227657| 10,53839394945| 10,94283283420
Sum_Oran                  |  9,90284713057|  9,64285070466|  9,67173919643| 10,13395506471| 10,07617808117|  9,23841181992|  9,67173919643|  9,15174634461|  0,00000000000|  9,64285070466| 10,48061696592| 10,50950545768|  9,93173562234| 10,24950903178| 10,65394791652|  9,90284713057|  9,98951260587| 10,74061339182| 10,39395149061| 10,76950188359| 10,48061696592| 10,48061696592| 10,53839394945| 10,33617450708| 10,62505942475| 10,85616735889| 10,22062054001| 10,50950545768| 10,36506299885| 10,33617450708| 10,56728244122
Gorilla                   |  7,38954834680|  5,77179280783|  5,84890516382|  7,62065628094|  9,41174277052|  9,23841181992|  9,72951617996|  9,03619237754|  9,64285070466|  0,00000000000| 10,69921066628| 10,07617808117|  9,87395863880| 10,36506299885| 10,16284355647| 10,42283998238| 10,50950545768| 10,24950903178| 10,32388940716| 10,41050200542| 10,13395506471| 10,22062054001| 10,58372720194| 10,27839752354| 10,67033980020| 10,72808153237| 10,39395149061| 10,07617808117|  9,72951617996| 10,74061339182| 10,71172490006
Cat                       | 10,74061339182| 10,19173204824| 10,32388940716| 10,50950545768| 10,68283640829| 10,42283998238| 10,88505585066| 10,16284355647| 10,48061696592| 10,69921066628|  0,00000000000| 10,42283998238|  8,86286142694|  9,98951260587|  9,58507372113|  9,96062411410| 10,16284355647|  9,93173562234|  6,97486894118|  3,33713981434| 10,13395506471|  9,96062411410|  9,71760121936|  9,58507372113|  9,25566736198|  8,96695870112|  9,64285070466| 10,19173204824| 10,36506299885| 10,10506657294| 10,36506299885
Dog                       | 10,48061696592| 10,65394791652| 10,19173204824| 10,45172847415| 10,74061339182| 10,36506299885| 10,36506299885| 10,74061339182| 10,50950545768| 10,07617808117| 10,42283998238|  0,00000000000| 10,16284355647| 10,16284355647| 10,33617450708| 10,33617450708| 10,48061696592|  5,74290431606| 10,30728601531| 10,39395149061| 10,10506657294|  9,78729316350| 10,13395506471| 10,04728958940| 10,10506657294| 10,16284355647| 10,42283998238| 10,30728601531| 10,07617808117| 10,74061339182| 10,01840109764
Pig                       | 10,24950903178| 10,39395149061| 10,16284355647| 10,48061696592| 10,76950188359| 10,56728244122| 10,42283998238|  9,84507014703|  9,93173562234|  9,87395863880|  8,86286142694| 10,16284355647|  0,00000000000|  8,94952690224|  9,72951617996|  9,23841181992|  9,41174277052|  8,97841539401|  9,52729673759|  8,83397293517|  9,46951975406|  9,46951975406|  9,44063126229|  9,46951975406|  9,67173919643|  9,32507729522|  9,78729316350|  9,93173562234| 10,65394791652|  9,78729316350| 10,27839752354
Sheep                     | 10,36506299885| 10,62505942475| 10,13395506471| 10,71172490006| 10,59617093299| 10,33617450708| 10,45172847415| 10,42283998238| 10,24950903178| 10,36506299885|  9,98951260587| 10,16284355647|  8,94952690224|  0,00000000000|  7,21621739620|  8,74730745987|  8,60286500103|  9,96062411410|  9,84507014703| 10,19173204824|  9,96062411410| 10,10506657294|  9,61396221289|  9,41174277052| 10,01840109764|  9,84507014703| 10,45172847415| 10,59617093299| 10,07617808117| 10,53839394945|  9,70062768820
Goat                      | 10,45172847415| 10,36506299885| 10,13395506471| 10,45172847415| 10,91394434243| 10,27839752354| 10,59617093299| 10,42283998238| 10,65394791652| 10,16284355647|  9,58507372113| 10,33617450708|  9,72951617996|  7,21621739620|  0,00000000000|  8,42953405043|  8,48731103396| 10,36506299885|  9,38285427875|  9,90284713057|  9,87395863880| 10,01840109764| 10,22062054001|  9,96062411410|  9,81618165527|  9,81618165527|  9,93173562234| 10,42283998238| 10,19173204824| 10,24950903178|  9,55618522936
Cow                       | 10,27839752354| 10,71172490006| 10,36506299885| 10,74061339182| 10,48061696592| 10,68283640829| 10,10506657294| 10,50950545768|  9,90284713057| 10,42283998238|  9,96062411410| 10,33617450708|  9,23841181992|  8,74730745987|  8,42953405043|  0,00000000000|  7,41843683857| 10,53839394945|  9,67173919643|  9,64285070466|  9,75840467173|  9,64285070466|  9,84507014703|  9,96062411410| 10,07617808117|  9,90284713057|  9,98951260587| 10,30728601531| 10,16284355647| 10,13395506471|  9,46951975406
Buffalo                   | 10,33617450708| 10,48061696592| 10,50950545768| 10,27839752354|  9,84507014703| 10,65394791652| 10,59617093299| 10,48061696592|  9,98951260587| 10,50950545768| 10,16284355647| 10,48061696592|  9,41174277052|  8,60286500103|  8,48731103396|  7,41843683857|  0,00000000000| 10,36506299885|  9,64285070466|  9,75840467173| 10,33617450708|  9,64285070466|  9,87395863880|  9,90284713057|  9,75840467173| 10,16284355647| 10,53839394945| 10,27839752354| 10,10506657294|  9,70062768820|  9,49840824582
Wolf                      | 10,16284355647| 10,50950545768| 10,04728958940| 10,42283998238| 10,65394791652| 10,16284355647| 10,42283998238| 10,19173204824| 10,74061339182| 10,24950903178|  9,93173562234|  5,74290431606|  8,97841539401|  9,96062411410| 10,36506299885| 10,53839394945| 10,36506299885|  0,00000000000| 10,07617808117| 10,24950903178| 10,19173204824|  9,64285070466|  9,72951617996|  9,81618165527|  9,32507729522|  9,93173562234|  9,81618165527| 10,24950903178| 10,39395149061| 10,27839752354|  9,87395863880
Tiger                     | 10,30728601531|  9,98951260587| 10,06405161239| 10,56728244122| 10,76950188359| 10,79839037536| 10,59617093299| 10,59617093299| 10,39395149061| 10,32388940716|  6,97486894118| 10,30728601531|  9,52729673759|  9,84507014703|  9,38285427875|  9,67173919643|  9,64285070466| 10,07617808117|  0,00000000000|  7,03261067335|  9,46951975406|  9,26730031168|  9,34227996024|  9,20952332815|  9,16905476372|  9,91969728196| 10,04728958940| 10,65394791652| 10,22062054001| 10,01840109764| 10,07617808117
Leopard                   | 10,42283998238| 10,22062054001| 10,20840594282| 10,59617093299| 10,48061696592| 10,53839394945| 10,79839037536|  9,84507014703| 10,76950188359| 10,41050200542|  3,33713981434| 10,39395149061|  8,83397293517| 10,19173204824|  9,90284713057|  9,64285070466|  9,75840467173| 10,24950903178|  7,03261067335|  0,00000000000| 10,24950903178| 10,19173204824|  9,51550515675|  9,32507729522|  8,96695870112|  9,14018389764|  9,64285070466| 10,39395149061| 10,22062054001| 10,45172847415| 11,05838680127
Indian_Rhino              | 10,59617093299|  9,81618165527| 10,33617450708| 10,62505942475| 10,48061696592| 10,27839752354| 10,59617093299| 10,01840109764| 10,48061696592| 10,13395506471| 10,13395506471| 10,10506657294|  9,46951975406|  9,96062411410|  9,87395863880|  9,75840467173| 10,33617450708| 10,19173204824|  9,46951975406| 10,24950903178|  0,00000000000|  6,89844398675|  9,72951617996|  9,78729316350|  9,81618165527|  9,96062411410| 10,56728244122| 10,48061696592| 10,39395149061| 10,24950903178|  9,75840467173
White_Rhino               | 10,01840109764|  9,75840467173|  9,72951617996| 10,33617450708| 10,33617450708| 10,01840109764| 10,33617450708| 10,07617808117| 10,48061696592| 10,22062054001|  9,96062411410|  9,78729316350|  9,46951975406| 10,10506657294| 10,01840109764|  9,64285070466|  9,64285070466|  9,64285070466|  9,26730031168| 10,19173204824|  6,89844398675|  0,00000000000|  9,72951617996|  9,41174277052|  9,35396578699|  9,41174277052| 10,36506299885| 10,56728244122| 10,50950545768| 10,01840109764|  9,93173562234
Black_Bear                | 10,85616735889| 10,91394434243| 10,69921066628| 10,65394791652| 10,74061339182| 10,94283283420| 10,82727886713| 10,79839037536| 10,53839394945| 10,58372720194|  9,71760121936| 10,13395506471|  9,44063126229|  9,61396221289| 10,22062054001|  9,84507014703|  9,87395863880|  9,72951617996|  9,34227996024|  9,51550515675|  9,72951617996|  9,72951617996|  0,00000000000|  3,25849402406|  5,84890516382|  8,56276657591| 10,16284355647| 10,82727886713| 10,97172132596| 10,42283998238| 10,07617808117
Brown_Bear                | 10,39395149061| 10,74061339182| 10,68283640829| 10,53839394945| 10,62505942475| 10,76950188359| 10,53839394945| 10,62505942475| 10,33617450708| 10,27839752354|  9,58507372113| 10,04728958940|  9,46951975406|  9,41174277052|  9,96062411410|  9,96062411410|  9,90284713057|  9,81618165527|  9,20952332815|  9,32507729522|  9,78729316350|  9,41174277052|  3,25849402406|  0,00000000000|  3,95181782648|  8,05398365745|  9,90284713057| 10,59617093299| 10,82727886713| 10,04728958940|  9,98951260587
Polar_Bear                | 10,71172490006| 10,79839037536| 10,49711460368| 10,74061339182| 10,50950545768| 10,82727886713| 11,11616378480| 11,08727529303| 10,62505942475| 10,67033980020|  9,25566736198| 10,10506657294|  9,67173919643| 10,01840109764|  9,81618165527| 10,07617808117|  9,75840467173|  9,32507729522|  9,16905476372|  8,96695870112|  9,81618165527|  9,35396578699|  5,84890516382|  3,95181782648|  0,00000000000|  7,61002799507|  9,90284713057| 10,53839394945| 10,45172847415| 10,16284355647| 10,07617808117
Giant_Panda               | 10,68283640829| 10,65394791652| 10,75695239845| 10,91394434243| 11,02949830950| 10,48061696592| 11,02949830950| 10,56728244122| 10,85616735889| 10,72808153237|  8,96695870112| 10,16284355647|  9,32507729522|  9,84507014703|  9,81618165527|  9,90284713057| 10,16284355647|  9,93173562234|  9,91969728196|  9,14018389764|  9,96062411410|  9,41174277052|  8,56276657591|  8,05398365745|  7,61002799507|  0,00000000000| 10,22062054001| 10,71172490006| 10,48061696592| 10,79839037536| 10,19173204824
Rabbit                    | 10,56728244122| 10,59617093299| 10,30728601531| 10,22062054001| 10,50950545768| 10,16284355647|  9,98951260587|  9,96062411410| 10,22062054001| 10,39395149061|  9,64285070466| 10,42283998238|  9,78729316350| 10,45172847415|  9,93173562234|  9,98951260587| 10,53839394945|  9,81618165527| 10,04728958940|  9,64285070466| 10,56728244122| 10,36506299885| 10,16284355647|  9,90284713057|  9,90284713057| 10,22062054001|  0,00000000000| 10,85616735889| 10,62505942475|  9,96062411410| 10,19173204824
Hedgehog                  | 10,62505942475| 10,48061696592| 10,76950188359| 10,65394791652| 10,36506299885| 10,48061696592| 10,68283640829| 10,74061339182| 10,50950545768| 10,07617808117| 10,19173204824| 10,30728601531|  9,93173562234| 10,59617093299| 10,42283998238| 10,30728601531| 10,27839752354| 10,24950903178| 10,65394791652| 10,39395149061| 10,48061696592| 10,56728244122| 10,82727886713| 10,59617093299| 10,53839394945| 10,71172490006| 10,85616735889|  0,00000000000| 10,79839037536| 10,16284355647| 10,59617093299
Dormouse                  | 10,45172847415| 10,13395506471| 10,71172490006| 10,33617450708| 10,94283283420| 10,59617093299| 10,36506299885| 11,14505227657| 10,36506299885|  9,72951617996| 10,36506299885| 10,07617808117| 10,65394791652| 10,07617808117| 10,19173204824| 10,16284355647| 10,10506657294| 10,39395149061| 10,22062054001| 10,22062054001| 10,39395149061| 10,50950545768| 10,97172132596| 10,82727886713| 10,45172847415| 10,48061696592| 10,62505942475| 10,79839037536|  0,00000000000| 10,10506657294| 10,16284355647
Squirrel                  | 10,62505942475| 10,27839752354| 10,48061696592| 10,79839037536| 10,76950188359| 10,10506657294| 10,68283640829| 10,53839394945| 10,33617450708| 10,74061339182| 10,10506657294| 10,74061339182|  9,78729316350| 10,53839394945| 10,24950903178| 10,13395506471|  9,70062768820| 10,27839752354| 10,01840109764| 10,45172847415| 10,24950903178| 10,01840109764| 10,42283998238| 10,04728958940| 10,16284355647| 10,79839037536|  9,96062411410| 10,16284355647| 10,10506657294|  0,00000000000| 10,33617450708
Blue_Whale                | 10,62505942475| 10,59617093299| 10,85616735889| 10,50950545768| 11,28949473540| 10,59617093299| 10,39395149061| 10,94283283420| 10,56728244122| 10,71172490006| 10,36506299885| 10,01840109764| 10,27839752354|  9,70062768820|  9,55618522936|  9,46951975406|  9,49840824582|  9,87395863880| 10,07617808117| 11,05838680127|  9,75840467173|  9,93173562234| 10,07617808117|  9,98951260587| 10,07617808117| 10,19173204824| 10,19173204824| 10,59617093299| 10,16284355647| 10,33617450708|  0,00000000000
