                           |Human          |Pig_Chim       |Com_Chim       |Gibbon         |Baboon         |Ver_Monkey     |Macaca_Thibet  |Bor_Oran       |Sum_Oran       |Gorilla        |Cat            |Dog            |Pig            |Sheep          |Goat           |Cow            |Buffalo        |Wolf           |Tiger          |Leopard        |Indian_Rhino   |White_Rhino    |Black_Bear     |Brown_Bear     |Polar_Bear     |Giant_Panda    |Rabbit         |Hedgehog       |Dormouse       |Squirrel       |Blue_Whale     
Human                     |  0,00000000000|  8,05827389390|  8,55823781727| 10,55809351074| 11,05805743410| 10,80807547242| 11,05805743410|  9,80814762569| 11,55802135747|  9,05820174064| 10,05812958737| 11,05805743410| 10,30811154905| 11,80800331915| 11,05805743410| 10,55809351074| 11,30803939579| 10,55809351074| 10,80807547242| 11,04118748577| 11,05805743410| 10,80807547242| 10,78967189242| 11,05805743410| 10,80807547242| 11,05805743410| 10,55809351074| 10,55809351074| 11,55802135747| 10,80807547242| 11,05805743410
Pig_Chim                  |  8,05827389390|  0,00000000000|  4,80850839202|  8,30825585559|  9,55816566400|  8,80821977895|  9,55816566400|  8,30825585559|  9,05820174064|  7,05834604717|  9,80814762569|  9,55816566400|  8,05827389390|  9,30818370232|  9,05820174064|  9,55816566400|  9,30818370232|  9,55816566400| 10,55809351074| 10,53815629907|  8,80821977895|  8,30825585559| 11,29270307912| 11,80800331915|  9,80814762569| 10,30811154905|  7,55830997054|  8,55823781727|  9,80814762569|  9,05820174064| 10,30811154905
Com_Chim                  |  8,55823781727|  4,80850839202|  0,00000000000|  9,55816566400| 10,30811154905|  9,80814762569| 10,05812958737|  9,55816566400|  9,05820174064|  7,05834604717| 10,55809351074| 11,30803939579|  9,05820174064| 10,80807547242| 10,05812958737| 11,05805743410| 10,80807547242| 10,05812958737| 10,80807547242| 11,54421867247|  9,80814762569|  9,30818370232| 11,79573426582| 12,30796724252| 10,30811154905| 11,05805743410|  8,55823781727| 10,30811154905| 10,30811154905| 10,30811154905| 10,80807547242
Gibbon                    | 10,55809351074|  8,30825585559|  9,55816566400|  0,00000000000|  9,80814762569|  9,80814762569|  9,80814762569|  9,30818370232| 10,05812958737|  9,05820174064| 10,80807547242| 10,55809351074|  9,55816566400|  9,80814762569|  9,55816566400| 10,05812958737|  9,80814762569| 10,30811154905| 11,30803939579| 11,29270307912| 10,05812958737|  9,05820174064| 11,29270307912| 11,30803939579| 10,05812958737| 10,05812958737|  8,80821977895|  9,80814762569|  9,55816566400| 10,55809351074|  9,80814762569
Baboon                    | 11,05805743410|  9,55816566400| 10,30811154905|  9,80814762569|  0,00000000000|  9,55816566400| 10,05812958737| 10,30811154905| 10,80807547242| 10,30811154905| 10,55809351074| 10,55809351074|  9,55816566400| 10,80807547242| 10,30811154905| 10,80807547242|  9,80814762569| 10,80807547242| 10,80807547242| 10,78967189242| 10,05812958737| 10,05812958737| 11,29270307912| 11,55802135747| 10,80807547242| 11,30803939579|  9,05820174064| 10,05812958737| 11,05805743410| 10,05812958737| 10,80807547242
Ver_Monkey                | 10,80807547242|  8,80821977895|  9,80814762569|  9,80814762569|  9,55816566400|  0,00000000000|  8,80821977895|  9,55816566400|  9,80814762569| 10,05812958737| 10,05812958737|  9,55816566400|  8,80821977895|  9,30818370232| 10,05812958737|  9,80814762569|  9,05820174064| 10,30811154905| 10,80807547242| 11,04118748577|  9,05820174064|  9,55816566400| 11,54421867247| 11,05805743410| 10,30811154905| 10,05812958737|  8,55823781727|  9,30818370232| 10,55809351074|  9,05820174064| 10,05812958737
Macaca_Thibet             | 11,05805743410|  9,55816566400| 10,05812958737|  9,80814762569| 10,05812958737|  8,80821977895|  0,00000000000| 10,30811154905|  9,55816566400| 10,55809351074| 10,80807547242|  9,30818370232|  9,80814762569| 10,30811154905| 10,30811154905|  9,80814762569| 10,05812958737| 10,55809351074| 10,80807547242| 11,79573426582|  9,30818370232|  9,80814762569| 11,29270307912| 11,80800331915| 10,80807547242| 10,55809351074|  9,55816566400|  9,55816566400| 10,55809351074|  9,55816566400| 10,80807547242
Bor_Oran                  |  9,80814762569|  8,30825585559|  9,55816566400|  9,30818370232| 10,30811154905|  9,55816566400| 10,30811154905|  0,00000000000|  9,30818370232|  9,05820174064|  9,55816566400| 10,05812958737|  8,80821977895|  9,30818370232|  9,55816566400| 10,05812958737|  9,80814762569| 10,30811154905| 11,80800331915| 10,53815629907|  9,80814762569|  9,80814762569| 11,29270307912| 11,05805743410| 10,30811154905| 10,05812958737|  9,30818370232|  9,80814762569| 10,55809351074|  9,55816566400|  9,30818370232
Sum_Oran                  | 11,55802135747|  9,05820174064|  9,05820174064| 10,05812958737| 10,80807547242|  9,80814762569|  9,55816566400|  9,30818370232|  0,00000000000|  9,80814762569| 11,05805743410|  9,80814762569|  9,55816566400| 10,05812958737| 10,55809351074| 10,80807547242| 10,55809351074| 10,30811154905| 10,30811154905| 12,04724985917|  9,05820174064| 10,05812958737| 11,04118748577| 11,05805743410| 10,30811154905| 10,30811154905|  9,05820174064|  9,80814762569| 10,05812958737| 10,05812958737| 10,80807547242
Gorilla                   |  9,05820174064|  7,05834604717|  7,05834604717|  9,05820174064| 10,30811154905| 10,05812958737| 10,55809351074|  9,05820174064|  9,80814762569|  0,00000000000| 10,30811154905|  9,55816566400|  8,55823781727| 10,30811154905| 10,05812958737| 10,80807547242| 10,30811154905| 10,05812958737| 11,30803939579| 10,78967189242|  9,80814762569|  9,30818370232| 11,54421867247| 11,80800331915| 10,55809351074| 10,80807547242|  8,80821977895|  9,55816566400|  9,80814762569|  9,80814762569| 10,55809351074
Cat                       | 10,05812958737|  9,80814762569| 10,55809351074| 10,80807547242| 10,55809351074| 10,05812958737| 10,80807547242|  9,55816566400| 11,05805743410| 10,30811154905|  0,00000000000| 10,80807547242|  9,05820174064| 10,80807547242|  8,80821977895|  9,80814762569| 10,05812958737| 10,30811154905|  8,05827389390|  3,74723527862| 10,55809351074|  9,55816566400|  9,28057833232|  9,05820174064|  9,30818370232|  8,55823781727| 10,05812958737| 10,80807547242| 10,80807547242| 10,05812958737| 10,05812958737
Dog                       | 11,05805743410|  9,55816566400| 11,30803939579| 10,55809351074| 10,55809351074|  9,55816566400|  9,30818370232| 10,05812958737|  9,80814762569|  9,55816566400| 10,80807547242|  0,00000000000|  9,05820174064|  9,30818370232| 10,30811154905|  9,80814762569|  9,80814762569|  7,55830997054| 10,80807547242| 11,54421867247|  8,55823781727|  9,30818370232| 11,29270307912| 10,30811154905| 10,55809351074| 10,80807547242|  9,80814762569| 10,05812958737| 10,80807547242|  9,55816566400| 10,05812958737
Pig                       | 10,30811154905|  8,05827389390|  9,05820174064|  9,55816566400|  9,55816566400|  8,80821977895|  9,80814762569|  8,80821977895|  9,55816566400|  8,55823781727|  9,05820174064|  9,05820174064|  0,00000000000|  8,80821977895|  8,05827389390|  9,55816566400|  8,55823781727|  9,05820174064|  9,80814762569|  9,53209392567|  8,05827389390|  8,30825585559| 10,28664070572| 10,30811154905|  8,55823781727|  8,30825585559|  8,30825585559|  8,80821977895|  9,05820174064|  8,05827389390|  9,55816566400
Sheep                     | 11,80800331915|  9,30818370232| 10,80807547242|  9,80814762569| 10,80807547242|  9,30818370232| 10,30811154905|  9,30818370232| 10,05812958737| 10,30811154905| 10,80807547242|  9,30818370232|  8,80821977895|  0,00000000000|  6,80836408549|  9,55816566400|  9,05820174064| 10,30811154905| 10,05812958737| 11,79573426582|  9,80814762569|  9,05820174064| 11,29270307912| 10,80807547242| 10,05812958737| 10,30811154905|  9,05820174064| 10,05812958737| 10,05812958737| 10,30811154905|  9,80814762569
Goat                      | 11,05805743410|  9,05820174064| 10,05812958737|  9,55816566400| 10,30811154905| 10,05812958737| 10,30811154905|  9,55816566400| 10,55809351074| 10,05812958737|  8,80821977895| 10,30811154905|  8,05827389390|  6,80836408549|  0,00000000000|  9,55816566400|  7,80829193222| 10,05812958737| 10,55809351074| 10,53815629907|  9,80814762569|  9,55816566400| 10,53815629907| 11,30803939579|  9,80814762569|  9,55816566400|  8,80821977895| 10,05812958737|  9,80814762569|  9,80814762569|  9,80814762569
Cow                       | 10,55809351074|  9,55816566400| 11,05805743410| 10,05812958737| 10,80807547242|  9,80814762569|  9,80814762569| 10,05812958737| 10,80807547242| 10,80807547242|  9,80814762569|  9,80814762569|  9,55816566400|  9,55816566400|  9,55816566400|  0,00000000000|  9,05820174064| 10,55809351074| 10,05812958737| 10,78967189242| 10,05812958737| 10,30811154905| 10,28664070572| 10,55809351074| 10,05812958737| 10,30811154905|  9,30818370232|  9,80814762569| 11,05805743410|  9,55816566400|  9,80814762569
Buffalo                   | 11,30803939579|  9,30818370232| 10,80807547242|  9,80814762569|  9,80814762569|  9,05820174064| 10,05812958737|  9,80814762569| 10,55809351074| 10,30811154905| 10,05812958737|  9,80814762569|  8,55823781727|  9,05820174064|  7,80829193222|  9,05820174064|  0,00000000000| 10,80807547242|  9,80814762569| 11,29270307912|  9,55816566400|  9,30818370232| 10,78967189242| 10,80807547242| 10,55809351074| 10,05812958737|  9,05820174064|  9,80814762569|  9,80814762569|  9,30818370232|  9,80814762569
Wolf                      | 10,55809351074|  9,55816566400| 10,05812958737| 10,30811154905| 10,80807547242| 10,30811154905| 10,55809351074| 10,30811154905| 10,30811154905| 10,05812958737| 10,30811154905|  7,55830997054|  9,05820174064| 10,30811154905| 10,05812958737| 10,55809351074| 10,80807547242|  0,00000000000| 11,05805743410| 11,04118748577| 10,30811154905|  9,80814762569| 10,78967189242| 11,30803939579| 10,30811154905| 10,05812958737|  9,55816566400| 10,05812958737| 10,55809351074| 10,55809351074| 10,80807547242
Tiger                     | 10,80807547242| 10,55809351074| 10,80807547242| 11,30803939579| 10,80807547242| 10,80807547242| 10,80807547242| 11,80800331915| 10,30811154905| 11,30803939579|  8,05827389390| 10,80807547242|  9,80814762569| 10,05812958737| 10,55809351074| 10,05812958737|  9,80814762569| 11,05805743410|  0,00000000000|  8,02300036557| 10,30811154905| 10,05812958737| 10,78967189242|  9,80814762569|  9,05820174064|  9,55816566400| 10,55809351074| 11,05805743410| 10,55809351074| 10,55809351074| 11,05805743410
Leopard                   | 11,04118748577| 10,53815629907| 11,54421867247| 11,29270307912| 10,78967189242| 11,04118748577| 11,79573426582| 10,53815629907| 12,04724985917| 10,78967189242|  3,74723527862| 11,54421867247|  9,53209392567| 11,79573426582| 10,53815629907| 10,78967189242| 11,29270307912| 11,04118748577|  8,02300036557|  0,00000000000| 10,78967189242| 10,53815629907|  9,15482053564|  9,78360951902|  9,02906273897|  9,28057833232| 10,53815629907| 11,29270307912| 10,78967189242| 10,78967189242| 11,04118748577
Indian_Rhino              | 11,05805743410|  8,80821977895|  9,80814762569| 10,05812958737| 10,05812958737|  9,05820174064|  9,30818370232|  9,80814762569|  9,05820174064|  9,80814762569| 10,55809351074|  8,55823781727|  8,05827389390|  9,80814762569|  9,80814762569| 10,05812958737|  9,55816566400| 10,30811154905| 10,30811154905| 10,78967189242|  0,00000000000|  8,30825585559| 11,54421867247| 10,55809351074|  9,80814762569| 10,55809351074|  8,55823781727|  9,30818370232|  9,30818370232|  8,80821977895| 10,05812958737
White_Rhino               | 10,80807547242|  8,30825585559|  9,30818370232|  9,05820174064| 10,05812958737|  9,55816566400|  9,80814762569|  9,80814762569| 10,05812958737|  9,30818370232|  9,55816566400|  9,30818370232|  8,30825585559|  9,05820174064|  9,55816566400| 10,30811154905|  9,30818370232|  9,80814762569| 10,05812958737| 10,53815629907|  8,30825585559|  0,00000000000| 11,04118748577| 10,55809351074|  9,30818370232| 10,30811154905|  8,80821977895|  9,80814762569|  9,30818370232|  9,30818370232|  9,80814762569
Black_Bear                | 10,78967189242| 11,29270307912| 11,79573426582| 11,29270307912| 11,29270307912| 11,54421867247| 11,29270307912| 11,29270307912| 11,04118748577| 11,54421867247|  9,28057833232| 11,29270307912| 10,28664070572| 11,29270307912| 10,53815629907| 10,28664070572| 10,78967189242| 10,78967189242| 10,78967189242|  9,15482053564| 11,54421867247| 11,04118748577|  0,00000000000|  7,26845358552|  9,02906273897|  8,52603155227| 11,04118748577| 12,04724985917| 11,79573426582| 11,29270307912| 10,03512511237
Brown_Bear                | 11,05805743410| 11,80800331915| 12,30796724252| 11,30803939579| 11,55802135747| 11,05805743410| 11,80800331915| 11,05805743410| 11,05805743410| 11,80800331915|  9,05820174064| 10,30811154905| 10,30811154905| 10,80807547242| 11,30803939579| 10,55809351074| 10,80807547242| 11,30803939579|  9,80814762569|  9,78360951902| 10,55809351074| 10,55809351074|  7,26845358552|  0,00000000000|  5,80843623876|  8,80821977895| 11,05805743410| 12,05798528083| 11,55802135747| 11,05805743410| 10,05812958737
Polar_Bear                | 10,80807547242|  9,80814762569| 10,30811154905| 10,05812958737| 10,80807547242| 10,30811154905| 10,80807547242| 10,30811154905| 10,30811154905| 10,55809351074|  9,30818370232| 10,55809351074|  8,55823781727| 10,05812958737|  9,80814762569| 10,05812958737| 10,55809351074| 10,30811154905|  9,05820174064|  9,02906273897|  9,80814762569|  9,30818370232|  9,02906273897|  5,80843623876|  0,00000000000|  7,05834604717| 10,05812958737| 10,55809351074|  9,55816566400|  9,80814762569|  9,30818370232
Giant_Panda               | 11,05805743410| 10,30811154905| 11,05805743410| 10,05812958737| 11,30803939579| 10,05812958737| 10,55809351074| 10,05812958737| 10,30811154905| 10,80807547242|  8,55823781727| 10,80807547242|  8,30825585559| 10,30811154905|  9,55816566400| 10,30811154905| 10,05812958737| 10,05812958737|  9,55816566400|  9,28057833232| 10,55809351074| 10,30811154905|  8,52603155227|  8,80821977895|  7,05834604717|  0,00000000000|  9,55816566400| 10,55809351074| 10,55809351074| 10,30811154905| 10,30811154905
Rabbit                    | 10,55809351074|  7,55830997054|  8,55823781727|  8,80821977895|  9,05820174064|  8,55823781727|  9,55816566400|  9,30818370232|  9,05820174064|  8,80821977895| 10,05812958737|  9,80814762569|  8,30825585559|  9,05820174064|  8,80821977895|  9,30818370232|  9,05820174064|  9,55816566400| 10,55809351074| 10,53815629907|  8,55823781727|  8,80821977895| 11,04118748577| 11,05805743410| 10,05812958737|  9,55816566400|  0,00000000000|  9,30818370232| 10,05812958737|  9,80814762569|  9,80814762569
Hedgehog                  | 10,55809351074|  8,55823781727| 10,30811154905|  9,80814762569| 10,05812958737|  9,30818370232|  9,55816566400|  9,80814762569|  9,80814762569|  9,55816566400| 10,80807547242| 10,05812958737|  8,80821977895| 10,05812958737| 10,05812958737|  9,80814762569|  9,80814762569| 10,05812958737| 11,05805743410| 11,29270307912|  9,30818370232|  9,80814762569| 12,04724985917| 12,05798528083| 10,55809351074| 10,55809351074|  9,30818370232|  0,00000000000|  9,80814762569|  9,05820174064| 10,55809351074
Dormouse                  | 11,55802135747|  9,80814762569| 10,30811154905|  9,55816566400| 11,05805743410| 10,55809351074| 10,55809351074| 10,55809351074| 10,05812958737|  9,80814762569| 10,80807547242| 10,80807547242|  9,05820174064| 10,05812958737|  9,80814762569| 11,05805743410|  9,80814762569| 10,55809351074| 10,55809351074| 10,78967189242|  9,30818370232|  9,30818370232| 11,79573426582| 11,55802135747|  9,55816566400| 10,55809351074| 10,05812958737|  9,80814762569|  0,00000000000|  9,30818370232| 10,80807547242
Squirrel                  | 10,80807547242|  9,05820174064| 10,30811154905| 10,55809351074| 10,05812958737|  9,05820174064|  9,55816566400|  9,55816566400| 10,05812958737|  9,80814762569| 10,05812958737|  9,55816566400|  8,05827389390| 10,30811154905|  9,80814762569|  9,55816566400|  9,30818370232| 10,55809351074| 10,55809351074| 10,78967189242|  8,80821977895|  9,30818370232| 11,29270307912| 11,05805743410|  9,80814762569| 10,30811154905|  9,80814762569|  9,05820174064|  9,30818370232|  0,00000000000|  9,80814762569
Blue_Whale                | 11,05805743410| 10,30811154905| 10,80807547242|  9,80814762569| 10,80807547242| 10,05812958737| 10,80807547242|  9,30818370232| 10,80807547242| 10,55809351074| 10,05812958737| 10,05812958737|  9,55816566400|  9,80814762569|  9,80814762569|  9,80814762569|  9,80814762569| 10,80807547242| 11,05805743410| 11,04118748577| 10,05812958737|  9,80814762569| 10,03512511237| 10,05812958737|  9,30818370232| 10,30811154905|  9,80814762569| 10,55809351074| 10,80807547242|  9,80814762569|  0,00000000000
