                           |Human          |Pig_Chim       |Com_Chim       |Gibbon         |Baboon         |Ver_Monkey     |Macaca_Thibet  |Bor_Oran       |Sum_Oran       |Gorilla        |Cat            |Dog            |Pig            |Sheep          |Goat           |Cow            |Buffalo        |Wolf           |Tiger          |Leopard        |Indian_Rhino   |White_Rhino    |Black_Bear     |Brown_Bear     |Polar_Bear     |Giant_Panda    |Rabbit         |Hedgehog       |Dormouse       |Squirrel       |Blue_Whale     
Human                     |  0,00000000000|  1,31763211093|  1,31763211093|  1,31763211093|  1,31763211093|  1,31763211093|  1,31763211093|  1,31763211093|  1,31763211093|  1,31763211093|  1,32277913795|  1,31763211093|  1,31763211093|  1,31763211093|  1,31763211093|  1,33153636270|  1,31763211093|  1,31763211093|  1,31763211093|  1,31763211093|  1,31763211093|  1,31763211093|  1,31689592000|  1,31689592000|  1,31689592000|  1,32071300298|  1,31763211093|  1,31763211093|  1,31763211093|  1,31763211093|  1,32297260778
Pig_Chim                  |  1,31763211093|  0,00000000000|  1,28989263302|  1,18431111424|  1,28989263302|  1,28989263302|  1,24477115297|  1,28989263302|  1,28989263302|  1,28989263302|  1,32277913795|  1,30261418629|  1,28989263302|  1,28989263302|  1,30602867790|  1,33153636270|  1,30602867790|  1,30261418629|  1,31572876219|  1,31572876219|  1,30327770813|  1,29630074069|  1,31763211093|  1,31763211093|  1,31763211093|  1,32071300298|  1,30327770813|  1,30553321712|  1,28989263302|  1,29630074069|  1,32297260778
Com_Chim                  |  1,31763211093|  1,28989263302|  0,00000000000|  1,28989263302|  1,28623388671|  1,24935770982|  1,28989263302|  1,26429302472|  1,26429302472|  1,13358858692|  1,32277913795|  1,30261418629|  1,28535848043|  1,26878564238|  1,30602867790|  1,33153636270|  1,30602867790|  1,30261418629|  1,31572876219|  1,31572876219|  1,30327770813|  1,29630074069|  1,31763211093|  1,31763211093|  1,31763211093|  1,32071300298|  1,30327770813|  1,30553321712|  1,28535848043|  1,29630074069|  1,32297260778
Gibbon                    |  1,31763211093|  1,18431111424|  1,28989263302|  0,00000000000|  1,28989263302|  1,28989263302|  1,24477115297|  1,28989263302|  1,28989263302|  1,28989263302|  1,32277913795|  1,30261418629|  1,28989263302|  1,28989263302|  1,30602867790|  1,33153636270|  1,30602867790|  1,30261418629|  1,31572876219|  1,31572876219|  1,30327770813|  1,29630074069|  1,31763211093|  1,31763211093|  1,31763211093|  1,32071300298|  1,30327770813|  1,30553321712|  1,28989263302|  1,29630074069|  1,32297260778
Baboon                    |  1,31763211093|  1,28989263302|  1,28623388671|  1,28989263302|  0,00000000000|  1,28623388671|  1,28989263302|  1,28623388671|  1,28623388671|  1,28623388671|  1,32277913795|  1,30261418629|  1,28623388671|  1,28623388671|  1,30602867790|  1,33153636270|  1,30602867790|  1,30261418629|  1,31572876219|  1,31572876219|  1,30327770813|  1,29630074069|  1,31763211093|  1,31763211093|  1,31763211093|  1,32071300298|  1,30327770813|  1,30553321712|  1,28623388671|  1,29630074069|  1,32297260778
Ver_Monkey                |  1,31763211093|  1,28989263302|  1,24935770982|  1,28989263302|  1,28623388671|  0,00000000000|  1,28989263302|  1,26429302472|  1,26429302472|  1,24935770982|  1,32277913795|  1,30261418629|  1,28535848043|  1,26878564238|  1,30602867790|  1,33153636270|  1,30602867790|  1,30261418629|  1,31572876219|  1,31572876219|  1,30327770813|  1,29630074069|  1,31763211093|  1,31763211093|  1,31763211093|  1,32071300298|  1,30327770813|  1,30553321712|  1,28535848043|  1,29630074069|  1,32297260778
Macaca_Thibet             |  1,31763211093|  1,24477115297|  1,28989263302|  1,24477115297|  1,28989263302|  1,28989263302|  0,00000000000|  1,28989263302|  1,28989263302|  1,28989263302|  1,32277913795|  1,30261418629|  1,28989263302|  1,28989263302|  1,30602867790|  1,33153636270|  1,30602867790|  1,30261418629|  1,31572876219|  1,31572876219|  1,30327770813|  1,29630074069|  1,31763211093|  1,31763211093|  1,31763211093|  1,32071300298|  1,30327770813|  1,30553321712|  1,28989263302|  1,29630074069|  1,32297260778
Bor_Oran                  |  1,31763211093|  1,28989263302|  1,26429302472|  1,28989263302|  1,28623388671|  1,26429302472|  1,28989263302|  0,00000000000|  1,26100359018|  1,26429302472|  1,32277913795|  1,30261418629|  1,28535848043|  1,26878564238|  1,30602867790|  1,33153636270|  1,30602867790|  1,30261418629|  1,31572876219|  1,31572876219|  1,30327770813|  1,29630074069|  1,31763211093|  1,31763211093|  1,31763211093|  1,32071300298|  1,30327770813|  1,30553321712|  1,28535848043|  1,29630074069|  1,32297260778
Sum_Oran                  |  1,31763211093|  1,28989263302|  1,26429302472|  1,28989263302|  1,28623388671|  1,26429302472|  1,28989263302|  1,26100359018|  0,00000000000|  1,26429302472|  1,32277913795|  1,30261418629|  1,28535848043|  1,26878564238|  1,30602867790|  1,33153636270|  1,30602867790|  1,30261418629|  1,31572876219|  1,31572876219|  1,30327770813|  1,29630074069|  1,31763211093|  1,31763211093|  1,31763211093|  1,32071300298|  1,30327770813|  1,30553321712|  1,28535848043|  1,29630074069|  1,32297260778
Gorilla                   |  1,31763211093|  1,28989263302|  1,13358858692|  1,28989263302|  1,28623388671|  1,24935770982|  1,28989263302|  1,26429302472|  1,26429302472|  0,00000000000|  1,32277913795|  1,30261418629|  1,28535848043|  1,26878564238|  1,30602867790|  1,33153636270|  1,30602867790|  1,30261418629|  1,31572876219|  1,31572876219|  1,30327770813|  1,29630074069|  1,31763211093|  1,31763211093|  1,31763211093|  1,32071300298|  1,30327770813|  1,30553321712|  1,28535848043|  1,29630074069|  1,32297260778
Cat                       |  1,32277913795|  1,32277913795|  1,32277913795|  1,32277913795|  1,32277913795|  1,32277913795|  1,32277913795|  1,32277913795|  1,32277913795|  1,32277913795|  0,00000000000|  1,32277913795|  1,32277913795|  1,32277913795|  1,32277913795|  1,33153636270|  1,32277913795|  1,32277913795|  1,32277913795|  1,32277913795|  1,32277913795|  1,32277913795|  1,32277913795|  1,32277913795|  1,32277913795|  1,32277913795|  1,32277913795|  1,32277913795|  1,32277913795|  1,32277913795|  1,32297260778
Dog                       |  1,31763211093|  1,30261418629|  1,30261418629|  1,30261418629|  1,30261418629|  1,30261418629|  1,30261418629|  1,30261418629|  1,30261418629|  1,30261418629|  1,32277913795|  0,00000000000|  1,30261418629|  1,30261418629|  1,30602867790|  1,33153636270|  1,30602867790|  0,90540662578|  1,31572876219|  1,31572876219|  1,30327770813|  1,30261418629|  1,31763211093|  1,31763211093|  1,31763211093|  1,32071300298|  1,30327770813|  1,30553321712|  1,30261418629|  1,30261418629|  1,32297260778
Pig                       |  1,31763211093|  1,28989263302|  1,28535848043|  1,28989263302|  1,28623388671|  1,28535848043|  1,28989263302|  1,28535848043|  1,28535848043|  1,28535848043|  1,32277913795|  1,30261418629|  0,00000000000|  1,28535848043|  1,30602867790|  1,33153636270|  1,30602867790|  1,30261418629|  1,31572876219|  1,31572876219|  1,30327770813|  1,29630074069|  1,31763211093|  1,31763211093|  1,31763211093|  1,32071300298|  1,30327770813|  1,30553321712|  1,28331601597|  1,29630074069|  1,32297260778
Sheep                     |  1,31763211093|  1,28989263302|  1,26878564238|  1,28989263302|  1,28623388671|  1,26878564238|  1,28989263302|  1,26878564238|  1,26878564238|  1,26878564238|  1,32277913795|  1,30261418629|  1,28535848043|  0,00000000000|  1,30602867790|  1,33153636270|  1,30602867790|  1,30261418629|  1,31572876219|  1,31572876219|  1,30327770813|  1,29630074069|  1,31763211093|  1,31763211093|  1,31763211093|  1,32071300298|  1,30327770813|  1,30553321712|  1,28535848043|  1,29630074069|  1,32297260778
Goat                      |  1,31763211093|  1,30602867790|  1,30602867790|  1,30602867790|  1,30602867790|  1,30602867790|  1,30602867790|  1,30602867790|  1,30602867790|  1,30602867790|  1,32277913795|  1,30602867790|  1,30602867790|  1,30602867790|  0,00000000000|  1,33153636270|  1,15212808190|  1,30602867790|  1,31572876219|  1,31572876219|  1,30602867790|  1,30602867790|  1,31763211093|  1,31763211093|  1,31763211093|  1,32071300298|  1,30602867790|  1,30602867790|  1,30602867790|  1,30602867790|  1,32297260778
Cow                       |  1,33153636270|  1,33153636270|  1,33153636270|  1,33153636270|  1,33153636270|  1,33153636270|  1,33153636270|  1,33153636270|  1,33153636270|  1,33153636270|  1,33153636270|  1,33153636270|  1,33153636270|  1,33153636270|  1,33153636270|  0,00000000000|  1,33153636270|  1,33153636270|  1,33153636270|  1,33153636270|  1,33153636270|  1,33153636270|  1,33153636270|  1,33153636270|  1,33153636270|  1,33153636270|  1,33153636270|  1,33153636270|  1,33153636270|  1,33153636270|  1,33153636270
Buffalo                   |  1,31763211093|  1,30602867790|  1,30602867790|  1,30602867790|  1,30602867790|  1,30602867790|  1,30602867790|  1,30602867790|  1,30602867790|  1,30602867790|  1,32277913795|  1,30602867790|  1,30602867790|  1,30602867790|  1,15212808190|  1,33153636270|  0,00000000000|  1,30602867790|  1,31572876219|  1,31572876219|  1,30602867790|  1,30602867790|  1,31763211093|  1,31763211093|  1,31763211093|  1,32071300298|  1,30602867790|  1,30602867790|  1,30602867790|  1,30602867790|  1,32297260778
Wolf                      |  1,31763211093|  1,30261418629|  1,30261418629|  1,30261418629|  1,30261418629|  1,30261418629|  1,30261418629|  1,30261418629|  1,30261418629|  1,30261418629|  1,32277913795|  0,90540662578|  1,30261418629|  1,30261418629|  1,30602867790|  1,33153636270|  1,30602867790|  0,00000000000|  1,31572876219|  1,31572876219|  1,30327770813|  1,30261418629|  1,31763211093|  1,31763211093|  1,31763211093|  1,32071300298|  1,30327770813|  1,30553321712|  1,30261418629|  1,30261418629|  1,32297260778
Tiger                     |  1,31763211093|  1,31572876219|  1,31572876219|  1,31572876219|  1,31572876219|  1,31572876219|  1,31572876219|  1,31572876219|  1,31572876219|  1,31572876219|  1,32277913795|  1,31572876219|  1,31572876219|  1,31572876219|  1,31572876219|  1,33153636270|  1,31572876219|  1,31572876219|  0,00000000000|  1,30243745503|  1,31572876219|  1,31572876219|  1,31763211093|  1,31763211093|  1,31763211093|  1,32071300298|  1,31572876219|  1,31572876219|  1,31572876219|  1,31572876219|  1,32297260778
Leopard                   |  1,31763211093|  1,31572876219|  1,31572876219|  1,31572876219|  1,31572876219|  1,31572876219|  1,31572876219|  1,31572876219|  1,31572876219|  1,31572876219|  1,32277913795|  1,31572876219|  1,31572876219|  1,31572876219|  1,31572876219|  1,33153636270|  1,31572876219|  1,31572876219|  1,30243745503|  0,00000000000|  1,31572876219|  1,31572876219|  1,31763211093|  1,31763211093|  1,31763211093|  1,32071300298|  1,31572876219|  1,31572876219|  1,31572876219|  1,31572876219|  1,32297260778
Indian_Rhino              |  1,31763211093|  1,30327770813|  1,30327770813|  1,30327770813|  1,30327770813|  1,30327770813|  1,30327770813|  1,30327770813|  1,30327770813|  1,30327770813|  1,32277913795|  1,30327770813|  1,30327770813|  1,30327770813|  1,30602867790|  1,33153636270|  1,30602867790|  1,30327770813|  1,31572876219|  1,31572876219|  0,00000000000|  1,30327770813|  1,31763211093|  1,31763211093|  1,31763211093|  1,32071300298|  1,28214037767|  1,30553321712|  1,30327770813|  1,30327770813|  1,32297260778
White_Rhino               |  1,31763211093|  1,29630074069|  1,29630074069|  1,29630074069|  1,29630074069|  1,29630074069|  1,29630074069|  1,29630074069|  1,29630074069|  1,29630074069|  1,32277913795|  1,30261418629|  1,29630074069|  1,29630074069|  1,30602867790|  1,33153636270|  1,30602867790|  1,30261418629|  1,31572876219|  1,31572876219|  1,30327770813|  0,00000000000|  1,31763211093|  1,31763211093|  1,31763211093|  1,32071300298|  1,30327770813|  1,30553321712|  1,29630074069|  1,28423417538|  1,32297260778
Black_Bear                |  1,31689592000|  1,31763211093|  1,31763211093|  1,31763211093|  1,31763211093|  1,31763211093|  1,31763211093|  1,31763211093|  1,31763211093|  1,31763211093|  1,32277913795|  1,31763211093|  1,31763211093|  1,31763211093|  1,31763211093|  1,33153636270|  1,31763211093|  1,31763211093|  1,31763211093|  1,31763211093|  1,31763211093|  1,31763211093|  0,00000000000|  1,31007858657|  1,30878912577|  1,32071300298|  1,31763211093|  1,31763211093|  1,31763211093|  1,31763211093|  1,32297260778
Brown_Bear                |  1,31689592000|  1,31763211093|  1,31763211093|  1,31763211093|  1,31763211093|  1,31763211093|  1,31763211093|  1,31763211093|  1,31763211093|  1,31763211093|  1,32277913795|  1,31763211093|  1,31763211093|  1,31763211093|  1,31763211093|  1,33153636270|  1,31763211093|  1,31763211093|  1,31763211093|  1,31763211093|  1,31763211093|  1,31763211093|  1,31007858657|  0,00000000000|  1,31007858657|  1,32071300298|  1,31763211093|  1,31763211093|  1,31763211093|  1,31763211093|  1,32297260778
Polar_Bear                |  1,31689592000|  1,31763211093|  1,31763211093|  1,31763211093|  1,31763211093|  1,31763211093|  1,31763211093|  1,31763211093|  1,31763211093|  1,31763211093|  1,32277913795|  1,31763211093|  1,31763211093|  1,31763211093|  1,31763211093|  1,33153636270|  1,31763211093|  1,31763211093|  1,31763211093|  1,31763211093|  1,31763211093|  1,31763211093|  1,30878912577|  1,31007858657|  0,00000000000|  1,32071300298|  1,31763211093|  1,31763211093|  1,31763211093|  1,31763211093|  1,32297260778
Giant_Panda               |  1,32071300298|  1,32071300298|  1,32071300298|  1,32071300298|  1,32071300298|  1,32071300298|  1,32071300298|  1,32071300298|  1,32071300298|  1,32071300298|  1,32277913795|  1,32071300298|  1,32071300298|  1,32071300298|  1,32071300298|  1,33153636270|  1,32071300298|  1,32071300298|  1,32071300298|  1,32071300298|  1,32071300298|  1,32071300298|  1,32071300298|  1,32071300298|  1,32071300298|  0,00000000000|  1,32071300298|  1,32071300298|  1,32071300298|  1,32071300298|  1,32297260778
Rabbit                    |  1,31763211093|  1,30327770813|  1,30327770813|  1,30327770813|  1,30327770813|  1,30327770813|  1,30327770813|  1,30327770813|  1,30327770813|  1,30327770813|  1,32277913795|  1,30327770813|  1,30327770813|  1,30327770813|  1,30602867790|  1,33153636270|  1,30602867790|  1,30327770813|  1,31572876219|  1,31572876219|  1,28214037767|  1,30327770813|  1,31763211093|  1,31763211093|  1,31763211093|  1,32071300298|  0,00000000000|  1,30553321712|  1,30327770813|  1,30327770813|  1,32297260778
Hedgehog                  |  1,31763211093|  1,30553321712|  1,30553321712|  1,30553321712|  1,30553321712|  1,30553321712|  1,30553321712|  1,30553321712|  1,30553321712|  1,30553321712|  1,32277913795|  1,30553321712|  1,30553321712|  1,30553321712|  1,30602867790|  1,33153636270|  1,30602867790|  1,30553321712|  1,31572876219|  1,31572876219|  1,30553321712|  1,30553321712|  1,31763211093|  1,31763211093|  1,31763211093|  1,32071300298|  1,30553321712|  0,00000000000|  1,30553321712|  1,30553321712|  1,32297260778
Dormouse                  |  1,31763211093|  1,28989263302|  1,28535848043|  1,28989263302|  1,28623388671|  1,28535848043|  1,28989263302|  1,28535848043|  1,28535848043|  1,28535848043|  1,32277913795|  1,30261418629|  1,28331601597|  1,28535848043|  1,30602867790|  1,33153636270|  1,30602867790|  1,30261418629|  1,31572876219|  1,31572876219|  1,30327770813|  1,29630074069|  1,31763211093|  1,31763211093|  1,31763211093|  1,32071300298|  1,30327770813|  1,30553321712|  0,00000000000|  1,29630074069|  1,32297260778
Squirrel                  |  1,31763211093|  1,29630074069|  1,29630074069|  1,29630074069|  1,29630074069|  1,29630074069|  1,29630074069|  1,29630074069|  1,29630074069|  1,29630074069|  1,32277913795|  1,30261418629|  1,29630074069|  1,29630074069|  1,30602867790|  1,33153636270|  1,30602867790|  1,30261418629|  1,31572876219|  1,31572876219|  1,30327770813|  1,28423417538|  1,31763211093|  1,31763211093|  1,31763211093|  1,32071300298|  1,30327770813|  1,30553321712|  1,29630074069|  0,00000000000|  1,32297260778
Blue_Whale                |  1,32297260778|  1,32297260778|  1,32297260778|  1,32297260778|  1,32297260778|  1,32297260778|  1,32297260778|  1,32297260778|  1,32297260778|  1,32297260778|  1,32297260778|  1,32297260778|  1,32297260778|  1,32297260778|  1,32297260778|  1,33153636270|  1,32297260778|  1,32297260778|  1,32297260778|  1,32297260778|  1,32297260778|  1,32297260778|  1,32297260778|  1,32297260778|  1,32297260778|  1,32297260778|  1,32297260778|  1,32297260778|  1,32297260778|  1,32297260778|  0,00000000000
                           |Human          |Pig_Chim       |Com_Chim       |Gibbon         |Baboon         |Ver_Monkey     |Macaca_Thibet  |Bor_Oran       |Sum_Oran       |Gorilla        |Cat            |Dog            |Pig            |Sheep          |Goat           |Cow            |Buffalo        |Wolf           |Tiger          |Leopard        |Indian_Rhino   |White_Rhino    |Black_Bear     |Brown_Bear     |Polar_Bear     |Giant_Panda    |Rabbit         |Hedgehog       |Dormouse       |Squirrel       |Blue_Whale     
Human                     |  0,00000000000| 10,37133366045| 10,37133366045| 10,37133366045| 10,37133366045| 10,37133366045| 10,37133366045| 10,37133366045| 10,37133366045| 10,37133366045| 10,56199273889| 10,37133366045| 10,37133366045| 10,37133366045| 10,37133366045| 10,88638279863| 10,37133366045| 10,37133366045| 10,37133366045| 10,37133366045| 10,37133366045| 10,37133366045| 10,34406326067| 10,34406326067| 10,34406326067| 10,48545780169| 10,37133366045| 10,37133366045| 10,37133366045| 10,37133366045| 10,56915935755
Pig_Chim                  | 10,37133366045|  0,00000000000|  9,34379227034|  5,43278208813|  9,34379227034|  9,34379227034|  7,67237695124|  9,34379227034|  9,34379227034|  9,34379227034| 10,56199273889|  9,81503122348|  9,34379227034|  9,34379227034|  9,94151274809| 10,88638279863|  9,94151274809|  9,81503122348| 10,30082874243| 10,30082874243|  9,83960977372|  9,58116500970| 10,37133366045| 10,37133366045| 10,37133366045| 10,48545780169|  9,83960977372|  9,92315961030|  9,34379227034|  9,58116500970| 10,56915935755
Com_Chim                  | 10,37133366045|  9,34379227034|  0,00000000000|  9,34379227034|  9,20826292557|  7,84227477735|  9,34379227034|  8,39551713781|  8,39551713781|  3,55388961590| 10,56199273889|  9,81503122348|  9,17583563216|  8,56193521556|  9,94151274809| 10,88638279863|  9,94151274809|  9,81503122348| 10,30082874243| 10,30082874243|  9,83960977372|  9,58116500970| 10,37133366045| 10,37133366045| 10,37133366045| 10,48545780169|  9,83960977372|  9,92315961030|  9,17583563216|  9,58116500970| 10,56915935755
Gibbon                    | 10,37133366045|  5,43278208813|  9,34379227034|  0,00000000000|  9,34379227034|  9,34379227034|  7,67237695124|  9,34379227034|  9,34379227034|  9,34379227034| 10,56199273889|  9,81503122348|  9,34379227034|  9,34379227034|  9,94151274809| 10,88638279863|  9,94151274809|  9,81503122348| 10,30082874243| 10,30082874243|  9,83960977372|  9,58116500970| 10,37133366045| 10,37133366045| 10,37133366045| 10,48545780169|  9,83960977372|  9,92315961030|  9,34379227034|  9,58116500970| 10,56915935755
Baboon                    | 10,37133366045|  9,34379227034|  9,20826292557|  9,34379227034|  0,00000000000|  9,20826292557|  9,34379227034|  9,20826292557|  9,20826292557|  9,20826292557| 10,56199273889|  9,81503122348|  9,20826292557|  9,20826292557|  9,94151274809| 10,88638279863|  9,94151274809|  9,81503122348| 10,30082874243| 10,30082874243|  9,83960977372|  9,58116500970| 10,37133366045| 10,37133366045| 10,37133366045| 10,48545780169|  9,83960977372|  9,92315961030|  9,20826292557|  9,58116500970| 10,56915935755
Ver_Monkey                | 10,37133366045|  9,34379227034|  7,84227477735|  9,34379227034|  9,20826292557|  0,00000000000|  9,34379227034|  8,39551713781|  8,39551713781|  7,84227477735| 10,56199273889|  9,81503122348|  9,17583563216|  8,56193521556|  9,94151274809| 10,88638279863|  9,94151274809|  9,81503122348| 10,30082874243| 10,30082874243|  9,83960977372|  9,58116500970| 10,37133366045| 10,37133366045| 10,37133366045| 10,48545780169|  9,83960977372|  9,92315961030|  9,17583563216|  9,58116500970| 10,56915935755
Macaca_Thibet             | 10,37133366045|  7,67237695124|  9,34379227034|  7,67237695124|  9,34379227034|  9,34379227034|  0,00000000000|  9,34379227034|  9,34379227034|  9,34379227034| 10,56199273889|  9,81503122348|  9,34379227034|  9,34379227034|  9,94151274809| 10,88638279863|  9,94151274809|  9,81503122348| 10,30082874243| 10,30082874243|  9,83960977372|  9,58116500970| 10,37133366045| 10,37133366045| 10,37133366045| 10,48545780169|  9,83960977372|  9,92315961030|  9,34379227034|  9,58116500970| 10,56915935755
Bor_Oran                  | 10,37133366045|  9,34379227034|  8,39551713781|  9,34379227034|  9,20826292557|  8,39551713781|  9,34379227034|  0,00000000000|  8,27366804798|  8,39551713781| 10,56199273889|  9,81503122348|  9,17583563216|  8,56193521556|  9,94151274809| 10,88638279863|  9,94151274809|  9,81503122348| 10,30082874243| 10,30082874243|  9,83960977372|  9,58116500970| 10,37133366045| 10,37133366045| 10,37133366045| 10,48545780169|  9,83960977372|  9,92315961030|  9,17583563216|  9,58116500970| 10,56915935755
Sum_Oran                  | 10,37133366045|  9,34379227034|  8,39551713781|  9,34379227034|  9,20826292557|  8,39551713781|  9,34379227034|  8,27366804798|  0,00000000000|  8,39551713781| 10,56199273889|  9,81503122348|  9,17583563216|  8,56193521556|  9,94151274809| 10,88638279863|  9,94151274809|  9,81503122348| 10,30082874243| 10,30082874243|  9,83960977372|  9,58116500970| 10,37133366045| 10,37133366045| 10,37133366045| 10,48545780169|  9,83960977372|  9,92315961030|  9,17583563216|  9,58116500970| 10,56915935755
Gorilla                   | 10,37133366045|  9,34379227034|  3,55388961590|  9,34379227034|  9,20826292557|  7,84227477735|  9,34379227034|  8,39551713781|  8,39551713781|  0,00000000000| 10,56199273889|  9,81503122348|  9,17583563216|  8,56193521556|  9,94151274809| 10,88638279863|  9,94151274809|  9,81503122348| 10,30082874243| 10,30082874243|  9,83960977372|  9,58116500970| 10,37133366045| 10,37133366045| 10,37133366045| 10,48545780169|  9,83960977372|  9,92315961030|  9,17583563216|  9,58116500970| 10,56915935755
Cat                       | 10,56199273889| 10,56199273889| 10,56199273889| 10,56199273889| 10,56199273889| 10,56199273889| 10,56199273889| 10,56199273889| 10,56199273889| 10,56199273889|  0,00000000000| 10,56199273889| 10,56199273889| 10,56199273889| 10,56199273889| 10,88638279863| 10,56199273889| 10,56199273889| 10,56199273889| 10,56199273889| 10,56199273889| 10,56199273889| 10,56199273889| 10,56199273889| 10,56199273889| 10,56199273889| 10,56199273889| 10,56199273889| 10,56199273889| 10,56199273889| 10,56915935755
Dog                       | 10,37133366045|  9,81503122348|  9,81503122348|  9,81503122348|  9,81503122348|  9,81503122348|  9,81503122348|  9,81503122348|  9,81503122348|  9,81503122348| 10,56199273889|  0,00000000000|  9,81503122348|  9,81503122348|  9,94151274809| 10,88638279863|  9,94151274809| -4,89855531698| 10,30082874243| 10,30082874243|  9,83960977372|  9,81503122348| 10,37133366045| 10,37133366045| 10,37133366045| 10,48545780169|  9,83960977372|  9,92315961030|  9,81503122348|  9,81503122348| 10,56915935755
Pig                       | 10,37133366045|  9,34379227034|  9,17583563216|  9,34379227034|  9,20826292557|  9,17583563216|  9,34379227034|  9,17583563216|  9,17583563216|  9,17583563216| 10,56199273889|  9,81503122348|  0,00000000000|  9,17583563216|  9,94151274809| 10,88638279863|  9,94151274809|  9,81503122348| 10,30082874243| 10,30082874243|  9,83960977372|  9,58116500970| 10,37133366045| 10,37133366045| 10,37133366045| 10,48545780169|  9,83960977372|  9,92315961030|  9,10017751140|  9,58116500970| 10,56915935755
Sheep                     | 10,37133366045|  9,34379227034|  8,56193521556|  9,34379227034|  9,20826292557|  8,56193521556|  9,34379227034|  8,56193521556|  8,56193521556|  8,56193521556| 10,56199273889|  9,81503122348|  9,17583563216|  0,00000000000|  9,94151274809| 10,88638279863|  9,94151274809|  9,81503122348| 10,30082874243| 10,30082874243|  9,83960977372|  9,58116500970| 10,37133366045| 10,37133366045| 10,37133366045| 10,48545780169|  9,83960977372|  9,92315961030|  9,17583563216|  9,58116500970| 10,56915935755
Goat                      | 10,37133366045|  9,94151274809|  9,94151274809|  9,94151274809|  9,94151274809|  9,94151274809|  9,94151274809|  9,94151274809|  9,94151274809|  9,94151274809| 10,56199273889|  9,94151274809|  9,94151274809|  9,94151274809|  0,00000000000| 10,88638279863|  4,24064004810|  9,94151274809| 10,30082874243| 10,30082874243|  9,94151274809|  9,94151274809| 10,37133366045| 10,37133366045| 10,37133366045| 10,48545780169|  9,94151274809|  9,94151274809|  9,94151274809|  9,94151274809| 10,56915935755
Cow                       | 10,88638279863| 10,88638279863| 10,88638279863| 10,88638279863| 10,88638279863| 10,88638279863| 10,88638279863| 10,88638279863| 10,88638279863| 10,88638279863| 10,88638279863| 10,88638279863| 10,88638279863| 10,88638279863| 10,88638279863|  0,00000000000| 10,88638279863| 10,88638279863| 10,88638279863| 10,88638279863| 10,88638279863| 10,88638279863| 10,88638279863| 10,88638279863| 10,88638279863| 10,88638279863| 10,88638279863| 10,88638279863| 10,88638279863| 10,88638279863| 10,88638279863
Buffalo                   | 10,37133366045|  9,94151274809|  9,94151274809|  9,94151274809|  9,94151274809|  9,94151274809|  9,94151274809|  9,94151274809|  9,94151274809|  9,94151274809| 10,56199273889|  9,94151274809|  9,94151274809|  9,94151274809|  4,24064004810| 10,88638279863|  0,00000000000|  9,94151274809| 10,30082874243| 10,30082874243|  9,94151274809|  9,94151274809| 10,37133366045| 10,37133366045| 10,37133366045| 10,48545780169|  9,94151274809|  9,94151274809|  9,94151274809|  9,94151274809| 10,56915935755
Wolf                      | 10,37133366045|  9,81503122348|  9,81503122348|  9,81503122348|  9,81503122348|  9,81503122348|  9,81503122348|  9,81503122348|  9,81503122348|  9,81503122348| 10,56199273889| -4,89855531698|  9,81503122348|  9,81503122348|  9,94151274809| 10,88638279863|  9,94151274809|  0,00000000000| 10,30082874243| 10,30082874243|  9,83960977372|  9,81503122348| 10,37133366045| 10,37133366045| 10,37133366045| 10,48545780169|  9,83960977372|  9,92315961030|  9,81503122348|  9,81503122348| 10,56915935755
Tiger                     | 10,37133366045| 10,30082874243| 10,30082874243| 10,30082874243| 10,30082874243| 10,30082874243| 10,30082874243| 10,30082874243| 10,30082874243| 10,30082874243| 10,56199273889| 10,30082874243| 10,30082874243| 10,30082874243| 10,30082874243| 10,88638279863| 10,30082874243| 10,30082874243|  0,00000000000|  9,80848464451| 10,30082874243| 10,30082874243| 10,37133366045| 10,37133366045| 10,37133366045| 10,48545780169| 10,30082874243| 10,30082874243| 10,30082874243| 10,30082874243| 10,56915935755
Leopard                   | 10,37133366045| 10,30082874243| 10,30082874243| 10,30082874243| 10,30082874243| 10,30082874243| 10,30082874243| 10,30082874243| 10,30082874243| 10,30082874243| 10,56199273889| 10,30082874243| 10,30082874243| 10,30082874243| 10,30082874243| 10,88638279863| 10,30082874243| 10,30082874243|  9,80848464451|  0,00000000000| 10,30082874243| 10,30082874243| 10,37133366045| 10,37133366045| 10,37133366045| 10,48545780169| 10,30082874243| 10,30082874243| 10,30082874243| 10,30082874243| 10,56915935755
Indian_Rhino              | 10,37133366045|  9,83960977372|  9,83960977372|  9,83960977372|  9,83960977372|  9,83960977372|  9,83960977372|  9,83960977372|  9,83960977372|  9,83960977372| 10,56199273889|  9,83960977372|  9,83960977372|  9,83960977372|  9,94151274809| 10,88638279863|  9,94151274809|  9,83960977372| 10,30082874243| 10,30082874243|  0,00000000000|  9,83960977372| 10,37133366045| 10,37133366045| 10,37133366045| 10,48545780169|  9,05662885431|  9,92315961030|  9,83960977372|  9,83960977372| 10,56915935755
White_Rhino               | 10,37133366045|  9,58116500970|  9,58116500970|  9,58116500970|  9,58116500970|  9,58116500970|  9,58116500970|  9,58116500970|  9,58116500970|  9,58116500970| 10,56199273889|  9,81503122348|  9,58116500970|  9,58116500970|  9,94151274809| 10,88638279863|  9,94151274809|  9,81503122348| 10,30082874243| 10,30082874243|  9,83960977372|  0,00000000000| 10,37133366045| 10,37133366045| 10,37133366045| 10,48545780169|  9,83960977372|  9,92315961030|  9,58116500970|  9,13418849040| 10,56915935755
Black_Bear                | 10,34406326067| 10,37133366045| 10,37133366045| 10,37133366045| 10,37133366045| 10,37133366045| 10,37133366045| 10,37133366045| 10,37133366045| 10,37133366045| 10,56199273889| 10,37133366045| 10,37133366045| 10,37133366045| 10,37133366045| 10,88638279863| 10,37133366045| 10,37133366045| 10,37133366045| 10,37133366045| 10,37133366045| 10,37133366045|  0,00000000000| 10,09153174964| 10,04376681522| 10,48545780169| 10,37133366045| 10,37133366045| 10,37133366045| 10,37133366045| 10,56915935755
Brown_Bear                | 10,34406326067| 10,37133366045| 10,37133366045| 10,37133366045| 10,37133366045| 10,37133366045| 10,37133366045| 10,37133366045| 10,37133366045| 10,37133366045| 10,56199273889| 10,37133366045| 10,37133366045| 10,37133366045| 10,37133366045| 10,88638279863| 10,37133366045| 10,37133366045| 10,37133366045| 10,37133366045| 10,37133366045| 10,37133366045| 10,09153174964|  0,00000000000| 10,09153174964| 10,48545780169| 10,37133366045| 10,37133366045| 10,37133366045| 10,37133366045| 10,56915935755
Polar_Bear                | 10,34406326067| 10,37133366045| 10,37133366045| 10,37133366045| 10,37133366045| 10,37133366045| 10,37133366045| 10,37133366045| 10,37133366045| 10,37133366045| 10,56199273889| 10,37133366045| 10,37133366045| 10,37133366045| 10,37133366045| 10,88638279863| 10,37133366045| 10,37133366045| 10,37133366045| 10,37133366045| 10,37133366045| 10,37133366045| 10,04376681522| 10,09153174964|  0,00000000000| 10,48545780169| 10,37133366045| 10,37133366045| 10,37133366045| 10,37133366045| 10,56915935755
Giant_Panda               | 10,48545780169| 10,48545780169| 10,48545780169| 10,48545780169| 10,48545780169| 10,48545780169| 10,48545780169| 10,48545780169| 10,48545780169| 10,48545780169| 10,56199273889| 10,48545780169| 10,48545780169| 10,48545780169| 10,48545780169| 10,88638279863| 10,48545780169| 10,48545780169| 10,48545780169| 10,48545780169| 10,48545780169| 10,48545780169| 10,48545780169| 10,48545780169| 10,48545780169|  0,00000000000| 10,48545780169| 10,48545780169| 10,48545780169| 10,48545780169| 10,56915935755
Rabbit                    | 10,37133366045|  9,83960977372|  9,83960977372|  9,83960977372|  9,83960977372|  9,83960977372|  9,83960977372|  9,83960977372|  9,83960977372|  9,83960977372| 10,56199273889|  9,83960977372|  9,83960977372|  9,83960977372|  9,94151274809| 10,88638279863|  9,94151274809|  9,83960977372| 10,30082874243| 10,30082874243|  9,05662885431|  9,83960977372| 10,37133366045| 10,37133366045| 10,37133366045| 10,48545780169|  0,00000000000|  9,92315961030|  9,83960977372|  9,83960977372| 10,56915935755
Hedgehog                  | 10,37133366045|  9,92315961030|  9,92315961030|  9,92315961030|  9,92315961030|  9,92315961030|  9,92315961030|  9,92315961030|  9,92315961030|  9,92315961030| 10,56199273889|  9,92315961030|  9,92315961030|  9,92315961030|  9,94151274809| 10,88638279863|  9,94151274809|  9,92315961030| 10,30082874243| 10,30082874243|  9,92315961030|  9,92315961030| 10,37133366045| 10,37133366045| 10,37133366045| 10,48545780169|  9,92315961030|  0,00000000000|  9,92315961030|  9,92315961030| 10,56915935755
Dormouse                  | 10,37133366045|  9,34379227034|  9,17583563216|  9,34379227034|  9,20826292557|  9,17583563216|  9,34379227034|  9,17583563216|  9,17583563216|  9,17583563216| 10,56199273889|  9,81503122348|  9,10017751140|  9,17583563216|  9,94151274809| 10,88638279863|  9,94151274809|  9,81503122348| 10,30082874243| 10,30082874243|  9,83960977372|  9,58116500970| 10,37133366045| 10,37133366045| 10,37133366045| 10,48545780169|  9,83960977372|  9,92315961030|  0,00000000000|  9,58116500970| 10,56915935755
Squirrel                  | 10,37133366045|  9,58116500970|  9,58116500970|  9,58116500970|  9,58116500970|  9,58116500970|  9,58116500970|  9,58116500970|  9,58116500970|  9,58116500970| 10,56199273889|  9,81503122348|  9,58116500970|  9,58116500970|  9,94151274809| 10,88638279863|  9,94151274809|  9,81503122348| 10,30082874243| 10,30082874243|  9,83960977372|  9,13418849040| 10,37133366045| 10,37133366045| 10,37133366045| 10,48545780169|  9,83960977372|  9,92315961030|  9,58116500970|  0,00000000000| 10,56915935755
Blue_Whale                | 10,56915935755| 10,56915935755| 10,56915935755| 10,56915935755| 10,56915935755| 10,56915935755| 10,56915935755| 10,56915935755| 10,56915935755| 10,56915935755| 10,56915935755| 10,56915935755| 10,56915935755| 10,56915935755| 10,56915935755| 10,88638279863| 10,56915935755| 10,56915935755| 10,56915935755| 10,56915935755| 10,56915935755| 10,56915935755| 10,56915935755| 10,56915935755| 10,56915935755| 10,56915935755| 10,56915935755| 10,56915935755| 10,56915935755| 10,56915935755|  0,00000000000
                           |Human          |Pig_Chim       |Com_Chim       |Gibbon         |Baboon         |Ver_Monkey     |Macaca_Thibet  |Bor_Oran       |Sum_Oran       |Gorilla        |Cat            |Dog            |Pig            |Sheep          |Goat           |Cow            |Buffalo        |Wolf           |Tiger          |Leopard        |Indian_Rhino   |White_Rhino    |Black_Bear     |Brown_Bear     |Polar_Bear     |Giant_Panda    |Rabbit         |Hedgehog       |Dormouse       |Squirrel       |Blue_Whale     
Human                     |  0,00000000000| 12,00000000000| 16,00000000000| 12,00000000000| 11,00000000000| 15,00000000000| 11,00000000000| 15,00000000000| 15,00000000000| 16,00000000000|  5,00000000000|  9,00000000000| 13,00000000000| 13,00000000000|  6,00000000000|  7,00000000000|  6,00000000000|  9,00000000000|  5,00000000000|  5,00000000000|  8,00000000000| 10,00000000000|  4,00000000000|  3,00000000000|  4,00000000000|  4,00000000000|  8,00000000000|  6,00000000000| 13,00000000000| 10,00000000000|  6,00000000000
Pig_Chim                  | 12,00000000000|  0,00000000000| 10,00000000000|  2,00000000000|  5,00000000000|  9,00000000000|  3,00000000000|  9,00000000000|  9,00000000000| 10,00000000000| 13,00000000000|  7,00000000000|  7,00000000000|  7,00000000000| 10,00000000000| 15,00000000000| 10,00000000000|  7,00000000000| 11,00000000000| 11,00000000000|  8,00000000000|  6,00000000000| 14,00000000000| 13,00000000000| 14,00000000000| 12,00000000000|  8,00000000000|  8,00000000000|  7,00000000000|  6,00000000000| 14,00000000000
Com_Chim                  | 16,00000000000| 10,00000000000|  0,00000000000| 10,00000000000|  7,00000000000|  3,00000000000|  9,00000000000|  5,00000000000|  5,00000000000|  2,00000000000| 17,00000000000| 11,00000000000|  7,00000000000|  5,00000000000| 14,00000000000| 19,00000000000| 14,00000000000| 11,00000000000| 15,00000000000| 15,00000000000| 12,00000000000| 10,00000000000| 18,00000000000| 17,00000000000| 18,00000000000| 16,00000000000| 12,00000000000| 12,00000000000|  7,00000000000| 10,00000000000| 18,00000000000
Gibbon                    | 12,00000000000|  2,00000000000| 10,00000000000|  0,00000000000|  5,00000000000|  9,00000000000|  3,00000000000|  9,00000000000|  9,00000000000| 10,00000000000| 13,00000000000|  7,00000000000|  7,00000000000|  7,00000000000| 10,00000000000| 15,00000000000| 10,00000000000|  7,00000000000| 11,00000000000| 11,00000000000|  8,00000000000|  6,00000000000| 14,00000000000| 13,00000000000| 14,00000000000| 12,00000000000|  8,00000000000|  8,00000000000|  7,00000000000|  6,00000000000| 14,00000000000
Baboon                    | 11,00000000000|  5,00000000000|  7,00000000000|  5,00000000000|  0,00000000000|  6,00000000000|  4,00000000000|  6,00000000000|  6,00000000000|  7,00000000000| 12,00000000000|  6,00000000000|  4,00000000000|  4,00000000000|  9,00000000000| 14,00000000000|  9,00000000000|  6,00000000000| 10,00000000000| 10,00000000000|  7,00000000000|  5,00000000000| 13,00000000000| 12,00000000000| 13,00000000000| 11,00000000000|  7,00000000000|  7,00000000000|  4,00000000000|  5,00000000000| 13,00000000000
Ver_Monkey                | 15,00000000000|  9,00000000000|  3,00000000000|  9,00000000000|  6,00000000000|  0,00000000000|  8,00000000000|  4,00000000000|  4,00000000000|  3,00000000000| 16,00000000000| 10,00000000000|  6,00000000000|  4,00000000000| 13,00000000000| 18,00000000000| 13,00000000000| 10,00000000000| 14,00000000000| 14,00000000000| 11,00000000000|  9,00000000000| 17,00000000000| 16,00000000000| 17,00000000000| 15,00000000000| 11,00000000000| 11,00000000000|  6,00000000000|  9,00000000000| 17,00000000000
Macaca_Thibet             | 11,00000000000|  3,00000000000|  9,00000000000|  3,00000000000|  4,00000000000|  8,00000000000|  0,00000000000|  8,00000000000|  8,00000000000|  9,00000000000| 12,00000000000|  6,00000000000|  6,00000000000|  6,00000000000|  9,00000000000| 14,00000000000|  9,00000000000|  6,00000000000| 10,00000000000| 10,00000000000|  7,00000000000|  5,00000000000| 13,00000000000| 12,00000000000| 13,00000000000| 11,00000000000|  7,00000000000|  7,00000000000|  6,00000000000|  5,00000000000| 13,00000000000
Bor_Oran                  | 15,00000000000|  9,00000000000|  5,00000000000|  9,00000000000|  6,00000000000|  4,00000000000|  8,00000000000|  0,00000000000|  2,00000000000|  5,00000000000| 16,00000000000| 10,00000000000|  6,00000000000|  4,00000000000| 13,00000000000| 18,00000000000| 13,00000000000| 10,00000000000| 14,00000000000| 14,00000000000| 11,00000000000|  9,00000000000| 17,00000000000| 16,00000000000| 17,00000000000| 15,00000000000| 11,00000000000| 11,00000000000|  6,00000000000|  9,00000000000| 17,00000000000
Sum_Oran                  | 15,00000000000|  9,00000000000|  5,00000000000|  9,00000000000|  6,00000000000|  4,00000000000|  8,00000000000|  2,00000000000|  0,00000000000|  5,00000000000| 16,00000000000| 10,00000000000|  6,00000000000|  4,00000000000| 13,00000000000| 18,00000000000| 13,00000000000| 10,00000000000| 14,00000000000| 14,00000000000| 11,00000000000|  9,00000000000| 17,00000000000| 16,00000000000| 17,00000000000| 15,00000000000| 11,00000000000| 11,00000000000|  6,00000000000|  9,00000000000| 17,00000000000
Gorilla                   | 16,00000000000| 10,00000000000|  2,00000000000| 10,00000000000|  7,00000000000|  3,00000000000|  9,00000000000|  5,00000000000|  5,00000000000|  0,00000000000| 17,00000000000| 11,00000000000|  7,00000000000|  5,00000000000| 14,00000000000| 19,00000000000| 14,00000000000| 11,00000000000| 15,00000000000| 15,00000000000| 12,00000000000| 10,00000000000| 18,00000000000| 17,00000000000| 18,00000000000| 16,00000000000| 12,00000000000| 12,00000000000|  7,00000000000| 10,00000000000| 18,00000000000
Cat                       |  5,00000000000| 13,00000000000| 17,00000000000| 13,00000000000| 12,00000000000| 16,00000000000| 12,00000000000| 16,00000000000| 16,00000000000| 17,00000000000|  0,00000000000| 10,00000000000| 14,00000000000| 14,00000000000|  7,00000000000|  4,00000000000|  7,00000000000| 10,00000000000|  6,00000000000|  6,00000000000|  9,00000000000| 11,00000000000|  7,00000000000|  6,00000000000|  7,00000000000|  3,00000000000|  9,00000000000|  7,00000000000| 14,00000000000| 11,00000000000|  3,00000000000
Dog                       |  9,00000000000|  7,00000000000| 11,00000000000|  7,00000000000|  6,00000000000| 10,00000000000|  6,00000000000| 10,00000000000| 10,00000000000| 11,00000000000| 10,00000000000|  0,00000000000|  8,00000000000|  8,00000000000|  7,00000000000| 12,00000000000|  7,00000000000|  2,00000000000|  8,00000000000|  8,00000000000|  5,00000000000|  5,00000000000| 11,00000000000| 10,00000000000| 11,00000000000|  9,00000000000|  5,00000000000|  5,00000000000|  8,00000000000|  5,00000000000| 11,00000000000
Pig                       | 13,00000000000|  7,00000000000|  7,00000000000|  7,00000000000|  4,00000000000|  6,00000000000|  6,00000000000|  6,00000000000|  6,00000000000|  7,00000000000| 14,00000000000|  8,00000000000|  0,00000000000|  4,00000000000| 11,00000000000| 16,00000000000| 11,00000000000|  8,00000000000| 12,00000000000| 12,00000000000|  9,00000000000|  7,00000000000| 15,00000000000| 14,00000000000| 15,00000000000| 13,00000000000|  9,00000000000|  9,00000000000|  2,00000000000|  7,00000000000| 15,00000000000
Sheep                     | 13,00000000000|  7,00000000000|  5,00000000000|  7,00000000000|  4,00000000000|  4,00000000000|  6,00000000000|  4,00000000000|  4,00000000000|  5,00000000000| 14,00000000000|  8,00000000000|  4,00000000000|  0,00000000000| 11,00000000000| 16,00000000000| 11,00000000000|  8,00000000000| 12,00000000000| 12,00000000000|  9,00000000000|  7,00000000000| 15,00000000000| 14,00000000000| 15,00000000000| 13,00000000000|  9,00000000000|  9,00000000000|  4,00000000000|  7,00000000000| 15,00000000000
Goat                      |  6,00000000000| 10,00000000000| 14,00000000000| 10,00000000000|  9,00000000000| 13,00000000000|  9,00000000000| 13,00000000000| 13,00000000000| 14,00000000000|  7,00000000000|  7,00000000000| 11,00000000000| 11,00000000000|  0,00000000000|  9,00000000000|  2,00000000000|  7,00000000000|  5,00000000000|  5,00000000000|  6,00000000000|  8,00000000000|  8,00000000000|  7,00000000000|  8,00000000000|  6,00000000000|  6,00000000000|  4,00000000000| 11,00000000000|  8,00000000000|  8,00000000000
Cow                       |  7,00000000000| 15,00000000000| 19,00000000000| 15,00000000000| 14,00000000000| 18,00000000000| 14,00000000000| 18,00000000000| 18,00000000000| 19,00000000000|  4,00000000000| 12,00000000000| 16,00000000000| 16,00000000000|  9,00000000000|  0,00000000000|  9,00000000000| 12,00000000000|  8,00000000000|  8,00000000000| 11,00000000000| 13,00000000000|  9,00000000000|  8,00000000000|  9,00000000000|  5,00000000000| 11,00000000000|  9,00000000000| 16,00000000000| 13,00000000000|  3,00000000000
Buffalo                   |  6,00000000000| 10,00000000000| 14,00000000000| 10,00000000000|  9,00000000000| 13,00000000000|  9,00000000000| 13,00000000000| 13,00000000000| 14,00000000000|  7,00000000000|  7,00000000000| 11,00000000000| 11,00000000000|  2,00000000000|  9,00000000000|  0,00000000000|  7,00000000000|  5,00000000000|  5,00000000000|  6,00000000000|  8,00000000000|  8,00000000000|  7,00000000000|  8,00000000000|  6,00000000000|  6,00000000000|  4,00000000000| 11,00000000000|  8,00000000000|  8,00000000000
Wolf                      |  9,00000000000|  7,00000000000| 11,00000000000|  7,00000000000|  6,00000000000| 10,00000000000|  6,00000000000| 10,00000000000| 10,00000000000| 11,00000000000| 10,00000000000|  2,00000000000|  8,00000000000|  8,00000000000|  7,00000000000| 12,00000000000|  7,00000000000|  0,00000000000|  8,00000000000|  8,00000000000|  5,00000000000|  5,00000000000| 11,00000000000| 10,00000000000| 11,00000000000|  9,00000000000|  5,00000000000|  5,00000000000|  8,00000000000|  5,00000000000| 11,00000000000
Tiger                     |  5,00000000000| 11,00000000000| 15,00000000000| 11,00000000000| 10,00000000000| 14,00000000000| 10,00000000000| 14,00000000000| 14,00000000000| 15,00000000000|  6,00000000000|  8,00000000000| 12,00000000000| 12,00000000000|  5,00000000000|  8,00000000000|  5,00000000000|  8,00000000000|  0,00000000000|  2,00000000000|  7,00000000000|  9,00000000000|  7,00000000000|  6,00000000000|  7,00000000000|  5,00000000000|  7,00000000000|  5,00000000000| 12,00000000000|  9,00000000000|  7,00000000000
Leopard                   |  5,00000000000| 11,00000000000| 15,00000000000| 11,00000000000| 10,00000000000| 14,00000000000| 10,00000000000| 14,00000000000| 14,00000000000| 15,00000000000|  6,00000000000|  8,00000000000| 12,00000000000| 12,00000000000|  5,00000000000|  8,00000000000|  5,00000000000|  8,00000000000|  2,00000000000|  0,00000000000|  7,00000000000|  9,00000000000|  7,00000000000|  6,00000000000|  7,00000000000|  5,00000000000|  7,00000000000|  5,00000000000| 12,00000000000|  9,00000000000|  7,00000000000
Indian_Rhino              |  8,00000000000|  8,00000000000| 12,00000000000|  8,00000000000|  7,00000000000| 11,00000000000|  7,00000000000| 11,00000000000| 11,00000000000| 12,00000000000|  9,00000000000|  5,00000000000|  9,00000000000|  9,00000000000|  6,00000000000| 11,00000000000|  6,00000000000|  5,00000000000|  7,00000000000|  7,00000000000|  0,00000000000|  6,00000000000| 10,00000000000|  9,00000000000| 10,00000000000|  8,00000000000|  2,00000000000|  4,00000000000|  9,00000000000|  6,00000000000| 10,00000000000
White_Rhino               | 10,00000000000|  6,00000000000| 10,00000000000|  6,00000000000|  5,00000000000|  9,00000000000|  5,00000000000|  9,00000000000|  9,00000000000| 10,00000000000| 11,00000000000|  5,00000000000|  7,00000000000|  7,00000000000|  8,00000000000| 13,00000000000|  8,00000000000|  5,00000000000|  9,00000000000|  9,00000000000|  6,00000000000|  0,00000000000| 12,00000000000| 11,00000000000| 12,00000000000| 10,00000000000|  6,00000000000|  6,00000000000|  7,00000000000|  2,00000000000| 12,00000000000
Black_Bear                |  4,00000000000| 14,00000000000| 18,00000000000| 14,00000000000| 13,00000000000| 17,00000000000| 13,00000000000| 17,00000000000| 17,00000000000| 18,00000000000|  7,00000000000| 11,00000000000| 15,00000000000| 15,00000000000|  8,00000000000|  9,00000000000|  8,00000000000| 11,00000000000|  7,00000000000|  7,00000000000| 10,00000000000| 12,00000000000|  0,00000000000|  3,00000000000|  2,00000000000|  6,00000000000| 10,00000000000|  8,00000000000| 15,00000000000| 12,00000000000|  8,00000000000
Brown_Bear                |  3,00000000000| 13,00000000000| 17,00000000000| 13,00000000000| 12,00000000000| 16,00000000000| 12,00000000000| 16,00000000000| 16,00000000000| 17,00000000000|  6,00000000000| 10,00000000000| 14,00000000000| 14,00000000000|  7,00000000000|  8,00000000000|  7,00000000000| 10,00000000000|  6,00000000000|  6,00000000000|  9,00000000000| 11,00000000000|  3,00000000000|  0,00000000000|  3,00000000000|  5,00000000000|  9,00000000000|  7,00000000000| 14,00000000000| 11,00000000000|  7,00000000000
Polar_Bear                |  4,00000000000| 14,00000000000| 18,00000000000| 14,00000000000| 13,00000000000| 17,00000000000| 13,00000000000| 17,00000000000| 17,00000000000| 18,00000000000|  7,00000000000| 11,00000000000| 15,00000000000| 15,00000000000|  8,00000000000|  9,00000000000|  8,00000000000| 11,00000000000|  7,00000000000|  7,00000000000| 10,00000000000| 12,00000000000|  2,00000000000|  3,00000000000|  0,00000000000|  6,00000000000| 10,00000000000|  8,00000000000| 15,00000000000| 12,00000000000|  8,00000000000
Giant_Panda               |  4,00000000000| 12,00000000000| 16,00000000000| 12,00000000000| 11,00000000000| 15,00000000000| 11,00000000000| 15,00000000000| 15,00000000000| 16,00000000000|  3,00000000000|  9,00000000000| 13,00000000000| 13,00000000000|  6,00000000000|  5,00000000000|  6,00000000000|  9,00000000000|  5,00000000000|  5,00000000000|  8,00000000000| 10,00000000000|  6,00000000000|  5,00000000000|  6,00000000000|  0,00000000000|  8,00000000000|  6,00000000000| 13,00000000000| 10,00000000000|  4,00000000000
Rabbit                    |  8,00000000000|  8,00000000000| 12,00000000000|  8,00000000000|  7,00000000000| 11,00000000000|  7,00000000000| 11,00000000000| 11,00000000000| 12,00000000000|  9,00000000000|  5,00000000000|  9,00000000000|  9,00000000000|  6,00000000000| 11,00000000000|  6,00000000000|  5,00000000000|  7,00000000000|  7,00000000000|  2,00000000000|  6,00000000000| 10,00000000000|  9,00000000000| 10,00000000000|  8,00000000000|  0,00000000000|  4,00000000000|  9,00000000000|  6,00000000000| 10,00000000000
Hedgehog                  |  6,00000000000|  8,00000000000| 12,00000000000|  8,00000000000|  7,00000000000| 11,00000000000|  7,00000000000| 11,00000000000| 11,00000000000| 12,00000000000|  7,00000000000|  5,00000000000|  9,00000000000|  9,00000000000|  4,00000000000|  9,00000000000|  4,00000000000|  5,00000000000|  5,00000000000|  5,00000000000|  4,00000000000|  6,00000000000|  8,00000000000|  7,00000000000|  8,00000000000|  6,00000000000|  4,00000000000|  0,00000000000|  9,00000000000|  6,00000000000|  8,00000000000
Dormouse                  | 13,00000000000|  7,00000000000|  7,00000000000|  7,00000000000|  4,00000000000|  6,00000000000|  6,00000000000|  6,00000000000|  6,00000000000|  7,00000000000| 14,00000000000|  8,00000000000|  2,00000000000|  4,00000000000| 11,00000000000| 16,00000000000| 11,00000000000|  8,00000000000| 12,00000000000| 12,00000000000|  9,00000000000|  7,00000000000| 15,00000000000| 14,00000000000| 15,00000000000| 13,00000000000|  9,00000000000|  9,00000000000|  0,00000000000|  7,00000000000| 15,00000000000
Squirrel                  | 10,00000000000|  6,00000000000| 10,00000000000|  6,00000000000|  5,00000000000|  9,00000000000|  5,00000000000|  9,00000000000|  9,00000000000| 10,00000000000| 11,00000000000|  5,00000000000|  7,00000000000|  7,00000000000|  8,00000000000| 13,00000000000|  8,00000000000|  5,00000000000|  9,00000000000|  9,00000000000|  6,00000000000|  2,00000000000| 12,00000000000| 11,00000000000| 12,00000000000| 10,00000000000|  6,00000000000|  6,00000000000|  7,00000000000|  0,00000000000| 12,00000000000
Blue_Whale                |  6,00000000000| 14,00000000000| 18,00000000000| 14,00000000000| 13,00000000000| 17,00000000000| 13,00000000000| 17,00000000000| 17,00000000000| 18,00000000000|  3,00000000000| 11,00000000000| 15,00000000000| 15,00000000000|  8,00000000000|  3,00000000000|  8,00000000000| 11,00000000000|  7,00000000000|  7,00000000000| 10,00000000000| 12,00000000000|  8,00000000000|  7,00000000000|  8,00000000000|  4,00000000000| 10,00000000000|  8,00000000000| 15,00000000000| 12,00000000000|  0,00000000000
