                           |Human          |Pig_Chim       |Com_Chim       |Gibbon         |Baboon         |Ver_Monkey     |Macaca_Thibet  |Bor_Oran       |Sum_Oran       |Gorilla        |Cat            |Dog            |Pig            |Sheep          |Goat           |Cow            |Buffalo        |Wolf           |Tiger          |Leopard        |Indian_Rhino   |White_Rhino    |Black_Bear     |Brown_Bear     |Polar_Bear     |Giant_Panda    |Rabbit         |Hedgehog       |Dormouse       |Squirrel       |Blue_Whale     
Human                     |  0,00000000000|  9,50629951203|  8,98620334443|  9,39771797623|  9,82732879478| 11,01310002384|  9,48998607215|  9,89964430079| 10,47453339841|  9,15478456247| 10,22445553968|  9,59876779204|  9,46528073957| 10,42545808174|  9,59035143195|  9,82775125892|  9,58641759669|  9,48238345659|  9,22050422025|  9,38876160708|  9,36450674548|  9,50805030936|  8,74654732046|  9,76063298707|  8,90823117741| 10,72867253899|  9,31592966520|  8,45340633081|  9,97685174236|  9,38039371394|  9,25193032717
Pig_Chim                  |  9,50629951203|  0,00000000000| 16,37018500207|  8,73623430931| 10,70844076287| 12,68902068495| 11,20781794274| 11,68650149288| 11,85910381859| 11,64301704687|  8,84070773673|  9,14034305530|  9,36844526481|  9,89762854948| 10,15015062972|  9,73017236593|  9,37441057082| 10,37155327832| 10,99665111727|  9,60660198621| 11,13212603818| 10,43174793732| 10,01649061345| 10,08375530087|  9,92672091007| 10,89255737779| 10,58756779258| 11,89939504437|  7,73519377643| 10,12723384246|  9,65071967708
Com_Chim                  |  8,98620334443| 16,37018500207|  0,00000000000| 11,19677998117|  8,41664494481|  7,44841201995| 10,60464430599|  8,68403000927|  8,64147371853|  7,96961439232| 10,10705188723|  9,12606702168| 10,96561534160| 10,69477570280| 10,30691546182| 10,79621047119| 10,05577926385|  9,41290311878|  9,19170594310|  9,48413514560|  9,22238760499| 10,45467052203|  8,81411420835| 10,25904193320|  8,08953207594|  9,21953679988|  9,79201181727|  9,73739857676|  9,29824109661|  9,58730664401|  9,69217817906
Gibbon                    |  9,39771797623|  8,73623430931| 11,19677998117|  0,00000000000| 10,27674376180| 10,09165973797|  7,14748071591| 10,31351311071|  9,74164804126| 12,28527875326| 10,82582705992|  9,21475591653|  8,46447707234|  9,20322930475| 10,87721251081| 10,92685762634| 11,04044293556|  9,04355515668| 11,56659451126|  9,24034072653| 10,70294686715|  8,75825028587|  9,78891537054| 10,36170177835| 10,19271764693|  9,66294170956|  8,95492461217| 10,29273095629| 10,64554004390|  9,91092214359| 10,63225521808
Baboon                    |  9,82732879478| 10,70844076287|  8,41664494481| 10,27674376180|  0,00000000000|  9,70267052748| 10,65986915739| 10,33783363972| 11,51762631189| 10,21267646777|  9,67944169942|  9,49504320147| 10,72843683216|  9,84112920144|  9,79999077670|  8,40460471967|  9,86072706919|  9,23520720276| 11,37925828980| 10,98054006138|  8,94109487354| 10,85859554006| 10,08037149290|  8,99680826137| 10,79545209097|  8,72617468047|  8,44507165367|  9,86230988677| 10,18640128118| 10,65461748283|  9,89197018796
Ver_Monkey                | 11,01310002384| 12,68902068495|  7,44841201995| 10,09165973797|  9,70267052748|  0,00000000000| 11,81003543345|  9,67575749210|  8,95140921281| 12,51603685116|  9,09412451676|  8,69435142282|  9,47936959509| 10,08225679196| 10,98230830616|  9,59548989394|  9,44106103422| 10,53217114895|  9,84391847660| 10,51390824997| 10,32033219464| 10,99221072631|  9,43827612329| 11,23748351163|  9,47759583465|  9,97891423228| 10,87177017121| 10,07408428730| 11,07792361318|  9,95707089191|  9,54918124666
Macaca_Thibet             |  9,48998607215| 11,20781794274| 10,60464430599|  7,14748071591| 10,65986915739| 11,81003543345|  0,00000000000|  8,80493277412| 10,15379834498| 10,63314992106|  9,86852560977| 10,59899652171|  8,62672480765|  8,85557522637|  9,92510354579|  9,13558684105|  9,62797620438| 10,40874045299|  9,18931896225|  8,72425376666| 11,40405574423| 10,28673610719| 10,68490583942| 10,77961433742|  9,48633428115| 10,26054217466| 10,07699434423|  9,87581927129| 10,79269372224|  9,43953934754|  9,94202655613
Bor_Oran                  |  9,89964430079| 11,68650149288|  8,68403000927| 10,31351311071| 10,33783363972|  9,67575749210|  8,80493277412|  0,00000000000|  7,84260733043| 10,06049462295| 10,82187282634| 10,34020854441| 10,27954979293|  9,39506179001|  9,45841174206|  9,94850043838|  9,75366981206|  9,30094359361| 10,10456071108|  9,33553726608|  9,29835921176|  9,58318490511| 10,63920056658|  8,63781356305|  9,33826498217|  9,17826954464|  9,68605244473| 10,14596321300|  9,19368569004| 10,41860645221| 10,55587655002
Sum_Oran                  | 10,47453339841| 11,85910381859|  8,64147371853|  9,74164804126| 11,51762631189|  8,95140921281| 10,15379834498|  7,84260733043|  0,00000000000| 10,96913885685| 10,51792121101|  9,13156357259|  9,87117916370|  9,43723264921| 10,32673940027|  9,55239515153| 11,28450377257|  8,87777016700|  8,97893768645| 10,58355447909|  9,91446185171| 11,68458379429|  9,67655311789|  9,85990833463|  9,30735386480|  9,81547844741|  9,42142003361| 11,00327451958|  9,43824480445|  8,68551905379|  9,83649782887
Gorilla                   |  9,15478456247| 11,64301704687|  7,96961439232| 12,28527875326| 10,21267646777| 12,51603685116| 10,63314992106| 10,06049462295| 10,96913885685|  0,00000000000|  8,84906888007|  8,58056240745|  8,53922066810|  8,67913584741|  8,61598450957| 10,83576808670|  8,66377438998| 10,00249963561|  9,05683395042|  9,76765683215| 10,37566497103|  9,31945248680|  9,58518692446| 10,16709190993|  9,23071955423| 11,02391060364|  9,96641895287| 10,88875644177| 10,28071187831| 10,09030249515|  9,75878012049
Cat                       | 10,22445553968|  8,84070773673| 10,10705188723| 10,82582705992|  9,67944169942|  9,09412451676|  9,86852560977| 10,82187282634| 10,51792121101|  8,84906888007|  0,00000000000| 10,24309491502| 10,70024692292| 10,81103022262| 10,13419204817|  9,35200551654|  9,98725046758|  9,20205362410| 14,18478821605| 10,60335532724|  9,79461280906|  9,79934645016| 10,61827719617| 11,25654037213| 12,75894488522| 11,64223098849|  9,98166449341|  9,81709178259| 10,66244544882| 10,68276356228| 11,08334946191
Dog                       |  9,59876779204|  9,14034305530|  9,12606702168|  9,21475591653|  9,49504320147|  8,69435142282| 10,59899652171| 10,34020854441|  9,13156357259|  8,58056240745| 10,24309491502|  0,00000000000|  9,60903093807| 10,99789094874|  9,69486032976|  9,57953126174| 10,84527946335|  5,60917738340|  9,38126182526|  9,40356990992| 10,77128535842| 10,92662433823|  9,18208636325| 11,16050712289|  9,70813680372| 10,02372755121| 10,86179563472| 10,31063748513|  9,66408349205|  9,92038007634| 10,44836432963
Pig                       |  9,46528073957|  9,36844526481| 10,96561534160|  8,46447707234| 10,72843683216|  9,47936959509|  8,62672480765| 10,27954979293|  9,87117916370|  8,53922066810| 10,70024692292|  9,60903093807|  0,00000000000|  7,94659998841| 10,41714853393|  9,78798904822| 10,27614771103|  9,63837396957|  9,87434300087| 10,30949637573| 10,12172715333| 11,90366208111|  9,30510042823| 10,71291080248| 10,38418089909| 10,46461597602| 11,07639320416|  9,48019087144|  8,01931208598|  9,57066689660|  9,29594115490
Sheep                     | 10,42545808174|  9,89762854948| 10,69477570280|  9,20322930475|  9,84112920144| 10,08225679196|  8,85557522637|  9,39506179001|  9,43723264921|  8,67913584741| 10,81103022262| 10,99789094874|  7,94659998841|  0,00000000000| 13,48925604274| 11,29718745417| 10,51598848835| 10,26684548771|  9,07233848085| 11,08109621948|  9,91750792014| 11,02101720227| 11,30084483528| 10,59985939073| 10,03748708721| 10,18479120901| 10,47758817715|  9,48372315733| 11,29532939110|  9,67399214923| 11,04221941287
Goat                      |  9,59035143195| 10,15015062972| 10,30691546182| 10,87721251081|  9,79999077670| 10,98230830616|  9,92510354579|  9,45841174206| 10,32673940027|  8,61598450957| 10,13419204817|  9,69486032976| 10,41714853393| 13,48925604274|  0,00000000000| 10,17098203707|  6,45479574568| 10,97597499162|  9,81924752022|  8,85423790829| 11,09323925602|  9,96516480846|  9,69264118585|  9,99575452988| 10,26904478674| 10,01684326716|  9,69543714776| 10,39425299318| 10,82925370103|  9,41412137494|  9,29193306954
Cow                       |  9,82775125892|  9,73017236593| 10,79621047119| 10,92685762634|  8,40460471967|  9,59548989394|  9,13558684105|  9,94850043838|  9,55239515153| 10,83576808670|  9,35200551654|  9,57953126174|  9,78798904822| 11,29718745417| 10,17098203707|  0,00000000000| 11,05755959887|  9,07371531096|  9,05309802455|  9,01489179750|  9,42772763144| 11,67327202393|  9,30578325968| 10,21169264808|  9,32136370247| 10,42835687058| 10,20358609441| 10,95385176363|  8,56968949437|  9,58109002788| 10,64193495829
Buffalo                   |  9,58641759669|  9,37441057082| 10,05577926385| 11,04044293556|  9,86072706919|  9,44106103422|  9,62797620438|  9,75366981206| 11,28450377257|  8,66377438998|  9,98725046758| 10,84527946335| 10,27614771103| 10,51598848835|  6,45479574568| 11,05755959887|  0,00000000000| 11,76789778044|  9,54252824533|  8,24153728028| 10,82848460245| 10,27152886419|  9,38368340321| 10,34736680663|  9,90661014686|  9,70549226982|  9,21143780293|  9,72622714218| 10,40131898347| 10,79126090744| 10,38232796748
Wolf                      |  9,48238345659| 10,37155327832|  9,41290311878|  9,04355515668|  9,23520720276| 10,53217114895| 10,40874045299|  9,30094359361|  8,87777016700| 10,00249963561|  9,20205362410|  5,60917738340|  9,63837396957| 10,26684548771| 10,97597499162|  9,07371531096| 11,76789778044|  0,00000000000|  9,02764521670| 10,18779730319|  9,31577722097| 10,41297839633|  9,44903889125| 10,67079777214|  9,96736881800| 10,67237738278|  9,59758983688|  9,21090446398| 11,18393888929|  9,54138424744|  9,41765437229
Tiger                     |  9,22050422025| 10,99665111727|  9,19170594310| 11,56659451126| 11,37925828980|  9,84391847660|  9,18931896225| 10,10456071108|  8,97893768645|  9,05683395042| 14,18478821605|  9,38126182526|  9,87434300087|  9,07233848085|  9,81924752022|  9,05309802455|  9,54252824533|  9,02764521670|  0,00000000000|  9,97254075315|  8,00522021754|  9,72877871864|  9,70810889460|  9,96268668936|  9,76236759744|  8,67942471292|  9,72441465534| 10,19876154786| 10,00519465914| 10,41691022115| 10,45409949982
Leopard                   |  9,38876160708|  9,60660198621|  9,48413514560|  9,24034072653| 10,98054006138| 10,51390824997|  8,72425376666|  9,33553726608| 10,58355447909|  9,76765683215| 10,60335532724|  9,40356990992| 10,30949637573| 11,08109621948|  8,85423790829|  9,01489179750|  8,24153728028| 10,18779730319|  9,97254075315|  0,00000000000| 10,11322835352| 10,45061434826| 10,71657097964|  9,93427040024| 10,65806648766|  9,51356727939|  8,74767028919| 10,14379893110|  8,92641869012|  9,61064283271| 11,19129037403
Indian_Rhino              |  9,36450674548| 11,13212603818|  9,22238760499| 10,70294686715|  8,94109487354| 10,32033219464| 11,40405574423|  9,29835921176|  9,91446185171| 10,37566497103|  9,79461280906| 10,77128535842| 10,12172715333|  9,91750792014| 11,09323925602|  9,42772763144| 10,82848460245|  9,31577722097|  8,00522021754| 10,11322835352|  0,00000000000| 14,32120938845| 10,30357553662|  9,56723903806| 11,24357503086|  9,90502291845|  9,22723126009|  9,79699751914| 10,17198616755| 11,33633453724| 10,96181063133
White_Rhino               |  9,50805030936| 10,43174793732| 10,45467052203|  8,75825028587| 10,85859554006| 10,99221072631| 10,28673610719|  9,58318490511| 11,68458379429|  9,31945248680|  9,79934645016| 10,92662433823| 11,90366208111| 11,02101720227|  9,96516480846| 11,67327202393| 10,27152886419| 10,41297839633|  9,72877871864| 10,45061434826| 14,32120938845|  0,00000000000| 10,08343656381|  9,77628171435| 10,02570652176|  9,84947283535| 10,47190337588| 12,41040762152|  9,48295781720|  8,30295784235| 11,02043480324
Black_Bear                |  8,74654732046| 10,01649061345|  8,81411420835|  9,78891537054| 10,08037149290|  9,43827612329| 10,68490583942| 10,63920056658|  9,67655311789|  9,58518692446| 10,61827719617|  9,18208636325|  9,30510042823| 11,30084483528|  9,69264118585|  9,30578325968|  9,38368340321|  9,44903889125|  9,70810889460| 10,71657097964| 10,30357553662| 10,08343656381|  0,00000000000| 11,06202344255| 10,00391898681|  9,87171222016| 10,13504969267|  9,80019341054|  8,32566883366| 10,83870237387|  9,89844101139
Brown_Bear                |  9,76063298707| 10,08375530087| 10,25904193320| 10,36170177835|  8,99680826137| 11,23748351163| 10,77961433742|  8,63781356305|  9,85990833463| 10,16709190993| 11,25654037213| 11,16050712289| 10,71291080248| 10,59985939073|  9,99575452988| 10,21169264808| 10,34736680663| 10,67079777214|  9,96268668936|  9,93427040024|  9,56723903806|  9,77628171435| 11,06202344255|  0,00000000000| 13,64414402990| 10,80812938560| 10,54417731319| 10,57995659216| 11,33593516531|  9,82417190585| 10,03882727253
Polar_Bear                |  8,90823117741|  9,92672091007|  8,08953207594| 10,19271764693| 10,79545209097|  9,47759583465|  9,48633428115|  9,33826498217|  9,30735386480|  9,23071955423| 12,75894488522|  9,70813680372| 10,38418089909| 10,03748708721| 10,26904478674|  9,32136370247|  9,90661014686|  9,96736881800|  9,76236759744| 10,65806648766| 11,24357503086| 10,02570652176| 10,00391898681| 13,64414402990|  0,00000000000|  8,75398083499|  9,50785775012|  9,88080967470| 10,59310054411|  9,53884572564|  9,17248096690
Giant_Panda               | 10,72867253899| 10,89255737779|  9,21953679988|  9,66294170956|  8,72617468047|  9,97891423228| 10,26054217466|  9,17826954464|  9,81547844741| 11,02391060364| 11,64223098849| 10,02372755121| 10,46461597602| 10,18479120901| 10,01684326716| 10,42835687058|  9,70549226982| 10,67237738278|  8,67942471292|  9,51356727939|  9,90502291845|  9,84947283535|  9,87171222016| 10,80812938560|  8,75398083499|  0,00000000000| 10,09174199411|  9,98547067667| 10,71571199784| 10,91043824839|  9,43759148368
Rabbit                    |  9,31592966520| 10,58756779258|  9,79201181727|  8,95492461217|  8,44507165367| 10,87177017121| 10,07699434423|  9,68605244473|  9,42142003361|  9,96641895287|  9,98166449341| 10,86179563472| 11,07639320416| 10,47758817715|  9,69543714776| 10,20358609441|  9,21143780293|  9,59758983688|  9,72441465534|  8,74767028919|  9,22723126009| 10,47190337588| 10,13504969267| 10,54417731319|  9,50785775012| 10,09174199411|  0,00000000000| 11,25910104455|  9,73335947437| 10,62032336389|  9,48495191622
Hedgehog                  |  8,45340633081| 11,89939504437|  9,73739857676| 10,29273095629|  9,86230988677| 10,07408428730|  9,87581927129| 10,14596321300| 11,00327451958| 10,88875644177|  9,81709178259| 10,31063748513|  9,48019087144|  9,48372315733| 10,39425299318| 10,95385176363|  9,72622714218|  9,21090446398| 10,19876154786| 10,14379893110|  9,79699751914| 12,41040762152|  9,80019341054| 10,57995659216|  9,88080967470|  9,98547067667| 11,25910104455|  0,00000000000| 10,07144629464|  9,73077615018| 10,67755251598
Dormouse                  |  9,97685174236|  7,73519377643|  9,29824109661| 10,64554004390| 10,18640128118| 11,07792361318| 10,79269372224|  9,19368569004|  9,43824480445| 10,28071187831| 10,66244544882|  9,66408349205|  8,01931208598| 11,29532939110| 10,82925370103|  8,56968949437| 10,40131898347| 11,18393888929| 10,00519465914|  8,92641869012| 10,17198616755|  9,48295781720|  8,32566883366| 11,33593516531| 10,59310054411| 10,71571199784|  9,73335947437| 10,07144629464|  0,00000000000|  9,27200279032|  9,02594291284
Squirrel                  |  9,38039371394| 10,12723384246|  9,58730664401|  9,91092214359| 10,65461748283|  9,95707089191|  9,43953934754| 10,41860645221|  8,68551905379| 10,09030249515| 10,68276356228|  9,92038007634|  9,57066689660|  9,67399214923|  9,41412137494|  9,58109002788| 10,79126090744|  9,54138424744| 10,41691022115|  9,61064283271| 11,33633453724|  8,30295784235| 10,83870237387|  9,82417190585|  9,53884572564| 10,91043824839| 10,62032336389|  9,73077615018|  9,27200279032|  0,00000000000|  9,51403788093
Blue_Whale                |  9,25193032717|  9,65071967708|  9,69217817906| 10,63225521808|  9,89197018796|  9,54918124666|  9,94202655613| 10,55587655002|  9,83649782887|  9,75878012049| 11,08334946191| 10,44836432963|  9,29594115490| 11,04221941287|  9,29193306954| 10,64193495829| 10,38232796748|  9,41765437229| 10,45409949982| 11,19129037403| 10,96181063133| 11,02043480324|  9,89844101139| 10,03882727253|  9,17248096690|  9,43759148368|  9,48495191622| 10,67755251598|  9,02594291284|  9,51403788093|  0,00000000000
