                           |Human          |Pig_Chim       |Com_Chim       |Gibbon         |Baboon         |Ver_Monkey     |Macaca_Thibet  |Bor_Oran       |Sum_Oran       |Gorilla        |Cat            |Dog            |Pig            |Sheep          |Goat           |Cow            |Buffalo        |Wolf           |Tiger          |Leopard        |Indian_Rhino   |White_Rhino    |Black_Bear     |Brown_Bear     |Polar_Bear     |Giant_Panda    |Rabbit         |Hedgehog       |Dormouse       |Squirrel       |Blue_Whale     
Human                     |  0,00000000000|  1,71083414893|  1,29399657817|  1,66813022968|  1,43678374996|  1,38230732340|  2,01709895968|  1,29399657817|  1,29399657817|  1,52873740942|  1,26901745633|  1,29399657817|  1,83494994293|  1,46461037806|  0,87117374337|  2,02473449313|  1,29399657817|  1,29399657817|  1,29399657817|  1,29399657817|  1,31513179216|  1,69482579001|  1,29399657817|  3,41353827982|  2,62029899738|  3,47479218097|  1,87577140681|  2,09000527042|  1,65799742234|  1,58193360277|  1,14746852583
Pig_Chim                  |  1,71083414893|  0,00000000000|  1,71083414893|  1,71083414893|  1,71083414893|  1,71083414893|  2,01709895968|  1,71083414893|  1,71083414893|  1,71083414893|  1,71083414893|  1,71083414893|  1,83494994293|  1,71083414893|  1,71083414893|  2,02473449313|  1,71083414893|  1,71083414893|  1,71083414893|  1,71083414893|  1,71083414893|  1,71083414893|  1,71083414893|  3,41353827982|  2,62029899738|  3,47479218097|  1,87577140681|  2,09000527042|  1,71083414893|  1,71083414893|  1,71083414893
Com_Chim                  |  1,29399657817|  1,71083414893|  0,00000000000|  1,66813022968|  1,43678374996|  1,38230732340|  2,01709895968|  1,25835629153|  1,28634485735|  1,52873740942|  1,29399657817|  1,14405321282|  1,83494994293|  1,46461037806|  1,29399657817|  2,02473449313|  1,14405321282|  1,14405321282|  1,14405321282|  1,14405321282|  1,31513179216|  1,69482579001|  1,14405321282|  3,41353827982|  2,62029899738|  3,47479218097|  1,87577140681|  2,09000527042|  1,65799742234|  1,58193360277|  1,29399657817
Gibbon                    |  1,66813022968|  1,71083414893|  1,66813022968|  0,00000000000|  1,66813022968|  1,66813022968|  2,01709895968|  1,66813022968|  1,66813022968|  1,66813022968|  1,66813022968|  1,66813022968|  1,83494994293|  1,66813022968|  1,66813022968|  2,02473449313|  1,66813022968|  1,66813022968|  1,66813022968|  1,66813022968|  1,66813022968|  1,69482579001|  1,66813022968|  3,41353827982|  2,62029899738|  3,47479218097|  1,87577140681|  2,09000527042|  1,66813022968|  1,66813022968|  1,66813022968
Baboon                    |  1,43678374996|  1,71083414893|  1,43678374996|  1,66813022968|  0,00000000000|  1,43678374996|  2,01709895968|  1,43678374996|  1,43678374996|  1,52873740942|  1,43678374996|  1,43678374996|  1,83494994293|  1,46461037806|  1,43678374996|  2,02473449313|  1,43678374996|  1,43678374996|  1,43678374996|  1,43678374996|  1,43678374996|  1,69482579001|  1,43678374996|  3,41353827982|  2,62029899738|  3,47479218097|  1,87577140681|  2,09000527042|  1,65799742234|  1,58193360277|  1,43678374996
Ver_Monkey                |  1,38230732340|  1,71083414893|  1,38230732340|  1,66813022968|  1,43678374996|  0,00000000000|  2,01709895968|  1,38230732340|  1,38230732340|  1,52873740942|  1,38230732340|  1,38230732340|  1,83494994293|  1,46461037806|  1,38230732340|  2,02473449313|  1,38230732340|  1,38230732340|  1,38230732340|  1,38230732340|  1,38230732340|  1,69482579001|  1,38230732340|  3,41353827982|  2,62029899738|  3,47479218097|  1,87577140681|  2,09000527042|  1,65799742234|  1,58193360277|  1,38230732340
Macaca_Thibet             |  2,01709895968|  2,01709895968|  2,01709895968|  2,01709895968|  2,01709895968|  2,01709895968|  0,00000000000|  2,01709895968|  2,01709895968|  2,01709895968|  2,01709895968|  2,01709895968|  2,01709895968|  2,01709895968|  2,01709895968|  2,02473449313|  2,01709895968|  2,01709895968|  2,01709895968|  2,01709895968|  2,01709895968|  2,01709895968|  2,01709895968|  3,41353827982|  2,62029899738|  3,47479218097|  2,01709895968|  2,09000527042|  2,01709895968|  2,01709895968|  2,01709895968
Bor_Oran                  |  1,29399657817|  1,71083414893|  1,25835629153|  1,66813022968|  1,43678374996|  1,38230732340|  2,01709895968|  0,00000000000|  1,28634485735|  1,52873740942|  1,29399657817|  1,25835629153|  1,83494994293|  1,46461037806|  1,29399657817|  2,02473449313|  1,25835629153|  1,25835629153|  1,25835629153|  1,25835629153|  1,31513179216|  1,69482579001|  1,25835629153|  3,41353827982|  2,62029899738|  3,47479218097|  1,87577140681|  2,09000527042|  1,65799742234|  1,58193360277|  1,29399657817
Sum_Oran                  |  1,29399657817|  1,71083414893|  1,28634485735|  1,66813022968|  1,43678374996|  1,38230732340|  2,01709895968|  1,28634485735|  0,00000000000|  1,52873740942|  1,29399657817|  1,28634485735|  1,83494994293|  1,46461037806|  1,29399657817|  2,02473449313|  1,28634485735|  1,28634485735|  1,28634485735|  1,28634485735|  1,31513179216|  1,69482579001|  1,28634485735|  3,41353827982|  2,62029899738|  3,47479218097|  1,87577140681|  2,09000527042|  1,65799742234|  1,58193360277|  1,29399657817
Gorilla                   |  1,52873740942|  1,71083414893|  1,52873740942|  1,66813022968|  1,52873740942|  1,52873740942|  2,01709895968|  1,52873740942|  1,52873740942|  0,00000000000|  1,52873740942|  1,52873740942|  1,83494994293|  1,52873740942|  1,52873740942|  2,02473449313|  1,52873740942|  1,52873740942|  1,52873740942|  1,52873740942|  1,52873740942|  1,69482579001|  1,52873740942|  3,41353827982|  2,62029899738|  3,47479218097|  1,87577140681|  2,09000527042|  1,65799742234|  1,58193360277|  1,52873740942
Cat                       |  1,26901745633|  1,71083414893|  1,29399657817|  1,66813022968|  1,43678374996|  1,38230732340|  2,01709895968|  1,29399657817|  1,29399657817|  1,52873740942|  0,00000000000|  1,29399657817|  1,83494994293|  1,46461037806|  1,26901745633|  2,02473449313|  1,29399657817|  1,29399657817|  1,29399657817|  1,29399657817|  1,31513179216|  1,69482579001|  1,29399657817|  3,41353827982|  2,62029899738|  3,47479218097|  1,87577140681|  2,09000527042|  1,65799742234|  1,58193360277|  1,26901745633
Dog                       |  1,29399657817|  1,71083414893|  1,14405321282|  1,66813022968|  1,43678374996|  1,38230732340|  2,01709895968|  1,25835629153|  1,28634485735|  1,52873740942|  1,29399657817|  0,00000000000|  1,83494994293|  1,46461037806|  1,29399657817|  2,02473449313|  0,86049636566|  1,10715140016|  0,86049636566|  0,86049636566|  1,31513179216|  1,69482579001|  1,10715140016|  3,41353827982|  2,62029899738|  3,47479218097|  1,87577140681|  2,09000527042|  1,65799742234|  1,58193360277|  1,29399657817
Pig                       |  1,83494994293|  1,83494994293|  1,83494994293|  1,83494994293|  1,83494994293|  1,83494994293|  2,01709895968|  1,83494994293|  1,83494994293|  1,83494994293|  1,83494994293|  1,83494994293|  0,00000000000|  1,83494994293|  1,83494994293|  2,02473449313|  1,83494994293|  1,83494994293|  1,83494994293|  1,83494994293|  1,83494994293|  1,83494994293|  1,83494994293|  3,41353827982|  2,62029899738|  3,47479218097|  1,87577140681|  2,09000527042|  1,83494994293|  1,83494994293|  1,83494994293
Sheep                     |  1,46461037806|  1,71083414893|  1,46461037806|  1,66813022968|  1,46461037806|  1,46461037806|  2,01709895968|  1,46461037806|  1,46461037806|  1,52873740942|  1,46461037806|  1,46461037806|  1,83494994293|  0,00000000000|  1,46461037806|  2,02473449313|  1,46461037806|  1,46461037806|  1,46461037806|  1,46461037806|  1,46461037806|  1,69482579001|  1,46461037806|  3,41353827982|  2,62029899738|  3,47479218097|  1,87577140681|  2,09000527042|  1,65799742234|  1,58193360277|  1,46461037806
Goat                      |  0,87117374337|  1,71083414893|  1,29399657817|  1,66813022968|  1,43678374996|  1,38230732340|  2,01709895968|  1,29399657817|  1,29399657817|  1,52873740942|  1,26901745633|  1,29399657817|  1,83494994293|  1,46461037806|  0,00000000000|  2,02473449313|  1,29399657817|  1,29399657817|  1,29399657817|  1,29399657817|  1,31513179216|  1,69482579001|  1,29399657817|  3,41353827982|  2,62029899738|  3,47479218097|  1,87577140681|  2,09000527042|  1,65799742234|  1,58193360277|  1,14746852583
Cow                       |  2,02473449313|  2,02473449313|  2,02473449313|  2,02473449313|  2,02473449313|  2,02473449313|  2,02473449313|  2,02473449313|  2,02473449313|  2,02473449313|  2,02473449313|  2,02473449313|  2,02473449313|  2,02473449313|  2,02473449313|  0,00000000000|  2,02473449313|  2,02473449313|  2,02473449313|  2,02473449313|  2,02473449313|  2,02473449313|  2,02473449313|  3,41353827982|  2,62029899738|  3,47479218097|  2,02473449313|  2,09000527042|  2,02473449313|  2,02473449313|  2,02473449313
Buffalo                   |  1,29399657817|  1,71083414893|  1,14405321282|  1,66813022968|  1,43678374996|  1,38230732340|  2,01709895968|  1,25835629153|  1,28634485735|  1,52873740942|  1,29399657817|  0,86049636566|  1,83494994293|  1,46461037806|  1,29399657817|  2,02473449313|  0,00000000000|  1,10715140016|  0,73369311834|  0,72291508062|  1,31513179216|  1,69482579001|  1,10715140016|  3,41353827982|  2,62029899738|  3,47479218097|  1,87577140681|  2,09000527042|  1,65799742234|  1,58193360277|  1,29399657817
Wolf                      |  1,29399657817|  1,71083414893|  1,14405321282|  1,66813022968|  1,43678374996|  1,38230732340|  2,01709895968|  1,25835629153|  1,28634485735|  1,52873740942|  1,29399657817|  1,10715140016|  1,83494994293|  1,46461037806|  1,29399657817|  2,02473449313|  1,10715140016|  0,00000000000|  1,10715140016|  1,10715140016|  1,31513179216|  1,69482579001|  0,98985452061|  3,41353827982|  2,62029899738|  3,47479218097|  1,87577140681|  2,09000527042|  1,65799742234|  1,58193360277|  1,29399657817
Tiger                     |  1,29399657817|  1,71083414893|  1,14405321282|  1,66813022968|  1,43678374996|  1,38230732340|  2,01709895968|  1,25835629153|  1,28634485735|  1,52873740942|  1,29399657817|  0,86049636566|  1,83494994293|  1,46461037806|  1,29399657817|  2,02473449313|  0,73369311834|  1,10715140016|  0,00000000000|  0,73369311834|  1,31513179216|  1,69482579001|  1,10715140016|  3,41353827982|  2,62029899738|  3,47479218097|  1,87577140681|  2,09000527042|  1,65799742234|  1,58193360277|  1,29399657817
Leopard                   |  1,29399657817|  1,71083414893|  1,14405321282|  1,66813022968|  1,43678374996|  1,38230732340|  2,01709895968|  1,25835629153|  1,28634485735|  1,52873740942|  1,29399657817|  0,86049636566|  1,83494994293|  1,46461037806|  1,29399657817|  2,02473449313|  0,72291508062|  1,10715140016|  0,73369311834|  0,00000000000|  1,31513179216|  1,69482579001|  1,10715140016|  3,41353827982|  2,62029899738|  3,47479218097|  1,87577140681|  2,09000527042|  1,65799742234|  1,58193360277|  1,29399657817
Indian_Rhino              |  1,31513179216|  1,71083414893|  1,31513179216|  1,66813022968|  1,43678374996|  1,38230732340|  2,01709895968|  1,31513179216|  1,31513179216|  1,52873740942|  1,31513179216|  1,31513179216|  1,83494994293|  1,46461037806|  1,31513179216|  2,02473449313|  1,31513179216|  1,31513179216|  1,31513179216|  1,31513179216|  0,00000000000|  1,69482579001|  1,31513179216|  3,41353827982|  2,62029899738|  3,47479218097|  1,87577140681|  2,09000527042|  1,65799742234|  1,58193360277|  1,31513179216
White_Rhino               |  1,69482579001|  1,71083414893|  1,69482579001|  1,69482579001|  1,69482579001|  1,69482579001|  2,01709895968|  1,69482579001|  1,69482579001|  1,69482579001|  1,69482579001|  1,69482579001|  1,83494994293|  1,69482579001|  1,69482579001|  2,02473449313|  1,69482579001|  1,69482579001|  1,69482579001|  1,69482579001|  1,69482579001|  0,00000000000|  1,69482579001|  3,41353827982|  2,62029899738|  3,47479218097|  1,87577140681|  2,09000527042|  1,69482579001|  1,69482579001|  1,69482579001
Black_Bear                |  1,29399657817|  1,71083414893|  1,14405321282|  1,66813022968|  1,43678374996|  1,38230732340|  2,01709895968|  1,25835629153|  1,28634485735|  1,52873740942|  1,29399657817|  1,10715140016|  1,83494994293|  1,46461037806|  1,29399657817|  2,02473449313|  1,10715140016|  0,98985452061|  1,10715140016|  1,10715140016|  1,31513179216|  1,69482579001|  0,00000000000|  3,41353827982|  2,62029899738|  3,47479218097|  1,87577140681|  2,09000527042|  1,65799742234|  1,58193360277|  1,29399657817
Brown_Bear                |  3,41353827982|  3,41353827982|  3,41353827982|  3,41353827982|  3,41353827982|  3,41353827982|  3,41353827982|  3,41353827982|  3,41353827982|  3,41353827982|  3,41353827982|  3,41353827982|  3,41353827982|  3,41353827982|  3,41353827982|  3,41353827982|  3,41353827982|  3,41353827982|  3,41353827982|  3,41353827982|  3,41353827982|  3,41353827982|  3,41353827982|  0,00000000000|  3,41353827982|  3,47479218097|  3,41353827982|  3,41353827982|  3,41353827982|  3,41353827982|  3,41353827982
Polar_Bear                |  2,62029899738|  2,62029899738|  2,62029899738|  2,62029899738|  2,62029899738|  2,62029899738|  2,62029899738|  2,62029899738|  2,62029899738|  2,62029899738|  2,62029899738|  2,62029899738|  2,62029899738|  2,62029899738|  2,62029899738|  2,62029899738|  2,62029899738|  2,62029899738|  2,62029899738|  2,62029899738|  2,62029899738|  2,62029899738|  2,62029899738|  3,41353827982|  0,00000000000|  3,47479218097|  2,62029899738|  2,62029899738|  2,62029899738|  2,62029899738|  2,62029899738
Giant_Panda               |  3,47479218097|  3,47479218097|  3,47479218097|  3,47479218097|  3,47479218097|  3,47479218097|  3,47479218097|  3,47479218097|  3,47479218097|  3,47479218097|  3,47479218097|  3,47479218097|  3,47479218097|  3,47479218097|  3,47479218097|  3,47479218097|  3,47479218097|  3,47479218097|  3,47479218097|  3,47479218097|  3,47479218097|  3,47479218097|  3,47479218097|  3,47479218097|  3,47479218097|  0,00000000000|  3,47479218097|  3,47479218097|  3,47479218097|  3,47479218097|  3,47479218097
Rabbit                    |  1,87577140681|  1,87577140681|  1,87577140681|  1,87577140681|  1,87577140681|  1,87577140681|  2,01709895968|  1,87577140681|  1,87577140681|  1,87577140681|  1,87577140681|  1,87577140681|  1,87577140681|  1,87577140681|  1,87577140681|  2,02473449313|  1,87577140681|  1,87577140681|  1,87577140681|  1,87577140681|  1,87577140681|  1,87577140681|  1,87577140681|  3,41353827982|  2,62029899738|  3,47479218097|  0,00000000000|  2,09000527042|  1,87577140681|  1,87577140681|  1,87577140681
Hedgehog                  |  2,09000527042|  2,09000527042|  2,09000527042|  2,09000527042|  2,09000527042|  2,09000527042|  2,09000527042|  2,09000527042|  2,09000527042|  2,09000527042|  2,09000527042|  2,09000527042|  2,09000527042|  2,09000527042|  2,09000527042|  2,09000527042|  2,09000527042|  2,09000527042|  2,09000527042|  2,09000527042|  2,09000527042|  2,09000527042|  2,09000527042|  3,41353827982|  2,62029899738|  3,47479218097|  2,09000527042|  0,00000000000|  2,09000527042|  2,09000527042|  2,09000527042
Dormouse                  |  1,65799742234|  1,71083414893|  1,65799742234|  1,66813022968|  1,65799742234|  1,65799742234|  2,01709895968|  1,65799742234|  1,65799742234|  1,65799742234|  1,65799742234|  1,65799742234|  1,83494994293|  1,65799742234|  1,65799742234|  2,02473449313|  1,65799742234|  1,65799742234|  1,65799742234|  1,65799742234|  1,65799742234|  1,69482579001|  1,65799742234|  3,41353827982|  2,62029899738|  3,47479218097|  1,87577140681|  2,09000527042|  0,00000000000|  1,65799742234|  1,65799742234
Squirrel                  |  1,58193360277|  1,71083414893|  1,58193360277|  1,66813022968|  1,58193360277|  1,58193360277|  2,01709895968|  1,58193360277|  1,58193360277|  1,58193360277|  1,58193360277|  1,58193360277|  1,83494994293|  1,58193360277|  1,58193360277|  2,02473449313|  1,58193360277|  1,58193360277|  1,58193360277|  1,58193360277|  1,58193360277|  1,69482579001|  1,58193360277|  3,41353827982|  2,62029899738|  3,47479218097|  1,87577140681|  2,09000527042|  1,65799742234|  0,00000000000|  1,58193360277
Blue_Whale                |  1,14746852583|  1,71083414893|  1,29399657817|  1,66813022968|  1,43678374996|  1,38230732340|  2,01709895968|  1,29399657817|  1,29399657817|  1,52873740942|  1,26901745633|  1,29399657817|  1,83494994293|  1,46461037806|  1,14746852583|  2,02473449313|  1,29399657817|  1,29399657817|  1,29399657817|  1,29399657817|  1,31513179216|  1,69482579001|  1,29399657817|  3,41353827982|  2,62029899738|  3,47479218097|  1,87577140681|  2,09000527042|  1,65799742234|  1,58193360277|  0,00000000000
                           |Human          |Pig_Chim       |Com_Chim       |Gibbon         |Baboon         |Ver_Monkey     |Macaca_Thibet  |Bor_Oran       |Sum_Oran       |Gorilla        |Cat            |Dog            |Pig            |Sheep          |Goat           |Cow            |Buffalo        |Wolf           |Tiger          |Leopard        |Indian_Rhino   |White_Rhino    |Black_Bear     |Brown_Bear     |Polar_Bear     |Giant_Panda    |Rabbit         |Hedgehog       |Dormouse       |Squirrel       |Blue_Whale     
Human                     |  0,00000000000|  9,69918479582|  9,09132495514|  9,63691114447|  9,29954655891|  9,22010546652| 10,14580019743|  9,09132495514|  9,09132495514|  9,43363940636|  9,05489876401|  9,09132495514|  9,88017857388|  9,34012517012|  8,47473701050| 10,15693483229|  9,09132495514|  9,09132495514|  9,09132495514|  9,09132495514|  9,12214570814|  9,67584035860|  9,09132495514| 12,18217945452| 11,02542599065| 12,27150390415|  9,93970710555| 10,25211695375|  9,62213482130|  9,51121357886|  8,87764815439
Pig_Chim                  |  9,69918479582|  0,00000000000|  9,69918479582|  9,69918479582|  9,69918479582|  9,69918479582| 10,14580019743|  9,69918479582|  9,69918479582|  9,69918479582|  9,69918479582|  9,69918479582|  9,88017857388|  9,69918479582|  9,69918479582| 10,15693483229|  9,69918479582|  9,69918479582|  9,69918479582|  9,69918479582|  9,69918479582|  9,69918479582|  9,69918479582| 12,18217945452| 11,02542599065| 12,27150390415|  9,93970710555| 10,25211695375|  9,69918479582|  9,69918479582|  9,69918479582
Com_Chim                  |  9,09132495514|  9,69918479582|  0,00000000000|  9,63691114447|  9,29954655891|  9,22010546652| 10,14580019743|  9,03935195539|  9,08016671479|  9,43363940636|  9,09132495514|  8,87266772132|  9,88017857388|  9,34012517012|  9,09132495514| 10,15693483229|  8,87266772132|  8,87266772132|  8,87266772132|  8,87266772132|  9,12214570814|  9,67584035860|  8,87266772132| 12,18217945452| 11,02542599065| 12,27150390415|  9,93970710555| 10,25211695375|  9,62213482130|  9,51121357886|  9,09132495514
Gibbon                    |  9,63691114447|  9,69918479582|  9,63691114447|  0,00000000000|  9,63691114447|  9,63691114447| 10,14580019743|  9,63691114447|  9,63691114447|  9,63691114447|  9,63691114447|  9,63691114447|  9,88017857388|  9,63691114447|  9,63691114447| 10,15693483229|  9,63691114447|  9,63691114447|  9,63691114447|  9,63691114447|  9,63691114447|  9,67584035860|  9,63691114447| 12,18217945452| 11,02542599065| 12,27150390415|  9,93970710555| 10,25211695375|  9,63691114447|  9,63691114447|  9,63691114447
Baboon                    |  9,29954655891|  9,69918479582|  9,29954655891|  9,63691114447|  0,00000000000|  9,29954655891| 10,14580019743|  9,29954655891|  9,29954655891|  9,43363940636|  9,29954655891|  9,29954655891|  9,88017857388|  9,34012517012|  9,29954655891| 10,15693483229|  9,29954655891|  9,29954655891|  9,29954655891|  9,29954655891|  9,29954655891|  9,67584035860|  9,29954655891| 12,18217945452| 11,02542599065| 12,27150390415|  9,93970710555| 10,25211695375|  9,62213482130|  9,51121357886|  9,29954655891
Ver_Monkey                |  9,22010546652|  9,69918479582|  9,22010546652|  9,63691114447|  9,29954655891|  0,00000000000| 10,14580019743|  9,22010546652|  9,22010546652|  9,43363940636|  9,22010546652|  9,22010546652|  9,88017857388|  9,34012517012|  9,22010546652| 10,15693483229|  9,22010546652|  9,22010546652|  9,22010546652|  9,22010546652|  9,22010546652|  9,67584035860|  9,22010546652| 12,18217945452| 11,02542599065| 12,27150390415|  9,93970710555| 10,25211695375|  9,62213482130|  9,51121357886|  9,22010546652
Macaca_Thibet             | 10,14580019743| 10,14580019743| 10,14580019743| 10,14580019743| 10,14580019743| 10,14580019743|  0,00000000000| 10,14580019743| 10,14580019743| 10,14580019743| 10,14580019743| 10,14580019743| 10,14580019743| 10,14580019743| 10,14580019743| 10,15693483229| 10,14580019743| 10,14580019743| 10,14580019743| 10,14580019743| 10,14580019743| 10,14580019743| 10,14580019743| 12,18217945452| 11,02542599065| 12,27150390415| 10,14580019743| 10,25211695375| 10,14580019743| 10,14580019743| 10,14580019743
Bor_Oran                  |  9,09132495514|  9,69918479582|  9,03935195539|  9,63691114447|  9,29954655891|  9,22010546652| 10,14580019743|  0,00000000000|  9,08016671479|  9,43363940636|  9,09132495514|  9,03935195539|  9,88017857388|  9,34012517012|  9,09132495514| 10,15693483229|  9,03935195539|  9,03935195539|  9,03935195539|  9,03935195539|  9,12214570814|  9,67584035860|  9,03935195539| 12,18217945452| 11,02542599065| 12,27150390415|  9,93970710555| 10,25211695375|  9,62213482130|  9,51121357886|  9,09132495514
Sum_Oran                  |  9,09132495514|  9,69918479582|  9,08016671479|  9,63691114447|  9,29954655891|  9,22010546652| 10,14580019743|  9,08016671479|  0,00000000000|  9,43363940636|  9,09132495514|  9,08016671479|  9,88017857388|  9,34012517012|  9,09132495514| 10,15693483229|  9,08016671479|  9,08016671479|  9,08016671479|  9,08016671479|  9,12214570814|  9,67584035860|  9,08016671479| 12,18217945452| 11,02542599065| 12,27150390415|  9,93970710555| 10,25211695375|  9,62213482130|  9,51121357886|  9,09132495514
Gorilla                   |  9,43363940636|  9,69918479582|  9,43363940636|  9,63691114447|  9,43363940636|  9,43363940636| 10,14580019743|  9,43363940636|  9,43363940636|  0,00000000000|  9,43363940636|  9,43363940636|  9,88017857388|  9,43363940636|  9,43363940636| 10,15693483229|  9,43363940636|  9,43363940636|  9,43363940636|  9,43363940636|  9,43363940636|  9,67584035860|  9,43363940636| 12,18217945452| 11,02542599065| 12,27150390415|  9,93970710555| 10,25211695375|  9,62213482130|  9,51121357886|  9,43363940636
Cat                       |  9,05489876401|  9,69918479582|  9,09132495514|  9,63691114447|  9,29954655891|  9,22010546652| 10,14580019743|  9,09132495514|  9,09132495514|  9,43363940636|  0,00000000000|  9,09132495514|  9,88017857388|  9,34012517012|  9,05489876401| 10,15693483229|  9,09132495514|  9,09132495514|  9,09132495514|  9,09132495514|  9,12214570814|  9,67584035860|  9,09132495514| 12,18217945452| 11,02542599065| 12,27150390415|  9,93970710555| 10,25211695375|  9,62213482130|  9,51121357886|  9,05489876401
Dog                       |  9,09132495514|  9,69918479582|  8,87266772132|  9,63691114447|  9,29954655891|  9,22010546652| 10,14580019743|  9,03935195539|  9,08016671479|  9,43363940636|  9,09132495514|  0,00000000000|  9,88017857388|  9,34012517012|  9,09132495514| 10,15693483229|  8,45916655916|  8,81885508173|  8,45916655916|  8,45916655916|  9,12214570814|  9,67584035860|  8,81885508173| 12,18217945452| 11,02542599065| 12,27150390415|  9,93970710555| 10,25211695375|  9,62213482130|  9,51121357886|  9,09132495514
Pig                       |  9,88017857388|  9,88017857388|  9,88017857388|  9,88017857388|  9,88017857388|  9,88017857388| 10,14580019743|  9,88017857388|  9,88017857388|  9,88017857388|  9,88017857388|  9,88017857388|  0,00000000000|  9,88017857388|  9,88017857388| 10,15693483229|  9,88017857388|  9,88017857388|  9,88017857388|  9,88017857388|  9,88017857388|  9,88017857388|  9,88017857388| 12,18217945452| 11,02542599065| 12,27150390415|  9,93970710555| 10,25211695375|  9,88017857388|  9,88017857388|  9,88017857388
Sheep                     |  9,34012517012|  9,69918479582|  9,34012517012|  9,63691114447|  9,34012517012|  9,34012517012| 10,14580019743|  9,34012517012|  9,34012517012|  9,43363940636|  9,34012517012|  9,34012517012|  9,88017857388|  0,00000000000|  9,34012517012| 10,15693483229|  9,34012517012|  9,34012517012|  9,34012517012|  9,34012517012|  9,34012517012|  9,67584035860|  9,34012517012| 12,18217945452| 11,02542599065| 12,27150390415|  9,93970710555| 10,25211695375|  9,62213482130|  9,51121357886|  9,34012517012
Goat                      |  8,47473701050|  9,69918479582|  9,09132495514|  9,63691114447|  9,29954655891|  9,22010546652| 10,14580019743|  9,09132495514|  9,09132495514|  9,43363940636|  9,05489876401|  9,09132495514|  9,88017857388|  9,34012517012|  0,00000000000| 10,15693483229|  9,09132495514|  9,09132495514|  9,09132495514|  9,09132495514|  9,12214570814|  9,67584035860|  9,09132495514| 12,18217945452| 11,02542599065| 12,27150390415|  9,93970710555| 10,25211695375|  9,62213482130|  9,51121357886|  8,87764815439
Cow                       | 10,15693483229| 10,15693483229| 10,15693483229| 10,15693483229| 10,15693483229| 10,15693483229| 10,15693483229| 10,15693483229| 10,15693483229| 10,15693483229| 10,15693483229| 10,15693483229| 10,15693483229| 10,15693483229| 10,15693483229|  0,00000000000| 10,15693483229| 10,15693483229| 10,15693483229| 10,15693483229| 10,15693483229| 10,15693483229| 10,15693483229| 12,18217945452| 11,02542599065| 12,27150390415| 10,15693483229| 10,25211695375| 10,15693483229| 10,15693483229| 10,15693483229
Buffalo                   |  9,09132495514|  9,69918479582|  8,87266772132|  9,63691114447|  9,29954655891|  9,22010546652| 10,14580019743|  9,03935195539|  9,08016671479|  9,43363940636|  9,09132495514|  8,45916655916|  9,88017857388|  9,34012517012|  9,09132495514| 10,15693483229|  0,00000000000|  8,81885508173|  8,27425376070|  8,25853652033|  9,12214570814|  9,67584035860|  8,81885508173| 12,18217945452| 11,02542599065| 12,27150390415|  9,93970710555| 10,25211695375|  9,62213482130|  9,51121357886|  9,09132495514
Wolf                      |  9,09132495514|  9,69918479582|  8,87266772132|  9,63691114447|  9,29954655891|  9,22010546652| 10,14580019743|  9,03935195539|  9,08016671479|  9,43363940636|  9,09132495514|  8,81885508173|  9,88017857388|  9,34012517012|  9,09132495514| 10,15693483229|  8,81885508173|  0,00000000000|  8,81885508173|  8,81885508173|  9,12214570814|  9,67584035860|  8,64780509122| 12,18217945452| 11,02542599065| 12,27150390415|  9,93970710555| 10,25211695375|  9,62213482130|  9,51121357886|  9,09132495514
Tiger                     |  9,09132495514|  9,69918479582|  8,87266772132|  9,63691114447|  9,29954655891|  9,22010546652| 10,14580019743|  9,03935195539|  9,08016671479|  9,43363940636|  9,09132495514|  8,45916655916|  9,88017857388|  9,34012517012|  9,09132495514| 10,15693483229|  8,27425376070|  8,81885508173|  0,00000000000|  8,27425376070|  9,12214570814|  9,67584035860|  8,81885508173| 12,18217945452| 11,02542599065| 12,27150390415|  9,93970710555| 10,25211695375|  9,62213482130|  9,51121357886|  9,09132495514
Leopard                   |  9,09132495514|  9,69918479582|  8,87266772132|  9,63691114447|  9,29954655891|  9,22010546652| 10,14580019743|  9,03935195539|  9,08016671479|  9,43363940636|  9,09132495514|  8,45916655916|  9,88017857388|  9,34012517012|  9,09132495514| 10,15693483229|  8,25853652033|  8,81885508173|  8,27425376070|  0,00000000000|  9,12214570814|  9,67584035860|  8,81885508173| 12,18217945452| 11,02542599065| 12,27150390415|  9,93970710555| 10,25211695375|  9,62213482130|  9,51121357886|  9,09132495514
Indian_Rhino              |  9,12214570814|  9,69918479582|  9,12214570814|  9,63691114447|  9,29954655891|  9,22010546652| 10,14580019743|  9,12214570814|  9,12214570814|  9,43363940636|  9,12214570814|  9,12214570814|  9,88017857388|  9,34012517012|  9,12214570814| 10,15693483229|  9,12214570814|  9,12214570814|  9,12214570814|  9,12214570814|  0,00000000000|  9,67584035860|  9,12214570814| 12,18217945452| 11,02542599065| 12,27150390415|  9,93970710555| 10,25211695375|  9,62213482130|  9,51121357886|  9,12214570814
White_Rhino               |  9,67584035860|  9,69918479582|  9,67584035860|  9,67584035860|  9,67584035860|  9,67584035860| 10,14580019743|  9,67584035860|  9,67584035860|  9,67584035860|  9,67584035860|  9,67584035860|  9,88017857388|  9,67584035860|  9,67584035860| 10,15693483229|  9,67584035860|  9,67584035860|  9,67584035860|  9,67584035860|  9,67584035860|  0,00000000000|  9,67584035860| 12,18217945452| 11,02542599065| 12,27150390415|  9,93970710555| 10,25211695375|  9,67584035860|  9,67584035860|  9,67584035860
Black_Bear                |  9,09132495514|  9,69918479582|  8,87266772132|  9,63691114447|  9,29954655891|  9,22010546652| 10,14580019743|  9,03935195539|  9,08016671479|  9,43363940636|  9,09132495514|  8,81885508173|  9,88017857388|  9,34012517012|  9,09132495514| 10,15693483229|  8,81885508173|  8,64780509122|  8,81885508173|  8,81885508173|  9,12214570814|  9,67584035860|  0,00000000000| 12,18217945452| 11,02542599065| 12,27150390415|  9,93970710555| 10,25211695375|  9,62213482130|  9,51121357886|  9,09132495514
Brown_Bear                | 12,18217945452| 12,18217945452| 12,18217945452| 12,18217945452| 12,18217945452| 12,18217945452| 12,18217945452| 12,18217945452| 12,18217945452| 12,18217945452| 12,18217945452| 12,18217945452| 12,18217945452| 12,18217945452| 12,18217945452| 12,18217945452| 12,18217945452| 12,18217945452| 12,18217945452| 12,18217945452| 12,18217945452| 12,18217945452| 12,18217945452|  0,00000000000| 12,18217945452| 12,27150390415| 12,18217945452| 12,18217945452| 12,18217945452| 12,18217945452| 12,18217945452
Polar_Bear                | 11,02542599065| 11,02542599065| 11,02542599065| 11,02542599065| 11,02542599065| 11,02542599065| 11,02542599065| 11,02542599065| 11,02542599065| 11,02542599065| 11,02542599065| 11,02542599065| 11,02542599065| 11,02542599065| 11,02542599065| 11,02542599065| 11,02542599065| 11,02542599065| 11,02542599065| 11,02542599065| 11,02542599065| 11,02542599065| 11,02542599065| 12,18217945452|  0,00000000000| 12,27150390415| 11,02542599065| 11,02542599065| 11,02542599065| 11,02542599065| 11,02542599065
Giant_Panda               | 12,27150390415| 12,27150390415| 12,27150390415| 12,27150390415| 12,27150390415| 12,27150390415| 12,27150390415| 12,27150390415| 12,27150390415| 12,27150390415| 12,27150390415| 12,27150390415| 12,27150390415| 12,27150390415| 12,27150390415| 12,27150390415| 12,27150390415| 12,27150390415| 12,27150390415| 12,27150390415| 12,27150390415| 12,27150390415| 12,27150390415| 12,27150390415| 12,27150390415|  0,00000000000| 12,27150390415| 12,27150390415| 12,27150390415| 12,27150390415| 12,27150390415
Rabbit                    |  9,93970710555|  9,93970710555|  9,93970710555|  9,93970710555|  9,93970710555|  9,93970710555| 10,14580019743|  9,93970710555|  9,93970710555|  9,93970710555|  9,93970710555|  9,93970710555|  9,93970710555|  9,93970710555|  9,93970710555| 10,15693483229|  9,93970710555|  9,93970710555|  9,93970710555|  9,93970710555|  9,93970710555|  9,93970710555|  9,93970710555| 12,18217945452| 11,02542599065| 12,27150390415|  0,00000000000| 10,25211695375|  9,93970710555|  9,93970710555|  9,93970710555
Hedgehog                  | 10,25211695375| 10,25211695375| 10,25211695375| 10,25211695375| 10,25211695375| 10,25211695375| 10,25211695375| 10,25211695375| 10,25211695375| 10,25211695375| 10,25211695375| 10,25211695375| 10,25211695375| 10,25211695375| 10,25211695375| 10,25211695375| 10,25211695375| 10,25211695375| 10,25211695375| 10,25211695375| 10,25211695375| 10,25211695375| 10,25211695375| 12,18217945452| 11,02542599065| 12,27150390415| 10,25211695375|  0,00000000000| 10,25211695375| 10,25211695375| 10,25211695375
Dormouse                  |  9,62213482130|  9,69918479582|  9,62213482130|  9,63691114447|  9,62213482130|  9,62213482130| 10,14580019743|  9,62213482130|  9,62213482130|  9,62213482130|  9,62213482130|  9,62213482130|  9,88017857388|  9,62213482130|  9,62213482130| 10,15693483229|  9,62213482130|  9,62213482130|  9,62213482130|  9,62213482130|  9,62213482130|  9,67584035860|  9,62213482130| 12,18217945452| 11,02542599065| 12,27150390415|  9,93970710555| 10,25211695375|  0,00000000000|  9,62213482130|  9,62213482130
Squirrel                  |  9,51121357886|  9,69918479582|  9,51121357886|  9,63691114447|  9,51121357886|  9,51121357886| 10,14580019743|  9,51121357886|  9,51121357886|  9,51121357886|  9,51121357886|  9,51121357886|  9,88017857388|  9,51121357886|  9,51121357886| 10,15693483229|  9,51121357886|  9,51121357886|  9,51121357886|  9,51121357886|  9,51121357886|  9,67584035860|  9,51121357886| 12,18217945452| 11,02542599065| 12,27150390415|  9,93970710555| 10,25211695375|  9,62213482130|  0,00000000000|  9,51121357886
Blue_Whale                |  8,87764815439|  9,69918479582|  9,09132495514|  9,63691114447|  9,29954655891|  9,22010546652| 10,14580019743|  9,09132495514|  9,09132495514|  9,43363940636|  9,05489876401|  9,09132495514|  9,88017857388|  9,34012517012|  8,87764815439| 10,15693483229|  9,09132495514|  9,09132495514|  9,09132495514|  9,09132495514|  9,12214570814|  9,67584035860|  9,09132495514| 12,18217945452| 11,02542599065| 12,27150390415|  9,93970710555| 10,25211695375|  9,62213482130|  9,51121357886|  0,00000000000
                           |Human          |Pig_Chim       |Com_Chim       |Gibbon         |Baboon         |Ver_Monkey     |Macaca_Thibet  |Bor_Oran       |Sum_Oran       |Gorilla        |Cat            |Dog            |Pig            |Sheep          |Goat           |Cow            |Buffalo        |Wolf           |Tiger          |Leopard        |Indian_Rhino   |White_Rhino    |Black_Bear     |Brown_Bear     |Polar_Bear     |Giant_Panda    |Rabbit         |Hedgehog       |Dormouse       |Squirrel       |Blue_Whale     
Human                     |  0,00000000000| 15,00000000000|  8,00000000000| 13,00000000000|  8,00000000000|  7,00000000000| 18,00000000000|  7,00000000000|  6,00000000000| 10,00000000000|  4,00000000000| 10,00000000000| 16,00000000000|  9,00000000000|  2,00000000000| 19,00000000000| 12,00000000000| 10,00000000000| 11,00000000000| 12,00000000000|  6,00000000000| 14,00000000000| 10,00000000000| 22,00000000000| 21,00000000000| 23,00000000000| 17,00000000000| 20,00000000000| 12,00000000000| 11,00000000000|  3,00000000000
Pig_Chim                  | 15,00000000000|  0,00000000000| 15,00000000000|  4,00000000000|  9,00000000000| 10,00000000000|  5,00000000000| 14,00000000000| 13,00000000000|  7,00000000000| 13,00000000000| 17,00000000000|  3,00000000000|  8,00000000000| 15,00000000000|  6,00000000000| 19,00000000000| 17,00000000000| 18,00000000000| 19,00000000000| 11,00000000000|  3,00000000000| 17,00000000000|  9,00000000000|  8,00000000000| 10,00000000000|  4,00000000000|  7,00000000000|  5,00000000000|  6,00000000000| 14,00000000000
Com_Chim                  |  8,00000000000| 15,00000000000|  0,00000000000| 13,00000000000|  8,00000000000|  7,00000000000| 18,00000000000|  3,00000000000|  4,00000000000| 10,00000000000|  6,00000000000|  4,00000000000| 16,00000000000|  9,00000000000|  8,00000000000| 19,00000000000|  6,00000000000|  4,00000000000|  5,00000000000|  6,00000000000|  6,00000000000| 14,00000000000|  4,00000000000| 22,00000000000| 21,00000000000| 23,00000000000| 17,00000000000| 20,00000000000| 12,00000000000| 11,00000000000|  7,00000000000
Gibbon                    | 13,00000000000|  4,00000000000| 13,00000000000|  0,00000000000|  7,00000000000|  8,00000000000|  7,00000000000| 12,00000000000| 11,00000000000|  5,00000000000| 11,00000000000| 15,00000000000|  5,00000000000|  6,00000000000| 13,00000000000|  8,00000000000| 17,00000000000| 15,00000000000| 16,00000000000| 17,00000000000|  9,00000000000|  3,00000000000| 15,00000000000| 11,00000000000| 10,00000000000| 12,00000000000|  6,00000000000|  9,00000000000|  3,00000000000|  4,00000000000| 12,00000000000
Baboon                    |  8,00000000000|  9,00000000000|  8,00000000000|  7,00000000000|  0,00000000000|  3,00000000000| 12,00000000000|  7,00000000000|  6,00000000000|  4,00000000000|  6,00000000000| 10,00000000000| 10,00000000000|  3,00000000000|  8,00000000000| 13,00000000000| 12,00000000000| 10,00000000000| 11,00000000000| 12,00000000000|  4,00000000000|  8,00000000000| 10,00000000000| 16,00000000000| 15,00000000000| 17,00000000000| 11,00000000000| 14,00000000000|  6,00000000000|  5,00000000000|  7,00000000000
Ver_Monkey                |  7,00000000000| 10,00000000000|  7,00000000000|  8,00000000000|  3,00000000000|  0,00000000000| 13,00000000000|  6,00000000000|  5,00000000000|  5,00000000000|  5,00000000000|  9,00000000000| 11,00000000000|  4,00000000000|  7,00000000000| 14,00000000000| 11,00000000000|  9,00000000000| 10,00000000000| 11,00000000000|  3,00000000000|  9,00000000000|  9,00000000000| 17,00000000000| 16,00000000000| 18,00000000000| 12,00000000000| 15,00000000000|  7,00000000000|  6,00000000000|  6,00000000000
Macaca_Thibet             | 18,00000000000|  5,00000000000| 18,00000000000|  7,00000000000| 12,00000000000| 13,00000000000|  0,00000000000| 17,00000000000| 16,00000000000| 10,00000000000| 16,00000000000| 20,00000000000|  4,00000000000| 11,00000000000| 18,00000000000|  3,00000000000| 22,00000000000| 20,00000000000| 21,00000000000| 22,00000000000| 14,00000000000|  6,00000000000| 20,00000000000|  6,00000000000|  5,00000000000|  7,00000000000|  3,00000000000|  4,00000000000|  8,00000000000|  9,00000000000| 17,00000000000
Bor_Oran                  |  7,00000000000| 14,00000000000|  3,00000000000| 12,00000000000|  7,00000000000|  6,00000000000| 17,00000000000|  0,00000000000|  3,00000000000|  9,00000000000|  5,00000000000|  5,00000000000| 15,00000000000|  8,00000000000|  7,00000000000| 18,00000000000|  7,00000000000|  5,00000000000|  6,00000000000|  7,00000000000|  5,00000000000| 13,00000000000|  5,00000000000| 21,00000000000| 20,00000000000| 22,00000000000| 16,00000000000| 19,00000000000| 11,00000000000| 10,00000000000|  6,00000000000
Sum_Oran                  |  6,00000000000| 13,00000000000|  4,00000000000| 11,00000000000|  6,00000000000|  5,00000000000| 16,00000000000|  3,00000000000|  0,00000000000|  8,00000000000|  4,00000000000|  6,00000000000| 14,00000000000|  7,00000000000|  6,00000000000| 17,00000000000|  8,00000000000|  6,00000000000|  7,00000000000|  8,00000000000|  4,00000000000| 12,00000000000|  6,00000000000| 20,00000000000| 19,00000000000| 21,00000000000| 15,00000000000| 18,00000000000| 10,00000000000|  9,00000000000|  5,00000000000
Gorilla                   | 10,00000000000|  7,00000000000| 10,00000000000|  5,00000000000|  4,00000000000|  5,00000000000| 10,00000000000|  9,00000000000|  8,00000000000|  0,00000000000|  8,00000000000| 12,00000000000|  8,00000000000|  3,00000000000| 10,00000000000| 11,00000000000| 14,00000000000| 12,00000000000| 13,00000000000| 14,00000000000|  6,00000000000|  6,00000000000| 12,00000000000| 14,00000000000| 13,00000000000| 15,00000000000|  9,00000000000| 12,00000000000|  4,00000000000|  3,00000000000|  9,00000000000
Cat                       |  4,00000000000| 13,00000000000|  6,00000000000| 11,00000000000|  6,00000000000|  5,00000000000| 16,00000000000|  5,00000000000|  4,00000000000|  8,00000000000|  0,00000000000|  8,00000000000| 14,00000000000|  7,00000000000|  4,00000000000| 17,00000000000| 10,00000000000|  8,00000000000|  9,00000000000| 10,00000000000|  4,00000000000| 12,00000000000|  8,00000000000| 20,00000000000| 19,00000000000| 21,00000000000| 15,00000000000| 18,00000000000| 10,00000000000|  9,00000000000|  3,00000000000
Dog                       | 10,00000000000| 17,00000000000|  4,00000000000| 15,00000000000| 10,00000000000|  9,00000000000| 20,00000000000|  5,00000000000|  6,00000000000| 12,00000000000|  8,00000000000|  0,00000000000| 18,00000000000| 11,00000000000| 10,00000000000| 21,00000000000|  4,00000000000|  4,00000000000|  3,00000000000|  4,00000000000|  8,00000000000| 16,00000000000|  4,00000000000| 24,00000000000| 23,00000000000| 25,00000000000| 19,00000000000| 22,00000000000| 14,00000000000| 13,00000000000|  9,00000000000
Pig                       | 16,00000000000|  3,00000000000| 16,00000000000|  5,00000000000| 10,00000000000| 11,00000000000|  4,00000000000| 15,00000000000| 14,00000000000|  8,00000000000| 14,00000000000| 18,00000000000|  0,00000000000|  9,00000000000| 16,00000000000|  5,00000000000| 20,00000000000| 18,00000000000| 19,00000000000| 20,00000000000| 12,00000000000|  4,00000000000| 18,00000000000|  8,00000000000|  7,00000000000|  9,00000000000|  3,00000000000|  6,00000000000|  6,00000000000|  7,00000000000| 15,00000000000
Sheep                     |  9,00000000000|  8,00000000000|  9,00000000000|  6,00000000000|  3,00000000000|  4,00000000000| 11,00000000000|  8,00000000000|  7,00000000000|  3,00000000000|  7,00000000000| 11,00000000000|  9,00000000000|  0,00000000000|  9,00000000000| 12,00000000000| 13,00000000000| 11,00000000000| 12,00000000000| 13,00000000000|  5,00000000000|  7,00000000000| 11,00000000000| 15,00000000000| 14,00000000000| 16,00000000000| 10,00000000000| 13,00000000000|  5,00000000000|  4,00000000000|  8,00000000000
Goat                      |  2,00000000000| 15,00000000000|  8,00000000000| 13,00000000000|  8,00000000000|  7,00000000000| 18,00000000000|  7,00000000000|  6,00000000000| 10,00000000000|  4,00000000000| 10,00000000000| 16,00000000000|  9,00000000000|  0,00000000000| 19,00000000000| 12,00000000000| 10,00000000000| 11,00000000000| 12,00000000000|  6,00000000000| 14,00000000000| 10,00000000000| 22,00000000000| 21,00000000000| 23,00000000000| 17,00000000000| 20,00000000000| 12,00000000000| 11,00000000000|  3,00000000000
Cow                       | 19,00000000000|  6,00000000000| 19,00000000000|  8,00000000000| 13,00000000000| 14,00000000000|  3,00000000000| 18,00000000000| 17,00000000000| 11,00000000000| 17,00000000000| 21,00000000000|  5,00000000000| 12,00000000000| 19,00000000000|  0,00000000000| 23,00000000000| 21,00000000000| 22,00000000000| 23,00000000000| 15,00000000000|  7,00000000000| 21,00000000000|  5,00000000000|  4,00000000000|  6,00000000000|  4,00000000000|  3,00000000000|  9,00000000000| 10,00000000000| 18,00000000000
Buffalo                   | 12,00000000000| 19,00000000000|  6,00000000000| 17,00000000000| 12,00000000000| 11,00000000000| 22,00000000000|  7,00000000000|  8,00000000000| 14,00000000000| 10,00000000000|  4,00000000000| 20,00000000000| 13,00000000000| 12,00000000000| 23,00000000000|  0,00000000000|  6,00000000000|  3,00000000000|  2,00000000000| 10,00000000000| 18,00000000000|  6,00000000000| 26,00000000000| 25,00000000000| 27,00000000000| 21,00000000000| 24,00000000000| 16,00000000000| 15,00000000000| 11,00000000000
Wolf                      | 10,00000000000| 17,00000000000|  4,00000000000| 15,00000000000| 10,00000000000|  9,00000000000| 20,00000000000|  5,00000000000|  6,00000000000| 12,00000000000|  8,00000000000|  4,00000000000| 18,00000000000| 11,00000000000| 10,00000000000| 21,00000000000|  6,00000000000|  0,00000000000|  5,00000000000|  6,00000000000|  8,00000000000| 16,00000000000|  2,00000000000| 24,00000000000| 23,00000000000| 25,00000000000| 19,00000000000| 22,00000000000| 14,00000000000| 13,00000000000|  9,00000000000
Tiger                     | 11,00000000000| 18,00000000000|  5,00000000000| 16,00000000000| 11,00000000000| 10,00000000000| 21,00000000000|  6,00000000000|  7,00000000000| 13,00000000000|  9,00000000000|  3,00000000000| 19,00000000000| 12,00000000000| 11,00000000000| 22,00000000000|  3,00000000000|  5,00000000000|  0,00000000000|  3,00000000000|  9,00000000000| 17,00000000000|  5,00000000000| 25,00000000000| 24,00000000000| 26,00000000000| 20,00000000000| 23,00000000000| 15,00000000000| 14,00000000000| 10,00000000000
Leopard                   | 12,00000000000| 19,00000000000|  6,00000000000| 17,00000000000| 12,00000000000| 11,00000000000| 22,00000000000|  7,00000000000|  8,00000000000| 14,00000000000| 10,00000000000|  4,00000000000| 20,00000000000| 13,00000000000| 12,00000000000| 23,00000000000|  2,00000000000|  6,00000000000|  3,00000000000|  0,00000000000| 10,00000000000| 18,00000000000|  6,00000000000| 26,00000000000| 25,00000000000| 27,00000000000| 21,00000000000| 24,00000000000| 16,00000000000| 15,00000000000| 11,00000000000
Indian_Rhino              |  6,00000000000| 11,00000000000|  6,00000000000|  9,00000000000|  4,00000000000|  3,00000000000| 14,00000000000|  5,00000000000|  4,00000000000|  6,00000000000|  4,00000000000|  8,00000000000| 12,00000000000|  5,00000000000|  6,00000000000| 15,00000000000| 10,00000000000|  8,00000000000|  9,00000000000| 10,00000000000|  0,00000000000| 10,00000000000|  8,00000000000| 18,00000000000| 17,00000000000| 19,00000000000| 13,00000000000| 16,00000000000|  8,00000000000|  7,00000000000|  5,00000000000
White_Rhino               | 14,00000000000|  3,00000000000| 14,00000000000|  3,00000000000|  8,00000000000|  9,00000000000|  6,00000000000| 13,00000000000| 12,00000000000|  6,00000000000| 12,00000000000| 16,00000000000|  4,00000000000|  7,00000000000| 14,00000000000|  7,00000000000| 18,00000000000| 16,00000000000| 17,00000000000| 18,00000000000| 10,00000000000|  0,00000000000| 16,00000000000| 10,00000000000|  9,00000000000| 11,00000000000|  5,00000000000|  8,00000000000|  4,00000000000|  5,00000000000| 13,00000000000
Black_Bear                | 10,00000000000| 17,00000000000|  4,00000000000| 15,00000000000| 10,00000000000|  9,00000000000| 20,00000000000|  5,00000000000|  6,00000000000| 12,00000000000|  8,00000000000|  4,00000000000| 18,00000000000| 11,00000000000| 10,00000000000| 21,00000000000|  6,00000000000|  2,00000000000|  5,00000000000|  6,00000000000|  8,00000000000| 16,00000000000|  0,00000000000| 24,00000000000| 23,00000000000| 25,00000000000| 19,00000000000| 22,00000000000| 14,00000000000| 13,00000000000|  9,00000000000
Brown_Bear                | 22,00000000000|  9,00000000000| 22,00000000000| 11,00000000000| 16,00000000000| 17,00000000000|  6,00000000000| 21,00000000000| 20,00000000000| 14,00000000000| 20,00000000000| 24,00000000000|  8,00000000000| 15,00000000000| 22,00000000000|  5,00000000000| 26,00000000000| 24,00000000000| 25,00000000000| 26,00000000000| 18,00000000000| 10,00000000000| 24,00000000000|  0,00000000000|  3,00000000000|  3,00000000000|  7,00000000000|  4,00000000000| 12,00000000000| 13,00000000000| 21,00000000000
Polar_Bear                | 21,00000000000|  8,00000000000| 21,00000000000| 10,00000000000| 15,00000000000| 16,00000000000|  5,00000000000| 20,00000000000| 19,00000000000| 13,00000000000| 19,00000000000| 23,00000000000|  7,00000000000| 14,00000000000| 21,00000000000|  4,00000000000| 25,00000000000| 23,00000000000| 24,00000000000| 25,00000000000| 17,00000000000|  9,00000000000| 23,00000000000|  3,00000000000|  0,00000000000|  4,00000000000|  6,00000000000|  3,00000000000| 11,00000000000| 12,00000000000| 20,00000000000
Giant_Panda               | 23,00000000000| 10,00000000000| 23,00000000000| 12,00000000000| 17,00000000000| 18,00000000000|  7,00000000000| 22,00000000000| 21,00000000000| 15,00000000000| 21,00000000000| 25,00000000000|  9,00000000000| 16,00000000000| 23,00000000000|  6,00000000000| 27,00000000000| 25,00000000000| 26,00000000000| 27,00000000000| 19,00000000000| 11,00000000000| 25,00000000000|  3,00000000000|  4,00000000000|  0,00000000000|  8,00000000000|  5,00000000000| 13,00000000000| 14,00000000000| 22,00000000000
Rabbit                    | 17,00000000000|  4,00000000000| 17,00000000000|  6,00000000000| 11,00000000000| 12,00000000000|  3,00000000000| 16,00000000000| 15,00000000000|  9,00000000000| 15,00000000000| 19,00000000000|  3,00000000000| 10,00000000000| 17,00000000000|  4,00000000000| 21,00000000000| 19,00000000000| 20,00000000000| 21,00000000000| 13,00000000000|  5,00000000000| 19,00000000000|  7,00000000000|  6,00000000000|  8,00000000000|  0,00000000000|  5,00000000000|  7,00000000000|  8,00000000000| 16,00000000000
Hedgehog                  | 20,00000000000|  7,00000000000| 20,00000000000|  9,00000000000| 14,00000000000| 15,00000000000|  4,00000000000| 19,00000000000| 18,00000000000| 12,00000000000| 18,00000000000| 22,00000000000|  6,00000000000| 13,00000000000| 20,00000000000|  3,00000000000| 24,00000000000| 22,00000000000| 23,00000000000| 24,00000000000| 16,00000000000|  8,00000000000| 22,00000000000|  4,00000000000|  3,00000000000|  5,00000000000|  5,00000000000|  0,00000000000| 10,00000000000| 11,00000000000| 19,00000000000
Dormouse                  | 12,00000000000|  5,00000000000| 12,00000000000|  3,00000000000|  6,00000000000|  7,00000000000|  8,00000000000| 11,00000000000| 10,00000000000|  4,00000000000| 10,00000000000| 14,00000000000|  6,00000000000|  5,00000000000| 12,00000000000|  9,00000000000| 16,00000000000| 14,00000000000| 15,00000000000| 16,00000000000|  8,00000000000|  4,00000000000| 14,00000000000| 12,00000000000| 11,00000000000| 13,00000000000|  7,00000000000| 10,00000000000|  0,00000000000|  3,00000000000| 11,00000000000
Squirrel                  | 11,00000000000|  6,00000000000| 11,00000000000|  4,00000000000|  5,00000000000|  6,00000000000|  9,00000000000| 10,00000000000|  9,00000000000|  3,00000000000|  9,00000000000| 13,00000000000|  7,00000000000|  4,00000000000| 11,00000000000| 10,00000000000| 15,00000000000| 13,00000000000| 14,00000000000| 15,00000000000|  7,00000000000|  5,00000000000| 13,00000000000| 13,00000000000| 12,00000000000| 14,00000000000|  8,00000000000| 11,00000000000|  3,00000000000|  0,00000000000| 10,00000000000
Blue_Whale                |  3,00000000000| 14,00000000000|  7,00000000000| 12,00000000000|  7,00000000000|  6,00000000000| 17,00000000000|  6,00000000000|  5,00000000000|  9,00000000000|  3,00000000000|  9,00000000000| 15,00000000000|  8,00000000000|  3,00000000000| 18,00000000000| 11,00000000000|  9,00000000000| 10,00000000000| 11,00000000000|  5,00000000000| 13,00000000000|  9,00000000000| 21,00000000000| 20,00000000000| 22,00000000000| 16,00000000000| 19,00000000000| 11,00000000000| 10,00000000000|  0,00000000000
