                           |Human          |Hum_shortened  |Pig_Chim       |Com_Chim       |Gibbon         |Baboon         |Ver_Monkey     |Macaca_Thibet  |Bor_Oran       |Sum_Oran       |Gorilla        |Cat            |Dog            |Pig            |Sheep          |Goat           |Cow            |Buffalo        |Wolf           |Tiger          |Leopard        |Indian_Rhino   |White_Rhino    |Black_Bear     |Brown_Bear     |Polar_Bear     |Giant_Panda    |Rabbit         |Hedgehog       |Dormouse       |Squirrel       |Blue_Whale     
Human                     |  0,00000000000|  6,38155055898|  7,43097393188|  7,46803100144|  8,83229455275|  9,41699775985|  9,55543510831|  9,33412733211|  8,70901025259|  8,81750769871|  7,48172167104| 10,05218220458|  9,94258210331| 12,45022119790| 11,06830674492| 11,44952555919| 10,96633516910| 10,35758917676|  9,84553624557| 10,41447772812| 10,09663829843| 11,29427370300| 10,83852740690| 10,36067375199| 10,26433728577| 10,75553263043| 10,45405392320| 10,06646498511| 10,04678143999| 10,01011057194| 10,19094171047| 11,11310161565
Hum_shortened             |  6,38155055898|  0,00000000000|  7,36051020422|  7,28307332475|  8,94834309984|  9,39032814538|  9,57610453504|  9,40025717786|  8,76953657005|  8,91349468787|  7,56075858422| 10,11165632695|  9,88177527273| 12,37803289184| 11,04282649307| 11,44306408177| 11,08604300502| 10,42024877911|  9,81759224606| 10,41682493031| 10,25821912926| 11,27858023566| 10,82695927260| 10,45624867312| 10,40904694114| 10,90533314186| 10,52164365473| 10,16996768977| 10,24843054449| 10,16147065577| 10,22886624328| 11,23540612352
Pig_Chim                  |  7,43097393188|  7,36051020422|  0,00000000000|  6,09722080304|  8,38708745299|  8,97101311052|  9,15710362068|  9,05105977627|  8,48395690626|  8,32172385034|  6,75611727863|  9,66275840709|  9,57680371807| 11,86704426605| 10,56467911942| 10,87718187128| 10,62374752697|  9,99218350071|  9,50400976167| 10,04711926590|  9,87770367910| 10,91548878151| 10,46897335638| 10,09470875378| 10,08638832496| 10,42682987025| 10,17850620937|  9,74400685128|  9,79046228550|  9,67816682243|  9,73335296887| 10,70426826335
Com_Chim                  |  7,46803100144|  7,28307332475|  6,09722080304|  0,00000000000|  8,49680559056|  9,11546286922|  9,20445440880|  9,07456111513|  8,51394992521|  8,48327909765|  6,51942885040|  9,84757590606|  9,71274162815| 12,11258636523| 10,81524900324| 11,09352700463| 10,85676508745| 10,12863639199|  9,57496047248| 10,18990224823|  9,97332496532| 11,01236288619| 10,58442771246| 10,24528682744| 10,21924359652| 10,59395253525| 10,31952895170|  9,94383464957|  9,89750576055|  9,78534396245|  9,84061615634| 10,99923314977
Gibbon                    |  8,83229455275|  8,94834309984|  8,38708745299|  8,49680559056|  0,00000000000|  8,88033693867|  8,84527599258|  8,71269884880|  8,57938975529|  8,41966898517|  8,25530323310|  9,76332602748|  9,66892846005| 12,41977935536| 10,66673210222| 10,93820566750| 10,96951283488| 10,39846494096|  9,50394485596|  9,70207021044|  9,70686483898| 12,09452144774| 11,40386642449|  9,79016112092|  9,75911514719|  9,97543537255|  9,95390106963|  9,51627915718| 10,10711259346| 10,09462862307|  9,87132039365| 10,61407719769
Baboon                    |  9,41699775985|  9,39032814538|  8,97101311052|  9,11546286922|  8,88033693867|  0,00000000000|  8,31307895321|  8,33437714427|  9,06781056997|  8,85621154810|  9,00087961357|  9,84753221024|  9,81717047308| 11,98273064500| 10,44780579938| 10,73934318777| 11,06478809563| 10,16079882154|  9,68003093709| 10,14083497394| 10,19828585921| 12,12670534159| 11,67391880873|  9,78036828461|  9,83829096308|  9,91012198000|  9,82575171918|  9,45796370497|  9,90926748747| 10,23774307724|  9,62664822057| 10,85453251847
Ver_Monkey                |  9,55543510831|  9,57610453504|  9,15710362068|  9,20445440880|  8,84527599258|  8,31307895321|  0,00000000000|  8,58109754452|  9,26061327929|  9,11526836769|  9,16699376094|  9,66830885564|  9,71439826494| 11,75037955143| 10,35848494535| 10,69206265566| 10,94936742596| 10,16298800462|  9,61951661811| 10,12699833548| 10,04426404439| 11,82448925918| 11,39534167211|  9,83104905822|  9,89055656180| 10,00759423628|  9,93453403695|  9,58597511582|  9,94062964761| 10,14575952620|  9,67776470484| 10,66354455266
Macaca_Thibet             |  9,33412733211|  9,40025717786|  9,05105977627|  9,07456111513|  8,71269884880|  8,33437714427|  8,58109754452|  0,00000000000|  9,26731060948|  8,97205421309|  9,02067807519|  9,66686047588|  9,66833632195| 11,74718846861| 10,30397380634| 10,68818564349| 10,80959677193| 10,10732845786|  9,50822832816| 10,20677515437| 10,02714577273| 11,45951649499| 10,99177712148|  9,72944843928|  9,93478624011| 10,25577511253|  9,94888137606|  9,54827504794|  9,99311445978|  9,77992903764|  9,79715632820| 10,64460541017
Bor_Oran                  |  8,70901025259|  8,76953657005|  8,48395690626|  8,51394992521|  8,57938975529|  9,06781056997|  9,26061327929|  9,26731060948|  0,00000000000|  7,27128751548|  8,16554475236|  9,79835787715|  9,86870162354| 12,39577204033| 10,76239578744| 11,10944072864| 11,13933309370| 10,63467922568|  9,65827493241|  9,97692492743|  9,94051320638| 12,12027940903| 11,58983450613|  9,84355902641|  9,74556574550| 10,04258976637| 10,11602909285|  9,45802338393| 10,01617562974|  9,89086283586|  9,77334456820| 10,79600308061
Sum_Oran                  |  8,81750769871|  8,91349468787|  8,32172385034|  8,48327909765|  8,41966898517|  8,85621154810|  9,11526836769|  8,97205421309|  7,27128751548|  0,00000000000|  8,15896734288|  9,56211137919|  9,62789830846| 12,18661666576| 10,52790812435| 10,82262010548| 10,88873203058| 10,26401910400|  9,42570217280|  9,73625950649|  9,82140628523| 11,76509169783| 11,22328345153|  9,61598141544|  9,70325484197|  9,91257026138| 10,02030226700|  9,31506028832|  9,80298567539|  9,78595167583|  9,70529161109| 10,65091334661
Gorilla                   |  7,48172167104|  7,56075858422|  6,75611727863|  6,51942885040|  8,25530323310|  9,00087961357|  9,16699376094|  9,02067807519|  8,16554475236|  8,15896734288|  0,00000000000|  9,77398578343|  9,78726638042| 12,37695832222| 10,94950436219| 11,22731473602| 10,99909470987| 10,34438749197|  9,66080061801| 10,03902322479|  9,80471704560| 11,49637855691| 10,90012260108| 10,09521880852|  9,87538511720| 10,32259563307| 10,26830657055|  9,82944302216| 10,01581425029|  9,68242174187|  9,83325668686| 11,03191521619
Cat                       | 10,05218220458| 10,11165632695|  9,66275840709|  9,84757590606|  9,76332602748|  9,84753221024|  9,66830885564|  9,66686047588|  9,79835787715|  9,56211137919|  9,77398578343|  0,00000000000|  9,36513633671| 10,80909264749|  9,63900090791|  9,74240461471|  9,88832149111|  9,39070435865|  9,17050175335|  8,00416752933|  7,79470652600| 10,75311783549| 10,19805208551|  9,23142228551|  9,26122007673|  9,48697498805|  9,10223397763|  9,50861882455|  9,59230855977|  9,82989205957|  9,48656366155| 10,08555796555
Dog                       |  9,94258210331|  9,88177527273|  9,57680371807|  9,71274162815|  9,66892846005|  9,81717047308|  9,71439826494|  9,66833632195|  9,86870162354|  9,62789830846|  9,78726638042|  9,36513633671|  0,00000000000| 11,08191711836|  9,79064259812|  9,99494805283| 10,09962808999|  9,48610909219|  6,24566893761|  9,62633381692|  9,71373639688| 10,81239852559| 10,27948184406|  9,37208304580|  9,45994451834|  9,72978898614|  9,54194596047|  9,46434828213|  9,56364386389|  9,83010609093|  9,75117809178| 10,17555263135
Pig                       | 12,45022119790| 12,37803289184| 11,86704426605| 12,11258636523| 12,41977935536| 11,98273064500| 11,75037955143| 11,74718846861| 12,39577204033| 12,18661666576| 12,37695832222| 10,80909264749| 11,08191711836|  0,00000000000|  9,77535895560|  9,56254914756| 10,00353434318|  9,74250837055| 11,12103826458| 11,95103053178| 11,82625083562| 10,42463562863| 10,36563455533| 11,70331277971| 12,06930434275| 12,14263480443| 10,90077371968| 11,77836740225| 11,13296430947| 11,07162439333| 11,30877008993| 10,43095031448
Sheep                     | 11,06830674492| 11,04282649307| 10,56467911942| 10,81524900324| 10,66673210222| 10,44780579938| 10,35848494535| 10,30397380634| 10,76239578744| 10,52790812435| 10,94950436219|  9,63900090791|  9,79064259812|  9,77535895560|  0,00000000000|  7,18872056033|  8,34704407658|  8,40155611331|  9,89665173680| 10,12783763805| 10,19251092652| 10,68070539713| 10,31426558291|  9,89936517311| 10,23472028610| 10,20744796173|  9,21229149654| 10,04885887894|  9,93545501976| 10,26378351129|  9,81378001027|  9,07450920965
Goat                      | 11,44952555919| 11,44306408177| 10,87718187128| 11,09352700463| 10,93820566750| 10,73934318777| 10,69206265566| 10,68818564349| 11,10944072864| 10,82262010548| 11,22731473602|  9,74240461471|  9,99494805283|  9,56254914756|  7,18872056033|  0,00000000000|  8,38833109516|  8,44985971483| 10,09043482539| 10,38329351670| 10,42722075768| 10,81986642974| 10,39992769717| 10,20656471824| 10,51184518053| 10,41264978566|  9,52526367916| 10,19427855668| 10,18996101636| 10,41974618836| 10,28306810146|  9,03730251214
Cow                       | 10,96633516910| 11,08604300502| 10,62374752697| 10,85676508745| 10,96951283488| 11,06478809563| 10,94936742596| 10,80959677193| 11,13933309370| 10,88873203058| 10,99909470987|  9,88832149111| 10,09962808999| 10,00353434318|  8,34704407658|  8,38833109516|  0,00000000000|  8,47332852610| 10,26235460150| 10,56494750061| 10,60444179410| 10,20111686882| 10,05208368255| 10,64939242047| 10,84146374201| 10,95806250264|  9,50328570262| 10,66166254413| 10,18835198912| 10,38384024780| 10,30503477573|  8,97509559106
Buffalo                   | 10,35758917676| 10,42024877911|  9,99218350071| 10,12863639199| 10,39846494096| 10,16079882154| 10,16298800462| 10,10732845786| 10,63467922568| 10,26401910400| 10,34438749197|  9,39070435865|  9,48610909219|  9,74250837055|  8,40155611331|  8,44985971483|  8,47332852610|  0,00000000000|  9,56710790709| 10,00076048685| 10,04553931259| 10,00213213618|  9,71751553188| 10,02409050163| 10,34051045202| 10,42188083545|  9,44869024178| 10,15047883546|  9,92145619921|  9,91382261762|  9,91063972717|  9,47312679703
Wolf                      |  9,84553624557|  9,81759224606|  9,50400976167|  9,57496047248|  9,50394485596|  9,68003093709|  9,61951661811|  9,50822832816|  9,65827493241|  9,42570217280|  9,66080061801|  9,17050175335|  6,24566893761| 11,12103826458|  9,89665173680| 10,09043482539| 10,26235460150|  9,56710790709|  0,00000000000|  9,45949956446|  9,50280492994| 10,86607826412| 10,39199120957|  9,34197494323|  9,40057970574|  9,64822615330|  9,53486898044|  9,48873335599|  9,60507619972|  9,86316781997|  9,68284597239| 10,34212840748
Tiger                     | 10,41447772812| 10,41682493031| 10,04711926590| 10,18990224823|  9,70207021044| 10,14083497394| 10,12699833548| 10,20677515437|  9,97692492743|  9,73625950649| 10,03902322479|  8,00416752933|  9,62633381692| 11,95103053178| 10,12783763805| 10,38329351670| 10,56494750061| 10,00076048685|  9,45949956446|  0,00000000000|  7,73226294202| 11,78136174796| 11,24203579947|  9,16227585847|  9,22982761472|  9,42007853614|  9,52613971330|  9,65491038287| 10,16547308535| 10,18363830137|  9,85790382517| 10,38127147839
Leopard                   | 10,09663829843| 10,25821912926|  9,87770367910|  9,97332496532|  9,70686483898| 10,19828585921| 10,04426404439| 10,02714577273|  9,94051320638|  9,82140628523|  9,80471704560|  7,79470652600|  9,71373639688| 11,82625083562| 10,19251092652| 10,42722075768| 10,60444179410| 10,04553931259|  9,50280492994|  7,73226294202|  0,00000000000| 11,52941818250| 10,81756113196|  9,34917449462|  9,24768800987|  9,43592629816|  9,59902631708|  9,77189942296| 10,08911137830| 10,17686287935|  9,90602446812| 10,63236873546
Indian_Rhino              | 11,29427370300| 11,27858023566| 10,91548878151| 11,01236288619| 12,09452144774| 12,12670534159| 11,82448925918| 11,45951649499| 12,12027940903| 11,76509169783| 11,49637855691| 10,75311783549| 10,81239852559| 10,42463562863| 10,68070539713| 10,81986642974| 10,20111686882| 10,00213213618| 10,86607826412| 11,78136174796| 11,52941818250|  0,00000000000|  7,49025344641| 11,85671911439| 12,04942630521| 12,38259689800| 11,14568916633| 12,06255914090| 11,00995425554| 10,41984776600| 11,54910035392| 11,11553085459
White_Rhino               | 10,83852740690| 10,82695927260| 10,46897335638| 10,58442771246| 11,40386642449| 11,67391880873| 11,39534167211| 10,99177712148| 11,58983450613| 11,22328345153| 10,90012260108| 10,19805208551| 10,27948184406| 10,36563455533| 10,31426558291| 10,39992769717| 10,05208368255|  9,71751553188| 10,39199120957| 11,24203579947| 10,81756113196|  7,49025344641|  0,00000000000| 11,21584620707| 11,43079670355| 11,78385377977| 10,65847954466| 11,37079186319| 10,59708817600| 10,08326850278| 11,07933948972| 10,74857916593
Black_Bear                | 10,36067375199| 10,45624867312| 10,09470875378| 10,24528682744|  9,79016112092|  9,78036828461|  9,83104905822|  9,72944843928|  9,84355902641|  9,61598141544| 10,09521880852|  9,23142228551|  9,37208304580| 11,70331277971|  9,89936517311| 10,20656471824| 10,64939242047| 10,02409050163|  9,34197494323|  9,16227585847|  9,34917449462| 11,85671911439| 11,21584620707|  0,00000000000|  7,55809960954|  7,55452118839|  8,81915773533|  9,49059768809|  9,99973207628| 10,30613806161|  9,56104296343| 10,17996564500
Brown_Bear                | 10,26433728577| 10,40904694114| 10,08638832496| 10,21924359652|  9,75911514719|  9,83829096308|  9,89055656180|  9,93478624011|  9,74556574550|  9,70325484197|  9,87538511720|  9,26122007673|  9,45994451834| 12,06930434275| 10,23472028610| 10,51184518053| 10,84146374201| 10,34051045202|  9,40057970574|  9,22982761472|  9,24768800987| 12,04942630521| 11,43079670355|  7,55809960954|  0,00000000000|  6,17484793807|  8,84934821902|  9,49628180549| 10,06422044149| 10,30052572597|  9,52142670438| 10,37463082105
Polar_Bear                | 10,75553263043| 10,90533314186| 10,42682987025| 10,59395253525|  9,97543537255|  9,91012198000| 10,00759423628| 10,25577511253| 10,04258976637|  9,91257026138| 10,32259563307|  9,48697498805|  9,72978898614| 12,14263480443| 10,20744796173| 10,41264978566| 10,95806250264| 10,42188083545|  9,64822615330|  9,42007853614|  9,43592629816| 12,38259689800| 11,78385377977|  7,55452118839|  6,17484793807|  0,00000000000|  8,87857509060|  9,58040026869| 10,22715811109| 10,59598320685|  9,75492666869| 10,38391850308
Giant_Panda               | 10,45405392320| 10,52164365473| 10,17850620937| 10,31952895170|  9,95390106963|  9,82575171918|  9,93453403695|  9,94888137606| 10,11602909285| 10,02030226700| 10,26830657055|  9,10223397763|  9,54194596047| 10,90077371968|  9,21229149654|  9,52526367916|  9,50328570262|  9,44869024178|  9,53486898044|  9,52613971330|  9,59902631708| 11,14568916633| 10,65847954466|  8,81915773533|  8,84934821902|  8,87857509060|  0,00000000000|  9,74648973158|  9,89174510230| 10,03479831977|  9,67186018772|  9,31705632876
Rabbit                    | 10,06646498511| 10,16996768977|  9,74400685128|  9,94383464957|  9,51627915718|  9,45796370497|  9,58597511582|  9,54827504794|  9,45802338393|  9,31506028832|  9,82944302216|  9,50861882455|  9,46434828213| 11,77836740225| 10,04885887894| 10,19427855668| 10,66166254413| 10,15047883546|  9,48873335599|  9,65491038287|  9,77189942296| 12,06255914090| 11,37079186319|  9,49059768809|  9,49628180549|  9,58040026869|  9,74648973158|  0,00000000000|  9,66575645103|  9,82624821295|  9,30124355241| 10,42400486857
Hedgehog                  | 10,04678143999| 10,24843054449|  9,79046228550|  9,89750576055| 10,10711259346|  9,90926748747|  9,94062964761|  9,99311445978| 10,01617562974|  9,80298567539| 10,01581425029|  9,59230855977|  9,56364386389| 11,13296430947|  9,93545501976| 10,18996101636| 10,18835198912|  9,92145619921|  9,60507619972| 10,16547308535| 10,08911137830| 11,00995425554| 10,59708817600|  9,99973207628| 10,06422044149| 10,22715811109|  9,89174510230|  9,66575645103|  0,00000000000|  9,65638979031|  9,63632543053| 10,26831690636
Dormouse                  | 10,01011057194| 10,16147065577|  9,67816682243|  9,78534396245| 10,09462862307| 10,23774307724| 10,14575952620|  9,77992903764|  9,89086283586|  9,78595167583|  9,68242174187|  9,82989205957|  9,83010609093| 11,07162439333| 10,26378351129| 10,41974618836| 10,38384024780|  9,91382261762|  9,86316781997| 10,18363830137| 10,17686287935| 10,41984776600| 10,08326850278| 10,30613806161| 10,30052572597| 10,59598320685| 10,03479831977|  9,82624821295|  9,65638979031|  0,00000000000|  9,77874491421| 10,41585388799
Squirrel                  | 10,19094171047| 10,22886624328|  9,73335296887|  9,84061615634|  9,87132039365|  9,62664822057|  9,67776470484|  9,79715632820|  9,77334456820|  9,70529161109|  9,83325668686|  9,48656366155|  9,75117809178| 11,30877008993|  9,81378001027| 10,28306810146| 10,30503477573|  9,91063972717|  9,68284597239|  9,85790382517|  9,90602446812| 11,54910035392| 11,07933948972|  9,56104296343|  9,52142670438|  9,75492666869|  9,67186018772|  9,30124355241|  9,63632543053|  9,77874491421|  0,00000000000| 10,41185193684
Blue_Whale                | 11,11310161565| 11,23540612352| 10,70426826335| 10,99923314977| 10,61407719769| 10,85453251847| 10,66354455266| 10,64460541017| 10,79600308061| 10,65091334661| 11,03191521619| 10,08555796555| 10,17555263135| 10,43095031448|  9,07450920965|  9,03730251214|  8,97509559106|  9,47312679703| 10,34212840748| 10,38127147839| 10,63236873546| 11,11553085459| 10,74857916593| 10,17996564500| 10,37463082105| 10,38391850308|  9,31705632876| 10,42400486857| 10,26831690636| 10,41585388799| 10,41185193684|  0,00000000000
