                           |Human          |Hum_shortened  |Pig_Chim       |Com_Chim       |Gibbon         |Baboon         |Ver_Monkey     |Macaca_Thibet  |Bor_Oran       |Sum_Oran       |Gorilla        |Cat            |Dog            |Pig            |Sheep          |Goat           |Cow            |Buffalo        |Wolf           |Tiger          |Leopard        |Indian_Rhino   |White_Rhino    |Black_Bear     |Brown_Bear     |Polar_Bear     |Giant_Panda    |Rabbit         |Hedgehog       |Dormouse       |Squirrel       |Blue_Whale     
Human                     |  0,00000000000|5292,93786404029|5098,20701845914|5098,20701845914|5098,20701845914|5098,20701845914|5098,20701845914|5098,20701845914|5098,20701845914|5015,45016190411|5098,20701845914|5245,07022809612|5215,06512288794|5164,40850163312|5164,40850163312|5164,40850163312|5287,28677136144|5164,40850163312|5215,06512288794|5245,07022809612|5245,07022809612|5191,60382095740|5191,60382095740|5286,83708053189|5287,28677136144|5287,28677136144|5287,28677136144|5191,60382095740|5395,71200487850|5098,20701845914|5098,20701845914|5323,18751970653
Hum_shortened             |5292,93786404029|  0,00000000000|5292,93786404029|5292,93786404029|5292,93786404029|5292,93786404029|5292,93786404029|5292,93786404029|5292,93786404029|5292,93786404029|5292,93786404029|5292,93786404029|5292,93786404029|5292,93786404029|5292,93786404029|5292,93786404029|5292,93786404029|5292,93786404029|5292,93786404029|5292,93786404029|5292,93786404029|5292,93786404029|5292,93786404029|5292,93786404029|5292,93786404029|5292,93786404029|5292,93786404029|5292,93786404029|5395,71200487850|5292,93786404029|5292,93786404029|5323,18751970653
Pig_Chim                  |5098,20701845914|5292,93786404029|  0,00000000000|4744,68911899895|4636,09558031830|5022,68378864273|5044,69044344923|5022,68378864273|5004,84259890755|5098,20701845914|4744,68911899895|5245,07022809612|5215,06512288794|5164,40850163312|5164,40850163312|5164,40850163312|5287,28677136144|5164,40850163312|5215,06512288794|5245,07022809612|5245,07022809612|5191,60382095740|5191,60382095740|5286,83708053189|5287,28677136144|5287,28677136144|5287,28677136144|5191,60382095740|5395,71200487850|5022,68378864273|5079,47963493704|5323,18751970653
Com_Chim                  |5098,20701845914|5292,93786404029|4744,68911899895|  0,00000000000|4744,68911899895|5022,68378864273|5044,69044344923|5022,68378864273|5004,84259890755|5098,20701845914|4212,74461185042|5245,07022809612|5215,06512288794|5164,40850163312|5164,40850163312|5164,40850163312|5287,28677136144|5164,40850163312|5215,06512288794|5245,07022809612|5245,07022809612|5191,60382095740|5191,60382095740|5286,83708053189|5287,28677136144|5287,28677136144|5287,28677136144|5191,60382095740|5395,71200487850|5022,68378864273|5079,47963493704|5323,18751970653
Gibbon                    |5098,20701845914|5292,93786404029|4636,09558031830|4744,68911899895|  0,00000000000|5022,68378864273|5044,69044344923|5022,68378864273|5004,84259890755|5098,20701845914|4744,68911899895|5245,07022809612|5215,06512288794|5164,40850163312|5164,40850163312|5164,40850163312|5287,28677136144|5164,40850163312|5215,06512288794|5245,07022809612|5245,07022809612|5191,60382095740|5191,60382095740|5286,83708053189|5287,28677136144|5287,28677136144|5287,28677136144|5191,60382095740|5395,71200487850|5022,68378864273|5079,47963493704|5323,18751970653
Baboon                    |5098,20701845914|5292,93786404029|5022,68378864273|5022,68378864273|5022,68378864273|  0,00000000000|5044,69044344923|5022,65811066112|5022,68378864273|5098,20701845914|5022,68378864273|5245,07022809612|5215,06512288794|5164,40850163312|5164,40850163312|5164,40850163312|5287,28677136144|5164,40850163312|5215,06512288794|5245,07022809612|5245,07022809612|5191,60382095740|5191,60382095740|5286,83708053189|5287,28677136144|5287,28677136144|5287,28677136144|5191,60382095740|5395,71200487850|4926,47540264520|5079,47963493704|5323,18751970653
Ver_Monkey                |5098,20701845914|5292,93786404029|5044,69044344923|5044,69044344923|5044,69044344923|5044,69044344923|  0,00000000000|5044,69044344923|5044,69044344923|5098,20701845914|5044,69044344923|5245,07022809612|5215,06512288794|5164,40850163312|5164,40850163312|5164,40850163312|5287,28677136144|5164,40850163312|5215,06512288794|5245,07022809612|5245,07022809612|5191,60382095740|5191,60382095740|5286,83708053189|5287,28677136144|5287,28677136144|5287,28677136144|5191,60382095740|5395,71200487850|5044,69044344923|5079,47963493704|5323,18751970653
Macaca_Thibet             |5098,20701845914|5292,93786404029|5022,68378864273|5022,68378864273|5022,68378864273|5022,65811066112|5044,69044344923|  0,00000000000|5022,68378864273|5098,20701845914|5022,68378864273|5245,07022809612|5215,06512288794|5164,40850163312|5164,40850163312|5164,40850163312|5287,28677136144|5164,40850163312|5215,06512288794|5245,07022809612|5245,07022809612|5191,60382095740|5191,60382095740|5286,83708053189|5287,28677136144|5287,28677136144|5287,28677136144|5191,60382095740|5395,71200487850|5022,65811066112|5079,47963493704|5323,18751970653
Bor_Oran                  |5098,20701845914|5292,93786404029|5004,84259890755|5004,84259890755|5004,84259890755|5022,68378864273|5044,69044344923|5022,68378864273|  0,00000000000|5098,20701845914|5004,84259890755|5245,07022809612|5215,06512288794|5164,40850163312|5164,40850163312|5164,40850163312|5287,28677136144|5164,40850163312|5215,06512288794|5245,07022809612|5245,07022809612|5191,60382095740|5191,60382095740|5286,83708053189|5287,28677136144|5287,28677136144|5287,28677136144|5191,60382095740|5395,71200487850|5022,68378864273|5079,47963493704|5323,18751970653
Sum_Oran                  |5015,45016190411|5292,93786404029|5098,20701845914|5098,20701845914|5098,20701845914|5098,20701845914|5098,20701845914|5098,20701845914|5098,20701845914|  0,00000000000|5098,20701845914|5245,07022809612|5215,06512288794|5164,40850163312|5164,40850163312|5164,40850163312|5287,28677136144|5164,40850163312|5215,06512288794|5245,07022809612|5245,07022809612|5191,60382095740|5191,60382095740|5286,83708053189|5287,28677136144|5287,28677136144|5287,28677136144|5191,60382095740|5395,71200487850|5098,20701845914|5098,20701845914|5323,18751970653
Gorilla                   |5098,20701845914|5292,93786404029|4744,68911899895|4212,74461185042|4744,68911899895|5022,68378864273|5044,69044344923|5022,68378864273|5004,84259890755|5098,20701845914|  0,00000000000|5245,07022809612|5215,06512288794|5164,40850163312|5164,40850163312|5164,40850163312|5287,28677136144|5164,40850163312|5215,06512288794|5245,07022809612|5245,07022809612|5191,60382095740|5191,60382095740|5286,83708053189|5287,28677136144|5287,28677136144|5287,28677136144|5191,60382095740|5395,71200487850|5022,68378864273|5079,47963493704|5323,18751970653
Cat                       |5245,07022809612|5292,93786404029|5245,07022809612|5245,07022809612|5245,07022809612|5245,07022809612|5245,07022809612|5245,07022809612|5245,07022809612|5245,07022809612|5245,07022809612|  0,00000000000|5245,07022809612|5245,07022809612|5245,07022809612|5245,07022809612|5287,28677136144|5245,07022809612|5245,07022809612|4978,29137539898|5159,20700378071|5245,07022809612|5245,07022809612|5286,83708053189|5287,28677136144|5287,28677136144|5287,28677136144|5245,07022809612|5395,71200487850|5245,07022809612|5245,07022809612|5323,18751970653
Dog                       |5215,06512288794|5292,93786404029|5215,06512288794|5215,06512288794|5215,06512288794|5215,06512288794|5215,06512288794|5215,06512288794|5215,06512288794|5215,06512288794|5215,06512288794|5245,07022809612|  0,00000000000|5215,06512288794|5215,06512288794|5215,06512288794|5287,28677136144|5215,06512288794|3792,02487495720|5245,07022809612|5245,07022809612|5215,06512288794|5215,06512288794|5286,83708053189|5287,28677136144|5287,28677136144|5287,28677136144|5215,06512288794|5395,71200487850|5215,06512288794|5215,06512288794|5323,18751970653
Pig                       |5164,40850163312|5292,93786404029|5164,40850163312|5164,40850163312|5164,40850163312|5164,40850163312|5164,40850163312|5164,40850163312|5164,40850163312|5164,40850163312|5164,40850163312|5245,07022809612|5215,06512288794|  0,00000000000|5138,68407056125|5139,56143158722|5287,28677136144|5139,56143158722|5215,06512288794|5245,07022809612|5245,07022809612|5191,60382095740|5191,60382095740|5286,83708053189|5287,28677136144|5287,28677136144|5287,28677136144|5191,60382095740|5395,71200487850|5164,40850163312|5164,40850163312|5323,18751970653
Sheep                     |5164,40850163312|5292,93786404029|5164,40850163312|5164,40850163312|5164,40850163312|5164,40850163312|5164,40850163312|5164,40850163312|5164,40850163312|5164,40850163312|5164,40850163312|5245,07022809612|5215,06512288794|5138,68407056125|  0,00000000000|5139,56143158722|5287,28677136144|5139,56143158722|5215,06512288794|5245,07022809612|5245,07022809612|5191,60382095740|5191,60382095740|5286,83708053189|5287,28677136144|5287,28677136144|5287,28677136144|5191,60382095740|5395,71200487850|5164,40850163312|5164,40850163312|5323,18751970653
Goat                      |5164,40850163312|5292,93786404029|5164,40850163312|5164,40850163312|5164,40850163312|5164,40850163312|5164,40850163312|5164,40850163312|5164,40850163312|5164,40850163312|5164,40850163312|5245,07022809612|5215,06512288794|5139,56143158722|5139,56143158722|  0,00000000000|5287,28677136144|4737,77109110057|5215,06512288794|5245,07022809612|5245,07022809612|5191,60382095740|5191,60382095740|5286,83708053189|5287,28677136144|5287,28677136144|5287,28677136144|5191,60382095740|5395,71200487850|5164,40850163312|5164,40850163312|5323,18751970653
Cow                       |5287,28677136144|5292,93786404029|5287,28677136144|5287,28677136144|5287,28677136144|5287,28677136144|5287,28677136144|5287,28677136144|5287,28677136144|5287,28677136144|5287,28677136144|5287,28677136144|5287,28677136144|5287,28677136144|5287,28677136144|5287,28677136144|  0,00000000000|5287,28677136144|5287,28677136144|5287,28677136144|5287,28677136144|5287,28677136144|5287,28677136144|5287,28677136144|5259,64458577275|5259,64458577275|5259,64458577275|5287,28677136144|5395,71200487850|5287,28677136144|5287,28677136144|5323,18751970653
Buffalo                   |5164,40850163312|5292,93786404029|5164,40850163312|5164,40850163312|5164,40850163312|5164,40850163312|5164,40850163312|5164,40850163312|5164,40850163312|5164,40850163312|5164,40850163312|5245,07022809612|5215,06512288794|5139,56143158722|5139,56143158722|4737,77109110057|5287,28677136144|  0,00000000000|5215,06512288794|5245,07022809612|5245,07022809612|5191,60382095740|5191,60382095740|5286,83708053189|5287,28677136144|5287,28677136144|5287,28677136144|5191,60382095740|5395,71200487850|5164,40850163312|5164,40850163312|5323,18751970653
Wolf                      |5215,06512288794|5292,93786404029|5215,06512288794|5215,06512288794|5215,06512288794|5215,06512288794|5215,06512288794|5215,06512288794|5215,06512288794|5215,06512288794|5215,06512288794|5245,07022809612|3792,02487495720|5215,06512288794|5215,06512288794|5215,06512288794|5287,28677136144|5215,06512288794|  0,00000000000|5245,07022809612|5245,07022809612|5215,06512288794|5215,06512288794|5286,83708053189|5287,28677136144|5287,28677136144|5287,28677136144|5215,06512288794|5395,71200487850|5215,06512288794|5215,06512288794|5323,18751970653
Tiger                     |5245,07022809612|5292,93786404029|5245,07022809612|5245,07022809612|5245,07022809612|5245,07022809612|5245,07022809612|5245,07022809612|5245,07022809612|5245,07022809612|5245,07022809612|4978,29137539898|5245,07022809612|5245,07022809612|5245,07022809612|5245,07022809612|5287,28677136144|5245,07022809612|5245,07022809612|  0,00000000000|5159,20700378071|5245,07022809612|5245,07022809612|5286,83708053189|5287,28677136144|5287,28677136144|5287,28677136144|5245,07022809612|5395,71200487850|5245,07022809612|5245,07022809612|5323,18751970653
Leopard                   |5245,07022809612|5292,93786404029|5245,07022809612|5245,07022809612|5245,07022809612|5245,07022809612|5245,07022809612|5245,07022809612|5245,07022809612|5245,07022809612|5245,07022809612|5159,20700378071|5245,07022809612|5245,07022809612|5245,07022809612|5245,07022809612|5287,28677136144|5245,07022809612|5245,07022809612|5159,20700378071|  0,00000000000|5245,07022809612|5245,07022809612|5286,83708053189|5287,28677136144|5287,28677136144|5287,28677136144|5245,07022809612|5395,71200487850|5245,07022809612|5245,07022809612|5323,18751970653
Indian_Rhino              |5191,60382095740|5292,93786404029|5191,60382095740|5191,60382095740|5191,60382095740|5191,60382095740|5191,60382095740|5191,60382095740|5191,60382095740|5191,60382095740|5191,60382095740|5245,07022809612|5215,06512288794|5191,60382095740|5191,60382095740|5191,60382095740|5287,28677136144|5191,60382095740|5215,06512288794|5245,07022809612|5245,07022809612|  0,00000000000|4862,19794937074|5286,83708053189|5287,28677136144|5287,28677136144|5287,28677136144|4955,53575043280|5395,71200487850|5191,60382095740|5191,60382095740|5323,18751970653
White_Rhino               |5191,60382095740|5292,93786404029|5191,60382095740|5191,60382095740|5191,60382095740|5191,60382095740|5191,60382095740|5191,60382095740|5191,60382095740|5191,60382095740|5191,60382095740|5245,07022809612|5215,06512288794|5191,60382095740|5191,60382095740|5191,60382095740|5287,28677136144|5191,60382095740|5215,06512288794|5245,07022809612|5245,07022809612|4862,19794937074|  0,00000000000|5286,83708053189|5287,28677136144|5287,28677136144|5287,28677136144|4955,53575043280|5395,71200487850|5191,60382095740|5191,60382095740|5323,18751970653
Black_Bear                |5286,83708053189|5292,93786404029|5286,83708053189|5286,83708053189|5286,83708053189|5286,83708053189|5286,83708053189|5286,83708053189|5286,83708053189|5286,83708053189|5286,83708053189|5286,83708053189|5286,83708053189|5286,83708053189|5286,83708053189|5286,83708053189|5287,28677136144|5286,83708053189|5286,83708053189|5286,83708053189|5286,83708053189|5286,83708053189|5286,83708053189|  0,00000000000|5287,28677136144|5287,28677136144|5287,28677136144|5286,83708053189|5395,71200487850|5286,83708053189|5286,83708053189|5323,18751970653
Brown_Bear                |5287,28677136144|5292,93786404029|5287,28677136144|5287,28677136144|5287,28677136144|5287,28677136144|5287,28677136144|5287,28677136144|5287,28677136144|5287,28677136144|5287,28677136144|5287,28677136144|5287,28677136144|5287,28677136144|5287,28677136144|5287,28677136144|5259,64458577275|5287,28677136144|5287,28677136144|5287,28677136144|5287,28677136144|5287,28677136144|5287,28677136144|5287,28677136144|  0,00000000000|4881,35895989946|5176,44579275330|5287,28677136144|5395,71200487850|5287,28677136144|5287,28677136144|5323,18751970653
Polar_Bear                |5287,28677136144|5292,93786404029|5287,28677136144|5287,28677136144|5287,28677136144|5287,28677136144|5287,28677136144|5287,28677136144|5287,28677136144|5287,28677136144|5287,28677136144|5287,28677136144|5287,28677136144|5287,28677136144|5287,28677136144|5287,28677136144|5259,64458577275|5287,28677136144|5287,28677136144|5287,28677136144|5287,28677136144|5287,28677136144|5287,28677136144|5287,28677136144|4881,35895989946|  0,00000000000|5176,44579275330|5287,28677136144|5395,71200487850|5287,28677136144|5287,28677136144|5323,18751970653
Giant_Panda               |5287,28677136144|5292,93786404029|5287,28677136144|5287,28677136144|5287,28677136144|5287,28677136144|5287,28677136144|5287,28677136144|5287,28677136144|5287,28677136144|5287,28677136144|5287,28677136144|5287,28677136144|5287,28677136144|5287,28677136144|5287,28677136144|5259,64458577275|5287,28677136144|5287,28677136144|5287,28677136144|5287,28677136144|5287,28677136144|5287,28677136144|5287,28677136144|5176,44579275330|5176,44579275330|  0,00000000000|5287,28677136144|5395,71200487850|5287,28677136144|5287,28677136144|5323,18751970653
Rabbit                    |5191,60382095740|5292,93786404029|5191,60382095740|5191,60382095740|5191,60382095740|5191,60382095740|5191,60382095740|5191,60382095740|5191,60382095740|5191,60382095740|5191,60382095740|5245,07022809612|5215,06512288794|5191,60382095740|5191,60382095740|5191,60382095740|5287,28677136144|5191,60382095740|5215,06512288794|5245,07022809612|5245,07022809612|4955,53575043280|4955,53575043280|5286,83708053189|5287,28677136144|5287,28677136144|5287,28677136144|  0,00000000000|5395,71200487850|5191,60382095740|5191,60382095740|5323,18751970653
Hedgehog                  |5395,71200487850|5395,71200487850|5395,71200487850|5395,71200487850|5395,71200487850|5395,71200487850|5395,71200487850|5395,71200487850|5395,71200487850|5395,71200487850|5395,71200487850|5395,71200487850|5395,71200487850|5395,71200487850|5395,71200487850|5395,71200487850|5395,71200487850|5395,71200487850|5395,71200487850|5395,71200487850|5395,71200487850|5395,71200487850|5395,71200487850|5395,71200487850|5395,71200487850|5395,71200487850|5395,71200487850|5395,71200487850|  0,00000000000|5395,71200487850|5395,71200487850|5395,71200487850
Dormouse                  |5098,20701845914|5292,93786404029|5022,68378864273|5022,68378864273|5022,68378864273|4926,47540264520|5044,69044344923|5022,65811066112|5022,68378864273|5098,20701845914|5022,68378864273|5245,07022809612|5215,06512288794|5164,40850163312|5164,40850163312|5164,40850163312|5287,28677136144|5164,40850163312|5215,06512288794|5245,07022809612|5245,07022809612|5191,60382095740|5191,60382095740|5286,83708053189|5287,28677136144|5287,28677136144|5287,28677136144|5191,60382095740|5395,71200487850|  0,00000000000|5079,47963493704|5323,18751970653
Squirrel                  |5098,20701845914|5292,93786404029|5079,47963493704|5079,47963493704|5079,47963493704|5079,47963493704|5079,47963493704|5079,47963493704|5079,47963493704|5098,20701845914|5079,47963493704|5245,07022809612|5215,06512288794|5164,40850163312|5164,40850163312|5164,40850163312|5287,28677136144|5164,40850163312|5215,06512288794|5245,07022809612|5245,07022809612|5191,60382095740|5191,60382095740|5286,83708053189|5287,28677136144|5287,28677136144|5287,28677136144|5191,60382095740|5395,71200487850|5079,47963493704|  0,00000000000|5323,18751970653
Blue_Whale                |5323,18751970653|5323,18751970653|5323,18751970653|5323,18751970653|5323,18751970653|5323,18751970653|5323,18751970653|5323,18751970653|5323,18751970653|5323,18751970653|5323,18751970653|5323,18751970653|5323,18751970653|5323,18751970653|5323,18751970653|5323,18751970653|5323,18751970653|5323,18751970653|5323,18751970653|5323,18751970653|5323,18751970653|5323,18751970653|5323,18751970653|5323,18751970653|5323,18751970653|5323,18751970653|5323,18751970653|5323,18751970653|5395,71200487850|5323,18751970653|5323,18751970653|  0,00000000000
                           |Human          |Hum_shortened  |Pig_Chim       |Com_Chim       |Gibbon         |Baboon         |Ver_Monkey     |Macaca_Thibet  |Bor_Oran       |Sum_Oran       |Gorilla        |Cat            |Dog            |Pig            |Sheep          |Goat           |Cow            |Buffalo        |Wolf           |Tiger          |Leopard        |Indian_Rhino   |White_Rhino    |Black_Bear     |Brown_Bear     |Polar_Bear     |Giant_Panda    |Rabbit         |Hedgehog       |Dormouse       |Squirrel       |Blue_Whale     
Human                     |  0,00000000000| 10,55594096023|  9,10487131001|  9,10487131001|  9,10487131001|  9,10487131001|  9,10487131001|  9,10487131001|  9,10487131001|  8,48819467341|  9,10487131001| 10,19924721949|  9,97565913108|  9,59818279719|  9,59818279719|  9,59818279719| 10,51383089260|  9,59818279719|  9,97565913108| 10,19924721949| 10,19924721949|  9,80083329347|  9,80083329347| 10,51047994574| 10,51383089260| 10,51383089260| 10,51383089260|  9,80083329347| 11,32177975763|  9,10487131001|  9,10487131001| 10,78135135752
Hum_shortened             | 10,55594096023|  0,00000000000| 10,55594096023| 10,55594096023| 10,55594096023| 10,55594096023| 10,55594096023| 10,55594096023| 10,55594096023| 10,55594096023| 10,55594096023| 10,55594096023| 10,55594096023| 10,55594096023| 10,55594096023| 10,55594096023| 10,55594096023| 10,55594096023| 10,55594096023| 10,55594096023| 10,55594096023| 10,55594096023| 10,55594096023| 10,55594096023| 10,55594096023| 10,55594096023| 10,55594096023| 10,55594096023| 11,32177975763| 10,55594096023| 10,55594096023| 10,78135135752
Pig_Chim                  |  9,10487131001| 10,55594096023|  0,00000000000|  6,47057321930|  5,66137020003|  8,54209725977|  8,70608354966|  8,54209725977|  8,40915063351|  9,10487131001|  6,47057321930| 10,19924721949|  9,97565913108|  9,59818279719|  9,59818279719|  9,59818279719| 10,51383089260|  9,59818279719|  9,97565913108| 10,19924721949| 10,19924721949|  9,80083329347|  9,80083329347| 10,51047994574| 10,51383089260| 10,51383089260| 10,51383089260|  9,80083329347| 11,32177975763|  8,54209725977|  8,96532106168| 10,78135135752
Com_Chim                  |  9,10487131001| 10,55594096023|  6,47057321930|  0,00000000000|  6,47057321930|  8,54209725977|  8,70608354966|  8,54209725977|  8,40915063351|  9,10487131001|  2,50669924946| 10,19924721949|  9,97565913108|  9,59818279719|  9,59818279719|  9,59818279719| 10,51383089260|  9,59818279719|  9,97565913108| 10,19924721949| 10,19924721949|  9,80083329347|  9,80083329347| 10,51047994574| 10,51383089260| 10,51383089260| 10,51383089260|  9,80083329347| 11,32177975763|  8,54209725977|  8,96532106168| 10,78135135752
Gibbon                    |  9,10487131001| 10,55594096023|  5,66137020003|  6,47057321930|  0,00000000000|  8,54209725977|  8,70608354966|  8,54209725977|  8,40915063351|  9,10487131001|  6,47057321930| 10,19924721949|  9,97565913108|  9,59818279719|  9,59818279719|  9,59818279719| 10,51383089260|  9,59818279719|  9,97565913108| 10,19924721949| 10,19924721949|  9,80083329347|  9,80083329347| 10,51047994574| 10,51383089260| 10,51383089260| 10,51383089260|  9,80083329347| 11,32177975763|  8,54209725977|  8,96532106168| 10,78135135752
Baboon                    |  9,10487131001| 10,55594096023|  8,54209725977|  8,54209725977|  8,54209725977|  0,00000000000|  8,70608354966|  8,54190591597|  8,54209725977|  9,10487131001|  8,54209725977| 10,19924721949|  9,97565913108|  9,59818279719|  9,59818279719|  9,59818279719| 10,51383089260|  9,59818279719|  9,97565913108| 10,19924721949| 10,19924721949|  9,80083329347|  9,80083329347| 10,51047994574| 10,51383089260| 10,51383089260| 10,51383089260|  9,80083329347| 11,32177975763|  7,82518428894|  8,96532106168| 10,78135135752
Ver_Monkey                |  9,10487131001| 10,55594096023|  8,70608354966|  8,70608354966|  8,70608354966|  8,70608354966|  0,00000000000|  8,70608354966|  8,70608354966|  9,10487131001|  8,70608354966| 10,19924721949|  9,97565913108|  9,59818279719|  9,59818279719|  9,59818279719| 10,51383089260|  9,59818279719|  9,97565913108| 10,19924721949| 10,19924721949|  9,80083329347|  9,80083329347| 10,51047994574| 10,51383089260| 10,51383089260| 10,51383089260|  9,80083329347| 11,32177975763|  8,70608354966|  8,96532106168| 10,78135135752
Macaca_Thibet             |  9,10487131001| 10,55594096023|  8,54209725977|  8,54209725977|  8,54209725977|  8,54190591597|  8,70608354966|  0,00000000000|  8,54209725977|  9,10487131001|  8,54209725977| 10,19924721949|  9,97565913108|  9,59818279719|  9,59818279719|  9,59818279719| 10,51383089260|  9,59818279719|  9,97565913108| 10,19924721949| 10,19924721949|  9,80083329347|  9,80083329347| 10,51047994574| 10,51383089260| 10,51383089260| 10,51383089260|  9,80083329347| 11,32177975763|  8,54190591597|  8,96532106168| 10,78135135752
Bor_Oran                  |  9,10487131001| 10,55594096023|  8,40915063351|  8,40915063351|  8,40915063351|  8,54209725977|  8,70608354966|  8,54209725977|  0,00000000000|  9,10487131001|  8,40915063351| 10,19924721949|  9,97565913108|  9,59818279719|  9,59818279719|  9,59818279719| 10,51383089260|  9,59818279719|  9,97565913108| 10,19924721949| 10,19924721949|  9,80083329347|  9,80083329347| 10,51047994574| 10,51383089260| 10,51383089260| 10,51383089260|  9,80083329347| 11,32177975763|  8,54209725977|  8,96532106168| 10,78135135752
Sum_Oran                  |  8,48819467341| 10,55594096023|  9,10487131001|  9,10487131001|  9,10487131001|  9,10487131001|  9,10487131001|  9,10487131001|  9,10487131001|  0,00000000000|  9,10487131001| 10,19924721949|  9,97565913108|  9,59818279719|  9,59818279719|  9,59818279719| 10,51383089260|  9,59818279719|  9,97565913108| 10,19924721949| 10,19924721949|  9,80083329347|  9,80083329347| 10,51047994574| 10,51383089260| 10,51383089260| 10,51383089260|  9,80083329347| 11,32177975763|  9,10487131001|  9,10487131001| 10,78135135752
Gorilla                   |  9,10487131001| 10,55594096023|  6,47057321930|  2,50669924946|  6,47057321930|  8,54209725977|  8,70608354966|  8,54209725977|  8,40915063351|  9,10487131001|  0,00000000000| 10,19924721949|  9,97565913108|  9,59818279719|  9,59818279719|  9,59818279719| 10,51383089260|  9,59818279719|  9,97565913108| 10,19924721949| 10,19924721949|  9,80083329347|  9,80083329347| 10,51047994574| 10,51383089260| 10,51383089260| 10,51383089260|  9,80083329347| 11,32177975763|  8,54209725977|  8,96532106168| 10,78135135752
Cat                       | 10,19924721949| 10,55594096023| 10,19924721949| 10,19924721949| 10,19924721949| 10,19924721949| 10,19924721949| 10,19924721949| 10,19924721949| 10,19924721949| 10,19924721949|  0,00000000000| 10,19924721949| 10,19924721949| 10,19924721949| 10,19924721949| 10,51383089260| 10,19924721949| 10,19924721949|  8,21129972554|  9,55942296103| 10,19924721949| 10,19924721949| 10,51047994574| 10,51383089260| 10,51383089260| 10,51383089260| 10,19924721949| 11,32177975763| 10,19924721949| 10,19924721949| 10,78135135752
Dog                       |  9,97565913108| 10,55594096023|  9,97565913108|  9,97565913108|  9,97565913108|  9,97565913108|  9,97565913108|  9,97565913108|  9,97565913108|  9,97565913108|  9,97565913108| 10,19924721949|  0,00000000000|  9,97565913108|  9,97565913108|  9,97565913108| 10,51383089260|  9,97565913108| -0,62836463646| 10,19924721949| 10,19924721949|  9,97565913108|  9,97565913108| 10,51047994574| 10,51383089260| 10,51383089260| 10,51383089260|  9,97565913108| 11,32177975763|  9,97565913108|  9,97565913108| 10,78135135752
Pig                       |  9,59818279719| 10,55594096023|  9,59818279719|  9,59818279719|  9,59818279719|  9,59818279719|  9,59818279719|  9,59818279719|  9,59818279719|  9,59818279719|  9,59818279719| 10,19924721949|  9,97565913108|  0,00000000000|  9,40649287212|  9,41303067538| 10,51383089260|  9,41303067538|  9,97565913108| 10,19924721949| 10,19924721949|  9,80083329347|  9,80083329347| 10,51047994574| 10,51383089260| 10,51383089260| 10,51383089260|  9,80083329347| 11,32177975763|  9,59818279719|  9,59818279719| 10,78135135752
Sheep                     |  9,59818279719| 10,55594096023|  9,59818279719|  9,59818279719|  9,59818279719|  9,59818279719|  9,59818279719|  9,59818279719|  9,59818279719|  9,59818279719|  9,59818279719| 10,19924721949|  9,97565913108|  9,40649287212|  0,00000000000|  9,41303067538| 10,51383089260|  9,41303067538|  9,97565913108| 10,19924721949| 10,19924721949|  9,80083329347|  9,80083329347| 10,51047994574| 10,51383089260| 10,51383089260| 10,51383089260|  9,80083329347| 11,32177975763|  9,59818279719|  9,59818279719| 10,78135135752
Goat                      |  9,59818279719| 10,55594096023|  9,59818279719|  9,59818279719|  9,59818279719|  9,59818279719|  9,59818279719|  9,59818279719|  9,59818279719|  9,59818279719|  9,59818279719| 10,19924721949|  9,97565913108|  9,41303067538|  9,41303067538|  0,00000000000| 10,51383089260|  6,41902237078|  9,97565913108| 10,19924721949| 10,19924721949|  9,80083329347|  9,80083329347| 10,51047994574| 10,51383089260| 10,51383089260| 10,51383089260|  9,80083329347| 11,32177975763|  9,59818279719|  9,59818279719| 10,78135135752
Cow                       | 10,51383089260| 10,55594096023| 10,51383089260| 10,51383089260| 10,51383089260| 10,51383089260| 10,51383089260| 10,51383089260| 10,51383089260| 10,51383089260| 10,51383089260| 10,51383089260| 10,51383089260| 10,51383089260| 10,51383089260| 10,51383089260|  0,00000000000| 10,51383089260| 10,51383089260| 10,51383089260| 10,51383089260| 10,51383089260| 10,51383089260| 10,51383089260| 10,30785049718| 10,30785049718| 10,30785049718| 10,51383089260| 11,32177975763| 10,51383089260| 10,51383089260| 10,78135135752
Buffalo                   |  9,59818279719| 10,55594096023|  9,59818279719|  9,59818279719|  9,59818279719|  9,59818279719|  9,59818279719|  9,59818279719|  9,59818279719|  9,59818279719|  9,59818279719| 10,19924721949|  9,97565913108|  9,41303067538|  9,41303067538|  6,41902237078| 10,51383089260|  0,00000000000|  9,97565913108| 10,19924721949| 10,19924721949|  9,80083329347|  9,80083329347| 10,51047994574| 10,51383089260| 10,51383089260| 10,51383089260|  9,80083329347| 11,32177975763|  9,59818279719|  9,59818279719| 10,78135135752
Wolf                      |  9,97565913108| 10,55594096023|  9,97565913108|  9,97565913108|  9,97565913108|  9,97565913108|  9,97565913108|  9,97565913108|  9,97565913108|  9,97565913108|  9,97565913108| 10,19924721949| -0,62836463646|  9,97565913108|  9,97565913108|  9,97565913108| 10,51383089260|  9,97565913108|  0,00000000000| 10,19924721949| 10,19924721949|  9,97565913108|  9,97565913108| 10,51047994574| 10,51383089260| 10,51383089260| 10,51383089260|  9,97565913108| 11,32177975763|  9,97565913108|  9,97565913108| 10,78135135752
Tiger                     | 10,19924721949| 10,55594096023| 10,19924721949| 10,19924721949| 10,19924721949| 10,19924721949| 10,19924721949| 10,19924721949| 10,19924721949| 10,19924721949| 10,19924721949|  8,21129972554| 10,19924721949| 10,19924721949| 10,19924721949| 10,19924721949| 10,51383089260| 10,19924721949| 10,19924721949|  0,00000000000|  9,55942296103| 10,19924721949| 10,19924721949| 10,51047994574| 10,51383089260| 10,51383089260| 10,51383089260| 10,19924721949| 11,32177975763| 10,19924721949| 10,19924721949| 10,78135135752
Leopard                   | 10,19924721949| 10,55594096023| 10,19924721949| 10,19924721949| 10,19924721949| 10,19924721949| 10,19924721949| 10,19924721949| 10,19924721949| 10,19924721949| 10,19924721949|  9,55942296103| 10,19924721949| 10,19924721949| 10,19924721949| 10,19924721949| 10,51383089260| 10,19924721949| 10,19924721949|  9,55942296103|  0,00000000000| 10,19924721949| 10,19924721949| 10,51047994574| 10,51383089260| 10,51383089260| 10,51383089260| 10,19924721949| 11,32177975763| 10,19924721949| 10,19924721949| 10,78135135752
Indian_Rhino              |  9,80083329347| 10,55594096023|  9,80083329347|  9,80083329347|  9,80083329347|  9,80083329347|  9,80083329347|  9,80083329347|  9,80083329347|  9,80083329347|  9,80083329347| 10,19924721949|  9,97565913108|  9,80083329347|  9,80083329347|  9,80083329347| 10,51383089260|  9,80083329347|  9,97565913108| 10,19924721949| 10,19924721949|  0,00000000000|  7,34621003419| 10,51047994574| 10,51383089260| 10,51383089260| 10,51383089260|  8,04173235853| 11,32177975763|  9,80083329347|  9,80083329347| 10,78135135752
White_Rhino               |  9,80083329347| 10,55594096023|  9,80083329347|  9,80083329347|  9,80083329347|  9,80083329347|  9,80083329347|  9,80083329347|  9,80083329347|  9,80083329347|  9,80083329347| 10,19924721949|  9,97565913108|  9,80083329347|  9,80083329347|  9,80083329347| 10,51383089260|  9,80083329347|  9,97565913108| 10,19924721949| 10,19924721949|  7,34621003419|  0,00000000000| 10,51047994574| 10,51383089260| 10,51383089260| 10,51383089260|  8,04173235853| 11,32177975763|  9,80083329347|  9,80083329347| 10,78135135752
Black_Bear                | 10,51047994574| 10,55594096023| 10,51047994574| 10,51047994574| 10,51047994574| 10,51047994574| 10,51047994574| 10,51047994574| 10,51047994574| 10,51047994574| 10,51047994574| 10,51047994574| 10,51047994574| 10,51047994574| 10,51047994574| 10,51047994574| 10,51383089260| 10,51047994574| 10,51047994574| 10,51047994574| 10,51047994574| 10,51047994574| 10,51047994574|  0,00000000000| 10,51383089260| 10,51383089260| 10,51383089260| 10,51047994574| 11,32177975763| 10,51047994574| 10,51047994574| 10,78135135752
Brown_Bear                | 10,51383089260| 10,55594096023| 10,51383089260| 10,51383089260| 10,51383089260| 10,51383089260| 10,51383089260| 10,51383089260| 10,51383089260| 10,51383089260| 10,51383089260| 10,51383089260| 10,51383089260| 10,51383089260| 10,51383089260| 10,51383089260| 10,30785049718| 10,51383089260| 10,51383089260| 10,51383089260| 10,51383089260| 10,51383089260| 10,51383089260| 10,51383089260|  0,00000000000|  7,48899152709|  9,68788069668| 10,51383089260| 11,32177975763| 10,51383089260| 10,51383089260| 10,78135135752
Polar_Bear                | 10,51383089260| 10,55594096023| 10,51383089260| 10,51383089260| 10,51383089260| 10,51383089260| 10,51383089260| 10,51383089260| 10,51383089260| 10,51383089260| 10,51383089260| 10,51383089260| 10,51383089260| 10,51383089260| 10,51383089260| 10,51383089260| 10,30785049718| 10,51383089260| 10,51383089260| 10,51383089260| 10,51383089260| 10,51383089260| 10,51383089260| 10,51383089260|  7,48899152709|  0,00000000000|  9,68788069668| 10,51383089260| 11,32177975763| 10,51383089260| 10,51383089260| 10,78135135752
Giant_Panda               | 10,51383089260| 10,55594096023| 10,51383089260| 10,51383089260| 10,51383089260| 10,51383089260| 10,51383089260| 10,51383089260| 10,51383089260| 10,51383089260| 10,51383089260| 10,51383089260| 10,51383089260| 10,51383089260| 10,51383089260| 10,51383089260| 10,30785049718| 10,51383089260| 10,51383089260| 10,51383089260| 10,51383089260| 10,51383089260| 10,51383089260| 10,51383089260|  9,68788069668|  9,68788069668|  0,00000000000| 10,51383089260| 11,32177975763| 10,51383089260| 10,51383089260| 10,78135135752
Rabbit                    |  9,80083329347| 10,55594096023|  9,80083329347|  9,80083329347|  9,80083329347|  9,80083329347|  9,80083329347|  9,80083329347|  9,80083329347|  9,80083329347|  9,80083329347| 10,19924721949|  9,97565913108|  9,80083329347|  9,80083329347|  9,80083329347| 10,51383089260|  9,80083329347|  9,97565913108| 10,19924721949| 10,19924721949|  8,04173235853|  8,04173235853| 10,51047994574| 10,51383089260| 10,51383089260| 10,51383089260|  0,00000000000| 11,32177975763|  9,80083329347|  9,80083329347| 10,78135135752
Hedgehog                  | 11,32177975763| 11,32177975763| 11,32177975763| 11,32177975763| 11,32177975763| 11,32177975763| 11,32177975763| 11,32177975763| 11,32177975763| 11,32177975763| 11,32177975763| 11,32177975763| 11,32177975763| 11,32177975763| 11,32177975763| 11,32177975763| 11,32177975763| 11,32177975763| 11,32177975763| 11,32177975763| 11,32177975763| 11,32177975763| 11,32177975763| 11,32177975763| 11,32177975763| 11,32177975763| 11,32177975763| 11,32177975763|  0,00000000000| 11,32177975763| 11,32177975763| 11,32177975763
Dormouse                  |  9,10487131001| 10,55594096023|  8,54209725977|  8,54209725977|  8,54209725977|  7,82518428894|  8,70608354966|  8,54190591597|  8,54209725977|  9,10487131001|  8,54209725977| 10,19924721949|  9,97565913108|  9,59818279719|  9,59818279719|  9,59818279719| 10,51383089260|  9,59818279719|  9,97565913108| 10,19924721949| 10,19924721949|  9,80083329347|  9,80083329347| 10,51047994574| 10,51383089260| 10,51383089260| 10,51383089260|  9,80083329347| 11,32177975763|  0,00000000000|  8,96532106168| 10,78135135752
Squirrel                  |  9,10487131001| 10,55594096023|  8,96532106168|  8,96532106168|  8,96532106168|  8,96532106168|  8,96532106168|  8,96532106168|  8,96532106168|  9,10487131001|  8,96532106168| 10,19924721949|  9,97565913108|  9,59818279719|  9,59818279719|  9,59818279719| 10,51383089260|  9,59818279719|  9,97565913108| 10,19924721949| 10,19924721949|  9,80083329347|  9,80083329347| 10,51047994574| 10,51383089260| 10,51383089260| 10,51383089260|  9,80083329347| 11,32177975763|  8,96532106168|  0,00000000000| 10,78135135752
Blue_Whale                | 10,78135135752| 10,78135135752| 10,78135135752| 10,78135135752| 10,78135135752| 10,78135135752| 10,78135135752| 10,78135135752| 10,78135135752| 10,78135135752| 10,78135135752| 10,78135135752| 10,78135135752| 10,78135135752| 10,78135135752| 10,78135135752| 10,78135135752| 10,78135135752| 10,78135135752| 10,78135135752| 10,78135135752| 10,78135135752| 10,78135135752| 10,78135135752| 10,78135135752| 10,78135135752| 10,78135135752| 10,78135135752| 11,32177975763| 10,78135135752| 10,78135135752|  0,00000000000
                           |Human          |Hum_shortened  |Pig_Chim       |Com_Chim       |Gibbon         |Baboon         |Ver_Monkey     |Macaca_Thibet  |Bor_Oran       |Sum_Oran       |Gorilla        |Cat            |Dog            |Pig            |Sheep          |Goat           |Cow            |Buffalo        |Wolf           |Tiger          |Leopard        |Indian_Rhino   |White_Rhino    |Black_Bear     |Brown_Bear     |Polar_Bear     |Giant_Panda    |Rabbit         |Hedgehog       |Dormouse       |Squirrel       |Blue_Whale     
Human                     |  0,00000000000| 10,55594096023|  9,10487131001|  9,10487131001|  9,10487131001|  9,10487131001|  9,10487131001|  9,10487131001|  9,10487131001|  8,48819467341|  9,10487131001| 10,19924721949|  9,97565913108|  9,59818279719|  9,59818279719|  9,59818279719| 10,51383089260|  9,59818279719|  9,97565913108| 10,19924721949| 10,19924721949|  9,80083329347|  9,80083329347| 10,51047994574| 10,51383089260| 10,51383089260| 10,51383089260|  9,80083329347| 11,32177975763|  9,10487131001|  9,10487131001| 10,78135135752
Hum_shortened             | 10,55594096023|  0,00000000000| 10,55594096023| 10,55594096023| 10,55594096023| 10,55594096023| 10,55594096023| 10,55594096023| 10,55594096023| 10,55594096023| 10,55594096023| 10,55594096023| 10,55594096023| 10,55594096023| 10,55594096023| 10,55594096023| 10,55594096023| 10,55594096023| 10,55594096023| 10,55594096023| 10,55594096023| 10,55594096023| 10,55594096023| 10,55594096023| 10,55594096023| 10,55594096023| 10,55594096023| 10,55594096023| 11,32177975763| 10,55594096023| 10,55594096023| 10,78135135752
Pig_Chim                  |  9,10487131001| 10,55594096023|  0,00000000000|  6,47057321930|  5,66137020003|  8,54209725977|  8,70608354966|  8,54209725977|  8,40915063351|  9,10487131001|  6,47057321930| 10,19924721949|  9,97565913108|  9,59818279719|  9,59818279719|  9,59818279719| 10,51383089260|  9,59818279719|  9,97565913108| 10,19924721949| 10,19924721949|  9,80083329347|  9,80083329347| 10,51047994574| 10,51383089260| 10,51383089260| 10,51383089260|  9,80083329347| 11,32177975763|  8,54209725977|  8,96532106168| 10,78135135752
Com_Chim                  |  9,10487131001| 10,55594096023|  6,47057321930|  0,00000000000|  6,47057321930|  8,54209725977|  8,70608354966|  8,54209725977|  8,40915063351|  9,10487131001|  2,50669924946| 10,19924721949|  9,97565913108|  9,59818279719|  9,59818279719|  9,59818279719| 10,51383089260|  9,59818279719|  9,97565913108| 10,19924721949| 10,19924721949|  9,80083329347|  9,80083329347| 10,51047994574| 10,51383089260| 10,51383089260| 10,51383089260|  9,80083329347| 11,32177975763|  8,54209725977|  8,96532106168| 10,78135135752
Gibbon                    |  9,10487131001| 10,55594096023|  5,66137020003|  6,47057321930|  0,00000000000|  8,54209725977|  8,70608354966|  8,54209725977|  8,40915063351|  9,10487131001|  6,47057321930| 10,19924721949|  9,97565913108|  9,59818279719|  9,59818279719|  9,59818279719| 10,51383089260|  9,59818279719|  9,97565913108| 10,19924721949| 10,19924721949|  9,80083329347|  9,80083329347| 10,51047994574| 10,51383089260| 10,51383089260| 10,51383089260|  9,80083329347| 11,32177975763|  8,54209725977|  8,96532106168| 10,78135135752
Baboon                    |  9,10487131001| 10,55594096023|  8,54209725977|  8,54209725977|  8,54209725977|  0,00000000000|  8,70608354966|  8,54190591597|  8,54209725977|  9,10487131001|  8,54209725977| 10,19924721949|  9,97565913108|  9,59818279719|  9,59818279719|  9,59818279719| 10,51383089260|  9,59818279719|  9,97565913108| 10,19924721949| 10,19924721949|  9,80083329347|  9,80083329347| 10,51047994574| 10,51383089260| 10,51383089260| 10,51383089260|  9,80083329347| 11,32177975763|  7,82518428894|  8,96532106168| 10,78135135752
Ver_Monkey                |  9,10487131001| 10,55594096023|  8,70608354966|  8,70608354966|  8,70608354966|  8,70608354966|  0,00000000000|  8,70608354966|  8,70608354966|  9,10487131001|  8,70608354966| 10,19924721949|  9,97565913108|  9,59818279719|  9,59818279719|  9,59818279719| 10,51383089260|  9,59818279719|  9,97565913108| 10,19924721949| 10,19924721949|  9,80083329347|  9,80083329347| 10,51047994574| 10,51383089260| 10,51383089260| 10,51383089260|  9,80083329347| 11,32177975763|  8,70608354966|  8,96532106168| 10,78135135752
Macaca_Thibet             |  9,10487131001| 10,55594096023|  8,54209725977|  8,54209725977|  8,54209725977|  8,54190591597|  8,70608354966|  0,00000000000|  8,54209725977|  9,10487131001|  8,54209725977| 10,19924721949|  9,97565913108|  9,59818279719|  9,59818279719|  9,59818279719| 10,51383089260|  9,59818279719|  9,97565913108| 10,19924721949| 10,19924721949|  9,80083329347|  9,80083329347| 10,51047994574| 10,51383089260| 10,51383089260| 10,51383089260|  9,80083329347| 11,32177975763|  8,54190591597|  8,96532106168| 10,78135135752
Bor_Oran                  |  9,10487131001| 10,55594096023|  8,40915063351|  8,40915063351|  8,40915063351|  8,54209725977|  8,70608354966|  8,54209725977|  0,00000000000|  9,10487131001|  8,40915063351| 10,19924721949|  9,97565913108|  9,59818279719|  9,59818279719|  9,59818279719| 10,51383089260|  9,59818279719|  9,97565913108| 10,19924721949| 10,19924721949|  9,80083329347|  9,80083329347| 10,51047994574| 10,51383089260| 10,51383089260| 10,51383089260|  9,80083329347| 11,32177975763|  8,54209725977|  8,96532106168| 10,78135135752
Sum_Oran                  |  8,48819467341| 10,55594096023|  9,10487131001|  9,10487131001|  9,10487131001|  9,10487131001|  9,10487131001|  9,10487131001|  9,10487131001|  0,00000000000|  9,10487131001| 10,19924721949|  9,97565913108|  9,59818279719|  9,59818279719|  9,59818279719| 10,51383089260|  9,59818279719|  9,97565913108| 10,19924721949| 10,19924721949|  9,80083329347|  9,80083329347| 10,51047994574| 10,51383089260| 10,51383089260| 10,51383089260|  9,80083329347| 11,32177975763|  9,10487131001|  9,10487131001| 10,78135135752
Gorilla                   |  9,10487131001| 10,55594096023|  6,47057321930|  2,50669924946|  6,47057321930|  8,54209725977|  8,70608354966|  8,54209725977|  8,40915063351|  9,10487131001|  0,00000000000| 10,19924721949|  9,97565913108|  9,59818279719|  9,59818279719|  9,59818279719| 10,51383089260|  9,59818279719|  9,97565913108| 10,19924721949| 10,19924721949|  9,80083329347|  9,80083329347| 10,51047994574| 10,51383089260| 10,51383089260| 10,51383089260|  9,80083329347| 11,32177975763|  8,54209725977|  8,96532106168| 10,78135135752
Cat                       | 10,19924721949| 10,55594096023| 10,19924721949| 10,19924721949| 10,19924721949| 10,19924721949| 10,19924721949| 10,19924721949| 10,19924721949| 10,19924721949| 10,19924721949|  0,00000000000| 10,19924721949| 10,19924721949| 10,19924721949| 10,19924721949| 10,51383089260| 10,19924721949| 10,19924721949|  8,21129972554|  9,55942296103| 10,19924721949| 10,19924721949| 10,51047994574| 10,51383089260| 10,51383089260| 10,51383089260| 10,19924721949| 11,32177975763| 10,19924721949| 10,19924721949| 10,78135135752
Dog                       |  9,97565913108| 10,55594096023|  9,97565913108|  9,97565913108|  9,97565913108|  9,97565913108|  9,97565913108|  9,97565913108|  9,97565913108|  9,97565913108|  9,97565913108| 10,19924721949|  0,00000000000|  9,97565913108|  9,97565913108|  9,97565913108| 10,51383089260|  9,97565913108| -0,62836463646| 10,19924721949| 10,19924721949|  9,97565913108|  9,97565913108| 10,51047994574| 10,51383089260| 10,51383089260| 10,51383089260|  9,97565913108| 11,32177975763|  9,97565913108|  9,97565913108| 10,78135135752
Pig                       |  9,59818279719| 10,55594096023|  9,59818279719|  9,59818279719|  9,59818279719|  9,59818279719|  9,59818279719|  9,59818279719|  9,59818279719|  9,59818279719|  9,59818279719| 10,19924721949|  9,97565913108|  0,00000000000|  9,40649287212|  9,41303067538| 10,51383089260|  9,41303067538|  9,97565913108| 10,19924721949| 10,19924721949|  9,80083329347|  9,80083329347| 10,51047994574| 10,51383089260| 10,51383089260| 10,51383089260|  9,80083329347| 11,32177975763|  9,59818279719|  9,59818279719| 10,78135135752
Sheep                     |  9,59818279719| 10,55594096023|  9,59818279719|  9,59818279719|  9,59818279719                           |Human          |Hum_shortened  |Pig_Chim       |Com_Chim       |Gibbon         |Baboon         |Ver_Monkey     |Macaca_Thibet  |Bor_Oran       |Sum_Oran       |Gorilla        |Cat            |Dog            |Pig            |Sheep          |Goat           |Cow            |Buffalo        |Wolf           |Tiger          |Leopard        |Indian_Rhino   |White_Rhino    |Black_Bear     |Brown_Bear     |Polar_Bear     |Giant_Panda    |Rabbit         |Hedgehog       |Dormouse       |Squirrel       |Blue_Whale     
Human                     |  0,00000000000| 10,00000000000|  9,00000000000|  9,00000000000|  9,00000000000|  8,00000000000|  5,00000000000|  7,00000000000|  7,00000000000|  2,00000000000|  9,00000000000|  9,00000000000|  7,00000000000|  6,00000000000|  6,00000000000|  6,00000000000| 10,00000000000|  6,00000000000|  7,00000000000|  9,00000000000|  8,00000000000|  7,00000000000|  7,00000000000|  8,00000000000| 12,00000000000| 12,00000000000| 11,00000000000|  6,00000000000| 12,00000000000|  8,00000000000|  4,00000000000| 11,00000000000
Hum_shortened             | 10,00000000000|  0,00000000000| 15,00000000000| 15,00000000000| 15,00000000000| 14,00000000000| 11,00000000000| 13,00000000000| 13,00000000000| 10,00000000000| 15,00000000000|  7,00000000000|  7,00000000000| 10,00000000000| 10,00000000000| 10,00000000000|  4,00000000000| 10,00000000000|  7,00000000000|  7,00000000000|  6,00000000000|  9,00000000000|  9,00000000000|  4,00000000000|  6,00000000000|  6,00000000000|  5,00000000000|  8,00000000000|  4,00000000000| 14,00000000000| 10,00000000000|  3,00000000000
Pig_Chim                  |  9,00000000000| 15,00000000000|  0,00000000000|  4,00000000000|  2,00000000000|  7,00000000000|  6,00000000000|  6,00000000000|  4,00000000000|  9,00000000000|  4,00000000000| 14,00000000000| 12,00000000000| 11,00000000000| 11,00000000000| 11,00000000000| 15,00000000000| 11,00000000000| 12,00000000000| 14,00000000000| 13,00000000000| 12,00000000000| 12,00000000000| 13,00000000000| 17,00000000000| 17,00000000000| 16,00000000000| 11,00000000000| 17,00000000000|  7,00000000000|  7,00000000000| 16,00000000000
Com_Chim                  |  9,00000000000| 15,00000000000|  4,00000000000|  0,00000000000|  4,00000000000|  7,00000000000|  6,00000000000|  6,00000000000|  4,00000000000|  9,00000000000|  2,00000000000| 14,00000000000| 12,00000000000| 11,00000000000| 11,00000000000| 11,00000000000| 15,00000000000| 11,00000000000| 12,00000000000| 14,00000000000| 13,00000000000| 12,00000000000| 12,00000000000| 13,00000000000| 17,00000000000| 17,00000000000| 16,00000000000| 11,00000000000| 17,00000000000|  7,00000000000|  7,00000000000| 16,00000000000
Gibbon                    |  9,00000000000| 15,00000000000|  2,00000000000|  4,00000000000|  0,00000000000|  7,00000000000|  6,00000000000|  6,00000000000|  4,00000000000|  9,00000000000|  4,00000000000| 14,00000000000| 12,00000000000| 11,00000000000| 11,00000000000| 11,00000000000| 15,00000000000| 11,00000000000| 12,00000000000| 14,00000000000| 13,00000000000| 12,00000000000| 12,00000000000| 13,00000000000| 17,00000000000| 17,00000000000| 16,00000000000| 11,00000000000| 17,00000000000|  7,00000000000|  7,00000000000| 16,00000000000
Baboon                    |  8,00000000000| 14,00000000000|  7,00000000000|  7,00000000000|  7,00000000000|  0,00000000000|  5,00000000000|  3,00000000000|  5,00000000000|  8,00000000000|  7,00000000000| 13,00000000000| 11,00000000000| 10,00000000000| 10,00000000000| 10,00000000000| 14,00000000000| 10,00000000000| 11,00000000000| 13,00000000000| 12,00000000000| 11,00000000000| 11,00000000000| 12,00000000000| 16,00000000000| 16,00000000000| 15,00000000000| 10,00000000000| 16,00000000000|  2,00000000000|  6,00000000000| 15,00000000000
Ver_Monkey                |  5,00000000000| 11,00000000000|  6,00000000000|  6,00000000000|  6,00000000000|  5,00000000000|  0,00000000000|  4,00000000000|  4,00000000000|  5,00000000000|  6,00000000000| 10,00000000000|  8,00000000000|  7,00000000000|  7,00000000000|  7,00000000000| 11,00000000000|  7,00000000000|  8,00000000000| 10,00000000000|  9,00000000000|  8,00000000000|  8,00000000000|  9,00000000000| 13,00000000000| 13,00000000000| 12,00000000000|  7,00000000000| 13,00000000000|  5,00000000000|  3,00000000000| 12,00000000000
Macaca_Thibet             |  7,00000000000| 13,00000000000|  6,00000000000|  6,00000000000|  6,00000000000|  3,00000000000|  4,00000000000|  0,00000000000|  4,00000000000|  7,00000000000|  6,00000000000| 12,00000000000| 10,00000000000|  9,00000000000|  9,00000000000|  9,00000000000| 13,00000000000|  9,00000000000| 10,00000000000| 12,00000000000| 11,00000000000| 10,00000000000| 10,00000000000| 11,00000000000| 15,00000000000| 15,00000000000| 14,00000000000|  9,00000000000| 15,00000000000|  3,00000000000|  5,00000000000| 14,00000000000
Bor_Oran                  |  7,00000000000| 13,00000000000|  4,00000000000|  4,00000000000|  4,00000000000|  5,00000000000|  4,00000000000|  4,00000000000|  0,00000000000|  7,00000000000|  4,00000000000| 12,00000000000| 10,00000000000|  9,00000000000|  9,00000000000|  9,00000000000| 13,00000000000|  9,00000000000| 10,00000000000| 12,00000000000| 11,00000000000| 10,00000000000| 10,00000000000| 11,00000000000| 15,00000000000| 15,00000000000| 14,00000000000|  9,00000000000| 15,00000000000|  5,00000000000|  5,00000000000| 14,00000000000
Sum_Oran                  |  2,00000000000| 10,00000000000|  9,00000000000|  9,00000000000|  9,00000000000|  8,00000000000|  5,00000000000|  7,00000000000|  7,00000000000|  0,00000000000|  9,00000000000|  9,00000000000|  7,00000000000|  6,00000000000|  6,00000000000|  6,00000000000| 10,00000000000|  6,00000000000|  7,00000000000|  9,00000000000|  8,00000000000|  7,00000000000|  7,00000000000|  8,00000000000| 12,00000000000| 12,00000000000| 11,00000000000|  6,00000000000| 12,00000000000|  8,00000000000|  4,00000000000| 11,00000000000
Gorilla                   |  9,00000000000| 15,00000000000|  4,00000000000|  2,00000000000|  4,00000000000|  7,00000000000|  6,00000000000|  6,00000000000|  4,00000000000|  9,00000000000|  0,00000000000| 14,00000000000| 12,00000000000| 11,00000000000| 11,00000000000| 11,00000000000| 15,00000000000| 11,00000000000| 12,00000000000| 14,00000000000| 13,00000000000| 12,00000000000| 12,00000000000| 13,00000000000| 17,00000000000| 17,00000000000| 16,00000000000| 11,00000000000| 17,00000000000|  7,00000000000|  7,00000000000| 16,00000000000
Cat                       |  9,00000000000|  7,00000000000| 14,00000000000| 14,00000000000| 14,00000000000| 13,00000000000| 10,00000000000| 12,00000000000| 12,00000000000|  9,00000000000| 14,00000000000|  0,00000000000|  6,00000000000|  9,00000000000|  9,00000000000|  9,00000000000|  7,00000000000|  9,00000000000|  6,00000000000|  2,00000000000|  3,00000000000|  8,00000000000|  8,00000000000|  5,00000000000|  9,00000000000|  9,00000000000|  8,00000000000|  7,00000000000|  9,00000000000| 13,00000000000|  9,00000000000|  8,00000000000
Dog                       |  7,00000000000|  7,00000000000| 12,00000000000| 12,00000000000| 12,00000000000| 11,00000000000|  8,00000000000| 10,00000000000| 10,00000000000|  7,00000000000| 12,00000000000|  6,00000000000|  0,00000000000|  7,00000000000|  7,00000000000|  7,00000000000|  7,00000000000|  7,00000000000|  2,00000000000|  6,00000000000|  5,00000000000|  6,00000000000|  6,00000000000|  5,00000000000|  9,00000000000|  9,00000000000|  8,00000000000|  5,00000000000|  9,00000000000| 11,00000000000|  7,00000000000|  8,00000000000
Pig                       |  6,00000000000| 10,00000000000| 11,00000000000| 11,00000000000| 11,00000000000| 10,00000000000|  7,00000000000|  9,00000000000|  9,00000000000|  6,00000000000| 11,00000000000|  9,00000000000|  7,00000000000|  0,00000000000|  2,00000000000|  4,00000000000| 10,00000000000|  4,00000000000|  7,00000000000|  9,00000000000|  8,00000000000|  7,00000000000|  7,00000000000|  8,00000000000| 12,00000000000| 12,00000000000| 11,00000000000|  6,00000000000| 12,00000000000| 10,00000000000|  6,00000000000| 11,00000000000
Sheep                     |  6,00000000000| 10,00000000000| 11,00000000000| 11,00000000000| 11,00000000000| 10,00000000000|  7,00000000000|  9,00000000000|  9,00000000000|  6,00000000000| 11,00000000000|  9,00000000000|  7,00000000000|  2,00000000000|  0,00000000000|  4,00000000000| 10,00000000000|  4,00000000000|  7,00000000000|  9,00000000000|  8,00000000000|  7,00000000000|  7,00000000000|  8,00000000000| 12,00000000000| 12,00000000000| 11,00000000000|  6,00000000000| 12,00000000000| 10,00000000000|  6,00000000000| 11,00000000000
Goat                      |  6,00000000000| 10,00000000000| 11,00000000000| 11,00000000000| 11,00000000000| 10,00000000000|  7,00000000000|  9,00000000000|  9,00000000000|  6,00000000000| 11,00000000000|  9,00000000000|  7,00000000000|  4,00000000000|  4,00000000000|  0,00000000000| 10,00000000000|  2,00000000000|  7,00000000000|  9,00000000000|  8,00000000000|  7,00000000000|  7,00000000000|  8,00000000000| 12,00000000000| 12,00000000000| 11,00000000000|  6,00000000000| 12,00000000000| 10,00000000000|  6,00000000000| 11,00000000000
Cow                       | 10,00000000000|  4,00000000000| 15,00000000000| 15,00000000000| 15,00000000000| 14,00000000000| 11,00000000000| 13,00000000000| 13,00000000000| 10,00000000000| 15,00000000000|  7,00000000000|  7,00000000000| 10,00000000000| 10,00000000000| 10,00000000000|  0,00000000000| 10,00000000000|  7,00000000000|  7,00000000000|  6,00000000000|  9,00000000000|  9,00000000000|  4,00000000000|  4,00000000000|  4,00000000000|  3,00000000000|  8,00000000000|  6,00000000000| 14,00000000000| 10,00000000000|  5,00000000000
Buffalo                   |  6,00000000000| 10,00000000000| 11,00000000000| 11,00000000000| 11,00000000000| 10,00000000000|  7,00000000000|  9,00000000000|  9,00000000000|  6,00000000000| 11,00000000000|  9,00000000000|  7,00000000000|  4,00000000000|  4,00000000000|  2,00000000000| 10,00000000000|  0,00000000000|  7,00000000000|  9,00000000000|  8,00000000000|  7,00000000000|  7,00000000000|  8,00000000000| 12,00000000000| 12,00000000000| 11,00000000000|  6,00000000000| 12,00000000000| 10,00000000000|  6,00000000000| 11,00000000000
Wolf                      |  7,00000000000|  7,00000000000| 12,00000000000| 12,00000000000| 12,00000000000| 11,00000000000|  8,00000000000| 10,00000000000| 10,00000000000|  7,00000000000| 12,00000000000|  6,00000000000|  2,00000000000|  7,00000000000|  7,00000000000|  7,00000000000|  7,00000000000|  7,00000000000|  0,00000000000|  6,00000000000|  5,00000000000|  6,00000000000|  6,00000000000|  5,00000000000|  9,00000000000|  9,00000000000|  8,00000000000|  5,00000000000|  9,00000000000| 11,00000000000|  7,00000000000|  8,00000000000
Tiger                     |  9,00000000000|  7,00000000000| 14,00000000000| 14,00000000000| 14,00000000000| 13,00000000000| 10,00000000000| 12,00000000000| 12,00000000000|  9,00000000000| 14,00000000000|  2,00000000000|  6,00000000000|  9,00000000000|  9,00000000000|  9,00000000000|  7,00000000000|  9,00000000000|  6,00000000000|  0,00000000000|  3,00000000000|  8,00000000000|  8,00000000000|  5,00000000000|  9,00000000000|  9,00000000000|  8,00000000000|  7,00000000000|  9,00000000000| 13,00000000000|  9,00000000000|  8,00000000000
Leopard                   |  8,00000000000|  6,00000000000| 13,00000000000| 13,00000000000| 13,00000000000| 12,00000000000|  9,00000000000| 11,00000000000| 11,00000000000|  8,00000000000| 13,00000000000|  3,00000000000|  5,00000000000|  8,00000000000|  8,00000000000|  8,00000000000|  6,00000000000|  8,00000000000|  5,00000000000|  3,00000000000|  0,00000000000|  7,00000000000|  7,00000000000|  4,00000000000|  8,00000000000|  8,00000000000|  7,00000000000|  6,00000000000|  8,00000000000| 12,00000000000|  8,00000000000|  7,00000000000
Indian_Rhino              |  7,00000000000|  9,00000000000| 12,00000000000| 12,00000000000| 12,00000000000| 11,00000000000|  8,00000000000| 10,00000000000| 10,00000000000|  7,00000000000| 12,00000000000|  8,00000000000|  6,00000000000|  7,00000000000|  7,00000000000|  7,00000000000|  9,00000000000|  7,00000000000|  6,00000000000|  8,00000000000|  7,00000000000|  0,00000000000|  2,00000000000|  7,00000000000| 11,00000000000| 11,00000000000| 10,00000000000|  3,00000000000| 11,00000000000| 11,00000000000|  7,00000000000| 10,00000000000
White_Rhino               |  7,00000000000|  9,00000000000| 12,00000000000| 12,00000000000| 12,00000000000| 11,00000000000|  8,00000000000| 10,00000000000| 10,00000000000|  7,00000000000| 12,00000000000|  8,00000000000|  6,00000000000|  7,00000000000|  7,00000000000|  7,00000000000|  9,00000000000|  7,00000000000|  6,00000000000|  8,00000000000|  7,00000000000|  2,00000000000|  0,00000000000|  7,00000000000| 11,00000000000| 11,00000000000| 10,00000000000|  3,00000000000| 11,00000000000| 11,00000000000|  7,00000000000| 10,00000000000
Black_Bear                |  8,00000000000|  4,00000000000| 13,00000000000| 13,00000000000| 13,00000000000| 12,00000000000|  9,00000000000| 11,00000000000| 11,00000000000|  8,00000000000| 13,00000000000|  5,00000000000|  5,00000000000|  8,00000000000|  8,00000000000|  8,00000000000|  4,00000000000|  8,00000000000|  5,00000000000|  5,00000000000|  4,00000000000|  7,00000000000|  7,00000000000|  0,00000000000|  6,00000000000|  6,00000000000|  5,00000000000|  6,00000000000|  6,00000000000| 12,00000000000|  8,00000000000|  5,00000000000
Brown_Bear                | 12,00000000000|  6,00000000000| 17,00000000000| 17,00000000000| 17,00000000000| 16,00000000000| 13,00000000000| 15,00000000000| 15,00000000000| 12,00000000000| 17,00000000000|  9,00000000000|  9,00000000000| 12,00000000000| 12,00000000000| 12,00000000000|  4,00000000000| 12,00000000000|  9,00000000000|  9,00000000000|  8,00000000000| 11,00000000000| 11,00000000000|  6,00000000000|  0,00000000000|  2,00000000000|  3,00000000000| 10,00000000000|  8,00000000000| 16,00000000000| 12,00000000000|  7,00000000000
Polar_Bear                | 12,00000000000|  6,00000000000| 17,00000000000| 17,00000000000| 17,00000000000| 16,00000000000| 13,00000000000| 15,00000000000| 15,00000000000| 12,00000000000| 17,00000000000|  9,00000000000|  9,00000000000| 12,00000000000| 12,00000000000| 12,00000000000|  4,00000000000| 12,00000000000|  9,00000000000|  9,00000000000|  8,00000000000| 11,00000000000| 11,00000000000|  6,00000000000|  2,00000000000|  0,00000000000|  3,00000000000| 10,00000000000|  8,00000000000| 16,00000000000| 12,00000000000|  7,00000000000
Giant_Panda               | 11,00000000000|  5,00000000000| 16,00000000000| 16,00000000000| 16,00000000000| 15,00000000000| 12,00000000000| 14,00000000000| 14,00000000000| 11,00000000000| 16,00000000000|  8,00000000000|  8,00000000000| 11,00000000000| 11,00000000000| 11,00000000000|  3,00000000000| 11,00000000000|  8,00000000000|  8,00000000000|  7,00000000000| 10,00000000000| 10,00000000000|  5,00000000000|  3,00000000000|  3,00000000000|  0,00000000000|  9,00000000000|  7,00000000000| 15,00000000000| 11,00000000000|  6,00000000000
Rabbit                    |  6,00000000000|  8,00000000000| 11,00000000000| 11,00000000000| 11,00000000000| 10,00000000000|  7,00000000000|  9,00000000000|  9,00000000000|  6,00000000000| 11,00000000000|  7,00000000000|  5,00000000000|  6,00000000000|  6,00000000000|  6,00000000000|  8,00000000000|  6,00000000000|  5,00000000000|  7,00000000000|  6,00000000000|  3,00000000000|  3,00000000000|  6,00000000000| 10,00000000000| 10,00000000000|  9,00000000000|  0,00000000000| 10,00000000000| 10,00000000000|  6,00000000000|  9,00000000000
Hedgehog                  | 12,00000000000|  4,00000000000| 17,00000000000| 17,00000000000| 17,00000000000| 16,00000000000| 13,00000000000| 15,00000000000| 15,00000000000| 12,00000000000| 17,00000000000|  9,00000000000|  9,00000000000| 12,00000000000| 12,00000000000| 12,00000000000|  6,00000000000| 12,00000000000|  9,00000000000|  9,00000000000|  8,00000000000| 11,00000000000| 11,00000000000|  6,00000000000|  8,00000000000|  8,00000000000|  7,00000000000| 10,00000000000|  0,00000000000| 16,00000000000| 12,00000000000|  3,00000000000
Dormouse                  |  8,00000000000| 14,00000000000|  7,00000000000|  7,00000000000|  7,00000000000|  2,00000000000|  5,00000000000|  3,00000000000|  5,00000000000|  8,00000000000|  7,00000000000| 13,00000000000| 11,00000000000| 10,00000000000| 10,00000000000| 10,00000000000| 14,00000000000| 10,00000000000| 11,00000000000| 13,00000000000| 12,00000000000| 11,00000000000| 11,00000000000| 12,00000000000| 16,00000000000| 16,00000000000| 15,00000000000| 10,00000000000| 16,00000000000|  0,00000000000|  6,00000000000| 15,00000000000
Squirrel                  |  4,00000000000| 10,00000000000|  7,00000000000|  7,00000000000|  7,00000000000|  6,00000000000|  3,00000000000|  5,00000000000|  5,00000000000|  4,00000000000|  7,00000000000|  9,00000000000|  7,00000000000|  6,00000000000|  6,00000000000|  6,00000000000| 10,00000000000|  6,00000000000|  7,00000000000|  9,00000000000|  8,00000000000|  7,00000000000|  7,00000000000|  8,00000000000| 12,00000000000| 12,00000000000| 11,00000000000|  6,00000000000| 12,00000000000|  6,00000000000|  0,00000000000| 11,00000000000
Blue_Whale                | 11,00000000000|  3,00000000000| 16,00000000000| 16,00000000000| 16,00000000000| 15,00000000000| 12,00000000000| 14,00000000000| 14,00000000000| 11,00000000000| 16,00000000000|  8,00000000000|  8,00000000000| 11,00000000000| 11,00000000000| 11,00000000000|  5,00000000000| 11,00000000000|  8,00000000000|  8,00000000000|  7,00000000000| 10,00000000000| 10,00000000000|  5,00000000000|  7,00000000000|  7,00000000000|  6,00000000000|  9,00000000000|  3,00000000000| 15,00000000000| 11,00000000000|  0,00000000000
|  9,59818279719|  9,59818279719|  9,59818279719|  9,59818279719|  9,59818279719|  9,59818279719| 10,19924721949|  9,97565913108|  9,40649287212|  0,00000000000|  9,41303067538| 10,51383089260|  9,41303067538|  9,97565913108| 10,19924721949| 10,19924721949|  9,80083329347|  9,80083329347| 10,51047994574| 10,51383089260| 10,51383089260| 10,51383089260|  9,80083329347| 11,32177975763|  9,59818279719|  9,59818279719| 10,78135135752
Goat                      |  9,59818279719| 10,55594096023|  9,59818279719|  9,59818279719|  9,59818279719|  9,59818279719|  9,59818279719|  9,59818279719|  9,59818279719|  9,59818279719|  9,59818279719| 10,19924721949|  9,97565913108|  9,41303067538|  9,41303067538|  0,00000000000| 10,51383089260|  6,41902237078|  9,97565913108| 10,19924721949| 10,19924721949|  9,80083329347|  9,80083329347| 10,51047994574| 10,51383089260| 10,51383089260| 10,51383089260|  9,80083329347| 11,32177975763|  9,59818279719|  9,59818279719| 10,78135135752
Cow                       | 10,51383089260| 10,55594096023| 10,51383089260| 10,51383089260| 10,51383089260| 10,51383089260| 10,51383089260| 10,51383089260| 10,51383089260| 10,51383089260| 10,51383089260| 10,51383089260| 10,51383089260| 10,51383089260| 10,51383089260| 10,51383089260|  0,00000000000| 10,51383089260| 10,51383089260| 10,51383089260| 10,51383089260| 10,51383089260| 10,51383089260| 10,51383089260| 10,30785049718| 10,30785049718| 10,30785049718| 10,51383089260| 11,32177975763| 10,51383089260| 10,51383089260| 10,78135135752
Buffalo                   |  9,59818279719| 10,55594096023|  9,59818279719|  9,59818279719|  9,59818279719|  9,59818279719|  9,59818279719|  9,59818279719|  9,59818279719|  9,59818279719|  9,59818279719| 10,19924721949|  9,97565913108|  9,41303067538|  9,41303067538|  6,41902237078| 10,51383089260|  0,00000000000|  9,97565913108| 10,19924721949| 10,19924721949|  9,80083329347|  9,80083329347| 10,51047994574| 10,51383089260| 10,51383089260| 10,51383089260|  9,80083329347| 11,32177975763|  9,59818279719|  9,59818279719| 10,78135135752
Wolf                      |  9,97565913108| 10,55594096023|  9,97565913108|  9,97565913108|  9,97565913108|  9,97565913108|  9,97565913108|  9,97565913108|  9,97565913108|  9,97565913108|  9,97565913108| 10,19924721949| -0,62836463646|  9,97565913108|  9,97565913108|  9,97565913108| 10,51383089260|  9,97565913108|  0,00000000000| 10,19924721949| 10,19924721949|  9,97565913108|  9,97565913108| 10,51047994574| 10,51383089260| 10,51383089260| 10,51383089260|  9,97565913108| 11,32177975763|  9,97565913108|  9,97565913108| 10,78135135752
Tiger                     | 10,19924721949| 10,55594096023| 10,19924721949| 10,19924721949| 10,19924721949| 10,19924721949| 10,19924721949| 10,19924721949| 10,19924721949| 10,19924721949| 10,19924721949|  8,21129972554| 10,19924721949| 10,19924721949| 10,19924721949| 10,19924721949| 10,51383089260| 10,19924721949| 10,19924721949|  0,00000000000|  9,55942296103| 10,19924721949| 10,19924721949| 10,51047994574| 10,51383089260| 10,51383089260| 10,51383089260| 10,19924721949| 11,32177975763| 10,19924721949| 10,19924721949| 10,78135135752
Leopard                   | 10,19924721949| 10,55594096023| 10,19924721949| 10,19924721949| 10,19924721949| 10,19924721949| 10,19924721949| 10,19924721949| 10,19924721949| 10,19924721949| 10,19924721949|  9,55942296103| 10,19924721949| 10,19924721949| 10,19924721949| 10,19924721949| 10,51383089260| 10,19924721949| 10,19924721949|  9,55942296103|  0,00000000000| 10,19924721949| 10,19924721949| 10,51047994574| 10,51383089260| 10,51383089260| 10,51383089260| 10,19924721949| 11,32177975763| 10,19924721949| 10,19924721949| 10,78135135752
Indian_Rhino              |  9,80083329347| 10,55594096023|  9,80083329347|  9,80083329347|  9,80083329347|  9,80083329347|  9,80083329347|  9,80083329347|  9,80083329347|  9,80083329347|  9,80083329347| 10,19924721949|  9,97565913108|  9,80083329347|  9,80083329347|  9,80083329347| 10,51383089260|  9,80083329347|  9,97565913108| 10,19924721949| 10,19924721949|  0,00000000000|  7,34621003419| 10,51047994574| 10,51383089260| 10,51383089260| 10,51383089260|  8,04173235853| 11,32177975763|  9,80083329347|  9,80083329347| 10,78135135752
White_Rhino               |  9,80083329347| 10,55594096023|  9,80083329347|  9,80083329347|  9,80083329347|  9,80083329347|  9,80083329347|  9,80083329347|  9,80083329347|  9,80083329347|  9,80083329347| 10,19924721949|  9,97565913108|  9,80083329347|  9,80083329347|  9,80083329347| 10,51383089260|  9,80083329347|  9,97565913108| 10,19924721949| 10,19924721949|  7,34621003419|  0,00000000000| 10,51047994574| 10,51383089260| 10,51383089260| 10,51383089260|  8,04173235853| 11,32177975763|  9,80083329347|  9,80083329347| 10,78135135752
Black_Bear                | 10,51047994574| 10,55594096023| 10,51047994574| 10,51047994574| 10,51047994574| 10,51047994574| 10,51047994574| 10,51047994574| 10,51047994574| 10,51047994574| 10,51047994574| 10,51047994574| 10,51047994574| 10,51047994574| 10,51047994574| 10,51047994574| 10,51383089260| 10,51047994574| 10,51047994574| 10,51047994574| 10,51047994574| 10,51047994574| 10,51047994574|  0,00000000000| 10,51383089260| 10,51383089260| 10,51383089260| 10,51047994574| 11,32177975763| 10,51047994574| 10,51047994574| 10,78135135752
Brown_Bear                | 10,51383089260| 10,55594096023| 10,51383089260| 10,51383089260| 10,51383089260| 10,51383089260| 10,51383089260| 10,51383089260| 10,51383089260| 10,51383089260| 10,51383089260| 10,51383089260| 10,51383089260| 10,51383089260| 10,51383089260| 10,51383089260| 10,30785049718| 10,51383089260| 10,51383089260| 10,51383089260| 10,51383089260| 10,51383089260| 10,51383089260| 10,51383089260|  0,00000000000|  7,48899152709|  9,68788069668| 10,51383089260| 11,32177975763| 10,51383089260| 10,51383089260| 10,78135135752
Polar_Bear                | 10,51383089260| 10,55594096023| 10,51383089260| 10,51383089260| 10,51383089260| 10,51383089260| 10,51383089260| 10,51383089260| 10,51383089260| 10,51383089260| 10,51383089260| 10,51383089260| 10,51383089260| 10,51383089260| 10,51383089260| 10,51383089260| 10,30785049718| 10,51383089260| 10,51383089260| 10,51383089260| 10,51383089260| 10,51383089260| 10,51383089260| 10,51383089260|  7,48899152709|  0,00000000000|  9,68788069668| 10,51383089260| 11,32177975763| 10,51383089260| 10,51383089260| 10,78135135752
Giant_Panda               | 10,51383089260| 10,55594096023| 10,51383089260| 10,51383089260| 10,51383089260| 10,51383089260| 10,51383089260| 10,51383089260| 10,51383089260| 10,51383089260| 10,51383089260| 10,51383089260| 10,51383089260| 10,51383089260| 10,51383089260| 10,51383089260| 10,30785049718| 10,51383089260| 10,51383089260| 10,51383089260| 10,51383089260| 10,51383089260| 10,51383089260| 10,51383089260|  9,68788069668|  9,68788069668|  0,00000000000| 10,51383089260| 11,32177975763| 10,51383089260| 10,51383089260| 10,78135135752
Rabbit                    |  9,80083329347| 10,55594096023|  9,80083329347|  9,80083329347|  9,80083329347|  9,80083329347|  9,80083329347|  9,80083329347|  9,80083329347|  9,80083329347|  9,80083329347| 10,19924721949|  9,97565913108|  9,80083329347|  9,80083329347|  9,80083329347| 10,51383089260|  9,80083329347|  9,97565913108| 10,19924721949| 10,19924721949|  8,04173235853|  8,04173235853| 10,51047994574| 10,51383089260| 10,51383089260| 10,51383089260|  0,00000000000| 11,32177975763|  9,80083329347|  9,80083329347| 10,78135135752
Hedgehog                  | 11,32177975763| 11,32177975763| 11,32177975763| 11,32177975763| 11,32177975763| 11,32177975763| 11,32177975763| 11,32177975763| 11,32177975763| 11,32177975763| 11,32177975763| 11,32177975763| 11,32177975763| 11,32177975763| 11,32177975763| 11,32177975763| 11,32177975763| 11,32177975763| 11,32177975763| 11,32177975763| 11,32177975763| 11,32177975763| 11,32177975763| 11,32177975763| 11,32177975763| 11,32177975763| 11,32177975763| 11,32177975763|  0,00000000000| 11,32177975763| 11,32177975763| 11,32177975763
Dormouse                  |  9,10487131001| 10,55594096023|  8,54209725977|  8,54209725977|  8,54209725977|  7,82518428894|  8,70608354966|  8,54190591597|  8,54209725977|  9,10487131001|  8,54209725977| 10,19924721949|  9,97565913108|  9,59818279719|  9,59818279719|  9,59818279719| 10,51383089260|  9,59818279719|  9,97565913108| 10,19924721949| 10,19924721949|  9,80083329347|  9,80083329347| 10,51047994574| 10,51383089260| 10,51383089260| 10,51383089260|  9,80083329347| 11,32177975763|  0,00000000000|  8,96532106168| 10,78135135752
Squirrel                  |  9,10487131001| 10,55594096023|  8,96532106168|  8,96532106168|  8,96532106168|  8,96532106168|  8,96532106168|  8,96532106168|  8,96532106168|  9,10487131001|  8,96532106168| 10,19924721949|  9,97565913108|  9,59818279719|  9,59818279719|  9,59818279719| 10,51383089260|  9,59818279719|  9,97565913108| 10,19924721949| 10,19924721949|  9,80083329347|  9,80083329347| 10,51047994574| 10,51383089260| 10,51383089260| 10,51383089260|  9,80083329347| 11,32177975763|  8,96532106168|  0,00000000000| 10,78135135752
Blue_Whale                | 10,78135135752| 10,78135135752| 10,78135135752| 10,78135135752| 10,78135135752| 10,78135135752| 10,78135135752| 10,78135135752| 10,78135135752| 10,78135135752| 10,78135135752| 10,78135135752| 10,78135135752| 10,78135135752| 10,78135135752| 10,78135135752| 10,78135135752| 10,78135135752| 10,78135135752| 10,78135135752| 10,78135135752| 10,78135135752| 10,78135135752| 10,78135135752| 10,78135135752| 10,78135135752| 10,78135135752| 10,78135135752| 11,32177975763| 10,78135135752| 10,78135135752|  0,00000000000
                           |Human          |Hum_shortened  |Pig_Chim       |Com_Chim       |Gibbon         |Baboon         |Ver_Monkey     |Macaca_Thibet  |Bor_Oran       |Sum_Oran       |Gorilla        |Cat            |Dog            |Pig            |Sheep          |Goat           |Cow            |Buffalo        |Wolf           |Tiger          |Leopard        |Indian_Rhino   |White_Rhino    |Black_Bear     |Brown_Bear     |Polar_Bear     |Giant_Panda    |Rabbit         |Hedgehog       |Dormouse       |Squirrel       |Blue_Whale     
Human                     |  0,00000000000| 10,00000000000|  9,00000000000|  9,00000000000|  9,00000000000|  8,00000000000|  5,00000000000|  7,00000000000|  7,00000000000|  2,00000000000|  9,00000000000|  9,00000000000|  7,00000000000|  6,00000000000|  6,00000000000|  6,00000000000| 10,00000000000|  6,00000000000|  7,00000000000|  9,00000000000|  8,00000000000|  7,00000000000|  7,00000000000|  8,00000000000| 12,00000000000| 12,00000000000| 11,00000000000|  6,00000000000| 12,00000000000|  8,00000000000|  4,00000000000| 11,00000000000
Hum_shortened             | 10,00000000000|  0,00000000000| 15,00000000000| 15,00000000000| 15,00000000000| 14,00000000000| 11,00000000000| 13,00000000000| 13,00000000000| 10,00000000000| 15,00000000000|  7,00000000000|  7,00000000000| 10,00000000000| 10,00000000000| 10,00000000000|  4,00000000000| 10,00000000000|  7,00000000000|  7,00000000000|  6,00000000000|  9,00000000000|  9,00000000000|  4,00000000000|  6,00000000000|  6,00000000000|  5,00000000000|  8,00000000000|  4,00000000000| 14,00000000000| 10,00000000000|  3,00000000000
Pig_Chim                  |  9,00000000000| 15,00000000000|  0,00000000000|  4,00000000000|  2,00000000000|  7,00000000000|  6,00000000000|  6,00000000000|  4,00000000000|  9,00000000000|  4,00000000000| 14,00000000000| 12,00000000000| 11,00000000000| 11,00000000000| 11,00000000000| 15,00000000000| 11,00000000000| 12,00000000000| 14,00000000000| 13,00000000000| 12,00000000000| 12,00000000000| 13,00000000000| 17,00000000000| 17,00000000000| 16,00000000000| 11,00000000000| 17,00000000000|  7,00000000000|  7,00000000000| 16,00000000000
Com_Chim                  |  9,00000000000| 15,00000000000|  4,00000000000|  0,00000000000|  4,00000000000|  7,00000000000|  6,00000000000|  6,00000000000|  4,00000000000|  9,00000000000|  2,00000000000| 14,00000000000| 12,00000000000| 11,00000000000| 11,00000000000| 11,00000000000| 15,00000000000| 11,00000000000| 12,00000000000| 14,00000000000| 13,00000000000| 12,00000000000| 12,00000000000| 13,00000000000| 17,00000000000| 17,00000000000| 16,00000000000| 11,00000000000| 17,00000000000|  7,00000000000|  7,00000000000| 16,00000000000
Gibbon                    |  9,00000000000| 15,00000000000|  2,00000000000|  4,00000000000|  0,00000000000|  7,00000000000|  6,00000000000|  6,00000000000|  4,00000000000|  9,00000000000|  4,00000000000| 14,00000000000| 12,00000000000| 11,00000000000| 11,00000000000| 11,00000000000| 15,00000000000| 11,00000000000| 12,00000000000| 14,00000000000| 13,00000000000| 12,00000000000| 12,00000000000| 13,00000000000| 17,00000000000| 17,00000000000| 16,00000000000| 11,00000000000| 17,00000000000|  7,00000000000|  7,00000000000| 16,00000000000
Baboon                    |  8,00000000000| 14,00000000000|  7,00000000000|  7,00000000000|  7,00000000000|  0,00000000000|  5,00000000000|  3,00000000000|  5,00000000000|  8,00000000000|  7,00000000000| 13,00000000000| 11,00000000000| 10,00000000000| 10,00000000000| 10,00000000000| 14,00000000000| 10,00000000000| 11,00000000000| 13,00000000000| 12,00000000000| 11,00000000000| 11,00000000000| 12,00000000000| 16,00000000000| 16,00000000000| 15,00000000000| 10,00000000000| 16,00000000000|  2,00000000000|  6,00000000000| 15,00000000000
Ver_Monkey                |  5,00000000000| 11,00000000000|  6,00000000000|  6,00000000000|  6,00000000000|  5,00000000000|  0,00000000000|  4,00000000000|  4,00000000000|  5,00000000000|  6,00000000000| 10,00000000000|  8,00000000000|  7,00000000000|  7,00000000000|  7,00000000000| 11,00000000000|  7,00000000000|  8,00000000000| 10,00000000000|  9,00000000000|  8,00000000000|  8,00000000000|  9,00000000000| 13,00000000000| 13,00000000000| 12,00000000000|  7,00000000000| 13,00000000000|  5,00000000000|  3,00000000000| 12,00000000000
Macaca_Thibet             |  7,00000000000| 13,00000000000|  6,00000000000|  6,00000000000|  6,00000000000|  3,00000000000|  4,00000000000|  0,00000000000|  4,00000000000|  7,00000000000|  6,00000000000| 12,00000000000| 10,00000000000|  9,00000000000|  9,00000000000|  9,00000000000| 13,00000000000|  9,00000000000| 10,00000000000| 12,00000000000| 11,00000000000| 10,00000000000| 10,00000000000| 11,00000000000| 15,00000000000| 15,00000000000| 14,00000000000|  9,00000000000| 15,00000000000|  3,00000000000|  5,00000000000| 14,00000000000
Bor_Oran                  |  7,00000000000| 13,00000000000|  4,00000000000|  4,00000000000|  4,00000000000|  5,00000000000|  4,00000000000|  4,00000000000|  0,00000000000|  7,00000000000|  4,00000000000| 12,00000000000| 10,00000000000|  9,00000000000|  9,00000000000|  9,00000000000| 13,00000000000|  9,00000000000| 10,00000000000| 12,00000000000| 11,00000000000| 10,00000000000| 10,00000000000| 11,00000000000| 15,00000000000| 15,00000000000| 14,00000000000|  9,00000000000| 15,00000000000|  5,00000000000|  5,00000000000| 14,00000000000
Sum_Oran                  |  2,00000000000| 10,00000000000|  9,00000000000|  9,00000000000|  9,00000000000|  8,00000000000|  5,00000000000|  7,00000000000|  7,00000000000|  0,00000000000|  9,00000000000|  9,00000000000|  7,00000000000|  6,00000000000|  6,00000000000|  6,00000000000| 10,00000000000|  6,00000000000|  7,00000000000|  9,00000000000|  8,00000000000|  7,00000000000|  7,00000000000|  8,00000000000| 12,00000000000| 12,00000000000| 11,00000000000|  6,00000000000| 12,00000000000|  8,00000000000|  4,00000000000| 11,00000000000
Gorilla                   |  9,00000000000| 15,00000000000|  4,00000000000|  2,00000000000|  4,00000000000|  7,00000000000|  6,00000000000|  6,00000000000|  4,00000000000|  9,00000000000|  0,00000000000| 14,00000000000| 12,00000000000| 11,00000000000| 11,00000000000| 11,00000000000| 15,00000000000| 11,00000000000| 12,00000000000| 14,00000000000| 13,00000000000| 12,00000000000| 12,00000000000| 13,00000000000| 17,00000000000| 17,00000000000| 16,00000000000| 11,00000000000| 17,00000000000|  7,00000000000|  7,00000000000| 16,00000000000
Cat                       |  9,00000000000|  7,00000000000| 14,00000000000| 14,00000000000| 14,00000000000| 13,00000000000| 10,00000000000| 12,00000000000| 12,00000000000|  9,00000000000| 14,00000000000|  0,00000000000|  6,00000000000|  9,00000000000|  9,00000000000|  9,00000000000|  7,00000000000|  9,00000000000|  6,00000000000|  2,00000000000|  3,00000000000|  8,00000000000|  8,00000000000|  5,00000000000|  9,00000000000|  9,00000000000|  8,00000000000|  7,00000000000|  9,00000000000| 13,00000000000|  9,00000000000|  8,00000000000
Dog                       |  7,00000000000|  7,00000000000| 12,00000000000| 12,00000000000| 12,00000000000| 11,00000000000|  8,00000000000| 10,00000000000| 10,00000000000|  7,00000000000| 12,00000000000|  6,00000000000|  0,00000000000|  7,00000000000|  7,00000000000|  7,00000000000|  7,00000000000|  7,00000000000|  2,00000000000|  6,00000000000|  5,00000000000|  6,00000000000|  6,00000000000|  5,00000000000|  9,00000000000|  9,00000000000|  8,00000000000|  5,00000000000|  9,00000000000| 11,00000000000|  7,00000000000|  8,00000000000
Pig                       |  6,00000000000| 10,00000000000| 11,00000000000| 11,00000000000| 11,00000000000| 10,00000000000|  7,00000000000|  9,00000000000|  9,00000000000|  6,00000000000| 11,00000000000|  9,00000000000|  7,00000000000|  0,00000000000|  2,00000000000|  4,00000000000| 10,00000000000|  4,00000000000|  7,00000000000|  9,00000000000|  8,00000000000|  7,00000000000|  7,00000000000|  8,00000000000| 12,00000000000| 12,00000000000| 11,00000000000|  6,00000000000| 12,00000000000| 10,00000000000|  6,00000000000| 11,00000000000
Sheep                     |  6,00000000000| 10,00000000000| 11,00000000000| 11,00000000000| 11,00000000000| 10,00000000000|  7,00000000000|  9,00000000000|  9,00000000000|  6,00000000000| 11,00000000000|  9,00000000000|  7,00000000000|  2,00000000000|  0,00000000000|  4,00000000000| 10,00000000000|  4,00000000000|  7,00000000000|  9,00000000000|  8,00000000000|  7,00000000000|  7,00000000000|  8,00000000000| 12,00000000000| 12,00000000000| 11,00000000000|  6,00000000000| 12,00000000000| 10,00000000000|  6,00000000000| 11,00000000000
Goat                      |  6,00000000000| 10,00000000000| 11,00000000000| 11,00000000000| 11,00000000000| 10,00000000000|  7,00000000000|  9,00000000000|  9,00000000000|  6,00000000000| 11,00000000000|  9,00000000000|  7,00000000000|  4,00000000000|  4,00000000000|  0,00000000000| 10,00000000000|  2,00000000000|  7,00000000000|  9,00000000000|  8,00000000000|  7,00000000000|  7,00000000000|  8,00000000000| 12,00000000000| 12,00000000000| 11,00000000000|  6,00000000000| 12,00000000000| 10,00000000000|  6,00000000000| 11,00000000000
Cow                       | 10,00000000000|  4,00000000000| 15,00000000000| 15,00000000000| 15,00000000000| 14,00000000000| 11,00000000000| 13,00000000000| 13,00000000000| 10,00000000000| 15,00000000000|  7,00000000000|  7,00000000000| 10,00000000000| 10,00000000000| 10,00000000000|  0,00000000000| 10,00000000000|  7,00000000000|  7,00000000000|  6,00000000000|  9,00000000000|  9,00000000000|  4,00000000000|  4,00000000000|  4,00000000000|  3,00000000000|  8,00000000000|  6,00000000000| 14,00000000000| 10,00000000000|  5,00000000000
Buffalo                   |  6,00000000000| 10,00000000000| 11,00000000000| 11,00000000000| 11,00000000000| 10,00000000000|  7,00000000000|  9,00000000000|  9,00000000000|  6,00000000000| 11,00000000000|  9,00000000000|  7,00000000000|  4,00000000000|  4,00000000000|  2,00000000000| 10,00000000000|  0,00000000000|  7,00000000000|  9,00000000000|  8,00000000000|  7,00000000000|  7,00000000000|  8,00000000000| 12,00000000000| 12,00000000000| 11,00000000000|  6,00000000000| 12,00000000000| 10,00000000000|  6,00000000000| 11,00000000000
Wolf                      |  7,00000000000|  7,00000000000| 12,00000000000| 12,00000000000| 12,00000000000| 11,00000000000|  8,00000000000| 10,00000000000| 10,00000000000|  7,00000000000| 12,00000000000|  6,00000000000|  2,00000000000|  7,00000000000|  7,00000000000|  7,00000000000|  7,00000000000|  7,00000000000|  0,00000000000|  6,00000000000|  5,00000000000|  6,00000000000|  6,00000000000|  5,00000000000|  9,00000000000|  9,00000000000|  8,00000000000|  5,00000000000|  9,00000000000| 11,00000000000|  7,00000000000|  8,00000000000
Tiger                     |  9,00000000000|  7,00000000000| 14,00000000000| 14,00000000000| 14,00000000000| 13,00000000000| 10,00000000000| 12,00000000000| 12,00000000000|  9,00000000000| 14,00000000000|  2,00000000000|  6,00000000000|  9,00000000000|  9,00000000000|  9,00000000000|  7,00000000000|  9,00000000000|  6,00000000000|  0,00000000000|  3,00000000000|  8,00000000000|  8,00000000000|  5,00000000000|  9,00000000000|  9,00000000000|  8,00000000000|  7,00000000000|  9,00000000000| 13,00000000000|  9,00000000000|  8,00000000000
Leopard                   |  8,00000000000|  6,00000000000| 13,00000000000| 13,00000000000| 13,00000000000| 12,00000000000|  9,00000000000| 11,00000000000| 11,00000000000|  8,00000000000| 13,00000000000|  3,00000000000|  5,00000000000|  8,00000000000|  8,00000000000|  8,00000000000|  6,00000000000|  8,00000000000|  5,00000000000|  3,00000000000|  0,00000000000|  7,00000000000|  7,00000000000|  4,00000000000|  8,00000000000|  8,00000000000|  7,00000000000|  6,00000000000|  8,00000000000| 12,00000000000|  8,00000000000|  7,00000000000
Indian_Rhino              |  7,00000000000|  9,00000000000| 12,00000000000| 12,00000000000| 12,00000000000| 11,00000000000|  8,00000000000| 10,00000000000| 10,00000000000|  7,00000000000| 12,00000000000|  8,00000000000|  6,00000000000|  7,00000000000|  7,00000000000|  7,00000000000|  9,00000000000|  7,00000000000|  6,00000000000|  8,00000000000|  7,00000000000|  0,00000000000|  2,00000000000|  7,00000000000| 11,00000000000| 11,00000000000| 10,00000000000|  3,00000000000| 11,00000000000| 11,00000000000|  7,00000000000| 10,00000000000
White_Rhino               |  7,00000000000|  9,00000000000| 12,00000000000| 12,00000000000| 12,00000000000| 11,00000000000|  8,00000000000| 10,00000000000| 10,00000000000|  7,00000000000| 12,00000000000|  8,00000000000|  6,00000000000|  7,00000000000|  7,00000000000|  7,00000000000|  9,00000000000|  7,00000000000|  6,00000000000|  8,00000000000|  7,00000000000|  2,00000000000|  0,00000000000|  7,00000000000| 11,00000000000| 11,00000000000| 10,00000000000|  3,00000000000| 11,00000000000| 11,00000000000|  7,00000000000| 10,00000000000
Black_Bear                |  8,00000000000|  4,00000000000| 13,00000000000| 13,00000000000| 13,00000000000| 12,00000000000|  9,00000000000| 11,00000000000| 11,00000000000|  8,00000000000| 13,00000000000|  5,00000000000|  5,00000000000|  8,00000000000|  8,00000000000|  8,00000000000|  4,00000000000|  8,00000000000|  5,00000000000|  5,00000000000|  4,00000000000|  7,00000000000|  7,00000000000|  0,00000000000|  6,00000000000|  6,00000000000|  5,00000000000|  6,00000000000|  6,00000000000| 12,00000000000|  8,00000000000|  5,00000000000
Brown_Bear                | 12,00000000000|  6,00000000000| 17,00000000000| 17,00000000000| 17,00000000000| 16,00000000000| 13,00000000000| 15,00000000000| 15,00000000000| 12,00000000000| 17,00000000000|  9,00000000000|  9,00000000000| 12,00000000000| 12,00000000000| 12,00000000000|  4,00000000000| 12,00000000000|  9,00000000000|  9,00000000000|  8,00000000000| 11,00000000000| 11,00000000000|  6,00000000000|  0,00000000000|  2,00000000000|  3,00000000000| 10,00000000000|  8,00000000000| 16,00000000000| 12,00000000000|  7,00000000000
Polar_Bear                | 12,00000000000|  6,00000000000| 17,00000000000| 17,00000000000| 17,00000000000| 16,00000000000| 13,00000000000| 15,00000000000| 15,00000000000| 12,00000000000| 17,00000000000|  9,00000000000|  9,00000000000| 12,00000000000| 12,00000000000| 12,00000000000|  4,00000000000| 12,00000000000|  9,00000000000|  9,00000000000|  8,00000000000| 11,00000000000| 11,00000000000|  6,00000000000|  2,00000000000|  0,00000000000|  3,00000000000| 10,00000000000|  8,00000000000| 16,00000000000| 12,00000000000|  7,00000000000
Giant_Panda               | 11,00000000000|  5,00000000000| 16,00000000000| 16,00000000000| 16,00000000000| 15,00000000000| 12,00000000000| 14,00000000000| 14,00000000000| 11,00000000000| 16,00000000000|  8,00000000000|  8,00000000000| 11,00000000000| 11,00000000000| 11,00000000000|  3,00000000000| 11,00000000000|  8,00000000000|  8,00000000000|  7,00000000000| 10,00000000000| 10,00000000000|  5,00000000000|  3,00000000000|  3,00000000000|  0,00000000000|  9,00000000000|  7,00000000000| 15,00000000000| 11,00000000000|  6,00000000000
Rabbit                    |  6,00000000000|  8,00000000000| 11,00000000000| 11,00000000000| 11,00000000000| 10,00000000000|  7,00000000000|  9,00000000000|  9,00000000000|  6,00000000000| 11,00000000000|  7,00000000000|  5,00000000000|  6,00000000000|  6,00000000000|  6,00000000000|  8,00000000000|  6,00000000000|  5,00000000000|  7,00000000000|  6,00000000000|  3,00000000000|  3,00000000000|  6,00000000000| 10,00000000000| 10,00000000000|  9,00000000000|  0,00000000000| 10,00000000000| 10,00000000000|  6,00000000000|  9,00000000000
Hedgehog                  | 12,00000000000|  4,00000000000| 17,00000000000| 17,00000000000| 17,00000000000| 16,00000000000| 13,00000000000| 15,00000000000| 15,00000000000| 12,00000000000| 17,00000000000|  9,00000000000|  9,00000000000| 12,00000000000| 12,00000000000| 12,00000000000|  6,00000000000| 12,00000000000|  9,00000000000|  9,00000000000|  8,00000000000| 11,00000000000| 11,00000000000|  6,00000000000|  8,00000000000|  8,00000000000|  7,00000000000| 10,00000000000|  0,00000000000| 16,00000000000| 12,00000000000|  3,00000000000
Dormouse                  |  8,00000000000| 14,00000000000|  7,00000000000|  7,00000000000|  7,00000000000|  2,00000000000|  5,00000000000|  3,00000000000|  5,00000000000|  8,00000000000|  7,00000000000| 13,00000000000| 11,00000000000| 10,00000000000| 10,00000000000| 10,00000000000| 14,00000000000| 10,00000000000| 11,00000000000| 13,00000000000| 12,00000000000| 11,00000000000| 11,00000000000| 12,00000000000| 16,00000000000| 16,00000000000| 15,00000000000| 10,00000000000| 16,00000000000|  0,00000000000|  6,00000000000| 15,00000000000
Squirrel                  |  4,00000000000| 10,00000000000|  7,00000000000|  7,00000000000|  7,00000000000|  6,00000000000|  3,00000000000|  5,00000000000|  5,00000000000|  4,00000000000|  7,00000000000|  9,00000000000|  7,00000000000|  6,00000000000|  6,00000000000|  6,00000000000| 10,00000000000|  6,00000000000|  7,00000000000|  9,00000000000|  8,00000000000|  7,00000000000|  7,00000000000|  8,00000000000| 12,00000000000| 12,00000000000| 11,00000000000|  6,00000000000| 12,00000000000|  6,00000000000|  0,00000000000| 11,00000000000
Blue_Whale                | 11,00000000000|  3,00000000000| 16,00000000000| 16,00000000000| 16,00000000000| 15,00000000000| 12,00000000000| 14,00000000000| 14,00000000000| 11,00000000000| 16,00000000000|  8,00000000000|  8,00000000000| 11,00000000000| 11,00000000000| 11,00000000000|  5,00000000000| 11,00000000000|  8,00000000000|  8,00000000000|  7,00000000000| 10,00000000000| 10,00000000000|  5,00000000000|  7,00000000000|  7,00000000000|  6,00000000000|  9,00000000000|  3,00000000000| 15,00000000000| 11,00000000000|  0,00000000000
