                           |Human          |Hum_shortened  |Pig_Chim       |Com_Chim       |Gibbon         |Baboon         |Ver_Monkey     |Macaca_Thibet  |Bor_Oran       |Sum_Oran       |Gorilla        |Cat            |Dog            |Pig            |Sheep          |Goat           |Cow            |Buffalo        |Wolf           |Tiger          |Leopard        |Indian_Rhino   |White_Rhino    |Black_Bear     |Brown_Bear     |Polar_Bear     |Giant_Panda    |Rabbit         |Hedgehog       |Dormouse       |Squirrel       |Blue_Whale     
Human                     |  0,00000000000|6160,33332439328|5864,27154535234|5864,27154535234|5864,27154535234|5864,27154535234|5992,79086988318|5864,27154535234|5864,27154535234|5864,27154535234|5864,27154535234|6122,31954336050|5927,21630416075|6007,63658916332|5973,82383017220|5973,82383017220|6129,60686271060|5973,82383017220|5927,21630416075|6122,31954336050|6122,31954336050|5953,86532551886|5953,86532551886|6122,31954336050|6122,31954336050|6122,31954336050|6122,31954336050|5953,86532551886|6094,74224301576|5864,27154535234|5864,27154535234|6116,35520490260
Hum_shortened             |6160,33332439328|  0,00000000000|6160,33332439328|6160,33332439328|6160,33332439328|6160,33332439328|6160,33332439328|6160,33332439328|6160,33332439328|6160,33332439328|6160,33332439328|6160,33332439328|6160,33332439328|6160,33332439328|6160,33332439328|6160,33332439328|6160,33332439328|6160,33332439328|6160,33332439328|6160,33332439328|6160,33332439328|6160,33332439328|6160,33332439328|6160,33332439328|6160,33332439328|6160,33332439328|6160,33332439328|6160,33332439328|6160,33332439328|6160,33332439328|6160,33332439328|6160,33332439328
Pig_Chim                  |5864,27154535234|6160,33332439328|  0,00000000000|5336,54310610451|5392,82740186862|5815,92116785709|5992,79086988318|5815,92116785709|5846,60969100040|5854,66531923264|5336,54310610451|6122,31954336050|5927,21630416075|6007,63658916332|5973,82383017220|5973,82383017220|6129,60686271060|5973,82383017220|5927,21630416075|6122,31954336050|6122,31954336050|5953,86532551886|5953,86532551886|6122,31954336050|6122,31954336050|6122,31954336050|6122,31954336050|5953,86532551886|6094,74224301576|5815,92116785709|5815,92116785709|6116,35520490260
Com_Chim                  |5864,27154535234|6160,33332439328|5336,54310610451|  0,00000000000|5392,82740186862|5815,92116785709|5992,79086988318|5815,92116785709|5846,60969100040|5854,66531923264|4944,99880409644|6122,31954336050|5927,21630416075|6007,63658916332|5973,82383017220|5973,82383017220|6129,60686271060|5973,82383017220|5927,21630416075|6122,31954336050|6122,31954336050|5953,86532551886|5953,86532551886|6122,31954336050|6122,31954336050|6122,31954336050|6122,31954336050|5953,86532551886|6094,74224301576|5815,92116785709|5815,92116785709|6116,35520490260
Gibbon                    |5864,27154535234|6160,33332439328|5392,82740186862|5392,82740186862|  0,00000000000|5815,92116785709|5992,79086988318|5815,92116785709|5846,60969100040|5854,66531923264|5392,82740186862|6122,31954336050|5927,21630416075|6007,63658916332|5973,82383017220|5973,82383017220|6129,60686271060|5973,82383017220|5927,21630416075|6122,31954336050|6122,31954336050|5953,86532551886|5953,86532551886|6122,31954336050|6122,31954336050|6122,31954336050|6122,31954336050|5953,86532551886|6094,74224301576|5815,92116785709|5815,92116785709|6116,35520490260
Baboon                    |5864,27154535234|6160,33332439328|5815,92116785709|5815,92116785709|5815,92116785709|  0,00000000000|5992,79086988318|5753,39015803950|5846,60969100040|5854,66531923264|5815,92116785709|6122,31954336050|5927,21630416075|6007,63658916332|5973,82383017220|5973,82383017220|6129,60686271060|5973,82383017220|5927,21630416075|6122,31954336050|6122,31954336050|5953,86532551886|5953,86532551886|6122,31954336050|6122,31954336050|6122,31954336050|6122,31954336050|5953,86532551886|6094,74224301576|5651,59425153525|5744,48117624969|6116,35520490260
Ver_Monkey                |5992,79086988318|6160,33332439328|5992,79086988318|5992,79086988318|5992,79086988318|5992,79086988318|  0,00000000000|5992,79086988318|5992,79086988318|5992,79086988318|5992,79086988318|6122,31954336050|5992,79086988318|6007,63658916332|5992,79086988318|5992,79086988318|6129,60686271060|5992,79086988318|5992,79086988318|6122,31954336050|6122,31954336050|5992,79086988318|5992,79086988318|6122,31954336050|6122,31954336050|6122,31954336050|6122,31954336050|5992,79086988318|6094,74224301576|5992,79086988318|5992,79086988318|6116,35520490260
Macaca_Thibet             |5864,27154535234|6160,33332439328|5815,92116785709|5815,92116785709|5815,92116785709|5753,39015803950|5992,79086988318|  0,00000000000|5846,60969100040|5854,66531923264|5815,92116785709|6122,31954336050|5927,21630416075|6007,63658916332|5973,82383017220|5973,82383017220|6129,60686271060|5973,82383017220|5927,21630416075|6122,31954336050|6122,31954336050|5953,86532551886|5953,86532551886|6122,31954336050|6122,31954336050|6122,31954336050|6122,31954336050|5953,86532551886|6094,74224301576|5753,39015803950|5753,39015803950|6116,35520490260
Bor_Oran                  |5864,27154535234|6160,33332439328|5846,60969100040|5846,60969100040|5846,60969100040|5846,60969100040|5992,79086988318|5846,60969100040|  0,00000000000|5854,66531923264|5846,60969100040|6122,31954336050|5927,21630416075|6007,63658916332|5973,82383017220|5973,82383017220|6129,60686271060|5973,82383017220|5927,21630416075|6122,31954336050|6122,31954336050|5953,86532551886|5953,86532551886|6122,31954336050|6122,31954336050|6122,31954336050|6122,31954336050|5953,86532551886|6094,74224301576|5846,60969100040|5846,60969100040|6116,35520490260
Sum_Oran                  |5864,27154535234|6160,33332439328|5854,66531923264|5854,66531923264|5854,66531923264|5854,66531923264|5992,79086988318|5854,66531923264|5854,66531923264|  0,00000000000|5854,66531923264|6122,31954336050|5927,21630416075|6007,63658916332|5973,82383017220|5973,82383017220|6129,60686271060|5973,82383017220|5927,21630416075|6122,31954336050|6122,31954336050|5953,86532551886|5953,86532551886|6122,31954336050|6122,31954336050|6122,31954336050|6122,31954336050|5953,86532551886|6094,74224301576|5854,66531923264|5854,66531923264|6116,35520490260
Gorilla                   |5864,27154535234|6160,33332439328|5336,54310610451|4944,99880409644|5392,82740186862|5815,92116785709|5992,79086988318|5815,92116785709|5846,60969100040|5854,66531923264|  0,00000000000|6122,31954336050|5927,21630416075|6007,63658916332|5973,82383017220|5973,82383017220|6129,60686271060|5973,82383017220|5927,21630416075|6122,31954336050|6122,31954336050|5953,86532551886|5953,86532551886|6122,31954336050|6122,31954336050|6122,31954336050|6122,31954336050|5953,86532551886|6094,74224301576|5815,92116785709|5815,92116785709|6116,35520490260
Cat                       |6122,31954336050|6160,33332439328|6122,31954336050|6122,31954336050|6122,31954336050|6122,31954336050|6122,31954336050|6122,31954336050|6122,31954336050|6122,31954336050|6122,31954336050|  0,00000000000|6122,31954336050|6122,31954336050|6122,31954336050|6122,31954336050|6129,60686271060|6122,31954336050|6122,31954336050|5726,06035973843|5919,80630462667|6122,31954336050|6122,31954336050|6119,33455444121|6119,33455444121|6119,33455444121|6119,33455444121|6122,31954336050|6122,31954336050|6122,31954336050|6122,31954336050|6122,31954336050
Dog                       |5927,21630416075|6160,33332439328|5927,21630416075|5927,21630416075|5927,21630416075|5927,21630416075|5992,79086988318|5927,21630416075|5927,21630416075|5927,21630416075|5927,21630416075|6122,31954336050|  0,00000000000|6007,63658916332|5973,82383017220|5973,82383017220|6129,60686271060|5973,82383017220|4276,96088264353|6122,31954336050|6122,31954336050|5953,86532551886|5953,86532551886|6122,31954336050|6122,31954336050|6122,31954336050|6122,31954336050|5953,86532551886|6094,74224301576|5927,21630416075|5927,21630416075|6116,35520490260
Pig                       |6007,63658916332|6160,33332439328|6007,63658916332|6007,63658916332|6007,63658916332|6007,63658916332|6007,63658916332|6007,63658916332|6007,63658916332|6007,63658916332|6007,63658916332|6122,31954336050|6007,63658916332|  0,00000000000|6007,63658916332|6007,63658916332|6129,60686271060|6007,63658916332|6007,63658916332|6122,31954336050|6122,31954336050|6007,63658916332|6007,63658916332|6122,31954336050|6122,31954336050|6122,31954336050|6122,31954336050|6007,63658916332|6094,74224301576|6007,63658916332|6007,63658916332|6116,35520490260
Sheep                     |5973,82383017220|6160,33332439328|5973,82383017220|5973,82383017220|5973,82383017220|5973,82383017220|5992,79086988318|5973,82383017220|5973,82383017220|5973,82383017220|5973,82383017220|6122,31954336050|5973,82383017220|6007,63658916332|  0,00000000000|5849,58124232534|6129,60686271060|5849,58124232534|5973,82383017220|6122,31954336050|6122,31954336050|5973,82383017220|5973,82383017220|6122,31954336050|6122,31954336050|6122,31954336050|6122,31954336050|5973,82383017220|6094,74224301576|5973,82383017220|5973,82383017220|6116,35520490260
Goat                      |5973,82383017220|6160,33332439328|5973,82383017220|5973,82383017220|5973,82383017220|5973,82383017220|5992,79086988318|5973,82383017220|5973,82383017220|5973,82383017220|5973,82383017220|6122,31954336050|5973,82383017220|6007,63658916332|5849,58124232534|  0,00000000000|6129,60686271060|5413,84843294912|5973,82383017220|6122,31954336050|6122,31954336050|5973,82383017220|5973,82383017220|6122,31954336050|6122,31954336050|6122,31954336050|6122,31954336050|5973,82383017220|6094,74224301576|5973,82383017220|5973,82383017220|6116,35520490260
Cow                       |6129,60686271060|6160,33332439328|6129,60686271060|6129,60686271060|6129,60686271060|6129,60686271060|6129,60686271060|6129,60686271060|6129,60686271060|6129,60686271060|6129,60686271060|6129,60686271060|6129,60686271060|6129,60686271060|6129,60686271060|6129,60686271060|  0,00000000000|6129,60686271060|6129,60686271060|6129,60686271060|6129,60686271060|6129,60686271060|6129,60686271060|6129,60686271060|6129,60686271060|6129,60686271060|6129,60686271060|6129,60686271060|6129,60686271060|6129,60686271060|6129,60686271060|6129,60686271060
Buffalo                   |5973,82383017220|6160,33332439328|5973,82383017220|5973,82383017220|5973,82383017220|5973,82383017220|5992,79086988318|5973,82383017220|5973,82383017220|5973,82383017220|5973,82383017220|6122,31954336050|5973,82383017220|6007,63658916332|5849,58124232534|5413,84843294912|6129,60686271060|  0,00000000000|5973,82383017220|6122,31954336050|6122,31954336050|5973,82383017220|5973,82383017220|6122,31954336050|6122,31954336050|6122,31954336050|6122,31954336050|5973,82383017220|6094,74224301576|5973,82383017220|5973,82383017220|6116,35520490260
Wolf                      |5927,21630416075|6160,33332439328|5927,21630416075|5927,21630416075|5927,21630416075|5927,21630416075|5992,79086988318|5927,21630416075|5927,21630416075|5927,21630416075|5927,21630416075|6122,31954336050|4276,96088264353|6007,63658916332|5973,82383017220|5973,82383017220|6129,60686271060|5973,82383017220|  0,00000000000|6122,31954336050|6122,31954336050|5953,86532551886|5953,86532551886|6122,31954336050|6122,31954336050|6122,31954336050|6122,31954336050|5953,86532551886|6094,74224301576|5927,21630416075|5927,21630416075|6116,35520490260
Tiger                     |6122,31954336050|6160,33332439328|6122,31954336050|6122,31954336050|6122,31954336050|6122,31954336050|6122,31954336050|6122,31954336050|6122,31954336050|6122,31954336050|6122,31954336050|5726,06035973843|6122,31954336050|6122,31954336050|6122,31954336050|6122,31954336050|6129,60686271060|6122,31954336050|6122,31954336050|  0,00000000000|5919,80630462667|6122,31954336050|6122,31954336050|6119,33455444121|6119,33455444121|6119,33455444121|6119,33455444121|6122,31954336050|6122,31954336050|6122,31954336050|6122,31954336050|6122,31954336050
Leopard                   |6122,31954336050|6160,33332439328|6122,31954336050|6122,31954336050|6122,31954336050|6122,31954336050|6122,31954336050|6122,31954336050|6122,31954336050|6122,31954336050|6122,31954336050|5919,80630462667|6122,31954336050|6122,31954336050|6122,31954336050|6122,31954336050|6129,60686271060|6122,31954336050|6122,31954336050|5919,80630462667|  0,00000000000|6122,31954336050|6122,31954336050|6119,33455444121|6119,33455444121|6119,33455444121|6119,33455444121|6122,31954336050|6122,31954336050|6122,31954336050|6122,31954336050|6122,31954336050
Indian_Rhino              |5953,86532551886|6160,33332439328|5953,86532551886|5953,86532551886|5953,86532551886|5953,86532551886|5992,79086988318|5953,86532551886|5953,86532551886|5953,86532551886|5953,86532551886|6122,31954336050|5953,86532551886|6007,63658916332|5973,82383017220|5973,82383017220|6129,60686271060|5973,82383017220|5953,86532551886|6122,31954336050|6122,31954336050|  0,00000000000|5752,92782094773|6122,31954336050|6122,31954336050|6122,31954336050|6122,31954336050|5868,01155910035|6094,74224301576|5953,86532551886|5953,86532551886|6116,35520490260
White_Rhino               |5953,86532551886|6160,33332439328|5953,86532551886|5953,86532551886|5953,86532551886|5953,86532551886|5992,79086988318|5953,86532551886|5953,86532551886|5953,86532551886|5953,86532551886|6122,31954336050|5953,86532551886|6007,63658916332|5973,82383017220|5973,82383017220|6129,60686271060|5973,82383017220|5953,86532551886|6122,31954336050|6122,31954336050|5752,92782094773|  0,00000000000|6122,31954336050|6122,31954336050|6122,31954336050|6122,31954336050|5868,01155910035|6094,74224301576|5953,86532551886|5953,86532551886|6116,35520490260
Black_Bear                |6122,31954336050|6160,33332439328|6122,31954336050|6122,31954336050|6122,31954336050|6122,31954336050|6122,31954336050|6122,31954336050|6122,31954336050|6122,31954336050|6122,31954336050|6119,33455444121|6122,31954336050|6122,31954336050|6122,31954336050|6122,31954336050|6129,60686271060|6122,31954336050|6122,31954336050|6119,33455444121|6119,33455444121|6122,31954336050|6122,31954336050|  0,00000000000|6116,46521973537|6116,46521973537|6116,46521973537|6122,31954336050|6122,31954336050|6122,31954336050|6122,31954336050|6122,31954336050
Brown_Bear                |6122,31954336050|6160,33332439328|6122,31954336050|6122,31954336050|6122,31954336050|6122,31954336050|6122,31954336050|6122,31954336050|6122,31954336050|6122,31954336050|6122,31954336050|6119,33455444121|6122,31954336050|6122,31954336050|6122,31954336050|6122,31954336050|6129,60686271060|6122,31954336050|6122,31954336050|6119,33455444121|6119,33455444121|6122,31954336050|6122,31954336050|6116,46521973537|  0,00000000000|5617,93949802749|6037,38219413834|6122,31954336050|6122,31954336050|6122,31954336050|6122,31954336050|6122,31954336050
Polar_Bear                |6122,31954336050|6160,33332439328|6122,31954336050|6122,31954336050|6122,31954336050|6122,31954336050|6122,31954336050|6122,31954336050|6122,31954336050|6122,31954336050|6122,31954336050|6119,33455444121|6122,31954336050|6122,31954336050|6122,31954336050|6122,31954336050|6129,60686271060|6122,31954336050|6122,31954336050|6119,33455444121|6119,33455444121|6122,31954336050|6122,31954336050|6116,46521973537|5617,93949802749|  0,00000000000|6037,38219413834|6122,31954336050|6122,31954336050|6122,31954336050|6122,31954336050|6122,31954336050
Giant_Panda               |6122,31954336050|6160,33332439328|6122,31954336050|6122,31954336050|6122,31954336050|6122,31954336050|6122,31954336050|6122,31954336050|6122,31954336050|6122,31954336050|6122,31954336050|6119,33455444121|6122,31954336050|6122,31954336050|6122,31954336050|6122,31954336050|6129,60686271060|6122,31954336050|6122,31954336050|6119,33455444121|6119,33455444121|6122,31954336050|6122,31954336050|6116,46521973537|6037,38219413834|6037,38219413834|  0,00000000000|6122,31954336050|6122,31954336050|6122,31954336050|6122,31954336050|6122,31954336050
Rabbit                    |5953,86532551886|6160,33332439328|5953,86532551886|5953,86532551886|5953,86532551886|5953,86532551886|5992,79086988318|5953,86532551886|5953,86532551886|5953,86532551886|5953,86532551886|6122,31954336050|5953,86532551886|6007,63658916332|5973,82383017220|5973,82383017220|6129,60686271060|5973,82383017220|5953,86532551886|6122,31954336050|6122,31954336050|5868,01155910035|5868,01155910035|6122,31954336050|6122,31954336050|6122,31954336050|6122,31954336050|  0,00000000000|6094,74224301576|5953,86532551886|5953,86532551886|6116,35520490260
Hedgehog                  |6094,74224301576|6160,33332439328|6094,74224301576|6094,74224301576|6094,74224301576|6094,74224301576|6094,74224301576|6094,74224301576|6094,74224301576|6094,74224301576|6094,74224301576|6122,31954336050|6094,74224301576|6094,74224301576|6094,74224301576|6094,74224301576|6129,60686271060|6094,74224301576|6094,74224301576|6122,31954336050|6122,31954336050|6094,74224301576|6094,74224301576|6122,31954336050|6122,31954336050|6122,31954336050|6122,31954336050|6094,74224301576|  0,00000000000|6094,74224301576|6094,74224301576|6116,35520490260
Dormouse                  |5864,27154535234|6160,33332439328|5815,92116785709|5815,92116785709|5815,92116785709|5651,59425153525|5992,79086988318|5753,39015803950|5846,60969100040|5854,66531923264|5815,92116785709|6122,31954336050|5927,21630416075|6007,63658916332|5973,82383017220|5973,82383017220|6129,60686271060|5973,82383017220|5927,21630416075|6122,31954336050|6122,31954336050|5953,86532551886|5953,86532551886|6122,31954336050|6122,31954336050|6122,31954336050|6122,31954336050|5953,86532551886|6094,74224301576|  0,00000000000|5744,48117624969|6116,35520490260
Squirrel                  |5864,27154535234|6160,33332439328|5815,92116785709|5815,92116785709|5815,92116785709|5744,48117624969|5992,79086988318|5753,39015803950|5846,60969100040|5854,66531923264|5815,92116785709|6122,31954336050|5927,21630416075|6007,63658916332|5973,82383017220|5973,82383017220|6129,60686271060|5973,82383017220|5927,21630416075|6122,31954336050|6122,31954336050|5953,86532551886|5953,86532551886|6122,31954336050|6122,31954336050|6122,31954336050|6122,31954336050|5953,86532551886|6094,74224301576|5744,48117624969|  0,00000000000|6116,35520490260
Blue_Whale                |6116,35520490260|6160,33332439328|6116,35520490260|6116,35520490260|6116,35520490260|6116,35520490260|6116,35520490260|6116,35520490260|6116,35520490260|6116,35520490260|6116,35520490260|6122,31954336050|6116,35520490260|6116,35520490260|6116,35520490260|6116,35520490260|6129,60686271060|6116,35520490260|6116,35520490260|6122,31954336050|6122,31954336050|6116,35520490260|6116,35520490260|6122,31954336050|6122,31954336050|6122,31954336050|6122,31954336050|6116,35520490260|6116,35520490260|6116,35520490260|6116,35520490260|  0,00000000000
                           |Human          |Hum_shortened  |Pig_Chim       |Com_Chim       |Gibbon         |Baboon         |Ver_Monkey     |Macaca_Thibet  |Bor_Oran       |Sum_Oran       |Gorilla        |Cat            |Dog            |Pig            |Sheep          |Goat           |Cow            |Buffalo        |Wolf           |Tiger          |Leopard        |Indian_Rhino   |White_Rhino    |Black_Bear     |Brown_Bear     |Polar_Bear     |Giant_Panda    |Rabbit         |Hedgehog       |Dormouse       |Squirrel       |Blue_Whale     
Human                     |  0,00000000000| 10,83248678347|  8,97424362215|  8,97424362215|  8,97424362215|  8,97424362215|  9,78090011351|  8,97424362215|  8,97424362215|  8,97424362215|  8,97424362215| 10,59389182242|  9,36931882563|  9,87407984248|  9,66185275810|  9,66185275810| 10,63963096305|  9,66185275810|  9,36931882563| 10,59389182242| 10,59389182242|  9,53658243478|  9,53658243478| 10,59389182242| 10,59389182242| 10,59389182242| 10,59389182242|  9,53658243478| 10,42080183445|  8,97424362215|  8,97424362215| 10,55645642232
Hum_shortened             | 10,83248678347|  0,00000000000| 10,83248678347| 10,83248678347| 10,83248678347| 10,83248678347| 10,83248678347| 10,83248678347| 10,83248678347| 10,83248678347| 10,83248678347| 10,83248678347| 10,83248678347| 10,83248678347| 10,83248678347| 10,83248678347| 10,83248678347| 10,83248678347| 10,83248678347| 10,83248678347| 10,83248678347| 10,83248678347| 10,83248678347| 10,83248678347| 10,83248678347| 10,83248678347| 10,83248678347| 10,83248678347| 10,83248678347| 10,83248678347| 10,83248678347| 10,83248678347
Pig_Chim                  |  8,97424362215| 10,83248678347|  0,00000000000|  5,66193574357|  6,01520629417|  8,67077061521|  9,78090011351|  8,67077061521|  8,86338831293|  8,91394977385|  5,66193574357| 10,59389182242|  9,36931882563|  9,87407984248|  9,66185275810|  9,66185275810| 10,63963096305|  9,66185275810|  9,36931882563| 10,59389182242| 10,59389182242|  9,53658243478|  9,53658243478| 10,59389182242| 10,59389182242| 10,59389182242| 10,59389182242|  9,53658243478| 10,42080183445|  8,67077061521|  8,67077061521| 10,55645642232
Com_Chim                  |  8,97424362215| 10,83248678347|  5,66193574357|  0,00000000000|  6,01520629417|  8,67077061521|  9,78090011351|  8,67077061521|  8,86338831293|  8,91394977385|  3,20439284858| 10,59389182242|  9,36931882563|  9,87407984248|  9,66185275810|  9,66185275810| 10,63963096305|  9,66185275810|  9,36931882563| 10,59389182242| 10,59389182242|  9,53658243478|  9,53658243478| 10,59389182242| 10,59389182242| 10,59389182242| 10,59389182242|  9,53658243478| 10,42080183445|  8,67077061521|  8,67077061521| 10,55645642232
Gibbon                    |  8,97424362215| 10,83248678347|  6,01520629417|  6,01520629417|  0,00000000000|  8,67077061521|  9,78090011351|  8,67077061521|  8,86338831293|  8,91394977385|  6,01520629417| 10,59389182242|  9,36931882563|  9,87407984248|  9,66185275810|  9,66185275810| 10,63963096305|  9,66185275810|  9,36931882563| 10,59389182242| 10,59389182242|  9,53658243478|  9,53658243478| 10,59389182242| 10,59389182242| 10,59389182242| 10,59389182242|  9,53658243478| 10,42080183445|  8,67077061521|  8,67077061521| 10,55645642232
Baboon                    |  8,97424362215| 10,83248678347|  8,67077061521|  8,67077061521|  8,67077061521|  0,00000000000|  9,78090011351|  8,27829232321|  8,86338831293|  8,91394977385|  8,67077061521| 10,59389182242|  9,36931882563|  9,87407984248|  9,66185275810|  9,66185275810| 10,63963096305|  9,66185275810|  9,36931882563| 10,59389182242| 10,59389182242|  9,53658243478|  9,53658243478| 10,59389182242| 10,59389182242| 10,59389182242| 10,59389182242|  9,53658243478| 10,42080183445|  7,63936639456|  8,22237475581| 10,55645642232
Ver_Monkey                |  9,78090011351| 10,83248678347|  9,78090011351|  9,78090011351|  9,78090011351|  9,78090011351|  0,00000000000|  9,78090011351|  9,78090011351|  9,78090011351|  9,78090011351| 10,59389182242|  9,78090011351|  9,87407984248|  9,78090011351|  9,78090011351| 10,63963096305|  9,78090011351|  9,78090011351| 10,59389182242| 10,59389182242|  9,78090011351|  9,78090011351| 10,59389182242| 10,59389182242| 10,59389182242| 10,59389182242|  9,78090011351| 10,42080183445|  9,78090011351|  9,78090011351| 10,55645642232
Macaca_Thibet             |  8,97424362215| 10,83248678347|  8,67077061521|  8,67077061521|  8,67077061521|  8,27829232321|  9,78090011351|  0,00000000000|  8,86338831293|  8,91394977385|  8,67077061521| 10,59389182242|  9,36931882563|  9,87407984248|  9,66185275810|  9,66185275810| 10,63963096305|  9,66185275810|  9,36931882563| 10,59389182242| 10,59389182242|  9,53658243478|  9,53658243478| 10,59389182242| 10,59389182242| 10,59389182242| 10,59389182242|  9,53658243478| 10,42080183445|  8,27829232321|  8,27829232321| 10,55645642232
Bor_Oran                  |  8,97424362215| 10,83248678347|  8,86338831293|  8,86338831293|  8,86338831293|  8,86338831293|  9,78090011351|  8,86338831293|  0,00000000000|  8,91394977385|  8,86338831293| 10,59389182242|  9,36931882563|  9,87407984248|  9,66185275810|  9,66185275810| 10,63963096305|  9,66185275810|  9,36931882563| 10,59389182242| 10,59389182242|  9,53658243478|  9,53658243478| 10,59389182242| 10,59389182242| 10,59389182242| 10,59389182242|  9,53658243478| 10,42080183445|  8,86338831293|  8,86338831293| 10,55645642232
Sum_Oran                  |  8,97424362215| 10,83248678347|  8,91394977385|  8,91394977385|  8,91394977385|  8,91394977385|  9,78090011351|  8,91394977385|  8,91394977385|  0,00000000000|  8,91394977385| 10,59389182242|  9,36931882563|  9,87407984248|  9,66185275810|  9,66185275810| 10,63963096305|  9,66185275810|  9,36931882563| 10,59389182242| 10,59389182242|  9,53658243478|  9,53658243478| 10,59389182242| 10,59389182242| 10,59389182242| 10,59389182242|  9,53658243478| 10,42080183445|  8,91394977385|  8,91394977385| 10,55645642232
Gorilla                   |  8,97424362215| 10,83248678347|  5,66193574357|  3,20439284858|  6,01520629417|  8,67077061521|  9,78090011351|  8,67077061521|  8,86338831293|  8,91394977385|  0,00000000000| 10,59389182242|  9,36931882563|  9,87407984248|  9,66185275810|  9,66185275810| 10,63963096305|  9,66185275810|  9,36931882563| 10,59389182242| 10,59389182242|  9,53658243478|  9,53658243478| 10,59389182242| 10,59389182242| 10,59389182242| 10,59389182242|  9,53658243478| 10,42080183445|  8,67077061521|  8,67077061521| 10,55645642232
Cat                       | 10,59389182242| 10,83248678347| 10,59389182242| 10,59389182242| 10,59389182242| 10,59389182242| 10,59389182242| 10,59389182242| 10,59389182242| 10,59389182242| 10,59389182242|  0,00000000000| 10,59389182242| 10,59389182242| 10,59389182242| 10,59389182242| 10,63963096305| 10,59389182242| 10,59389182242|  8,10675579135|  9,32280967810| 10,59389182242| 10,59389182242| 10,57515642448| 10,57515642448| 10,57515642448| 10,57515642448| 10,59389182242| 10,59389182242| 10,59389182242| 10,59389182242| 10,59389182242
Dog                       |  9,36931882563| 10,83248678347|  9,36931882563|  9,36931882563|  9,36931882563|  9,36931882563|  9,78090011351|  9,36931882563|  9,36931882563|  9,36931882563|  9,36931882563| 10,59389182242|  0,00000000000|  9,87407984248|  9,66185275810|  9,66185275810| 10,63963096305|  9,66185275810| -0,98857290020| 10,59389182242| 10,59389182242|  9,53658243478|  9,53658243478| 10,59389182242| 10,59389182242| 10,59389182242| 10,59389182242|  9,53658243478| 10,42080183445|  9,36931882563|  9,36931882563| 10,55645642232
Pig                       |  9,87407984248| 10,83248678347|  9,87407984248|  9,87407984248|  9,87407984248|  9,87407984248|  9,87407984248|  9,87407984248|  9,87407984248|  9,87407984248|  9,87407984248| 10,59389182242|  9,87407984248|  0,00000000000|  9,87407984248|  9,87407984248| 10,63963096305|  9,87407984248|  9,87407984248| 10,59389182242| 10,59389182242|  9,87407984248|  9,87407984248| 10,59389182242| 10,59389182242| 10,59389182242| 10,59389182242|  9,87407984248| 10,42080183445|  9,87407984248|  9,87407984248| 10,55645642232
Sheep                     |  9,66185275810| 10,83248678347|  9,66185275810|  9,66185275810|  9,66185275810|  9,66185275810|  9,78090011351|  9,66185275810|  9,66185275810|  9,66185275810|  9,66185275810| 10,59389182242|  9,66185275810|  9,87407984248|  0,00000000000|  8,88203936929| 10,63963096305|  8,88203936929|  9,66185275810| 10,59389182242| 10,59389182242|  9,66185275810|  9,66185275810| 10,59389182242| 10,59389182242| 10,59389182242| 10,59389182242|  9,66185275810| 10,42080183445|  9,66185275810|  9,66185275810| 10,55645642232
Goat                      |  9,66185275810| 10,83248678347|  9,66185275810|  9,66185275810|  9,66185275810|  9,66185275810|  9,78090011351|  9,66185275810|  9,66185275810|  9,66185275810|  9,66185275810| 10,59389182242|  9,66185275810|  9,87407984248|  8,88203936929|  0,00000000000| 10,63963096305|  6,14714560554|  9,66185275810| 10,59389182242| 10,59389182242|  9,66185275810|  9,66185275810| 10,59389182242| 10,59389182242| 10,59389182242| 10,59389182242|  9,66185275810| 10,42080183445|  9,66185275810|  9,66185275810| 10,55645642232
Cow                       | 10,63963096305| 10,83248678347| 10,63963096305| 10,63963096305| 10,63963096305| 10,63963096305| 10,63963096305| 10,63963096305| 10,63963096305| 10,63963096305| 10,63963096305| 10,63963096305| 10,63963096305| 10,63963096305| 10,63963096305| 10,63963096305|  0,00000000000| 10,63963096305| 10,63963096305| 10,63963096305| 10,63963096305| 10,63963096305| 10,63963096305| 10,63963096305| 10,63963096305| 10,63963096305| 10,63963096305| 10,63963096305| 10,63963096305| 10,63963096305| 10,63963096305| 10,63963096305
Buffalo                   |  9,66185275810| 10,83248678347|  9,66185275810|  9,66185275810|  9,66185275810|  9,66185275810|  9,78090011351|  9,66185275810|  9,66185275810|  9,66185275810|  9,66185275810| 10,59389182242|  9,66185275810|  9,87407984248|  8,88203936929|  6,14714560554| 10,63963096305|  0,00000000000|  9,66185275810| 10,59389182242| 10,59389182242|  9,66185275810|  9,66185275810| 10,59389182242| 10,59389182242| 10,59389182242| 10,59389182242|  9,66185275810| 10,42080183445|  9,66185275810|  9,66185275810| 10,55645642232
Wolf                      |  9,36931882563| 10,83248678347|  9,36931882563|  9,36931882563|  9,36931882563|  9,36931882563|  9,78090011351|  9,36931882563|  9,36931882563|  9,36931882563|  9,36931882563| 10,59389182242| -0,98857290020|  9,87407984248|  9,66185275810|  9,66185275810| 10,63963096305|  9,66185275810|  0,00000000000| 10,59389182242| 10,59389182242|  9,53658243478|  9,53658243478| 10,59389182242| 10,59389182242| 10,59389182242| 10,59389182242|  9,53658243478| 10,42080183445|  9,36931882563|  9,36931882563| 10,55645642232
Tiger                     | 10,59389182242| 10,83248678347| 10,59389182242| 10,59389182242| 10,59389182242| 10,59389182242| 10,59389182242| 10,59389182242| 10,59389182242| 10,59389182242| 10,59389182242|  8,10675579135| 10,59389182242| 10,59389182242| 10,59389182242| 10,59389182242| 10,63963096305| 10,59389182242| 10,59389182242|  0,00000000000|  9,32280967810| 10,59389182242| 10,59389182242| 10,57515642448| 10,57515642448| 10,57515642448| 10,57515642448| 10,59389182242| 10,59389182242| 10,59389182242| 10,59389182242| 10,59389182242
Leopard                   | 10,59389182242| 10,83248678347| 10,59389182242| 10,59389182242| 10,59389182242| 10,59389182242| 10,59389182242| 10,59389182242| 10,59389182242| 10,59389182242| 10,59389182242|  9,32280967810| 10,59389182242| 10,59389182242| 10,59389182242| 10,59389182242| 10,63963096305| 10,59389182242| 10,59389182242|  9,32280967810|  0,00000000000| 10,59389182242| 10,59389182242| 10,57515642448| 10,57515642448| 10,57515642448| 10,57515642448| 10,59389182242| 10,59389182242| 10,59389182242| 10,59389182242| 10,59389182242
Indian_Rhino              |  9,53658243478| 10,83248678347|  9,53658243478|  9,53658243478|  9,53658243478|  9,53658243478|  9,78090011351|  9,53658243478|  9,53658243478|  9,53658243478|  9,53658243478| 10,59389182242|  9,53658243478|  9,87407984248|  9,66185275810|  9,66185275810| 10,63963096305|  9,66185275810|  9,53658243478| 10,59389182242| 10,59389182242|  0,00000000000|  8,27539044664| 10,59389182242| 10,59389182242| 10,59389182242| 10,59389182242|  8,99771796252| 10,42080183445|  9,53658243478|  9,53658243478| 10,55645642232
White_Rhino               |  9,53658243478| 10,83248678347|  9,53658243478|  9,53658243478|  9,53658243478|  9,53658243478|  9,78090011351|  9,53658243478|  9,53658243478|  9,53658243478|  9,53658243478| 10,59389182242|  9,53658243478|  9,87407984248|  9,66185275810|  9,66185275810| 10,63963096305|  9,66185275810|  9,53658243478| 10,59389182242| 10,59389182242|  8,27539044664|  0,00000000000| 10,59389182242| 10,59389182242| 10,59389182242| 10,59389182242|  8,99771796252| 10,42080183445|  9,53658243478|  9,53658243478| 10,55645642232
Black_Bear                | 10,59389182242| 10,83248678347| 10,59389182242| 10,59389182242| 10,59389182242| 10,59389182242| 10,59389182242| 10,59389182242| 10,59389182242| 10,59389182242| 10,59389182242| 10,57515642448| 10,59389182242| 10,59389182242| 10,59389182242| 10,59389182242| 10,63963096305| 10,59389182242| 10,59389182242| 10,57515642448| 10,57515642448| 10,59389182242| 10,59389182242|  0,00000000000| 10,55714693466| 10,55714693466| 10,55714693466| 10,59389182242| 10,59389182242| 10,59389182242| 10,59389182242| 10,59389182242
Brown_Bear                | 10,59389182242| 10,83248678347| 10,59389182242| 10,59389182242| 10,59389182242| 10,59389182242| 10,59389182242| 10,59389182242| 10,59389182242| 10,59389182242| 10,59389182242| 10,57515642448| 10,59389182242| 10,59389182242| 10,59389182242| 10,59389182242| 10,63963096305| 10,59389182242| 10,59389182242| 10,57515642448| 10,57515642448| 10,59389182242| 10,59389182242| 10,55714693466|  0,00000000000|  7,42813103769| 10,06077927799| 10,59389182242| 10,59389182242| 10,59389182242| 10,59389182242| 10,59389182242
Polar_Bear                | 10,59389182242| 10,83248678347| 10,59389182242| 10,59389182242| 10,59389182242| 10,59389182242| 10,59389182242| 10,59389182242| 10,59389182242| 10,59389182242| 10,59389182242| 10,57515642448| 10,59389182242| 10,59389182242| 10,59389182242| 10,59389182242| 10,63963096305| 10,59389182242| 10,59389182242| 10,57515642448| 10,57515642448| 10,59389182242| 10,59389182242| 10,55714693466|  7,42813103769|  0,00000000000| 10,06077927799| 10,59389182242| 10,59389182242| 10,59389182242| 10,59389182242| 10,59389182242
Giant_Panda               | 10,59389182242| 10,83248678347| 10,59389182242| 10,59389182242| 10,59389182242| 10,59389182242| 10,59389182242| 10,59389182242| 10,59389182242| 10,59389182242| 10,59389182242| 10,57515642448| 10,59389182242| 10,59389182242| 10,59389182242| 10,59389182242| 10,63963096305| 10,59389182242| 10,59389182242| 10,57515642448| 10,57515642448| 10,59389182242| 10,59389182242| 10,55714693466| 10,06077927799| 10,06077927799|  0,00000000000| 10,59389182242| 10,59389182242| 10,59389182242| 10,59389182242| 10,59389182242
Rabbit                    |  9,53658243478| 10,83248678347|  9,53658243478|  9,53658243478|  9,53658243478|  9,53658243478|  9,78090011351|  9,53658243478|  9,53658243478|  9,53658243478|  9,53658243478| 10,59389182242|  9,53658243478|  9,87407984248|  9,66185275810|  9,66185275810| 10,63963096305|  9,66185275810|  9,53658243478| 10,59389182242| 10,59389182242|  8,99771796252|  8,99771796252| 10,59389182242| 10,59389182242| 10,59389182242| 10,59389182242|  0,00000000000| 10,42080183445|  9,53658243478|  9,53658243478| 10,55645642232
Hedgehog                  | 10,42080183445| 10,83248678347| 10,42080183445| 10,42080183445| 10,42080183445| 10,42080183445| 10,42080183445| 10,42080183445| 10,42080183445| 10,42080183445| 10,42080183445| 10,59389182242| 10,42080183445| 10,42080183445| 10,42080183445| 10,42080183445| 10,63963096305| 10,42080183445| 10,42080183445| 10,59389182242| 10,59389182242| 10,42080183445| 10,42080183445| 10,59389182242| 10,59389182242| 10,59389182242| 10,59389182242| 10,42080183445|  0,00000000000| 10,42080183445| 10,42080183445| 10,55645642232
Dormouse                  |  8,97424362215| 10,83248678347|  8,67077061521|  8,67077061521|  8,67077061521|  7,63936639456|  9,78090011351|  8,27829232321|  8,86338831293|  8,91394977385|  8,67077061521| 10,59389182242|  9,36931882563|  9,87407984248|  9,66185275810|  9,66185275810| 10,63963096305|  9,66185275810|  9,36931882563| 10,59389182242| 10,59389182242|  9,53658243478|  9,53658243478| 10,59389182242| 10,59389182242| 10,59389182242| 10,59389182242|  9,53658243478| 10,42080183445|  0,00000000000|  8,22237475581| 10,55645642232
Squirrel                  |  8,97424362215| 10,83248678347|  8,67077061521|  8,67077061521|  8,67077061521|  8,22237475581|  9,78090011351|  8,27829232321|  8,86338831293|  8,91394977385|  8,67077061521| 10,59389182242|  9,36931882563|  9,87407984248|  9,66185275810|  9,66185275810| 10,63963096305|  9,66185275810|  9,36931882563| 10,59389182242| 10,59389182242|  9,53658243478|  9,53658243478| 10,59389182242| 10,59389182242| 10,59389182242| 10,59389182242|  9,53658243478| 10,42080183445|  8,22237475581|  0,00000000000| 10,55645642232
Blue_Whale                | 10,55645642232| 10,83248678347| 10,55645642232| 10,55645642232| 10,55645642232| 10,55645642232| 10,55645642232| 10,55645642232| 10,55645642232| 10,55645642232| 10,55645642232| 10,59389182242| 10,55645642232| 10,55645642232| 10,55645642232| 10,55645642232| 10,63963096305| 10,55645642232| 10,55645642232| 10,59389182242| 10,59389182242| 10,55645642232| 10,55645642232| 10,59389182242| 10,59389182242| 10,59389182242| 10,59389182242| 10,55645642232| 10,55645642232| 10,55645642232| 10,55645642232|  0,00000000000
                           |Human          |Hum_shortened  |Pig_Chim       |Com_Chim       |Gibbon         |Baboon         |Ver_Monkey     |Macaca_Thibet  |Bor_Oran       |Sum_Oran       |Gorilla        |Cat            |Dog            |Pig            |Sheep          |Goat           |Cow            |Buffalo        |Wolf           |Tiger          |Leopard        |Indian_Rhino   |White_Rhino    |Black_Bear     |Brown_Bear     |Polar_Bear     |Giant_Panda    |Rabbit         |Hedgehog       |Dormouse       |Squirrel       |Blue_Whale     
Human                     |  0,00000000000| 10,83248678347|  8,97424362215|  8,97424362215|  8,97424362215|  8,97424362215|  9,78090011351|  8,97424362215|  8,97424362215|  8,97424362215|  8,97424362215| 10,59389182242|  9,36931882563|  9,87407984248|  9,66185275810|  9,66185275810| 10,63963096305|  9,66185275810|  9,36931882563| 10,59389182242| 10,59389182242|  9,53658243478|  9,53658243478| 10,59389182242| 10,59389182242| 10,59389182242| 10,59389182242|  9,53658243478| 10,42080183445|  8,97424362215|  8,97424362215| 10,55645642232
Hum_shortened             | 10,83248678347|  0,00000000000| 10,83248678347| 10,83248678347| 10,83248678347| 10,83248678347| 10,83248678347| 10,83248678347| 10,83248678347| 10,83248678347| 10,83248678347| 10,83248678347| 10,83248678347| 10,83248678347| 10,83248678347| 10,83248678347| 10,83248678347| 10,83248678347| 10,83248678347| 10,83248678347| 10,83248678347| 10,83248678347| 10,83248678347| 10,83248678347| 10,83248678347| 10,83248678347| 10,83248678347| 10,83248678347| 10,83248678347| 10,83248678347| 10,83248678347| 10,83248678347
Pig_Chim                  |  8,97424362215| 10,83248678347|  0,00000000000|  5,66193574357|  6,01520629417|  8,67077061521|  9,78090011351|  8,67077061521|  8,86338831293|  8,91394977385|  5,66193574357| 10,59389182242|  9,36931882563|  9,87407984248|  9,66185275810|  9,66185275810| 10,63963096305|  9,66185275810|  9,36931882563| 10,59389182242| 10,59389182242|  9,53658243478|  9,53658243478| 10,59389182242| 10,59389182242| 10,59389182242| 10,59389182242|  9,53658243478| 10,42080183445|  8,67077061521|  8,67077061521| 10,55645642232
Com_Chim                  |  8,97424362215| 10,83248678347|  5,66193574357|  0,00000000000|  6,01520629417|  8,67077061521|  9,78090011351|  8,67077061521|  8,86338831293|  8,91394977385|  3,20439284858| 10,59389182242|  9,36931882563|  9,87407984248|  9,66185275810|  9,66185275810| 10,63963096305|  9,66185275810|  9,36931882563| 10,59389182242| 10,59389182242|  9,53658243478|  9,53658243478| 10,59389182242| 10,59389182242| 10,59389182242| 10,59389182242|  9,53658243478| 10,42080183445|  8,67077061521|  8,67077061521| 10,55645642232
Gibbon                    |  8,97424362215| 10,83248678347|  6,01520629417|  6,01520629417|  0,00000000000|  8,67077061521|  9,78090011351|  8,67077061521|  8,86338831293|  8,91394977385|  6,01520629417| 10,59389182242|  9,36931882563|  9,87407984248|  9,66185275810|  9,66185275810| 10,63963096305|  9,66185275810|  9,36931882563| 10,59389182242| 10,59389182242|  9,53658243478|  9,53658243478| 10,59389182242| 10,59389182242| 10,59389182242| 10,59389182242|  9,53658243478| 10,42080183445|  8,67077061521|  8,67077061521| 10,55645642232
Baboon                    |  8,97424362215| 10,83248678347|  8,67077061521|  8,67077061521|  8,67077061521|  0,00000000000|  9,78090011351|  8,27829232321|  8,86338831293|  8,91394977385|  8,67077061521| 10,59389182242|  9,36931882563|  9,87407984248|  9,66185275810|  9,66185275810| 10,63963096305|  9,66185275810|  9,36931882563| 10,59389182242| 10,59389182242|  9,53658243478|  9,53658243478| 10,59389182242| 10,59389182242| 10,59389182242| 10,59389182242|  9,53658243478| 10,42080183445|  7,63936639456|  8,22237475581| 10,55645642232
Ver_Monkey                |  9,78090011351| 10,83248678347|  9,78090011351|  9,78090011351|  9,78090011351|  9,78090011351|  0,00000000000|  9,78090011351|  9,78090011351|  9,78090011351|  9,78090011351| 10,59389182242|  9,78090011351|  9,87407984248|  9,78090011351|  9,78090011351| 10,63963096305|  9,78090011351|  9,78090011351| 10,59389182242| 10,59389182242|  9,78090011351|  9,78090011351| 10,59389182242| 10,59389182242| 10,59389182242| 10,59389182242|  9,78090011351| 10,42080183445|  9,78090011351|  9,78090011351| 10,55645642232
Macaca_Thibet             |  8,97424362215| 10,83248678347|  8,67077061521|  8,67077061521|  8,67077061521|  8,27829232321|  9,78090011351|  0,00000000000|  8,86338831293|  8,91394977385|  8,67077061521| 10,59389182242|  9,36931882563|  9,87407984248|  9,66185275810|  9,66185275810| 10,63963096305|  9,66185275810|  9,36931882563| 10,59389182242| 10,59389182242|  9,53658243478|  9,53658243478| 10,59389182242| 10,59389182242| 10,59389182242| 10,59389182242|  9,53658243478| 10,42080183445|  8,27829232321|  8,27829232321| 10,55645642232
Bor_Oran                  |  8,97424362215| 10,83248678347|  8,86338831293|  8,86338831293|  8,86338831293|  8,86338831293|  9,78090011351|  8,86338831293|  0,00000000000|  8,91394977385|  8,86338831293| 10,59389182242|  9,36931882563|  9,87407984248|  9,66185275810|  9,66185275810| 10,63963096305|  9,66185275810|  9,36931882563| 10,59389182242| 10,59389182242|  9,53658243478|  9,53658243478| 10,59389182242| 10,59389182242| 10,59389182242| 10,59389182242|  9,53658243478| 10,42080183445|  8,86338831293|  8,86338831293| 10,55645642232
Sum_Oran                  |  8,97424362215| 10,83248678347|  8,91394977385|  8,91394977385|  8,91394977385|  8,91394977385|  9,78090011351|  8,91394977385|  8,91394977385|  0,00000000000|  8,91394977385| 10,59389182242|  9,36931882563|  9,87407984248|  9,66185275810|  9,66185275810| 10,63963096305|  9,66185275810|  9,36931882563| 10,59389182242| 10,59389182242|  9,53658243478|  9,53658243478| 10,59389182242| 10,59389182242| 10,59389182242| 10,59389182242|  9,53658243478| 10,42080183445|  8,91394977385|  8,91394977385| 10,55645642232
Gorilla                   |  8,97424362215| 10,83248678347|  5,66193574357|  3,20439284858|  6,01520629417|  8,67077061521|  9,78090011351|  8,67077061521|  8,86338831293|  8,91394977385|  0,00000000000| 10,59389182242|  9,36931882563|  9,87407984248|  9,66185275810|  9,66185275810| 10,63963096305|  9,66185275810|  9,36931882563| 10,59389182242| 10,59389182242|  9,53658243478|  9,53658243478| 10,59389182242| 10,59389182242| 10,59389182242| 10,59389182242|  9,53658243478| 10,42080183445|  8,67077061521|  8,67077061521| 10,55645642232
Cat                       | 10,59389182242| 10,83248678347| 10,59389182242| 10,59389182242| 10,59389182242| 10,59389182242| 10,59389182242| 10,59389182242| 10,59389182242| 10,59389182242| 10,59389182242|  0,00000000000| 10,59389182242| 10,59389182242| 10,59389182242| 10,59389182242| 10,63963096305| 10,59389182242| 10,59389182242|  8,10675579135|  9,32280967810| 10,59389182242| 10,59389182242| 10,57515642448| 10,57515642448| 10,57515642448| 10,57515642448| 10,59389182242| 10,59389182242| 10,59389182242| 10,59389182242| 10,59389182242
Dog                       |  9,36931882563| 10,83248678347|  9,36931882563|  9,36931882563|  9,36931882563|  9,36931882563|  9,78090011351|  9,36931882563|  9,36931882563|  9,36931882563|  9,36931882563| 10,59389182242|  0,00000000000|  9,87407984248|  9,66185275810|  9,66185275810| 10,63963096305|  9,66185275810| -0,98857290020| 10,59389182242| 10,59389182242|  9,53658243478|  9,53658243478| 10,59389182242| 10,59389182242| 10,59389182242| 10,59389182242|  9,53658243478| 10,42080183445|  9,36931882563|  9,36931882563| 10,55645642232
Pig                       |  9,87407984248| 10,83248678347|  9,87407984248|  9,87407984248|  9,87407984248|  9,87407984248|  9,87407984248|  9,87407984248|  9,87407984248|  9,87407984248|  9,87407984248| 10,59389182242|  9,87407984248|  0,00000000000|  9,87407984248|  9,87407984248| 10,63963096305|  9,87407984248|  9,87407984248| 10,59389182242| 10,59389182242|  9,87407984248|  9,87407984248| 10,59389182242| 10,59389182242| 10,59389182242| 10,59389182242|  9,87407984248| 10,42080183445|  9,87407984248|  9,87407984248| 10,55645642232
Sheep                     |  9,66185275810| 10,83248678347|  9,66185275810|  9,66185275810|  9,66185275810|  9,66185275810|  9,78090011351|  9,66185275810|  9,66185275810|  9,66185275810|  9,66185275810| 10,59389182242|  9,66185275810|  9,87407984248|  0,00000000000|  8,88203936929| 10,63963096305|  8,88203936929|  9,66185275810| 10,59389182242| 10,59389182242|  9,66185275810|  9,66185275810| 10,59389182242| 10,59389182242| 10,59389182242| 10,59389182242|  9,66185275810| 10,42080183445|  9,66185275810|  9,66185275810| 10,55645642232
Goat                      |  9,66185275810| 10,83248678347|  9,66185275810|  9,66185275810|  9,66185275810|  9,66185275810|  9,78090011351|  9,66185275810|  9,66185275810|  9,66185275810|  9,66185275810| 10,59389182242|  9,66185275810|  9,87407984248|  8,88203936929|  0,00000000000| 10,63963096305|  6,14714560554|  9,66185275810| 10,59389182242| 10,59389182242|  9,66185275810|  9,66185275810| 10,59389182242| 10,59389182242| 10,59389182242| 10,59389182242|  9,66185275810| 10,42080183445|  9,66185275810|  9,66185275810| 10,55645642232
Cow                       | 10,63963096305| 10,83248678347| 10,63963096305| 10,63963096305| 10,63963096305| 10,63963096305| 10,63963096305| 10,63963096305| 10,63963096305| 10,63963096305| 10,63963096305| 10,63963096305| 10,63963096305| 10,63963096305| 10,63963096305| 10,63963096305|  0,00000000000| 10,63963096305| 10,63963096305| 10,63963096305| 10,63963096305| 10,63963096305| 10,63963096305| 10,63963096305| 10,63963096305| 10,63963096305| 10,63963096305| 10,63963096305| 10,63963096305| 10,63963096305| 10,63963096305| 10,63963096305
Buffalo                   |  9,66185275810| 10,83248678347|  9,66185275810|  9,66185275810|  9,66185275810|  9,66185275810|  9,78090011351|  9,66185275810|  9,66185275810|  9,66185275810|  9,66185275810| 10,59389182242|  9,66185275810|  9,87407984248|  8,88203936929|  6,14714560554| 10,63963096305|  0,00000000000|  9,66185275810| 10,59389182242| 10,59389182242|  9,66185275810|  9,66185275810| 10,59389182242| 10,59389182242| 10,59389182242| 10,59389182242|  9,66185275810| 10,42080183445|  9,66185275810|  9,66185275810| 10,55645642232
Wolf                      |  9,36931882563| 10,83248678347|  9,36931882563|  9,36931882563|  9,36931882563|  9,36931882563|  9,78090011351|  9,36931882563|  9,36931882563|  9,36931882563|  9,36931882563| 10,59389182242| -0,98857290020|  9,87407984248|  9,66185275810|  9,66185275810| 10,63963096305|  9,66185275810|  0,00000000000| 10,59389182242| 10,59389182242|  9,53658243478|  9,53658243478| 10,59389182242| 10,59389182242| 10,59389182242| 10,59389182242|  9,53658243478| 10,42080183445|  9,36931882563|  9,36931882563| 10,55645642232
Tiger                     | 10,59389182242| 10,83248678347| 10,59389182242| 10,59389182242| 10,59389182242| 10,59389182242| 10,59389182242| 10,59389182242| 10,59389182242| 10,59389182242| 10,59389182242|  8,10675579135| 10,59389182242| 10,59389182242| 10,59389182242| 10,59389182242| 10,63963096305| 10,59389182242| 10,59389182242|  0,00000000000|  9,32280967810| 10,59389182242| 10,59389182242| 10,57515642448| 10,57515642448| 10,57515642448| 10,57515642448| 10,59389182242| 10,59389182242| 10,59389182242| 10,59389182242| 10,59389182242
Leopard                   | 10,59389182242| 10,83248678347| 10,59389182242| 10,59389182242| 10,59389182242| 10,59389182242| 10,59389182242| 10,59389182242| 10,59389182242| 10,59389182242| 10,59389182242|  9,32280967810| 10,59389182242| 10,59389182242| 10,59389182242| 10,59389182242| 10,63963096305| 10,59389182242| 10,59389182242|  9,32280967810|  0,00000000000| 10,59389182242| 10,59389182242| 10,57515642448| 10,57515642448| 10,57515642448| 10,57515642448| 10,59389182242| 10,59389182242| 10,59389182242| 10,59389182242| 10,59389182242
Indian_Rhino              |  9,53658243478| 10,83248678347|  9,53658243478|  9,53658243478|  9,53658243478|  9,53658243478|  9,78090011351|  9,53658243478|  9,53658243478|  9,53658243478|  9,53658243478| 10,59389182242|  9,53658243478|  9,87407984248|  9,66185275810|  9,66185275810| 10,63963096305|  9,66185275810|  9,53658243478| 10,59389182242| 10,59389182242|  0,00000000000|  8,27539044664| 10,59389182242| 10,59389182242| 10,59389182242| 10,59389182242|  8,99771796252| 10,42080183445|  9,53658243478|  9,53658243478| 10,55645642232
White_Rhino               |  9,53658243478| 10,83248678347|  9,53658243478|  9,53658243478|  9,53658243478|  9,53658243478|  9,78090011351|  9,53658243478|  9,53658243478|  9,53658243478|  9,53658243478| 10,59389182242|  9,53658243478|  9,87407984248|  9,66185275810|  9,66185275810| 10,63963096305|  9,66185275810|  9,53658243478| 10,59389182242| 10,59389182242|  8,27539044664|  0,00000000000| 10,59389182242| 10,59389182242| 10,59389182242| 10,59389182242|  8,99771796252| 10,42080183445|  9,53658243478|  9,53658243478| 10,55645642232
Black_Bear                | 10,59389182242| 10,83248678347| 10,59389182242| 10,59389182242| 10,59389182242| 10,59389182242| 10,59389182242| 10,59389182242| 10,59389182242| 10,59389182242| 10,59389182242| 10,57515642448| 10,59389182242| 10,59389182242| 10,59389182242| 10,59389182242| 10,63963096305| 10,59389182242| 10,59389182242| 10,57515642448| 10,57515642448| 10,59389182242| 10,59389182242|  0,00000000000| 10,55714693466| 10,55714693466| 10,55714693466| 10,59389182242| 10,59389182242| 10,59389182242| 10,59389182242| 10,59389182242
Brown_Bear                | 10,59389182242| 10,83248678347| 10,59389182242| 10,59389182242| 10,59389182242| 10,59389182242| 10,59389182242| 10,59389182242| 10,59389182242| 10,59389182242| 10,59389182242| 10,57515642448| 10,59389182242| 10,59389182242| 10,59389182242| 10,59389182242| 10,63963096305| 10,59389182242| 10,59389182242| 10,57515642448| 10,57515642448| 10,59389182242| 10,59389182242| 10,55714693466|  0,00000000000|  7,42813103769| 10,06077927799| 10,59389182242| 10,59389182242| 10,59389182242| 10,59389182242| 10,59389182242
Polar_Bear                | 10,59389182242| 10,83248678347| 10,59389182242| 10,59389182242| 10,59389182242| 10,59389182242| 10,59389182242| 10,59389182242| 10,59389182242| 10,59389182242| 10,59389182242| 10,57515642448| 10,59389182242| 10,59389182242| 10,59389182242| 10,59389182242| 10,63963096305| 10,59389182242| 10,59389182242| 10,57515642448| 10,57515642448| 10,59389182242| 10,59389182242| 10,55714693466|  7,42813103769|  0,00000000000| 10,06077927799| 10,59389182242| 10,59389182242| 10,59389182242| 10,59389182242| 10,59389182242
Giant_Panda               | 10,59389182242| 10,83248678347| 10,59389182242| 10,59389182242| 10,59389182242| 10,59389182242| 10,59389182242| 10,59389182242| 10,59389182242| 10,59389182242| 10,59389182242| 10,57515642448| 10,59389182242| 10,59389182242| 10,59389182242| 10,59389182242| 10,63963096305| 10,59389182242| 10,59389182242| 10,57515642448| 10,57515642448| 10,59389182242| 10,59389182242| 10,55714693466| 10,06077927799| 10,06077927799|  0,00000000000| 10,59389182242| 10,59389182242| 10,59389182242| 10,59389182242| 10,59389182242
Rabbit                    |  9,53658243478| 10,83248678347|  9,53658243478|  9,53658243478|  9,53658243478|  9,53658243478|  9,78090011351|  9,53658243478|  9,53658243478|  9,53658243478|  9,53658243478| 10,59389182242|  9,53658243478|  9,87407984248|  9,66185275810|  9,66185275810| 10,63963096305|  9,66185275810|  9,53658243478| 10,59389182242| 10,59389182242|  8,99771796252|  8,99771796252| 10,59389182242| 10,59389182242| 10,59389182242| 10,59389182242|  0,00000000000| 10,42080183445|  9,53658243478|  9,53658243478| 10,55645642232
Hedgehog                  | 10,42080183445| 10,83248678347| 10,42080183445| 10,42080183445| 10,42080183445| 10,42080183445| 10,42080183445| 10,42080183445| 10,42080183445| 10,42080183445| 10,42080183445| 10,59389182242| 10,42080183445| 10,42080183445| 10,42080183445| 10,42080183445| 10,63963096305| 10,42080183445| 10,42080183445| 10,59389182242| 10,59389182242| 10,42080183445| 10,42080183445| 10,59389182242| 10,59389182242| 10,59389182242| 10,59389182242| 10,42080183445|  0,00000000000| 10,42080183445| 10,42080183445| 10,55645642232
Dormouse                  |  8,97424362215| 10,83248678347|  8,67077061521|  8,67077061521|  8,67077061521|  7,63936639456|  9,78090011351|  8,27829232321|  8,86338831293|  8,91394977385|  8,67077061521| 10,59389182242|  9,36931882563|  9,87407984248|  9,66185275810|  9,66185275810| 10,63963096305|  9,66185275810|  9,36931882563| 10,59389182242| 10,59389182242|  9,53658243478|  9,53658243478| 10,59389182242| 10,59389182242| 10,59389182242| 10,59389182242|  9,53658243478| 10,42080183445|  0,00000000000|  8,22237475581| 10,55645642232
Squirrel                  |  8,97424362215| 10,83248678347|  8,67077061521|  8,67077061521|  8,67077061521|  8,22237475581|  9,78090011351|  8,27829232321|  8,86338831293|  8,91394977385|  8,67077061521| 10,59389182242|  9,36931882563|  9,87407984248|  9,66185275810|  9,66185275810| 10,63963096305|  9,66185275810|  9,36931882563| 10,59389182242| 10,59389182242|  9,53658243478|  9,53658243478| 10,59389182242| 10,59389182242| 10,59389182242| 10,59389182242|  9,53658243478| 10,42080183445|  8,22237475581|  0,00000000000| 10,55645642232
Blue_Whale                | 10,55645642232| 10,83248678347| 10,55645642232| 10,55645642232| 10,55645642232| 10,55645642232| 10,55645642232| 10,55645642232| 10,55645642232| 10,55645642232| 10,55645642232| 10,59389182242| 10,55645642232| 10,55645642232| 10,55645642232| 10,55645642232| 10,63963096305| 10,55645642232| 10,55645642232| 10,59389182242| 10,59389182242| 10,55645642232| 10,55645642232| 10,59389182242| 10,59389182242| 10,59389182242| 10,59389182242| 10,55645642232| 10,55645642232| 10,55645642232| 10,55645642232|  0,00000000000
                           |Human          |Hum_shortened  |Pig_Chim       |Com_Chim       |Gibbon         |Baboon         |Ver_Monkey     |Macaca_Thibet  |Bor_Oran       |Sum_Oran       |Gorilla        |Cat            |Dog            |Pig            |Sheep          |Goat           |Cow            |Buffalo        |Wolf           |Tiger          |Leopard        |Indian_Rhino   |White_Rhino    |Black_Bear     |Brown_Bear     |Polar_Bear     |Giant_Panda    |Rabbit         |Hedgehog       |Dormouse       |Squirrel       |Blue_Whale     
Human                     |  0,00000000000| 12,00000000000|  7,00000000000|  8,00000000000|  6,00000000000|  8,00000000000|  6,00000000000|  6,00000000000|  4,00000000000|  3,00000000000|  8,00000000000| 13,00000000000|  4,00000000000|  7,00000000000|  6,00000000000|  7,00000000000| 11,00000000000|  7,00000000000|  4,00000000000| 13,00000000000| 12,00000000000|  6,00000000000|  6,00000000000| 12,00000000000| 14,00000000000| 14,00000000000| 13,00000000000|  5,00000000000|  8,00000000000|  8,00000000000|  7,00000000000|  9,00000000000
Hum_shortened             | 12,00000000000|  0,00000000000| 17,00000000000| 18,00000000000| 16,00000000000| 18,00000000000|  8,00000000000| 16,00000000000| 14,00000000000| 13,00000000000| 18,00000000000|  7,00000000000| 12,00000000000|  7,00000000000| 10,00000000000| 11,00000000000|  3,00000000000| 11,00000000000| 12,00000000000|  7,00000000000|  6,00000000000| 12,00000000000| 12,00000000000|  6,00000000000|  8,00000000000|  8,00000000000|  7,00000000000| 11,00000000000|  6,00000000000| 18,00000000000| 17,00000000000|  5,00000000000
Pig_Chim                  |  7,00000000000| 17,00000000000|  0,00000000000|  3,00000000000|  3,00000000000|  7,00000000000| 11,00000000000|  5,00000000000|  5,00000000000|  6,00000000000|  3,00000000000| 18,00000000000|  9,00000000000| 12,00000000000| 11,00000000000| 12,00000000000| 16,00000000000| 12,00000000000|  9,00000000000| 18,00000000000| 17,00000000000| 11,00000000000| 11,00000000000| 17,00000000000| 19,00000000000| 19,00000000000| 18,00000000000| 10,00000000000| 13,00000000000|  7,00000000000|  6,00000000000| 14,00000000000
Com_Chim                  |  8,00000000000| 18,00000000000|  3,00000000000|  0,00000000000|  4,00000000000|  8,00000000000| 12,00000000000|  6,00000000000|  6,00000000000|  7,00000000000|  2,00000000000| 19,00000000000| 10,00000000000| 13,00000000000| 12,00000000000| 13,00000000000| 17,00000000000| 13,00000000000| 10,00000000000| 19,00000000000| 18,00000000000| 12,00000000000| 12,00000000000| 18,00000000000| 20,00000000000| 20,00000000000| 19,00000000000| 11,00000000000| 14,00000000000|  8,00000000000|  7,00000000000| 15,00000000000
Gibbon                    |  6,00000000000| 16,00000000000|  3,00000000000|  4,00000000000|  0,00000000000|  6,00000000000| 10,00000000000|  4,00000000000|  4,00000000000|  5,00000000000|  4,00000000000| 17,00000000000|  8,00000000000| 11,00000000000| 10,00000000000| 11,00000000000| 15,00000000000| 11,00000000000|  8,00000000000| 17,00000000000| 16,00000000000| 10,00000000000| 10,00000000000| 16,00000000000| 18,00000000000| 18,00000000000| 17,00000000000|  9,00000000000| 12,00000000000|  6,00000000000|  5,00000000000| 13,00000000000
Baboon                    |  8,00000000000| 18,00000000000|  7,00000000000|  8,00000000000|  6,00000000000|  0,00000000000| 12,00000000000|  4,00000000000|  6,00000000000|  7,00000000000|  8,00000000000| 19,00000000000| 10,00000000000| 13,00000000000| 12,00000000000| 13,00000000000| 17,00000000000| 13,00000000000| 10,00000000000| 19,00000000000| 18,00000000000| 12,00000000000| 12,00000000000| 18,00000000000| 20,00000000000| 20,00000000000| 19,00000000000| 11,00000000000| 14,00000000000|  2,00000000000|  3,00000000000| 15,00000000000
Ver_Monkey                |  6,00000000000|  8,00000000000| 11,00000000000| 12,00000000000| 10,00000000000| 12,00000000000|  0,00000000000| 10,00000000000|  8,00000000000|  7,00000000000| 12,00000000000|  9,00000000000|  6,00000000000|  3,00000000000|  4,00000000000|  5,00000000000|  7,00000000000|  5,00000000000|  6,00000000000|  9,00000000000|  8,00000000000|  6,00000000000|  6,00000000000|  8,00000000000| 10,00000000000| 10,00000000000|  9,00000000000|  5,00000000000|  4,00000000000| 12,00000000000| 11,00000000000|  5,00000000000
Macaca_Thibet             |  6,00000000000| 16,00000000000|  5,00000000000|  6,00000000000|  4,00000000000|  4,00000000000| 10,00000000000|  0,00000000000|  4,00000000000|  5,00000000000|  6,00000000000| 17,00000000000|  8,00000000000| 11,00000000000| 10,00000000000| 11,00000000000| 15,00000000000| 11,00000000000|  8,00000000000| 17,00000000000| 16,00000000000| 10,00000000000| 10,00000000000| 16,00000000000| 18,00000000000| 18,00000000000| 17,00000000000|  9,00000000000| 12,00000000000|  4,00000000000|  3,00000000000| 13,00000000000
Bor_Oran                  |  4,00000000000| 14,00000000000|  5,00000000000|  6,00000000000|  4,00000000000|  6,00000000000|  8,00000000000|  4,00000000000|  0,00000000000|  3,00000000000|  6,00000000000| 15,00000000000|  6,00000000000|  9,00000000000|  8,00000000000|  9,00000000000| 13,00000000000|  9,00000000000|  6,00000000000| 15,00000000000| 14,00000000000|  8,00000000000|  8,00000000000| 14,00000000000| 16,00000000000| 16,00000000000| 15,00000000000|  7,00000000000| 10,00000000000|  6,00000000000|  5,00000000000| 11,00000000000
Sum_Oran                  |  3,00000000000| 13,00000000000|  6,00000000000|  7,00000000000|  5,00000000000|  7,00000000000|  7,00000000000|  5,00000000000|  3,00000000000|  0,00000000000|  7,00000000000| 14,00000000000|  5,00000000000|  8,00000000000|  7,00000000000|  8,00000000000| 12,00000000000|  8,00000000000|  5,00000000000| 14,00000000000| 13,00000000000|  7,00000000000|  7,00000000000| 13,00000000000| 15,00000000000| 15,00000000000| 14,00000000000|  6,00000000000|  9,00000000000|  7,00000000000|  6,00000000000| 10,00000000000
Gorilla                   |  8,00000000000| 18,00000000000|  3,00000000000|  2,00000000000|  4,00000000000|  8,00000000000| 12,00000000000|  6,00000000000|  6,00000000000|  7,00000000000|  0,00000000000| 19,00000000000| 10,00000000000| 13,00000000000| 12,00000000000| 13,00000000000| 17,00000000000| 13,00000000000| 10,00000000000| 19,00000000000| 18,00000000000| 12,00000000000| 12,00000000000| 18,00000000000| 20,00000000000| 20,00000000000| 19,00000000000| 11,00000000000| 14,00000000000|  8,00000000000|  7,00000000000| 15,00000000000
Cat                       | 13,00000000000|  7,00000000000| 18,00000000000| 19,00000000000| 17,00000000000| 19,00000000000|  9,00000000000| 17,00000000000| 15,00000000000| 14,00000000000| 19,00000000000|  0,00000000000| 13,00000000000|  8,00000000000| 11,00000000000| 12,00000000000|  6,00000000000| 12,00000000000| 13,00000000000|  2,00000000000|  3,00000000000| 13,00000000000| 13,00000000000|  5,00000000000|  7,00000000000|  7,00000000000|  6,00000000000| 12,00000000000|  7,00000000000| 19,00000000000| 18,00000000000|  6,00000000000
Dog                       |  4,00000000000| 12,00000000000|  9,00000000000| 10,00000000000|  8,00000000000| 10,00000000000|  6,00000000000|  8,00000000000|  6,00000000000|  5,00000000000| 10,00000000000| 13,00000000000|  0,00000000000|  7,00000000000|  6,00000000000|  7,00000000000| 11,00000000000|  7,00000000000|  2,00000000000| 13,00000000000| 12,00000000000|  6,00000000000|  6,00000000000| 12,00000000000| 14,00000000000| 14,00000000000| 13,00000000000|  5,00000000000|  8,00000000000| 10,00000000000|  9,00000000000|  9,00000000000
Pig                       |  7,00000000000|  7,00000000000| 12,00000000000| 13,00000000000| 11,00000000000| 13,00000000000|  3,00000000000| 11,00000000000|  9,00000000000|  8,00000000000| 13,00000000000|  8,00000000000|  7,00000000000|  0,00000000000|  5,00000000000|  6,00000000000|  6,00000000000|  6,00000000000|  7,00000000000|  8,00000000000|  7,00000000000|  7,00000000000|  7,00000000000|  7,00000000000|  9,00000000000|  9,00000000000|  8,00000000000|  6,00000000000|  3,00000000000| 13,00000000000| 12,00000000000|  4,00000000000
Sheep                     |  6,00000000000| 10,00000000000| 11,00000000000| 12,00000000000| 10,00000000000| 12,00000000000|  4,00000000000| 10,00000000000|  8,00000000000|  7,00000000000| 12,00000000000| 11,00000000000|  6,00000000000|  5,00000000000|  0,00000000000|  3,00000000000|  9,00000000000|  3,00000000000|  6,00000000000| 11,00000000000| 10,00000000000|  6,00000000000|  6,00000000000| 10,00000000000| 12,00000000000| 12,00000000000| 11,00000000000|  5,00000000000|  6,00000000000| 12,00000000000| 11,00000000000|  7,00000000000
Goat                      |  7,00000000000| 11,00000000000| 12,00000000000| 13,00000000000| 11,00000000000| 13,00000000000|  5,00000000000| 11,00000000000|  9,00000000000|  8,00000000000| 13,00000000000| 12,00000000000|  7,00000000000|  6,00000000000|  3,00000000000|  0,00000000000| 10,00000000000|  2,00000000000|  7,00000000000| 12,00000000000| 11,00000000000|  7,00000000000|  7,00000000000| 11,00000000000| 13,00000000000| 13,00000000000| 12,00000000000|  6,00000000000|  7,00000000000| 13,00000000000| 12,00000000000|  8,00000000000
Cow                       | 11,00000000000|  3,00000000000| 16,00000000000| 17,00000000000| 15,00000000000| 17,00000000000|  7,00000000000| 15,00000000000| 13,00000000000| 12,00000000000| 17,00000000000|  6,00000000000| 11,00000000000|  6,00000000000|  9,00000000000| 10,00000000000|  0,00000000000| 10,00000000000| 11,00000000000|  6,00000000000|  5,00000000000| 11,00000000000| 11,00000000000|  5,00000000000|  7,00000000000|  7,00000000000|  6,00000000000| 10,00000000000|  5,00000000000| 17,00000000000| 16,00000000000|  4,00000000000
Buffalo                   |  7,00000000000| 11,00000000000| 12,00000000000| 13,00000000000| 11,00000000000| 13,00000000000|  5,00000000000| 11,00000000000|  9,00000000000|  8,00000000000| 13,00000000000| 12,00000000000|  7,00000000000|  6,00000000000|  3,00000000000|  2,00000000000| 10,00000000000|  0,00000000000|  7,00000000000| 12,00000000000| 11,00000000000|  7,00000000000|  7,00000000000| 11,00000000000| 13,00000000000| 13,00000000000| 12,00000000000|  6,00000000000|  7,00000000000| 13,00000000000| 12,00000000000|  8,00000000000
Wolf                      |  4,00000000000| 12,00000000000|  9,00000000000| 10,00000000000|  8,00000000000| 10,00000000000|  6,00000000000|  8,00000000000|  6,00000000000|  5,00000000000| 10,00000000000| 13,00000000000|  2,00000000000|  7,00000000000|  6,00000000000|  7,00000000000| 11,00000000000|  7,00000000000|  0,00000000000| 13,00000000000| 12,00000000000|  6,00000000000|  6,00000000000| 12,00000000000| 14,00000000000| 14,00000000000| 13,00000000000|  5,00000000000|  8,00000000000| 10,00000000000|  9,00000000000|  9,00000000000
Tiger                     | 13,00000000000|  7,00000000000| 18,00000000000| 19,00000000000| 17,00000000000| 19,00000000000|  9,00000000000| 17,00000000000| 15,00000000000| 14,00000000000| 19,00000000000|  2,00000000000| 13,00000000000|  8,00000000000| 11,00000000000| 12,00000000000|  6,00000000000| 12,00000000000| 13,00000000000|  0,00000000000|  3,00000000000| 13,00000000000| 13,00000000000|  5,00000000000|  7,00000000000|  7,00000000000|  6,00000000000| 12,00000000000|  7,00000000000| 19,00000000000| 18,00000000000|  6,00000000000
Leopard                   | 12,00000000000|  6,00000000000| 17,00000000000| 18,00000000000| 16,00000000000| 18,00000000000|  8,00000000000| 16,00000000000| 14,00000000000| 13,00000000000| 18,00000000000|  3,00000000000| 12,00000000000|  7,00000000000| 10,00000000000| 11,00000000000|  5,00000000000| 11,00000000000| 12,00000000000|  3,00000000000|  0,00000000000| 12,00000000000| 12,00000000000|  4,00000000000|  6,00000000000|  6,00000000000|  5,00000000000| 11,00000000000|  6,00000000000| 18,00000000000| 17,00000000000|  5,00000000000
Indian_Rhino              |  6,00000000000| 12,00000000000| 11,00000000000| 12,00000000000| 10,00000000000| 12,00000000000|  6,00000000000| 10,00000000000|  8,00000000000|  7,00000000000| 12,00000000000| 13,00000000000|  6,00000000000|  7,00000000000|  6,00000000000|  7,00000000000| 11,00000000000|  7,00000000000|  6,00000000000| 13,00000000000| 12,00000000000|  0,00000000000|  2,00000000000| 12,00000000000| 14,00000000000| 14,00000000000| 13,00000000000|  3,00000000000|  8,00000000000| 12,00000000000| 11,00000000000|  9,00000000000
White_Rhino               |  6,00000000000| 12,00000000000| 11,00000000000| 12,00000000000| 10,00000000000| 12,00000000000|  6,00000000000| 10,00000000000|  8,00000000000|  7,00000000000| 12,00000000000| 13,00000000000|  6,00000000000|  7,00000000000|  6,00000000000|  7,00000000000| 11,00000000000|  7,00000000000|  6,00000000000| 13,00000000000| 12,00000000000|  2,00000000000|  0,00000000000| 12,00000000000| 14,00000000000| 14,00000000000| 13,00000000000|  3,00000000000|  8,00000000000| 12,00000000000| 11,00000000000|  9,00000000000
Black_Bear                | 12,00000000000|  6,00000000000| 17,00000000000| 18,00000000000| 16,00000000000| 18,00000000000|  8,00000000000| 16,00000000000| 14,00000000000| 13,00000000000| 18,00000000000|  5,00000000000| 12,00000000000|  7,00000000000| 10,00000000000| 11,00000000000|  5,00000000000| 11,00000000000| 12,00000000000|  5,00000000000|  4,00000000000| 12,00000000000| 12,00000000000|  0,00000000000|  4,00000000000|  4,00000000000|  3,00000000000| 11,00000000000|  6,00000000000| 18,00000000000| 17,00000000000|  5,00000000000
Brown_Bear                | 14,00000000000|  8,00000000000| 19,00000000000| 20,00000000000| 18,00000000000| 20,00000000000| 10,00000000000| 18,00000000000| 16,00000000000| 15,00000000000| 20,00000000000|  7,00000000000| 14,00000000000|  9,00000000000| 12,00000000000| 13,00000000000|  7,00000000000| 13,00000000000| 14,00000000000|  7,00000000000|  6,00000000000| 14,00000000000| 14,00000000000|  4,00000000000|  0,00000000000|  2,00000000000|  3,00000000000| 13,00000000000|  8,00000000000| 20,00000000000| 19,00000000000|  7,00000000000
Polar_Bear                | 14,00000000000|  8,00000000000| 19,00000000000| 20,00000000000| 18,00000000000| 20,00000000000| 10,00000000000| 18,00000000000| 16,00000000000| 15,00000000000| 20,00000000000|  7,00000000000| 14,00000000000|  9,00000000000| 12,00000000000| 13,00000000000|  7,00000000000| 13,00000000000| 14,00000000000|  7,00000000000|  6,00000000000| 14,00000000000| 14,00000000000|  4,00000000000|  2,00000000000|  0,00000000000|  3,00000000000| 13,00000000000|  8,00000000000| 20,00000000000| 19,00000000000|  7,00000000000
Giant_Panda               | 13,00000000000|  7,00000000000| 18,00000000000| 19,00000000000| 17,00000000000| 19,00000000000|  9,00000000000| 17,00000000000| 15,00000000000| 14,00000000000| 19,00000000000|  6,00000000000| 13,00000000000|  8,00000000000| 11,00000000000| 12,00000000000|  6,00000000000| 12,00000000000| 13,00000000000|  6,00000000000|  5,00000000000| 13,00000000000| 13,00000000000|  3,00000000000|  3,00000000000|  3,00000000000|  0,00000000000| 12,00000000000|  7,00000000000| 19,00000000000| 18,00000000000|  6,00000000000
Rabbit                    |  5,00000000000| 11,00000000000| 10,00000000000| 11,00000000000|  9,00000000000| 11,00000000000|  5,00000000000|  9,00000000000|  7,00000000000|  6,00000000000| 11,00000000000| 12,00000000000|  5,00000000000|  6,00000000000|  5,00000000000|  6,00000000000| 10,00000000000|  6,00000000000|  5,00000000000| 12,00000000000| 11,00000000000|  3,00000000000|  3,00000000000| 11,00000000000| 13,00000000000| 13,00000000000| 12,00000000000|  0,00000000000|  7,00000000000| 11,00000000000| 10,00000000000|  8,00000000000
Hedgehog                  |  8,00000000000|  6,00000000000| 13,00000000000| 14,00000000000| 12,00000000000| 14,00000000000|  4,00000000000| 12,00000000000| 10,00000000000|  9,00000000000| 14,00000000000|  7,00000000000|  8,00000000000|  3,00000000000|  6,00000000000|  7,00000000000|  5,00000000000|  7,00000000000|  8,00000000000|  7,00000000000|  6,00000000000|  8,00000000000|  8,00000000000|  6,00000000000|  8,00000000000|  8,00000000000|  7,00000000000|  7,00000000000|  0,00000000000| 14,00000000000| 13,00000000000|  3,00000000000
Dormouse                  |  8,00000000000| 18,00000000000|  7,00000000000|  8,00000000000|  6,00000000000|  2,00000000000| 12,00000000000|  4,00000000000|  6,00000000000|  7,00000000000|  8,00000000000| 19,00000000000| 10,00000000000| 13,00000000000| 12,00000000000| 13,00000000000| 17,00000000000| 13,00000000000| 10,00000000000| 19,00000000000| 18,00000000000| 12,00000000000| 12,00000000000| 18,00000000000| 20,00000000000| 20,00000000000| 19,00000000000| 11,00000000000| 14,00000000000|  0,00000000000|  3,00000000000| 15,00000000000
Squirrel                  |  7,00000000000| 17,00000000000|  6,00000000000|  7,00000000000|  5,00000000000|  3,00000000000| 11,00000000000|  3,00000000000|  5,00000000000|  6,00000000000|  7,00000000000| 18,00000000000|  9,00000000000| 12,00000000000| 11,00000000000| 12,00000000000| 16,00000000000| 12,00000000000|  9,00000000000| 18,00000000000| 17,00000000000| 11,00000000000| 11,00000000000| 17,00000000000| 19,00000000000| 19,00000000000| 18,00000000000| 10,00000000000| 13,00000000000|  3,00000000000|  0,00000000000| 14,00000000000
Blue_Whale                |  9,00000000000|  5,00000000000| 14,00000000000| 15,00000000000| 13,00000000000| 15,00000000000|  5,00000000000| 13,00000000000| 11,00000000000| 10,00000000000| 15,00000000000|  6,00000000000|  9,00000000000|  4,00000000000|  7,00000000000|  8,00000000000|  4,00000000000|  8,00000000000|  9,00000000000|  6,00000000000|  5,00000000000|  9,00000000000|  9,00000000000|  5,00000000000|  7,00000000000|  7,00000000000|  6,00000000000|  8,00000000000|  3,00000000000| 15,00000000000| 14,00000000000|  0,00000000000
                           |Human          |Hum_shortened  |Pig_Chim       |Com_Chim       |Gibbon         |Baboon         |Ver_Monkey     |Macaca_Thibet  |Bor_Oran       |Sum_Oran       |Gorilla        |Cat            |Dog            |Pig            |Sheep          |Goat           |Cow            |Buffalo        |Wolf           |Tiger          |Leopard        |Indian_Rhino   |White_Rhino    |Black_Bear     |Brown_Bear     |Polar_Bear     |Giant_Panda    |Rabbit         |Hedgehog       |Dormouse       |Squirrel       |Blue_Whale     
Human                     |  0,00000000000| 12,00000000000|  7,00000000000|  8,00000000000|  6,00000000000|  8,00000000000|  6,00000000000|  6,00000000000|  4,00000000000|  3,00000000000|  8,00000000000| 13,00000000000|  4,00000000000|  7,00000000000|  6,00000000000|  7,00000000000| 11,00000000000|  7,00000000000|  4,00000000000| 13,00000000000| 12,00000000000|  6,00000000000|  6,00000000000| 12,00000000000| 14,00000000000| 14,00000000000| 13,00000000000|  5,00000000000|  8,00000000000|  8,00000000000|  7,00000000000|  9,00000000000
Hum_shortened             | 12,00000000000|  0,00000000000| 17,00000000000| 18,00000000000| 16,00000000000| 18,00000000000|  8,00000000000| 16,00000000000| 14,00000000000| 13,00000000000| 18,00000000000|  7,00000000000| 12,00000000000|  7,00000000000| 10,00000000000| 11,00000000000|  3,00000000000| 11,00000000000| 12,00000000000|  7,00000000000|  6,00000000000| 12,00000000000| 12,00000000000|  6,00000000000|  8,00000000000|  8,00000000000|  7,00000000000| 11,00000000000|  6,00000000000| 18,00000000000| 17,00000000000|  5,00000000000
Pig_Chim                  |  7,00000000000| 17,00000000000|  0,00000000000|  3,00000000000|  3,00000000000|  7,00000000000| 11,00000000000|  5,00000000000|  5,00000000000|  6,00000000000|  3,00000000000| 18,00000000000|  9,00000000000| 12,00000000000| 11,00000000000| 12,00000000000| 16,00000000000| 12,00000000000|  9,00000000000| 18,00000000000| 17,00000000000| 11,00000000000| 11,00000000000| 17,00000000000| 19,00000000000| 19,00000000000| 18,00000000000| 10,00000000000| 13,00000000000|  7,00000000000|  6,00000000000| 14,00000000000
Com_Chim                  |  8,00000000000| 18,00000000000|  3,00000000000|  0,00000000000|  4,00000000000|  8,00000000000| 12,00000000000|  6,00000000000|  6,00000000000|  7,00000000000|  2,00000000000| 19,00000000000| 10,00000000000| 13,00000000000| 12,00000000000| 13,00000000000| 17,00000000000| 13,00000000000| 10,00000000000| 19,00000000000| 18,00000000000| 12,00000000000| 12,00000000000| 18,00000000000| 20,00000000000| 20,00000000000| 19,00000000000| 11,00000000000| 14,00000000000|  8,00000000000|  7,00000000000| 15,00000000000
Gibbon                    |  6,00000000000| 16,00000000000|  3,00000000000|  4,00000000000|  0,00000000000|  6,00000000000| 10,00000000000|  4,00000000000|  4,00000000000|  5,00000000000|  4,00000000000| 17,00000000000|  8,00000000000| 11,00000000000| 10,00000000000| 11,00000000000| 15,00000000000| 11,00000000000|  8,00000000000| 17,00000000000| 16,00000000000| 10,00000000000| 10,00000000000| 16,00000000000| 18,00000000000| 18,00000000000| 17,00000000000|  9,00000000000| 12,00000000000|  6,00000000000|  5,00000000000| 13,00000000000
Baboon                    |  8,00000000000| 18,00000000000|  7,00000000000|  8,00000000000|  6,00000000000|  0,00000000000| 12,00000000000|  4,00000000000|  6,00000000000|  7,00000000000|  8,00000000000| 19,00000000000| 10,00000000000| 13,00000000000| 12,00000000000| 13,00000000000| 17,00000000000| 13,00000000000| 10,00000000000| 19,00000000000| 18,00000000000| 12,00000000000| 12,00000000000| 18,00000000000| 20,00000000000| 20,00000000000| 19,00000000000| 11,00000000000| 14,00000000000|  2,00000000000|  3,00000000000| 15,00000000000
Ver_Monkey                |  6,00000000000|  8,00000000000| 11,00000000000| 12,00000000000| 10,00000000000| 12,00000000000|  0,00000000000| 10,00000000000|  8,00000000000|  7,00000000000| 12,00000000000|  9,00000000000|  6,00000000000|  3,00000000000|  4,00000000000|  5,00000000000|  7,00000000000|  5,00000000000|  6,00000000000|  9,00000000000|  8,00000000000|  6,00000000000|  6,00000000000|  8,00000000000| 10,00000000000| 10,00000000000|  9,00000000000|  5,00000000000|  4,00000000000| 12,00000000000| 11,00000000000|  5,00000000000
Macaca_Thibet             |  6,00000000000| 16,00000000000|  5,00000000000|  6,00000000000|  4,00000000000|  4,00000000000| 10,00000000000|  0,00000000000|  4,00000000000|  5,00000000000|  6,00000000000| 17,00000000000|  8,00000000000| 11,00000000000| 10,00000000000| 11,00000000000| 15,00000000000| 11,00000000000|  8,00000000000| 17,00000000000| 16,00000000000| 10,00000000000| 10,00000000000| 16,00000000000| 18,00000000000| 18,00000000000| 17,00000000000|  9,00000000000| 12,00000000000|  4,00000000000|  3,00000000000| 13,00000000000
Bor_Oran                  |  4,00000000000| 14,00000000000|  5,00000000000|  6,00000000000|  4,00000000000|  6,00000000000|  8,00000000000|  4,00000000000|  0,00000000000|  3,00000000000|  6,00000000000| 15,00000000000|  6,00000000000|  9,00000000000|  8,00000000000|  9,00000000000| 13,00000000000|  9,00000000000|  6,00000000000| 15,00000000000| 14,00000000000|  8,00000000000|  8,00000000000| 14,00000000000| 16,00000000000| 16,00000000000| 15,00000000000|  7,00000000000| 10,00000000000|  6,00000000000|  5,00000000000| 11,00000000000
Sum_Oran                  |  3,00000000000| 13,00000000000|  6,00000000000|  7,00000000000|  5,00000000000|  7,00000000000|  7,00000000000|  5,00000000000|  3,00000000000|  0,00000000000|  7,00000000000| 14,00000000000|  5,00000000000|  8,00000000000|  7,00000000000|  8,00000000000| 12,00000000000|  8,00000000000|  5,00000000000| 14,00000000000| 13,00000000000|  7,00000000000|  7,00000000000| 13,00000000000| 15,00000000000| 15,00000000000| 14,00000000000|  6,00000000000|  9,00000000000|  7,00000000000|  6,00000000000| 10,00000000000
Gorilla                   |  8,00000000000| 18,00000000000|  3,00000000000|  2,00000000000|  4,00000000000|  8,00000000000| 12,00000000000|  6,00000000000|  6,00000000000|  7,00000000000|  0,00000000000| 19,00000000000| 10,00000000000| 13,00000000000| 12,00000000000| 13,00000000000| 17,00000000000| 13,00000000000| 10,00000000000| 19,00000000000| 18,00000000000| 12,00000000000| 12,00000000000| 18,00000000000| 20,00000000000| 20,00000000000| 19,00000000000| 11,00000000000| 14,00000000000|  8,00000000000|  7,00000000000| 15,00000000000
Cat                       | 13,00000000000|  7,00000000000| 18,00000000000| 19,00000000000| 17,00000000000| 19,00000000000|  9,00000000000| 17,00000000000| 15,00000000000| 14,00000000000| 19,00000000000|  0,00000000000| 13,00000000000|  8,00000000000| 11,00000000000| 12,00000000000|  6,00000000000| 12,00000000000| 13,00000000000|  2,00000000000|  3,00000000000| 13,00000000000| 13,00000000000|  5,00000000000|  7,00000000000|  7,00000000000|  6,00000000000| 12,00000000000|  7,00000000000| 19,00000000000| 18,00000000000|  6,00000000000
Dog                       |  4,00000000000| 12,00000000000|  9,00000000000| 10,00000000000|  8,00000000000| 10,00000000000|  6,00000000000|  8,00000000000|  6,00000000000|  5,00000000000| 10,00000000000| 13,00000000000|  0,00000000000|  7,00000000000|  6,00000000000|  7,00000000000| 11,00000000000|  7,00000000000|  2,00000000000| 13,00000000000| 12,00000000000|  6,00000000000|  6,00000000000| 12,00000000000| 14,00000000000| 14,00000000000| 13,00000000000|  5,00000000000|  8,00000000000| 10,00000000000|  9,00000000000|  9,00000000000
Pig                       |  7,00000000000|  7,00000000000| 12,00000000000| 13,00000000000| 11,00000000000| 13,00000000000|  3,00000000000| 11,00000000000|  9,00000000000|  8,00000000000| 13,00000000000|  8,00000000000|  7,00000000000|  0,00000000000|  5,00000000000|  6,00000000000|  6,00000000000|  6,00000000000|  7,00000000000|  8,00000000000|  7,00000000000|  7,00000000000|  7,00000000000|  7,00000000000|  9,00000000000|  9,00000000000|  8,00000000000|  6,00000000000|  3,00000000000| 13,00000000000| 12,00000000000|  4,00000000000
Sheep                     |  6,00000000000| 10,00000000000| 11,00000000000| 12,00000000000| 10,00000000000| 12,00000000000|  4,00000000000| 10,00000000000|  8,00000000000|  7,00000000000| 12,00000000000| 11,00000000000|  6,00000000000|  5,00000000000|  0,00000000000|  3,00000000000|  9,00000000000|  3,00000000000|  6,00000000000| 11,00000000000| 10,00000000000|  6,00000000000|  6,00000000000| 10,00000000000| 12,00000000000| 12,00000000000| 11,00000000000|  5,00000000000|  6,00000000000| 12,00000000000| 11,00000000000|  7,00000000000
Goat                      |  7,00000000000| 11,00000000000| 12,00000000000| 13,00000000000| 11,00000000000| 13,00000000000|  5,00000000000| 11,00000000000|  9,00000000000|  8,00000000000| 13,00000000000| 12,00000000000|  7,00000000000|  6,00000000000|  3,00000000000|  0,00000000000| 10,00000000000|  2,00000000000|  7,00000000000| 12,00000000000| 11,00000000000|  7,00000000000|  7,00000000000| 11,00000000000| 13,00000000000| 13,00000000000| 12,00000000000|  6,00000000000|  7,00000000000| 13,00000000000| 12,00000000000|  8,00000000000
Cow                       | 11,00000000000|  3,00000000000| 16,00000000000| 17,00000000000| 15,00000000000| 17,00000000000|  7,00000000000| 15,00000000000| 13,00000000000| 12,00000000000| 17,00000000000|  6,00000000000| 11,00000000000|  6,00000000000|  9,00000000000| 10,00000000000|  0,00000000000| 10,00000000000| 11,00000000000|  6,00000000000|  5,00000000000| 11,00000000000| 11,00000000000|  5,00000000000|  7,00000000000|  7,00000000000|  6,00000000000| 10,00000000000|  5,00000000000| 17,00000000000| 16,00000000000|  4,00000000000
Buffalo                   |  7,00000000000| 11,00000000000| 12,00000000000| 13,00000000000| 11,00000000000| 13,00000000000|  5,00000000000| 11,00000000000|  9,00000000000|  8,00000000000| 13,00000000000| 12,00000000000|  7,00000000000|  6,00000000000|  3,00000000000|  2,00000000000| 10,00000000000|  0,00000000000|  7,00000000000| 12,00000000000| 11,00000000000|  7,00000000000|  7,00000000000| 11,00000000000| 13,00000000000| 13,00000000000| 12,00000000000|  6,00000000000|  7,00000000000| 13,00000000000| 12,00000000000|  8,00000000000
Wolf                      |  4,00000000000| 12,00000000000|  9,00000000000| 10,00000000000|  8,00000000000| 10,00000000000|  6,00000000000|  8,00000000000|  6,00000000000|  5,00000000000| 10,00000000000| 13,00000000000|  2,00000000000|  7,00000000000|  6,00000000000|  7,00000000000| 11,00000000000|  7,00000000000|  0,00000000000| 13,00000000000| 12,00000000000|  6,00000000000|  6,00000000000| 12,00000000000| 14,00000000000| 14,00000000000| 13,00000000000|  5,00000000000|  8,00000000000| 10,00000000000|  9,00000000000|  9,00000000000
Tiger                     | 13,00000000000|  7,00000000000| 18,00000000000| 19,00000000000| 17,00000000000| 19,00000000000|  9,00000000000| 17,00000000000| 15,00000000000| 14,00000000000| 19,00000000000|  2,00000000000| 13,00000000000|  8,00000000000| 11,00000000000| 12,00000000000|  6,00000000000| 12,00000000000| 13,00000000000|  0,00000000000|  3,00000000000| 13,00000000000| 13,00000000000|  5,00000000000|  7,00000000000|  7,00000000000|  6,00000000000| 12,00000000000|  7,00000000000| 19,00000000000| 18,00000000000|  6,00000000000
Leopard                   | 12,00000000000|  6,00000000000| 17,00000000000| 18,00000000000| 16,00000000000| 18,00000000000|  8,00000000000| 16,00000000000| 14,00000000000| 13,00000000000| 18,00000000000|  3,00000000000| 12,00000000000|  7,00000000000| 10,00000000000| 11,00000000000|  5,00000000000| 11,00000000000| 12,00000000000|  3,00000000000|  0,00000000000| 12,00000000000| 12,00000000000|  4,00000000000|  6,00000000000|  6,00000000000|  5,00000000000| 11,00000000000|  6,00000000000| 18,00000000000| 17,00000000000|  5,00000000000
Indian_Rhino              |  6,00000000000| 12,00000000000| 11,00000000000| 12,00000000000| 10,00000000000| 12,00000000000|  6,00000000000| 10,00000000000|  8,00000000000|  7,00000000000| 12,00000000000| 13,00000000000|  6,00000000000|  7,00000000000|  6,00000000000|  7,00000000000| 11,00000000000|  7,00000000000|  6,00000000000| 13,00000000000| 12,00000000000|  0,00000000000|  2,00000000000| 12,00000000000| 14,00000000000| 14,00000000000| 13,00000000000|  3,00000000000|  8,00000000000| 12,00000000000| 11,00000000000|  9,00000000000
White_Rhino               |  6,00000000000| 12,00000000000| 11,00000000000| 12,00000000000| 10,00000000000| 12,00000000000|  6,00000000000| 10,00000000000|  8,00000000000|  7,00000000000| 12,00000000000| 13,00000000000|  6,00000000000|  7,00000000000|  6,00000000000|  7,00000000000| 11,00000000000|  7,00000000000|  6,00000000000| 13,00000000000| 12,00000000000|  2,00000000000|  0,00000000000| 12,00000000000| 14,00000000000| 14,00000000000| 13,00000000000|  3,00000000000|  8,00000000000| 12,00000000000| 11,00000000000|  9,00000000000
Black_Bear                | 12,00000000000|  6,00000000000| 17,00000000000| 18,00000000000| 16,00000000000| 18,00000000000|  8,00000000000| 16,00000000000| 14,00000000000| 13,00000000000| 18,00000000000|  5,00000000000| 12,00000000000|  7,00000000000| 10,00000000000| 11,00000000000|  5,00000000000| 11,00000000000| 12,00000000000|  5,00000000000|  4,00000000000| 12,00000000000| 12,00000000000|  0,00000000000|  4,00000000000|  4,00000000000|  3,00000000000| 11,00000000000|  6,00000000000| 18,00000000000| 17,00000000000|  5,00000000000
Brown_Bear                | 14,00000000000|  8,00000000000| 19,00000000000| 20,00000000000| 18,00000000000| 20,00000000000| 10,00000000000| 18,00000000000| 16,00000000000| 15,00000000000| 20,00000000000|  7,00000000000| 14,00000000000|  9,00000000000| 12,00000000000| 13,00000000000|  7,00000000000| 13,00000000000| 14,00000000000|  7,00000000000|  6,00000000000| 14,00000000000| 14,00000000000|  4,00000000000|  0,00000000000|  2,00000000000|  3,00000000000| 13,00000000000|  8,00000000000| 20,00000000000| 19,00000000000|  7,00000000000
Polar_Bear                | 14,00000000000|  8,00000000000| 19,00000000000| 20,00000000000| 18,00000000000| 20,00000000000| 10,00000000000| 18,00000000000| 16,00000000000| 15,00000000000| 20,00000000000|  7,00000000000| 14,00000000000|  9,00000000000| 12,00000000000| 13,00000000000|  7,00000000000| 13,00000000000| 14,00000000000|  7,00000000000|  6,00000000000| 14,00000000000| 14,00000000000|  4,00000000000|  2,00000000000|  0,00000000000|  3,00000000000| 13,00000000000|  8,00000000000| 20,00000000000| 19,00000000000|  7,00000000000
Giant_Panda               | 13,00000000000|  7,00000000000| 18,00000000000| 19,00000000000| 17,00000000000| 19,00000000000|  9,00000000000| 17,00000000000| 15,00000000000| 14,00000000000| 19,00000000000|  6,00000000000| 13,00000000000|  8,00000000000| 11,00000000000| 12,00000000000|  6,00000000000| 12,00000000000| 13,00000000000|  6,00000000000|  5,00000000000| 13,00000000000| 13,00000000000|  3,00000000000|  3,00000000000|  3,00000000000|  0,00000000000| 12,00000000000|  7,00000000000| 19,00000000000| 18,00000000000|  6,00000000000
Rabbit                    |  5,00000000000| 11,00000000000| 10,00000000000| 11,00000000000|  9,00000000000| 11,00000000000|  5,00000000000|  9,00000000000|  7,00000000000|  6,00000000000| 11,00000000000| 12,00000000000|  5,00000000000|  6,00000000000|  5,00000000000|  6,00000000000| 10,00000000000|  6,00000000000|  5,00000000000| 12,00000000000| 11,00000000000|  3,00000000000|  3,00000000000| 11,00000000000| 13,00000000000| 13,00000000000| 12,00000000000|  0,00000000000|  7,00000000000| 11,00000000000| 10,00000000000|  8,00000000000
Hedgehog                  |  8,00000000000|  6,00000000000| 13,00000000000| 14,00000000000| 12,00000000000| 14,00000000000|  4,00000000000| 12,00000000000| 10,00000000000|  9,00000000000| 14,00000000000|  7,00000000000|  8,00000000000|  3,00000000000|  6,00000000000|  7,00000000000|  5,00000000000|  7,00000000000|  8,00000000000|  7,00000000000|  6,00000000000|  8,00000000000|  8,00000000000|  6,00000000000|  8,00000000000|  8,00000000000|  7,00000000000|  7,00000000000|  0,00000000000| 14,00000000000| 13,00000000000|  3,00000000000
Dormouse                  |  8,00000000000| 18,00000000000|  7,00000000000|  8,00000000000|  6,00000000000|  2,00000000000| 12,00000000000|  4,00000000000|  6,00000000000|  7,00000000000|  8,00000000000| 19,00000000000| 10,00000000000| 13,00000000000| 12,00000000000| 13,00000000000| 17,00000000000| 13,00000000000| 10,00000000000| 19,00000000000| 18,00000000000| 12,00000000000| 12,00000000000| 18,00000000000| 20,00000000000| 20,00000000000| 19,00000000000| 11,00000000000| 14,00000000000|  0,00000000000|  3,00000000000| 15,00000000000
Squirrel                  |  7,00000000000| 17,00000000000|  6,00000000000|  7,00000000000|  5,00000000000|  3,00000000000| 11,00000000000|  3,00000000000|  5,00000000000|  6,00000000000|  7,00000000000| 18,00000000000|  9,00000000000| 12,00000000000| 11,00000000000| 12,00000000000| 16,00000000000| 12,00000000000|  9,00000000000| 18,00000000000| 17,00000000000| 11,00000000000| 11,00000000000| 17,00000000000| 19,00000000000| 19,00000000000| 18,00000000000| 10,00000000000| 13,00000000000|  3,00000000000|  0,00000000000| 14,00000000000
Blue_Whale                |  9,00000000000|  5,00000000000| 14,00000000000| 15,00000000000| 13,00000000000| 15,00000000000|  5,00000000000| 13,00000000000| 11,00000000000| 10,00000000000| 15,00000000000|  6,00000000000|  9,00000000000|  4,00000000000|  7,00000000000|  8,00000000000|  4,00000000000|  8,00000000000|  9,00000000000|  6,00000000000|  5,00000000000|  9,00000000000|  9,00000000000|  5,00000000000|  7,00000000000|  7,00000000000|  6,00000000000|  8,00000000000|  3,00000000000| 15,00000000000| 14,00000000000|  0,00000000000
