                           |Human          |Hum_shortened  |Pig_Chim       |Com_Chim       |Gibbon         |Baboon         |Ver_Monkey     |Macaca_Thibet  |Bor_Oran       |Sum_Oran       |Gorilla        |Cat            |Dog            |Pig            |Sheep          |Goat           |Cow            |Buffalo        |Wolf           |Tiger          |Leopard        |Indian_Rhino   |White_Rhino    |Black_Bear     |Brown_Bear     |Polar_Bear     |Giant_Panda    |Rabbit         |Hedgehog       |Dormouse       |Squirrel       |Blue_Whale     
Human                     |  0,00000000000| 10,05705641345| 10,05927904794|  9,63318188340|  9,55457037765|  9,44213339319| 10,35234464355|  9,73059377110|  9,73288207609|  8,42765830360|  9,32207983015| 10,44352896878| 10,28264687358| 10,64326151076| 11,20858089356| 10,76322049412| 10,95889164469| 10,48347246335|  9,86872497051|  9,20170392966| 10,12071192328| 10,03436810820| 11,26015282033| 10,69203040804| 10,06176512115|  9,39088421100| 10,09623292660| 10,02949142958| 10,11646215492|  9,51840649771|  9,96193465355| 10,47714461491
Hum_shortened             | 10,05705641345|  0,00000000000| 10,74951199448|  9,97985978119| 10,06858378151| 10,47253640046| 11,70621727394| 11,04439355718|  9,75111525139| 10,51146666663| 10,36213076356| 11,40312241460| 11,71448372845| 12,58323940271| 11,86257281579| 11,65541154664| 11,33195740369| 11,46600497619| 11,25062210228|  9,63545155636| 10,77181634897| 11,40756862486| 11,71076709963| 10,87810123781| 11,10611687679| 10,60416307271| 11,61776941524| 11,10908605105| 11,76916205494| 11,01318396619| 10,87135036568| 11,45689867221
Pig_Chim                  | 10,05927904794| 10,74951199448|  0,00000000000|  5,57657061087|  6,40223435575|  9,80208879223|  9,12055502496|  8,85267075479|  8,31159875905|  9,01188382198|  7,43705132060| 10,88877260773| 10,09266593542| 11,56518593702| 10,23450375707| 10,41873789576| 10,14728331427| 10,35547087688| 10,20586605535|  9,40899082962| 10,31965201892| 10,47978343024| 11,16314385145| 10,31942653090| 10,12123677233|  9,82801751360| 10,60757325108| 10,08985726945| 10,28669426360|  9,71122938792|  9,82247372681| 10,37283296018
Com_Chim                  |  9,63318188340|  9,97985978119|  5,57657061087|  0,00000000000|  6,73968489073|  8,76678978508|  9,29291346717|  8,39525689522|  8,33765391610|  9,37534429801|  3,11519662505| 10,58567285695|  9,68227203338| 10,60712132669|  9,91561738253|  9,63258994303| 10,20076201276|  9,69426633458|  9,84320608940|  9,37670424786|  9,49103601498| 10,55617177970| 10,38145630740|  9,50452308569| 10,02410159831|  9,92150737824| 10,45860956344|  9,74198716113|  9,71855361811|  9,54863855079|  9,35820344116| 10,13260900733
Gibbon                    |  9,55457037765| 10,06858378151|  6,40223435575|  6,73968489073|  0,00000000000|  8,93642043320|  8,94384223691|  7,80770048107|  8,61841915865|  8,92411440580|  7,68948585242| 10,23197401734|  9,44751402587| 10,44655997650| 10,00331929549| 10,08275636149| 10,00361247758|  9,95874714384|  9,54021194240|  9,21960858122|  9,63253294427|  9,99637590525| 11,15155356963| 10,03817175619|  9,45092110403|  9,91453764358|  9,66675457424|  9,42421270322|  9,89128796664|  9,18977670003|  8,96119464659| 10,22154209158
Baboon                    |  9,44213339319| 10,47253640046|  9,80208879223|  8,76678978508|  8,93642043320|  0,00000000000|  8,99031432029|  8,75127857467|  9,04656257951|  8,86120316316|  8,28861268028| 10,31426200637|  9,65322534766| 10,55472781358| 10,54850981499| 10,19758509237| 10,64637140219|  9,88358001430|  9,79271845494|  9,23835200590|  9,82940634241|  9,37297364678| 10,83012312458|  9,91489149290| 10,32363416217|  9,20619949519| 10,30309191118|  9,60239527203| 10,21877010588|  8,95498624265|  9,31923200934| 10,52831500356
Ver_Monkey                | 10,35234464355| 11,70621727394|  9,12055502496|  9,29291346717|  8,94384223691|  8,99031432029|  0,00000000000|  8,93935502333|  9,66156040745|  8,77278038486|  8,95397650520| 10,98134803624| 10,05979719008| 11,03539491325| 10,72932926504| 10,36753812192| 11,27154905478| 10,16516881621|  9,84130370941|  9,70445214580| 10,60762045671| 10,60612744186| 11,66415102482| 10,47979702560| 10,50153212811|  9,87672082138| 10,79891093590| 10,30918858596| 10,35634639036|  9,77201710951| 10,12963012938| 10,90946636121
Macaca_Thibet             |  9,73059377110| 11,04439355718|  8,85267075479|  8,39525689522|  7,80770048107|  8,75127857467|  8,93935502333|  0,00000000000|  8,52148391135|  9,02105809253|  8,97882688319| 10,00738623384|  9,86998847550| 10,52735165227| 10,40136865615|  9,68663531597|  9,59710648081|  9,73491101152|  9,38275347746|  8,89981934276|  9,61026120280|  9,28593290436| 10,39036301774| 10,23369017779|  9,87777200227|  9,32943570342| 10,22868583445|  9,42173007248| 10,01854536393|  9,17149616032|  9,14024766256| 10,17859948929
Bor_Oran                  |  9,73288207609|  9,75111525139|  8,31159875905|  8,33765391610|  8,61841915865|  9,04656257951|  9,66156040745|  8,52148391135|  0,00000000000|  8,66305690866|  8,65617823504| 10,04003752900|  9,87004108913| 11,09390923860| 10,08294715209| 10,40792744164|  9,83014418906|  9,91019636488|  9,49312540238|  9,07362806071|  9,59983955338|  9,23757330515| 10,92824927682|  9,53352469577|  9,82397268749|  9,02320907730|  9,79984341587|  9,65647261748| 10,42971812924|  9,40949060523|  9,75567451965|  9,85403215037
Sum_Oran                  |  8,42765830360| 10,51146666663|  9,01188382198|  9,37534429801|  8,92411440580|  8,86120316316|  8,77278038486|  9,02105809253|  8,66305690866|  0,00000000000|  8,61945291712|  9,86397941247| 10,07657583127| 10,62219388427| 10,82273403324| 10,32018791522| 10,10336076111| 10,20145517246| 10,15085270685|  9,10185388823|  9,76135546109|  9,52993602112| 10,49826765148|  9,67034264273|  9,71198522038|  9,33734464861| 10,00388130666|  9,32672141563|  9,54583507470|  9,89971204639|  9,81333230256| 10,63964905661
Gorilla                   |  9,32207983015| 10,36213076356|  7,43705132060|  3,11519662505|  7,68948585242|  8,28861268028|  8,95397650520|  8,97882688319|  8,65617823504|  8,61945291712|  0,00000000000| 10,34716702473|  9,76485750899| 10,51788153259| 10,46809892178|  9,96165077302| 10,38937361914|  9,97523089933|  9,58002967282|  9,43297860105|  9,59230431084| 10,19345454364| 11,09665388763|  9,40821152036| 10,43894161633|  9,54903077301|  9,93533527468|  9,70612781121| 10,25432317953|  9,08094031703|  9,59819300506|  9,88699043527
Cat                       | 10,44352896878| 11,40312241460| 10,88877260773| 10,58567285695| 10,23197401734| 10,31426200637| 10,98134803624| 10,00738623384| 10,04003752900|  9,86397941247| 10,34716702473|  0,00000000000| 10,67592486503| 11,05545730840| 11,05367818204| 10,65740038521| 10,53886835763| 10,28075105579| 10,70058372829|  7,28523277458| 10,27758727809| 10,47234454827| 11,15377183819|  9,70950774604| 10,18523151334|  9,87558074929| 10,19151471637|  9,46520142456| 10,18620152667| 10,29274924983| 10,07187048755| 10,72600656085
Dog                       | 10,28264687358| 11,71448372845| 10,09266593542|  9,68227203338|  9,44751402587|  9,65322534766| 10,05979719008|  9,86998847550|  9,87004108913| 10,07657583127|  9,76485750899| 10,67592486503|  0,00000000000| 10,97431861000| 10,30931120205| 10,08604112008| 10,28319024445|  9,99669975259| -0,49143346900|  9,78354300252|  9,89030988594| 10,11352888424| 10,39643898201|  9,90401265130|  9,83139592061|  9,75933139298| 10,81381841234|  9,38185018077|  9,50152225322|  9,80781166128|  9,82844872453| 10,21765394271
Pig                       | 10,64326151076| 12,58323940271| 11,56518593702| 10,60712132669| 10,44655997650| 10,55472781358| 11,03539491325| 10,52735165227| 11,09390923860| 10,62219388427| 10,51788153259| 11,05545730840| 10,97431861000|  0,00000000000|  9,83966919514| 10,56527003393| 11,28825527341| 11,18138984695| 10,49239169489| 10,38654672296| 11,01691124937| 11,01888079007| 11,31884012739| 10,70124239738| 11,39368785285| 10,69713861444| 11,16750940645| 10,39232063022| 11,14164125942|  9,82309973180| 10,68092744650| 11,61073978840
Sheep                     | 11,20858089356| 11,86257281579| 10,23450375707|  9,91561738253| 10,00331929549| 10,54850981499| 10,72932926504| 10,40136865615| 10,08294715209| 10,82273403324| 10,46809892178| 11,05367818204| 10,30931120205|  9,83966919514|  0,00000000000|  7,85854558311| 11,32689818348|  9,99182689765| 10,06585026613|  9,96368103244| 10,60830730249| 10,79568507991| 11,61679496365| 10,01502521201| 10,50834916149| 10,09756039430| 11,02377964556| 10,32568710206| 10,81168953979| 10,25857021005| 10,25343408198| 11,57693235909
Goat                      | 10,76322049412| 11,65541154664| 10,41873789576|  9,63258994303| 10,08275636149| 10,19758509237| 10,36753812192|  9,68663531597| 10,40792744164| 10,32018791522|  9,96165077302| 10,65740038521| 10,08604112008| 10,56527003393|  7,85854558311|  0,00000000000| 11,15418918115|  6,67457608769| 10,22369198288|  9,82213191856| 10,37778789717| 10,62862887943| 11,19738607557| 10,45975765197| 10,14992668385|  9,84984604447| 10,82539231939| 10,33092925901| 10,67098752195| 10,01814522503| 10,06206683512| 10,82396002856
Cow                       | 10,95889164469| 11,33195740369| 10,14728331427| 10,20076201276| 10,00361247758| 10,64637140219| 11,27154905478|  9,59710648081|  9,83014418906| 10,10336076111| 10,38937361914| 10,53886835763| 10,28319024445| 11,28825527341| 11,32689818348| 11,15418918115|  0,00000000000| 10,41041785845| 10,43209546611|  9,57100713637| 10,56083394054| 10,81649538171| 11,51165180328| 10,28628772949| 10,25221515772| 10,16525100883|  9,84479669597| 11,13232212718| 10,73594909274| 10,62350533891| 10,43328864582| 10,89212962532
Buffalo                   | 10,48347246335| 11,46600497619| 10,35547087688|  9,69426633458|  9,95874714384|  9,88358001430| 10,16516881621|  9,73491101152|  9,91019636488| 10,20145517246|  9,97523089933| 10,28075105579|  9,99669975259| 11,18138984695|  9,99182689765|  6,67457608769| 10,41041785845|  0,00000000000|  9,72239448641|  9,61927222096| 10,58002390414| 10,63694044129| 11,06617308361| 10,93499165900|  9,95308051699|  9,82968836920| 10,98869636407|  9,86535552891| 10,29498805041|  9,68169105272|  9,81987392164| 11,07567369531
Wolf                      |  9,86872497051| 11,25062210228| 10,20586605535|  9,84320608940|  9,54021194240|  9,79271845494|  9,84130370941|  9,38275347746|  9,49312540238| 10,15085270685|  9,58002967282| 10,70058372829| -0,49143346900| 10,49239169489| 10,06585026613| 10,22369198288| 10,43209546611|  9,72239448641|  0,00000000000|  9,42153368275|  9,54887203927|  9,27620681179| 10,58821577544|  9,69228789401|  9,21831009140|  9,26499216801| 10,37399180242|  9,37482570704|  9,73135462940|  9,81640534499|  9,64614367524| 10,61896707376
Tiger                     |  9,20170392966|  9,63545155636|  9,40899082962|  9,37670424786|  9,21960858122|  9,23835200590|  9,70445214580|  8,89981934276|  9,07362806071|  9,10185388823|  9,43297860105|  7,28523277458|  9,78354300252| 10,38654672296|  9,96368103244|  9,82213191856|  9,57100713637|  9,61927222096|  9,42153368275|  0,00000000000|  8,48958520004|  9,36928810021|  9,95088466008|  9,04282316608|  8,81925726249|  8,64415027119|  8,99195497604|  9,06587311113|  9,92875389957|  8,60714079460|  9,61797570701|  9,90180818254
Leopard                   | 10,12071192328| 10,77181634897| 10,31965201892|  9,49103601498|  9,63253294427|  9,82940634241| 10,60762045671|  9,61026120280|  9,59983955338|  9,76135546109|  9,59230431084| 10,27758727809|  9,89030988594| 11,01691124937| 10,60830730249| 10,37778789717| 10,56083394054| 10,58002390414|  9,54887203927|  8,48958520004|  0,00000000000| 10,33671914250| 10,82065261799|  9,24339043473|  9,76946082778|  9,36116786700| 10,47445790887| 10,11592754452|  9,99516902968|  9,60605044686|  9,86156120394| 10,15290412763
Indian_Rhino              | 10,03436810820| 11,40756862486| 10,47978343024| 10,55617177970|  9,99637590525|  9,37297364678| 10,60612744186|  9,28593290436|  9,23757330515|  9,52993602112| 10,19345454364| 10,47234454827| 10,11352888424| 11,01888079007| 10,79568507991| 10,62862887943| 10,81649538171| 10,63694044129|  9,27620681179|  9,36928810021| 10,33671914250|  0,00000000000|  8,38354282872|  9,69284403141| 10,50372988925| 10,09109950491| 10,89983900997|  9,14046735224| 10,43880179012|  9,86074353003|  9,27625748349| 10,96904961588
White_Rhino               | 11,26015282033| 11,71076709963| 11,16314385145| 10,38145630740| 11,15155356963| 10,83012312458| 11,66415102482| 10,39036301774| 10,92824927682| 10,49826765148| 11,09665388763| 11,15377183819| 10,39643898201| 11,31884012739| 11,61679496365| 11,19738607557| 11,51165180328| 11,06617308361| 10,58821577544|  9,95088466008| 10,82065261799|  8,38354282872|  0,00000000000| 10,77415490379| 11,20083999201| 10,63226611244| 11,00182823244| 10,03624309022| 11,04440982449| 11,14915751214| 10,05131813953| 11,28702834369
Black_Bear                | 10,69203040804| 10,87810123781| 10,31942653090|  9,50452308569| 10,03817175619|  9,91489149290| 10,47979702560| 10,23369017779|  9,53352469577|  9,67034264273|  9,40821152036|  9,70950774604|  9,90401265130| 10,70124239738| 10,01502521201| 10,45975765197| 10,28628772949| 10,93499165900|  9,69228789401|  9,04282316608|  9,24339043473|  9,69284403141| 10,77415490379|  0,00000000000| 10,37510533053|  9,60480389339|  9,76836482588|  9,84449749365| 10,39646989047| 10,04485828319| 10,15300978089| 10,72236405104
Brown_Bear                | 10,06176512115| 11,10611687679| 10,12123677233| 10,02410159831|  9,45092110403| 10,32363416217| 10,50153212811|  9,87777200227|  9,82397268749|  9,71198522038| 10,43894161633| 10,18523151334|  9,83139592061| 11,39368785285| 10,50834916149| 10,14992668385| 10,25221515772|  9,95308051699|  9,21831009140|  8,81925726249|  9,76946082778| 10,50372988925| 11,20083999201| 10,37510533053|  0,00000000000|  6,58413838787|  9,69976438598|  9,83638890144| 10,01432203041|  9,48858588184|  9,49034308838| 10,53621180459
Polar_Bear                |  9,39088421100| 10,60416307271|  9,82801751360|  9,92150737824|  9,91453764358|  9,20619949519|  9,87672082138|  9,32943570342|  9,02320907730|  9,33734464861|  9,54903077301|  9,87558074929|  9,75933139298| 10,69713861444| 10,09756039430|  9,84984604447| 10,16525100883|  9,82968836920|  9,26499216801|  8,64415027119|  9,36116786700| 10,09109950491| 10,63226611244|  9,60480389339|  6,58413838787|  0,00000000000|  9,81689944272|  9,83679547690|  9,40543523480|  9,45348313281|  9,41776969853| 10,35642505915
Giant_Panda               | 10,09623292660| 11,61776941524| 10,60757325108| 10,45860956344|  9,66675457424| 10,30309191118| 10,79891093590| 10,22868583445|  9,79984341587| 10,00388130666|  9,93533527468| 10,19151471637| 10,81381841234| 11,16750940645| 11,02377964556| 10,82539231939|  9,84479669597| 10,98869636407| 10,37399180242|  8,99195497604| 10,47445790887| 10,89983900997| 11,00182823244|  9,76836482588|  9,69976438598|  9,81689944272|  0,00000000000| 10,76409471390| 10,94386079723| 10,04546674700| 10,29713773100| 10,53777517358
Rabbit                    | 10,02949142958| 11,10908605105| 10,08985726945|  9,74198716113|  9,42421270322|  9,60239527203| 10,30918858596|  9,42173007248|  9,65647261748|  9,32672141563|  9,70612781121|  9,46520142456|  9,38185018077| 10,39232063022| 10,32568710206| 10,33092925901| 11,13232212718|  9,86535552891|  9,37482570704|  9,06587311113| 10,11592754452|  9,14046735224| 10,03624309022|  9,84449749365|  9,83638890144|  9,83679547690| 10,76409471390|  0,00000000000|  9,78579893790|  9,58675315872|  9,32902455809| 10,58373759174
Hedgehog                  | 10,11646215492| 11,76916205494| 10,28669426360|  9,71855361811|  9,89128796664| 10,21877010588| 10,35634639036| 10,01854536393| 10,42971812924|  9,54583507470| 10,25432317953| 10,18620152667|  9,50152225322| 11,14164125942| 10,81168953979| 10,67098752195| 10,73594909274| 10,29498805041|  9,73135462940|  9,92875389957|  9,99516902968| 10,43880179012| 11,04440982449| 10,39646989047| 10,01432203041|  9,40543523480| 10,94386079723|  9,78579893790|  0,00000000000|  9,98273481282|  9,99203446829| 11,19507853272
Dormouse                  |  9,51840649771| 11,01318396619|  9,71122938792|  9,54863855079|  9,18977670003|  8,95498624265|  9,77201710951|  9,17149616032|  9,40949060523|  9,89971204639|  9,08094031703| 10,29274924983|  9,80781166128|  9,82309973180| 10,25857021005| 10,01814522503| 10,62350533891|  9,68169105272|  9,81640534499|  8,60714079460|  9,60605044686|  9,86074353003| 11,14915751214| 10,04485828319|  9,48858588184|  9,45348313281| 10,04546674700|  9,58675315872|  9,98273481282|  0,00000000000|  9,49888929666| 10,39628455851
Squirrel                  |  9,96193465355| 10,87135036568|  9,82247372681|  9,35820344116|  8,96119464659|  9,31923200934| 10,12963012938|  9,14024766256|  9,75567451965|  9,81333230256|  9,59819300506| 10,07187048755|  9,82844872453| 10,68092744650| 10,25343408198| 10,06206683512| 10,43328864582|  9,81987392164|  9,64614367524|  9,61797570701|  9,86156120394|  9,27625748349| 10,05131813953| 10,15300978089|  9,49034308838|  9,41776969853| 10,29713773100|  9,32902455809|  9,99203446829|  9,49888929666|  0,00000000000| 10,28865763594
Blue_Whale                | 10,47714461491| 11,45689867221| 10,37283296018| 10,13260900733| 10,22154209158| 10,52831500356| 10,90946636121| 10,17859948929|  9,85403215037| 10,63964905661|  9,88699043527| 10,72600656085| 10,21765394271| 11,61073978840| 11,57693235909| 10,82396002856| 10,89212962532| 11,07567369531| 10,61896707376|  9,90180818254| 10,15290412763| 10,96904961588| 11,28702834369| 10,72236405104| 10,53621180459| 10,35642505915| 10,53777517358| 10,58373759174| 11,19507853272| 10,39628455851| 10,28865763594|  0,00000000000
