                           |Human          |Pig_Chim       |Com_Chim       |Gibbon         |Baboon         |Ver_Monkey     |Macaca_Thibet  |Bor_Oran       |Sum_Oran       |Gorilla        |Cat            |Dog            |Pig            |Sheep          |Goat           |Cow            |Buffalo        |Wolf           |Tiger          |Leopard        |Indian_Rhino   |White_Rhino    |Black_Bear     |Brown_Bear     |Polar_Bear     |Giant_Panda    |Rabbit         |Hedgehog       |Dormouse       |Squirrel       |Blue_Whale     
Human                     |  0,00000000000|1495740,26647949220|1495740,26647949220|1944353,88647460940|2197063,38653564450|2197063,38653564450|2197063,38653564450|1917828,71582031250|1917828,71582031250|1495740,26647949220|2402809,40820312500|2402809,40820312500|2402809,40820312500|2402809,40820312500|2402809,40820312500|2402809,40820312500|2402809,40820312500|2402809,40820312500|2402809,40820312500|2402809,40820312500|2402809,40820312500|2402809,40820312500|2402809,40820312500|2402809,40820312500|2402809,40820312500|2402809,40820312500|2402809,40820312500|2404720,98937988300|2402809,40820312500|2402809,40820312500|2402809,40820312500
Pig_Chim                  |1495740,26647949220|  0,00000000000|1036868,21984863280|1944353,88647460940|2197063,38653564450|2197063,38653564450|2197063,38653564450|1917828,71582031250|1917828,71582031250|1413082,66540527340|2402809,40820312500|2402809,40820312500|2402809,40820312500|2402809,40820312500|2402809,40820312500|2402809,40820312500|2402809,40820312500|2402809,40820312500|2402809,40820312500|2402809,40820312500|2402809,40820312500|2402809,40820312500|2402809,40820312500|2402809,40820312500|2402809,40820312500|2402809,40820312500|2402809,40820312500|2404720,98937988300|2402809,40820312500|2402809,40820312500|2402809,40820312500
Com_Chim                  |1495740,26647949220|1036868,21984863280|  0,00000000000|1944353,88647460940|2197063,38653564450|2197063,38653564450|2197063,38653564450|1917828,71582031250|1917828,71582031250|1413082,66540527340|2402809,40820312500|2402809,40820312500|2402809,40820312500|2402809,40820312500|2402809,40820312500|2402809,40820312500|2402809,40820312500|2402809,40820312500|2402809,40820312500|2402809,40820312500|2402809,40820312500|2402809,40820312500|2402809,40820312500|2402809,40820312500|2402809,40820312500|2402809,40820312500|2402809,40820312500|2404720,98937988300|2402809,40820312500|2402809,40820312500|2402809,40820312500
Gibbon                    |1944353,88647460940|1944353,88647460940|1944353,88647460940|  0,00000000000|2197063,38653564450|2197063,38653564450|2197063,38653564450|1944353,88647460940|1944353,88647460940|1944353,88647460940|2402809,40820312500|2402809,40820312500|2402809,40820312500|2402809,40820312500|2402809,40820312500|2402809,40820312500|2402809,40820312500|2402809,40820312500|2402809,40820312500|2402809,40820312500|2402809,40820312500|2402809,40820312500|2402809,40820312500|2402809,40820312500|2402809,40820312500|2402809,40820312500|2402809,40820312500|2404720,98937988300|2402809,40820312500|2402809,40820312500|2402809,40820312500
Baboon                    |2197063,38653564450|2197063,38653564450|2197063,38653564450|2197063,38653564450|  0,00000000000|2115093,50915527340|2002383,28021240230|2197063,38653564450|2197063,38653564450|2197063,38653564450|2402809,40820312500|2402809,40820312500|2402809,40820312500|2402809,40820312500|2402809,40820312500|2402809,40820312500|2402809,40820312500|2402809,40820312500|2402809,40820312500|2402809,40820312500|2402809,40820312500|2402809,40820312500|2402809,40820312500|2402809,40820312500|2402809,40820312500|2402809,40820312500|2402809,40820312500|2404720,98937988300|2402809,40820312500|2402809,40820312500|2402809,40820312500
Ver_Monkey                |2197063,38653564450|2197063,38653564450|2197063,38653564450|2197063,38653564450|2115093,50915527340|  0,00000000000|2115093,50915527340|2197063,38653564450|2197063,38653564450|2197063,38653564450|2402809,40820312500|2402809,40820312500|2402809,40820312500|2402809,40820312500|2402809,40820312500|2402809,40820312500|2402809,40820312500|2402809,40820312500|2402809,40820312500|2402809,40820312500|2402809,40820312500|2402809,40820312500|2402809,40820312500|2402809,40820312500|2402809,40820312500|2402809,40820312500|2402809,40820312500|2404720,98937988300|2402809,40820312500|2402809,40820312500|2402809,40820312500
Macaca_Thibet             |2197063,38653564450|2197063,38653564450|2197063,38653564450|2197063,38653564450|2002383,28021240230|2115093,50915527340|  0,00000000000|2197063,38653564450|2197063,38653564450|2197063,38653564450|2402809,40820312500|2402809,40820312500|2402809,40820312500|2402809,40820312500|2402809,40820312500|2402809,40820312500|2402809,40820312500|2402809,40820312500|2402809,40820312500|2402809,40820312500|2402809,40820312500|2402809,40820312500|2402809,40820312500|2402809,40820312500|2402809,40820312500|2402809,40820312500|2402809,40820312500|2404720,98937988300|2402809,40820312500|2402809,40820312500|2402809,40820312500
Bor_Oran                  |1917828,71582031250|1917828,71582031250|1917828,71582031250|1944353,88647460940|2197063,38653564450|2197063,38653564450|2197063,38653564450|  0,00000000000|1590591,95666503900|1917828,71582031250|2402809,40820312500|2402809,40820312500|2402809,40820312500|2402809,40820312500|2402809,40820312500|2402809,40820312500|2402809,40820312500|2402809,40820312500|2402809,40820312500|2402809,40820312500|2402809,40820312500|2402809,40820312500|2402809,40820312500|2402809,40820312500|2402809,40820312500|2402809,40820312500|2402809,40820312500|2404720,98937988300|2402809,40820312500|2402809,40820312500|2402809,40820312500
Sum_Oran                  |1917828,71582031250|1917828,71582031250|1917828,71582031250|1944353,88647460940|2197063,38653564450|2197063,38653564450|2197063,38653564450|1590591,95666503900|  0,00000000000|1917828,71582031250|2402809,40820312500|2402809,40820312500|2402809,40820312500|2402809,40820312500|2402809,40820312500|2402809,40820312500|2402809,40820312500|2402809,40820312500|2402809,40820312500|2402809,40820312500|2402809,40820312500|2402809,40820312500|2402809,40820312500|2402809,40820312500|2402809,40820312500|2402809,40820312500|2402809,40820312500|2404720,98937988300|2402809,40820312500|2402809,40820312500|2402809,40820312500
Gorilla                   |1495740,26647949220|1413082,66540527340|1413082,66540527340|1944353,88647460940|2197063,38653564450|2197063,38653564450|2197063,38653564450|1917828,71582031250|1917828,71582031250|  0,00000000000|2402809,40820312500|2402809,40820312500|2402809,40820312500|2402809,40820312500|2402809,40820312500|2402809,40820312500|2402809,40820312500|2402809,40820312500|2402809,40820312500|2402809,40820312500|2402809,40820312500|2402809,40820312500|2402809,40820312500|2402809,40820312500|2402809,40820312500|2402809,40820312500|2402809,40820312500|2404720,98937988300|2402809,40820312500|2402809,40820312500|2402809,40820312500
Cat                       |2402809,40820312500|2402809,40820312500|2402809,40820312500|2402809,40820312500|2402809,40820312500|2402809,40820312500|2402809,40820312500|2402809,40820312500|2402809,40820312500|2402809,40820312500|  0,00000000000|2188925,92272949200|2189642,98535156250|2189642,98535156250|2189642,98535156250|2189642,98535156250|2189642,98535156250|2188925,92272949200|1733470,49377441400|1698758,43249511720|2189642,98535156250|2189642,98535156250|2184680,08184814450|2184680,08184814450|2184680,08184814450|2184680,08184814450|2312543,98229980470|2404720,98937988300|2317951,65374755860|2283797,10278320300|2189642,98535156250
Dog                       |2402809,40820312500|2402809,40820312500|2402809,40820312500|2402809,40820312500|2402809,40820312500|2402809,40820312500|2402809,40820312500|2402809,40820312500|2402809,40820312500|2402809,40820312500|2188925,92272949200|  0,00000000000|2189642,98535156250|2189642,98535156250|2189642,98535156250|2189642,98535156250|2189642,98535156250|1054019,56640625000|2188925,92272949200|2188925,92272949200|2189642,98535156250|2189642,98535156250|2188925,92272949200|2188925,92272949200|2188925,92272949200|2188925,92272949200|2312543,98229980470|2404720,98937988300|2317951,65374755860|2283797,10278320300|2189642,98535156250
Pig                       |2402809,40820312500|2402809,40820312500|2402809,40820312500|2402809,40820312500|2402809,40820312500|2402809,40820312500|2402809,40820312500|2402809,40820312500|2402809,40820312500|2402809,40820312500|2189642,98535156250|2189642,98535156250|  0,00000000000|2123860,30932617200|2123860,30932617200|2123860,30932617200|2123860,30932617200|2189642,98535156250|2189642,98535156250|2189642,98535156250|2144354,51220703120|2144354,51220703120|2189642,98535156250|2189642,98535156250|2189642,98535156250|2189642,98535156250|2312543,98229980470|2404720,98937988300|2317951,65374755860|2283797,10278320300|2123860,30932617200
Sheep                     |2402809,40820312500|2402809,40820312500|2402809,40820312500|2402809,40820312500|2402809,40820312500|2402809,40820312500|2402809,40820312500|2402809,40820312500|2402809,40820312500|2402809,40820312500|2189642,98535156250|2189642,98535156250|2123860,30932617200|  0,00000000000|1586722,42932128900|1799608,14050292970|1799608,14050292970|2189642,98535156250|2189642,98535156250|2189642,98535156250|2144354,51220703120|2144354,51220703120|2189642,98535156250|2189642,98535156250|2189642,98535156250|2189642,98535156250|2312543,98229980470|2404720,98937988300|2317951,65374755860|2283797,10278320300|2112580,04980468750
Goat                      |2402809,40820312500|2402809,40820312500|2402809,40820312500|2402809,40820312500|2402809,40820312500|2402809,40820312500|2402809,40820312500|2402809,40820312500|2402809,40820312500|2402809,40820312500|2189642,98535156250|2189642,98535156250|2123860,30932617200|1586722,42932128900|  0,00000000000|1799608,14050292970|1799608,14050292970|2189642,98535156250|2189642,98535156250|2189642,98535156250|2144354,51220703120|2144354,51220703120|2189642,98535156250|2189642,98535156250|2189642,98535156250|2189642,98535156250|2312543,98229980470|2404720,98937988300|2317951,65374755860|2283797,10278320300|2112580,04980468750
Cow                       |2402809,40820312500|2402809,40820312500|2402809,40820312500|2402809,40820312500|2402809,40820312500|2402809,40820312500|2402809,40820312500|2402809,40820312500|2402809,40820312500|2402809,40820312500|2189642,98535156250|2189642,98535156250|2123860,30932617200|1799608,14050292970|1799608,14050292970|  0,00000000000|1764673,35778808600|2189642,98535156250|2189642,98535156250|2189642,98535156250|2144354,51220703120|2144354,51220703120|2189642,98535156250|2189642,98535156250|2189642,98535156250|2189642,98535156250|2312543,98229980470|2404720,98937988300|2317951,65374755860|2283797,10278320300|2112580,04980468750
Buffalo                   |2402809,40820312500|2402809,40820312500|2402809,40820312500|2402809,40820312500|2402809,40820312500|2402809,40820312500|2402809,40820312500|2402809,40820312500|2402809,40820312500|2402809,40820312500|2189642,98535156250|2189642,98535156250|2123860,30932617200|1799608,14050292970|1799608,14050292970|1764673,35778808600|  0,00000000000|2189642,98535156250|2189642,98535156250|2189642,98535156250|2144354,51220703120|2144354,51220703120|2189642,98535156250|2189642,98535156250|2189642,98535156250|2189642,98535156250|2312543,98229980470|2404720,98937988300|2317951,65374755860|2283797,10278320300|2112580,04980468750
Wolf                      |2402809,40820312500|2402809,40820312500|2402809,40820312500|2402809,40820312500|2402809,40820312500|2402809,40820312500|2402809,40820312500|2402809,40820312500|2402809,40820312500|2402809,40820312500|2188925,92272949200|1054019,56640625000|2189642,98535156250|2189642,98535156250|2189642,98535156250|2189642,98535156250|2189642,98535156250|  0,00000000000|2188925,92272949200|2188925,92272949200|2189642,98535156250|2189642,98535156250|2188925,92272949200|2188925,92272949200|2188925,92272949200|2188925,92272949200|2312543,98229980470|2404720,98937988300|2317951,65374755860|2283797,10278320300|2189642,98535156250
Tiger                     |2402809,40820312500|2402809,40820312500|2402809,40820312500|2402809,40820312500|2402809,40820312500|2402809,40820312500|2402809,40820312500|2402809,40820312500|2402809,40820312500|2402809,40820312500|1733470,49377441400|2188925,92272949200|2189642,98535156250|2189642,98535156250|2189642,98535156250|2189642,98535156250|2189642,98535156250|2188925,92272949200|  0,00000000000|1733470,49377441400|2189642,98535156250|2189642,98535156250|2184680,08184814450|2184680,08184814450|2184680,08184814450|2184680,08184814450|2312543,98229980470|2404720,98937988300|2317951,65374755860|2283797,10278320300|2189642,98535156250
Leopard                   |2402809,40820312500|2402809,40820312500|2402809,40820312500|2402809,40820312500|2402809,40820312500|2402809,40820312500|2402809,40820312500|2402809,40820312500|2402809,40820312500|2402809,40820312500|1698758,43249511720|2188925,92272949200|2189642,98535156250|2189642,98535156250|2189642,98535156250|2189642,98535156250|2189642,98535156250|2188925,92272949200|1733470,49377441400|  0,00000000000|2189642,98535156250|2189642,98535156250|2184680,08184814450|2184680,08184814450|2184680,08184814450|2184680,08184814450|2312543,98229980470|2404720,98937988300|2317951,65374755860|2283797,10278320300|2189642,98535156250
Indian_Rhino              |2402809,40820312500|2402809,40820312500|2402809,40820312500|2402809,40820312500|2402809,40820312500|2402809,40820312500|2402809,40820312500|2402809,40820312500|2402809,40820312500|2402809,40820312500|2189642,98535156250|2189642,98535156250|2144354,51220703120|2144354,51220703120|2144354,51220703120|2144354,51220703120|2144354,51220703120|2189642,98535156250|2189642,98535156250|2189642,98535156250|  0,00000000000|1627972,05834960940|2189642,98535156250|2189642,98535156250|2189642,98535156250|2189642,98535156250|2312543,98229980470|2404720,98937988300|2317951,65374755860|2283797,10278320300|2144354,51220703120
White_Rhino               |2402809,40820312500|2402809,40820312500|2402809,40820312500|2402809,40820312500|2402809,40820312500|2402809,40820312500|2402809,40820312500|2402809,40820312500|2402809,40820312500|2402809,40820312500|2189642,98535156250|2189642,98535156250|2144354,51220703120|2144354,51220703120|2144354,51220703120|2144354,51220703120|2144354,51220703120|2189642,98535156250|2189642,98535156250|2189642,98535156250|1627972,05834960940|  0,00000000000|2189642,98535156250|2189642,98535156250|2189642,98535156250|2189642,98535156250|2312543,98229980470|2404720,98937988300|2317951,65374755860|2283797,10278320300|2144354,51220703120
Black_Bear                |2402809,40820312500|2402809,40820312500|2402809,40820312500|2402809,40820312500|2402809,40820312500|2402809,40820312500|2402809,40820312500|2402809,40820312500|2402809,40820312500|2402809,40820312500|2184680,08184814450|2188925,92272949200|2189642,98535156250|2189642,98535156250|2189642,98535156250|2189642,98535156250|2189642,98535156250|2188925,92272949200|2184680,08184814450|2184680,08184814450|2189642,98535156250|2189642,98535156250|  0,00000000000|1499010,21240234380|1499010,21240234380|1912794,11834716800|2312543,98229980470|2404720,98937988300|2317951,65374755860|2283797,10278320300|2189642,98535156250
Brown_Bear                |2402809,40820312500|2402809,40820312500|2402809,40820312500|2402809,40820312500|2402809,40820312500|2402809,40820312500|2402809,40820312500|2402809,40820312500|2402809,40820312500|2402809,40820312500|2184680,08184814450|2188925,92272949200|2189642,98535156250|2189642,98535156250|2189642,98535156250|2189642,98535156250|2189642,98535156250|2188925,92272949200|2184680,08184814450|2184680,08184814450|2189642,98535156250|2189642,98535156250|1499010,21240234380|  0,00000000000|940406,22552490230|1912794,11834716800|2312543,98229980470|2404720,98937988300|2317951,65374755860|2283797,10278320300|2189642,98535156250
Polar_Bear                |2402809,40820312500|2402809,40820312500|2402809,40820312500|2402809,40820312500|2402809,40820312500|2402809,40820312500|2402809,40820312500|2402809,40820312500|2402809,40820312500|2402809,40820312500|2184680,08184814450|2188925,92272949200|2189642,98535156250|2189642,98535156250|2189642,98535156250|2189642,98535156250|2189642,98535156250|2188925,92272949200|2184680,08184814450|2184680,08184814450|2189642,98535156250|2189642,98535156250|1499010,21240234380|940406,22552490230|  0,00000000000|1912794,11834716800|2312543,98229980470|2404720,98937988300|2317951,65374755860|2283797,10278320300|2189642,98535156250
Giant_Panda               |2402809,40820312500|2402809,40820312500|2402809,40820312500|2402809,40820312500|2402809,40820312500|2402809,40820312500|2402809,40820312500|2402809,40820312500|2402809,40820312500|2402809,40820312500|2184680,08184814450|2188925,92272949200|2189642,98535156250|2189642,98535156250|2189642,98535156250|2189642,98535156250|2189642,98535156250|2188925,92272949200|2184680,08184814450|2184680,08184814450|2189642,98535156250|2189642,98535156250|1912794,11834716800|1912794,11834716800|1912794,11834716800|  0,00000000000|2312543,98229980470|2404720,98937988300|2317951,65374755860|2283797,10278320300|2189642,98535156250
Rabbit                    |2402809,40820312500|2402809,40820312500|2402809,40820312500|2402809,40820312500|2402809,40820312500|2402809,40820312500|2402809,40820312500|2402809,40820312500|2402809,40820312500|2402809,40820312500|2312543,98229980470|2312543,98229980470|2312543,98229980470|2312543,98229980470|2312543,98229980470|2312543,98229980470|2312543,98229980470|2312543,98229980470|2312543,98229980470|2312543,98229980470|2312543,98229980470|2312543,98229980470|2312543,98229980470|2312543,98229980470|2312543,98229980470|2312543,98229980470|  0,00000000000|2404720,98937988300|2317951,65374755860|2312543,98229980470|2312543,98229980470
Hedgehog                  |2404720,98937988300|2404720,98937988300|2404720,98937988300|2404720,98937988300|2404720,98937988300|2404720,98937988300|2404720,98937988300|2404720,98937988300|2404720,98937988300|2404720,98937988300|2404720,98937988300|2404720,98937988300|2404720,98937988300|2404720,98937988300|2404720,98937988300|2404720,98937988300|2404720,98937988300|2404720,98937988300|2404720,98937988300|2404720,98937988300|2404720,98937988300|2404720,98937988300|2404720,98937988300|2404720,98937988300|2404720,98937988300|2404720,98937988300|2404720,98937988300|  0,00000000000|2404720,98937988300|2404720,98937988300|2404720,98937988300
Dormouse                  |2402809,40820312500|2402809,40820312500|2402809,40820312500|2402809,40820312500|2402809,40820312500|2402809,40820312500|2402809,40820312500|2402809,40820312500|2402809,40820312500|2402809,40820312500|2317951,65374755860|2317951,65374755860|2317951,65374755860|2317951,65374755860|2317951,65374755860|2317951,65374755860|2317951,65374755860|2317951,65374755860|2317951,65374755860|2317951,65374755860|2317951,65374755860|2317951,65374755860|2317951,65374755860|2317951,65374755860|2317951,65374755860|2317951,65374755860|2317951,65374755860|2404720,98937988300|  0,00000000000|2317951,65374755860|2317951,65374755860
Squirrel                  |2402809,40820312500|2402809,40820312500|2402809,40820312500|2402809,40820312500|2402809,40820312500|2402809,40820312500|2402809,40820312500|2402809,40820312500|2402809,40820312500|2402809,40820312500|2283797,10278320300|2283797,10278320300|2283797,10278320300|2283797,10278320300|2283797,10278320300|2283797,10278320300|2283797,10278320300|2283797,10278320300|2283797,10278320300|2283797,10278320300|2283797,10278320300|2283797,10278320300|2283797,10278320300|2283797,10278320300|2283797,10278320300|2283797,10278320300|2312543,98229980470|2404720,98937988300|2317951,65374755860|  0,00000000000|2283797,10278320300
Blue_Whale                |2402809,40820312500|2402809,40820312500|2402809,40820312500|2402809,40820312500|2402809,40820312500|2402809,40820312500|2402809,40820312500|2402809,40820312500|2402809,40820312500|2402809,40820312500|2189642,98535156250|2189642,98535156250|2123860,30932617200|2112580,04980468750|2112580,04980468750|2112580,04980468750|2112580,04980468750|2189642,98535156250|2189642,98535156250|2189642,98535156250|2144354,51220703120|2144354,51220703120|2189642,98535156250|2189642,98535156250|2189642,98535156250|2189642,98535156250|2312543,98229980470|2404720,98937988300|2317951,65374755860|2283797,10278320300|  0,00000000000
                           |Human          |Pig_Chim       |Com_Chim       |Gibbon         |Baboon         |Ver_Monkey     |Macaca_Thibet  |Bor_Oran       |Sum_Oran       |Gorilla        |Cat            |Dog            |Pig            |Sheep          |Goat           |Cow            |Buffalo        |Wolf           |Tiger          |Leopard        |Indian_Rhino   |White_Rhino    |Black_Bear     |Brown_Bear     |Polar_Bear     |Giant_Panda    |Rabbit         |Hedgehog       |Dormouse       |Squirrel       |Blue_Whale     
Human                     |  0,00000000000|  6,28686170641|  6,28686170641|  8,44815284220|  9,66563438549|  9,66563438549|  9,66563438549|  8,32036221424|  8,32036221424|  6,28686170641| 10,65685942421| 10,65685942421| 10,65685942421| 10,65685942421| 10,65685942421| 10,65685942421| 10,65685942421| 10,65685942421| 10,65685942421| 10,65685942421| 10,65685942421| 10,65685942421| 10,65685942421| 10,65685942421| 10,65685942421| 10,65685942421| 10,65685942421| 10,66606887143| 10,65685942421| 10,65685942421| 10,65685942421
Pig_Chim                  |  6,28686170641|  0,00000000000|  4,07614842745|  8,44815284220|  9,66563438549|  9,66563438549|  9,66563438549|  8,32036221424|  8,32036221424|  5,88864120541| 10,65685942421| 10,65685942421| 10,65685942421| 10,65685942421| 10,65685942421| 10,65685942421| 10,65685942421| 10,65685942421| 10,65685942421| 10,65685942421| 10,65685942421| 10,65685942421| 10,65685942421| 10,65685942421| 10,65685942421| 10,65685942421| 10,65685942421| 10,66606887143| 10,65685942421| 10,65685942421| 10,65685942421
Com_Chim                  |  6,28686170641|  4,07614842745|  0,00000000000|  8,44815284220|  9,66563438549|  9,66563438549|  9,66563438549|  8,32036221424|  8,32036221424|  5,88864120541| 10,65685942421| 10,65685942421| 10,65685942421| 10,65685942421| 10,65685942421| 10,65685942421| 10,65685942421| 10,65685942421| 10,65685942421| 10,65685942421| 10,65685942421| 10,65685942421| 10,65685942421| 10,65685942421| 10,65685942421| 10,65685942421| 10,65685942421| 10,66606887143| 10,65685942421| 10,65685942421| 10,65685942421
Gibbon                    |  8,44815284220|  8,44815284220|  8,44815284220|  0,00000000000|  9,66563438549|  9,66563438549|  9,66563438549|  8,44815284220|  8,44815284220|  8,44815284220| 10,65685942421| 10,65685942421| 10,65685942421| 10,65685942421| 10,65685942421| 10,65685942421| 10,65685942421| 10,65685942421| 10,65685942421| 10,65685942421| 10,65685942421| 10,65685942421| 10,65685942421| 10,65685942421| 10,65685942421| 10,65685942421| 10,65685942421| 10,66606887143| 10,65685942421| 10,65685942421| 10,65685942421
Baboon                    |  9,66563438549|  9,66563438549|  9,66563438549|  9,66563438549|  0,00000000000|  9,27072713905|  8,72772173781|  9,66563438549|  9,66563438549|  9,66563438549| 10,65685942421| 10,65685942421| 10,65685942421| 10,65685942421| 10,65685942421| 10,65685942421| 10,65685942421| 10,65685942421| 10,65685942421| 10,65685942421| 10,65685942421| 10,65685942421| 10,65685942421| 10,65685942421| 10,65685942421| 10,65685942421| 10,65685942421| 10,66606887143| 10,65685942421| 10,65685942421| 10,65685942421
Ver_Monkey                |  9,66563438549|  9,66563438549|  9,66563438549|  9,66563438549|  9,27072713905|  0,00000000000|  9,27072713905|  9,66563438549|  9,66563438549|  9,66563438549| 10,65685942421| 10,65685942421| 10,65685942421| 10,65685942421| 10,65685942421| 10,65685942421| 10,65685942421| 10,65685942421| 10,65685942421| 10,65685942421| 10,65685942421| 10,65685942421| 10,65685942421| 10,65685942421| 10,65685942421| 10,65685942421| 10,65685942421| 10,66606887143| 10,65685942421| 10,65685942421| 10,65685942421
Macaca_Thibet             |  9,66563438549|  9,66563438549|  9,66563438549|  9,66563438549|  8,72772173781|  9,27072713905|  0,00000000000|  9,66563438549|  9,66563438549|  9,66563438549| 10,65685942421| 10,65685942421| 10,65685942421| 10,65685942421| 10,65685942421| 10,65685942421| 10,65685942421| 10,65685942421| 10,65685942421| 10,65685942421| 10,65685942421| 10,65685942421| 10,65685942421| 10,65685942421| 10,65685942421| 10,65685942421| 10,65685942421| 10,66606887143| 10,65685942421| 10,65685942421| 10,65685942421
Bor_Oran                  |  8,32036221424|  8,32036221424|  8,32036221424|  8,44815284220|  9,66563438549|  9,66563438549|  9,66563438549|  0,00000000000|  6,74382981454|  8,32036221424| 10,65685942421| 10,65685942421| 10,65685942421| 10,65685942421| 10,65685942421| 10,65685942421| 10,65685942421| 10,65685942421| 10,65685942421| 10,65685942421| 10,65685942421| 10,65685942421| 10,65685942421| 10,65685942421| 10,65685942421| 10,65685942421| 10,65685942421| 10,66606887143| 10,65685942421| 10,65685942421| 10,65685942421
Sum_Oran                  |  8,32036221424|  8,32036221424|  8,32036221424|  8,44815284220|  9,66563438549|  9,66563438549|  9,66563438549|  6,74382981454|  0,00000000000|  8,32036221424| 10,65685942421| 10,65685942421| 10,65685942421| 10,65685942421| 10,65685942421| 10,65685942421| 10,65685942421| 10,65685942421| 10,65685942421| 10,65685942421| 10,65685942421| 10,65685942421| 10,65685942421| 10,65685942421| 10,65685942421| 10,65685942421| 10,65685942421| 10,66606887143| 10,65685942421| 10,65685942421| 10,65685942421
Gorilla                   |  6,28686170641|  5,88864120541|  5,88864120541|  8,44815284220|  9,66563438549|  9,66563438549|  9,66563438549|  8,32036221424|  8,32036221424|  0,00000000000| 10,65685942421| 10,65685942421| 10,65685942421| 10,65685942421| 10,65685942421| 10,65685942421| 10,65685942421| 10,65685942421| 10,65685942421| 10,65685942421| 10,65685942421| 10,65685942421| 10,65685942421| 10,65685942421| 10,65685942421| 10,65685942421| 10,65685942421| 10,66606887143| 10,65685942421| 10,65685942421| 10,65685942421
Cat                       | 10,65685942421| 10,65685942421| 10,65685942421| 10,65685942421| 10,65685942421| 10,65685942421| 10,65685942421| 10,65685942421| 10,65685942421| 10,65685942421|  0,00000000000|  9,62643042999|  9,62988503106|  9,62988503106|  9,62988503106|  9,62988503106|  9,62988503106|  9,62643042999|  7,43217743036|  7,26494472274|  9,62988503106|  9,62988503106|  9,60597519223|  9,60597519223|  9,60597519223|  9,60597519223| 10,22198661568| 10,66606887143| 10,24803921829| 10,08349243470|  9,62988503106
Dog                       | 10,65685942421| 10,65685942421| 10,65685942421| 10,65685942421| 10,65685942421| 10,65685942421| 10,65685942421| 10,65685942421| 10,65685942421| 10,65685942421|  9,62643042999|  0,00000000000|  9,62988503106|  9,62988503106|  9,62988503106|  9,62988503106|  9,62988503106|  4,15877867234|  9,62643042999|  9,62643042999|  9,62988503106|  9,62988503106|  9,62643042999|  9,62643042999|  9,62643042999|  9,62643042999| 10,22198661568| 10,66606887143| 10,24803921829| 10,08349243470|  9,62988503106
Pig                       | 10,65685942421| 10,65685942421| 10,65685942421| 10,65685942421| 10,65685942421| 10,65685942421| 10,65685942421| 10,65685942421| 10,65685942421| 10,65685942421|  9,62988503106|  9,62988503106|  0,00000000000|  9,31296305579|  9,31296305579|  9,31296305579|  9,31296305579|  9,62988503106|  9,62988503106|  9,62988503106|  9,41169821907|  9,41169821907|  9,62988503106|  9,62988503106|  9,62988503106|  9,62988503106| 10,22198661568| 10,66606887143| 10,24803921829| 10,08349243470|  9,31296305579
Sheep                     | 10,65685942421| 10,65685942421| 10,65685942421| 10,65685942421| 10,65685942421| 10,65685942421| 10,65685942421| 10,65685942421| 10,65685942421| 10,65685942421|  9,62988503106|  9,62988503106|  9,31296305579|  0,00000000000|  6,72518754695|  7,75080955218|  7,75080955218|  9,62988503106|  9,62988503106|  9,62988503106|  9,41169821907|  9,41169821907|  9,62988503106|  9,62988503106|  9,62988503106|  9,62988503106| 10,22198661568| 10,66606887143| 10,24803921829| 10,08349243470|  9,25861801625
Goat                      | 10,65685942421| 10,65685942421| 10,65685942421| 10,65685942421| 10,65685942421| 10,65685942421| 10,65685942421| 10,65685942421| 10,65685942421| 10,65685942421|  9,62988503106|  9,62988503106|  9,31296305579|  6,72518754695|  0,00000000000|  7,75080955218|  7,75080955218|  9,62988503106|  9,62988503106|  9,62988503106|  9,41169821907|  9,41169821907|  9,62988503106|  9,62988503106|  9,62988503106|  9,62988503106| 10,22198661568| 10,66606887143| 10,24803921829| 10,08349243470|  9,25861801625
Cow                       | 10,65685942421| 10,65685942421| 10,65685942421| 10,65685942421| 10,65685942421| 10,65685942421| 10,65685942421| 10,65685942421| 10,65685942421| 10,65685942421|  9,62988503106|  9,62988503106|  9,31296305579|  7,75080955218|  7,75080955218|  0,00000000000|  7,58250383687|  9,62988503106|  9,62988503106|  9,62988503106|  9,41169821907|  9,41169821907|  9,62988503106|  9,62988503106|  9,62988503106|  9,62988503106| 10,22198661568| 10,66606887143| 10,24803921829| 10,08349243470|  9,25861801625
Buffalo                   | 10,65685942421| 10,65685942421| 10,65685942421| 10,65685942421| 10,65685942421| 10,65685942421| 10,65685942421| 10,65685942421| 10,65685942421| 10,65685942421|  9,62988503106|  9,62988503106|  9,31296305579|  7,75080955218|  7,75080955218|  7,58250383687|  0,00000000000|  9,62988503106|  9,62988503106|  9,62988503106|  9,41169821907|  9,41169821907|  9,62988503106|  9,62988503106|  9,62988503106|  9,62988503106| 10,22198661568| 10,66606887143| 10,24803921829| 10,08349243470|  9,25861801625
Wolf                      | 10,65685942421| 10,65685942421| 10,65685942421| 10,65685942421| 10,65685942421| 10,65685942421| 10,65685942421| 10,65685942421| 10,65685942421| 10,65685942421|  9,62643042999|  4,15877867234|  9,62988503106|  9,62988503106|  9,62988503106|  9,62988503106|  9,62988503106|  0,00000000000|  9,62643042999|  9,62643042999|  9,62988503106|  9,62988503106|  9,62643042999|  9,62643042999|  9,62643042999|  9,62643042999| 10,22198661568| 10,66606887143| 10,24803921829| 10,08349243470|  9,62988503106
Tiger                     | 10,65685942421| 10,65685942421| 10,65685942421| 10,65685942421| 10,65685942421| 10,65685942421| 10,65685942421| 10,65685942421| 10,65685942421| 10,65685942421|  7,43217743036|  9,62643042999|  9,62988503106|  9,62988503106|  9,62988503106|  9,62988503106|  9,62988503106|  9,62643042999|  0,00000000000|  7,43217743036|  9,62988503106|  9,62988503106|  9,60597519223|  9,60597519223|  9,60597519223|  9,60597519223| 10,22198661568| 10,66606887143| 10,24803921829| 10,08349243470|  9,62988503106
Leopard                   | 10,65685942421| 10,65685942421| 10,65685942421| 10,65685942421| 10,65685942421| 10,65685942421| 10,65685942421| 10,65685942421| 10,65685942421| 10,65685942421|  7,26494472274|  9,62643042999|  9,62988503106|  9,62988503106|  9,62988503106|  9,62988503106|  9,62988503106|  9,62643042999|  7,43217743036|  0,00000000000|  9,62988503106|  9,62988503106|  9,60597519223|  9,60597519223|  9,60597519223|  9,60597519223| 10,22198661568| 10,66606887143| 10,24803921829| 10,08349243470|  9,62988503106
Indian_Rhino              | 10,65685942421| 10,65685942421| 10,65685942421| 10,65685942421| 10,65685942421| 10,65685942421| 10,65685942421| 10,65685942421| 10,65685942421| 10,65685942421|  9,62988503106|  9,62988503106|  9,41169821907|  9,41169821907|  9,41169821907|  9,41169821907|  9,41169821907|  9,62988503106|  9,62988503106|  9,62988503106|  0,00000000000|  6,92391637194|  9,62988503106|  9,62988503106|  9,62988503106|  9,62988503106| 10,22198661568| 10,66606887143| 10,24803921829| 10,08349243470|  9,41169821907
White_Rhino               | 10,65685942421| 10,65685942421| 10,65685942421| 10,65685942421| 10,65685942421| 10,65685942421| 10,65685942421| 10,65685942421| 10,65685942421| 10,65685942421|  9,62988503106|  9,62988503106|  9,41169821907|  9,41169821907|  9,41169821907|  9,41169821907|  9,41169821907|  9,62988503106|  9,62988503106|  9,62988503106|  6,92391637194|  0,00000000000|  9,62988503106|  9,62988503106|  9,62988503106|  9,62988503106| 10,22198661568| 10,66606887143| 10,24803921829| 10,08349243470|  9,41169821907
Black_Bear                | 10,65685942421| 10,65685942421| 10,65685942421| 10,65685942421| 10,65685942421| 10,65685942421| 10,65685942421| 10,65685942421| 10,65685942421| 10,65685942421|  9,60597519223|  9,62643042999|  9,62988503106|  9,62988503106|  9,62988503106|  9,62988503106|  9,62988503106|  9,62643042999|  9,60597519223|  9,60597519223|  9,62988503106|  9,62988503106|  0,00000000000|  6,30261536350|  6,30261536350|  8,29610697453| 10,22198661568| 10,66606887143| 10,24803921829| 10,08349243470|  9,62988503106
Brown_Bear                | 10,65685942421| 10,65685942421| 10,65685942421| 10,65685942421| 10,65685942421| 10,65685942421| 10,65685942421| 10,65685942421| 10,65685942421| 10,65685942421|  9,60597519223|  9,62643042999|  9,62988503106|  9,62988503106|  9,62988503106|  9,62988503106|  9,62988503106|  9,62643042999|  9,60597519223|  9,60597519223|  9,62988503106|  9,62988503106|  6,30261536350|  0,00000000000|  3,61142233805|  8,29610697453| 10,22198661568| 10,66606887143| 10,24803921829| 10,08349243470|  9,62988503106
Polar_Bear                | 10,65685942421| 10,65685942421| 10,65685942421| 10,65685942421| 10,65685942421| 10,65685942421| 10,65685942421| 10,65685942421| 10,65685942421| 10,65685942421|  9,60597519223|  9,62643042999|  9,62988503106|  9,62988503106|  9,62988503106|  9,62988503106|  9,62988503106|  9,62643042999|  9,60597519223|  9,60597519223|  9,62988503106|  9,62988503106|  6,30261536350|  3,61142233805|  0,00000000000|  8,29610697453| 10,22198661568| 10,66606887143| 10,24803921829| 10,08349243470|  9,62988503106
Giant_Panda               | 10,65685942421| 10,65685942421| 10,65685942421| 10,65685942421| 10,65685942421| 10,65685942421| 10,65685942421| 10,65685942421| 10,65685942421| 10,65685942421|  9,60597519223|  9,62643042999|  9,62988503106|  9,62988503106|  9,62988503106|  9,62988503106|  9,62988503106|  9,62643042999|  9,60597519223|  9,60597519223|  9,62988503106|  9,62988503106|  8,29610697453|  8,29610697453|  8,29610697453|  0,00000000000| 10,22198661568| 10,66606887143| 10,24803921829| 10,08349243470|  9,62988503106
Rabbit                    | 10,65685942421| 10,65685942421| 10,65685942421| 10,65685942421| 10,65685942421| 10,65685942421| 10,65685942421| 10,65685942421| 10,65685942421| 10,65685942421| 10,22198661568| 10,22198661568| 10,22198661568| 10,22198661568| 10,22198661568| 10,22198661568| 10,22198661568| 10,22198661568| 10,22198661568| 10,22198661568| 10,22198661568| 10,22198661568| 10,22198661568| 10,22198661568| 10,22198661568| 10,22198661568|  0,00000000000| 10,66606887143| 10,24803921829| 10,22198661568| 10,22198661568
Hedgehog                  | 10,66606887143| 10,66606887143| 10,66606887143| 10,66606887143| 10,66606887143| 10,66606887143| 10,66606887143| 10,66606887143| 10,66606887143| 10,66606887143| 10,66606887143| 10,66606887143| 10,66606887143| 10,66606887143| 10,66606887143| 10,66606887143| 10,66606887143| 10,66606887143| 10,66606887143| 10,66606887143| 10,66606887143| 10,66606887143| 10,66606887143| 10,66606887143| 10,66606887143| 10,66606887143| 10,66606887143|  0,00000000000| 10,66606887143| 10,66606887143| 10,66606887143
Dormouse                  | 10,65685942421| 10,65685942421| 10,65685942421| 10,65685942421| 10,65685942421| 10,65685942421| 10,65685942421| 10,65685942421| 10,65685942421| 10,65685942421| 10,24803921829| 10,24803921829| 10,24803921829| 10,24803921829| 10,24803921829| 10,24803921829| 10,24803921829| 10,24803921829| 10,24803921829| 10,24803921829| 10,24803921829| 10,24803921829| 10,24803921829| 10,24803921829| 10,24803921829| 10,24803921829| 10,24803921829| 10,66606887143|  0,00000000000| 10,24803921829| 10,24803921829
Squirrel                  | 10,65685942421| 10,65685942421| 10,65685942421| 10,65685942421| 10,65685942421| 10,65685942421| 10,65685942421| 10,65685942421| 10,65685942421| 10,65685942421| 10,08349243470| 10,08349243470| 10,08349243470| 10,08349243470| 10,08349243470| 10,08349243470| 10,08349243470| 10,08349243470| 10,08349243470| 10,08349243470| 10,08349243470| 10,08349243470| 10,08349243470| 10,08349243470| 10,08349243470| 10,08349243470| 10,22198661568| 10,66606887143| 10,24803921829|  0,00000000000| 10,08349243470
Blue_Whale                | 10,65685942421| 10,65685942421| 10,65685942421| 10,65685942421| 10,65685942421| 10,65685942421| 10,65685942421| 10,65685942421| 10,65685942421| 10,65685942421|  9,62988503106|  9,62988503106|  9,31296305579|  9,25861801625|  9,25861801625|  9,25861801625|  9,25861801625|  9,62988503106|  9,62988503106|  9,62988503106|  9,41169821907|  9,41169821907|  9,62988503106|  9,62988503106|  9,62988503106|  9,62988503106| 10,22198661568| 10,66606887143| 10,24803921829| 10,08349243470|  0,00000000000
                           |Human          |Pig_Chim       |Com_Chim       |Gibbon         |Baboon         |Ver_Monkey     |Macaca_Thibet  |Bor_Oran       |Sum_Oran       |Gorilla        |Cat            |Dog            |Pig            |Sheep          |Goat           |Cow            |Buffalo        |Wolf           |Tiger          |Leopard        |Indian_Rhino   |White_Rhino    |Black_Bear     |Brown_Bear     |Polar_Bear     |Giant_Panda    |Rabbit         |Hedgehog       |Dormouse       |Squirrel       |Blue_Whale     
Human                     |  0,00000000000|  4,00000000000|  4,00000000000|  4,00000000000|  7,00000000000|  6,00000000000|  7,00000000000|  4,00000000000|  4,00000000000|  3,00000000000| 14,00000000000| 12,00000000000| 12,00000000000| 15,00000000000| 15,00000000000| 15,00000000000| 15,00000000000| 12,00000000000| 13,00000000000| 14,00000000000| 12,00000000000| 12,00000000000| 14,00000000000| 15,00000000000| 15,00000000000| 13,00000000000|  8,00000000000|  7,00000000000|  7,00000000000|  9,00000000000| 13,00000000000
Pig_Chim                  |  4,00000000000|  0,00000000000|  2,00000000000|  6,00000000000|  9,00000000000|  8,00000000000|  9,00000000000|  6,00000000000|  6,00000000000|  3,00000000000| 16,00000000000| 14,00000000000| 14,00000000000| 17,00000000000| 17,00000000000| 17,00000000000| 17,00000000000| 14,00000000000| 15,00000000000| 16,00000000000| 14,00000000000| 14,00000000000| 16,00000000000| 17,00000000000| 17,00000000000| 15,00000000000| 10,00000000000|  9,00000000000|  9,00000000000| 11,00000000000| 15,00000000000
Com_Chim                  |  4,00000000000|  2,00000000000|  0,00000000000|  6,00000000000|  9,00000000000|  8,00000000000|  9,00000000000|  6,00000000000|  6,00000000000|  3,00000000000| 16,00000000000| 14,00000000000| 14,00000000000| 17,00000000000| 17,00000000000| 17,00000000000| 17,00000000000| 14,00000000000| 15,00000000000| 16,00000000000| 14,00000000000| 14,00000000000| 16,00000000000| 17,00000000000| 17,00000000000| 15,00000000000| 10,00000000000|  9,00000000000|  9,00000000000| 11,00000000000| 15,00000000000
Gibbon                    |  4,00000000000|  6,00000000000|  6,00000000000|  0,00000000000|  5,00000000000|  4,00000000000|  5,00000000000|  4,00000000000|  4,00000000000|  5,00000000000| 12,00000000000| 10,00000000000| 10,00000000000| 13,00000000000| 13,00000000000| 13,00000000000| 13,00000000000| 10,00000000000| 11,00000000000| 12,00000000000| 10,00000000000| 10,00000000000| 12,00000000000| 13,00000000000| 13,00000000000| 11,00000000000|  6,00000000000|  5,00000000000|  5,00000000000|  7,00000000000| 11,00000000000
Baboon                    |  7,00000000000|  9,00000000000|  9,00000000000|  5,00000000000|  0,00000000000|  3,00000000000|  2,00000000000|  7,00000000000|  7,00000000000|  8,00000000000| 13,00000000000| 11,00000000000| 11,00000000000| 14,00000000000| 14,00000000000| 14,00000000000| 14,00000000000| 11,00000000000| 12,00000000000| 13,00000000000| 11,00000000000| 11,00000000000| 13,00000000000| 14,00000000000| 14,00000000000| 12,00000000000|  7,00000000000|  6,00000000000|  6,00000000000|  8,00000000000| 12,00000000000
Ver_Monkey                |  6,00000000000|  8,00000000000|  8,00000000000|  4,00000000000|  3,00000000000|  0,00000000000|  3,00000000000|  6,00000000000|  6,00000000000|  7,00000000000| 12,00000000000| 10,00000000000| 10,00000000000| 13,00000000000| 13,00000000000| 13,00000000000| 13,00000000000| 10,00000000000| 11,00000000000| 12,00000000000| 10,00000000000| 10,00000000000| 12,00000000000| 13,00000000000| 13,00000000000| 11,00000000000|  6,00000000000|  5,00000000000|  5,00000000000|  7,00000000000| 11,00000000000
Macaca_Thibet             |  7,00000000000|  9,00000000000|  9,00000000000|  5,00000000000|  2,00000000000|  3,00000000000|  0,00000000000|  7,00000000000|  7,00000000000|  8,00000000000| 13,00000000000| 11,00000000000| 11,00000000000| 14,00000000000| 14,00000000000| 14,00000000000| 14,00000000000| 11,00000000000| 12,00000000000| 13,00000000000| 11,00000000000| 11,00000000000| 13,00000000000| 14,00000000000| 14,00000000000| 12,00000000000|  7,00000000000|  6,00000000000|  6,00000000000|  8,00000000000| 12,00000000000
Bor_Oran                  |  4,00000000000|  6,00000000000|  6,00000000000|  4,00000000000|  7,00000000000|  6,00000000000|  7,00000000000|  0,00000000000|  2,00000000000|  5,00000000000| 14,00000000000| 12,00000000000| 12,00000000000| 15,00000000000| 15,00000000000| 15,00000000000| 15,00000000000| 12,00000000000| 13,00000000000| 14,00000000000| 12,00000000000| 12,00000000000| 14,00000000000| 15,00000000000| 15,00000000000| 13,00000000000|  8,00000000000|  7,00000000000|  7,00000000000|  9,00000000000| 13,00000000000
Sum_Oran                  |  4,00000000000|  6,00000000000|  6,00000000000|  4,00000000000|  7,00000000000|  6,00000000000|  7,00000000000|  2,00000000000|  0,00000000000|  5,00000000000| 14,00000000000| 12,00000000000| 12,00000000000| 15,00000000000| 15,00000000000| 15,00000000000| 15,00000000000| 12,00000000000| 13,00000000000| 14,00000000000| 12,00000000000| 12,00000000000| 14,00000000000| 15,00000000000| 15,00000000000| 13,00000000000|  8,00000000000|  7,00000000000|  7,00000000000|  9,00000000000| 13,00000000000
Gorilla                   |  3,00000000000|  3,00000000000|  3,00000000000|  5,00000000000|  8,00000000000|  7,00000000000|  8,00000000000|  5,00000000000|  5,00000000000|  0,00000000000| 15,00000000000| 13,00000000000| 13,00000000000| 16,00000000000| 16,00000000000| 16,00000000000| 16,00000000000| 13,00000000000| 14,00000000000| 15,00000000000| 13,00000000000| 13,00000000000| 15,00000000000| 16,00000000000| 16,00000000000| 14,00000000000|  9,00000000000|  8,00000000000|  8,00000000000| 10,00000000000| 14,00000000000
Cat                       | 14,00000000000| 16,00000000000| 16,00000000000| 12,00000000000| 13,00000000000| 12,00000000000| 13,00000000000| 14,00000000000| 14,00000000000| 15,00000000000|  0,00000000000|  6,00000000000|  8,00000000000| 11,00000000000| 11,00000000000| 11,00000000000| 11,00000000000|  6,00000000000|  3,00000000000|  2,00000000000|  8,00000000000|  8,00000000000|  6,00000000000|  7,00000000000|  7,00000000000|  5,00000000000|  8,00000000000| 11,00000000000|  9,00000000000|  7,00000000000|  9,00000000000
Dog                       | 12,00000000000| 14,00000000000| 14,00000000000| 10,00000000000| 11,00000000000| 10,00000000000| 11,00000000000| 12,00000000000| 12,00000000000| 13,00000000000|  6,00000000000|  0,00000000000|  6,00000000000|  9,00000000000|  9,00000000000|  9,00000000000|  9,00000000000|  2,00000000000|  5,00000000000|  6,00000000000|  6,00000000000|  6,00000000000|  6,00000000000|  7,00000000000|  7,00000000000|  5,00000000000|  6,00000000000|  9,00000000000|  7,00000000000|  5,00000000000|  7,00000000000
Pig                       | 12,00000000000| 14,00000000000| 14,00000000000| 10,00000000000| 11,00000000000| 10,00000000000| 11,00000000000| 12,00000000000| 12,00000000000| 13,00000000000|  8,00000000000|  6,00000000000|  0,00000000000|  5,00000000000|  5,00000000000|  5,00000000000|  5,00000000000|  6,00000000000|  7,00000000000|  8,00000000000|  4,00000000000|  4,00000000000|  8,00000000000|  9,00000000000|  9,00000000000|  7,00000000000|  6,00000000000|  9,00000000000|  7,00000000000|  5,00000000000|  3,00000000000
Sheep                     | 15,00000000000| 17,00000000000| 17,00000000000| 13,00000000000| 14,00000000000| 13,00000000000| 14,00000000000| 15,00000000000| 15,00000000000| 16,00000000000| 11,00000000000|  9,00000000000|  5,00000000000|  0,00000000000|  2,00000000000|  4,00000000000|  4,00000000000|  9,00000000000| 10,00000000000| 11,00000000000|  7,00000000000|  7,00000000000| 11,00000000000| 12,00000000000| 12,00000000000| 10,00000000000|  9,00000000000| 12,00000000000| 10,00000000000|  8,00000000000|  4,00000000000
Goat                      | 15,00000000000| 17,00000000000| 17,00000000000| 13,00000000000| 14,00000000000| 13,00000000000| 14,00000000000| 15,00000000000| 15,00000000000| 16,00000000000| 11,00000000000|  9,00000000000|  5,00000000000|  2,00000000000|  0,00000000000|  4,00000000000|  4,00000000000|  9,00000000000| 10,00000000000| 11,00000000000|  7,00000000000|  7,00000000000| 11,00000000000| 12,00000000000| 12,00000000000| 10,00000000000|  9,00000000000| 12,00000000000| 10,00000000000|  8,00000000000|  4,00000000000
Cow                       | 15,00000000000| 17,00000000000| 17,00000000000| 13,00000000000| 14,00000000000| 13,00000000000| 14,00000000000| 15,00000000000| 15,00000000000| 16,00000000000| 11,00000000000|  9,00000000000|  5,00000000000|  4,00000000000|  4,00000000000|  0,00000000000|  2,00000000000|  9,00000000000| 10,00000000000| 11,00000000000|  7,00000000000|  7,00000000000| 11,00000000000| 12,00000000000| 12,00000000000| 10,00000000000|  9,00000000000| 12,00000000000| 10,00000000000|  8,00000000000|  4,00000000000
Buffalo                   | 15,00000000000| 17,00000000000| 17,00000000000| 13,00000000000| 14,00000000000| 13,00000000000| 14,00000000000| 15,00000000000| 15,00000000000| 16,00000000000| 11,00000000000|  9,00000000000|  5,00000000000|  4,00000000000|  4,00000000000|  2,00000000000|  0,00000000000|  9,00000000000| 10,00000000000| 11,00000000000|  7,00000000000|  7,00000000000| 11,00000000000| 12,00000000000| 12,00000000000| 10,00000000000|  9,00000000000| 12,00000000000| 10,00000000000|  8,00000000000|  4,00000000000
Wolf                      | 12,00000000000| 14,00000000000| 14,00000000000| 10,00000000000| 11,00000000000| 10,00000000000| 11,00000000000| 12,00000000000| 12,00000000000| 13,00000000000|  6,00000000000|  2,00000000000|  6,00000000000|  9,00000000000|  9,00000000000|  9,00000000000|  9,00000000000|  0,00000000000|  5,00000000000|  6,00000000000|  6,00000000000|  6,00000000000|  6,00000000000|  7,00000000000|  7,00000000000|  5,00000000000|  6,00000000000|  9,00000000000|  7,00000000000|  5,00000000000|  7,00000000000
Tiger                     | 13,00000000000| 15,00000000000| 15,00000000000| 11,00000000000| 12,00000000000| 11,00000000000| 12,00000000000| 13,00000000000| 13,00000000000| 14,00000000000|  3,00000000000|  5,00000000000|  7,00000000000| 10,00000000000| 10,00000000000| 10,00000000000| 10,00000000000|  5,00000000000|  0,00000000000|  3,00000000000|  7,00000000000|  7,00000000000|  5,00000000000|  6,00000000000|  6,00000000000|  4,00000000000|  7,00000000000| 10,00000000000|  8,00000000000|  6,00000000000|  8,00000000000
Leopard                   | 14,00000000000| 16,00000000000| 16,00000000000| 12,00000000000| 13,00000000000| 12,00000000000| 13,00000000000| 14,00000000000| 14,00000000000| 15,00000000000|  2,00000000000|  6,00000000000|  8,00000000000| 11,00000000000| 11,00000000000| 11,00000000000| 11,00000000000|  6,00000000000|  3,00000000000|  0,00000000000|  8,00000000000|  8,00000000000|  6,00000000000|  7,00000000000|  7,00000000000|  5,00000000000|  8,00000000000| 11,00000000000|  9,00000000000|  7,00000000000|  9,00000000000
Indian_Rhino              | 12,00000000000| 14,00000000000| 14,00000000000| 10,00000000000| 11,00000000000| 10,00000000000| 11,00000000000| 12,00000000000| 12,00000000000| 13,00000000000|  8,00000000000|  6,00000000000|  4,00000000000|  7,00000000000|  7,00000000000|  7,00000000000|  7,00000000000|  6,00000000000|  7,00000000000|  8,00000000000|  0,00000000000|  2,00000000000|  8,00000000000|  9,00000000000|  9,00000000000|  7,00000000000|  6,00000000000|  9,00000000000|  7,00000000000|  5,00000000000|  5,00000000000
White_Rhino               | 12,00000000000| 14,00000000000| 14,00000000000| 10,00000000000| 11,00000000000| 10,00000000000| 11,00000000000| 12,00000000000| 12,00000000000| 13,00000000000|  8,00000000000|  6,00000000000|  4,00000000000|  7,00000000000|  7,00000000000|  7,00000000000|  7,00000000000|  6,00000000000|  7,00000000000|  8,00000000000|  2,00000000000|  0,00000000000|  8,00000000000|  9,00000000000|  9,00000000000|  7,00000000000|  6,00000000000|  9,00000000000|  7,00000000000|  5,00000000000|  5,00000000000
Black_Bear                | 14,00000000000| 16,00000000000| 16,00000000000| 12,00000000000| 13,00000000000| 12,00000000000| 13,00000000000| 14,00000000000| 14,00000000000| 15,00000000000|  6,00000000000|  6,00000000000|  8,00000000000| 11,00000000000| 11,00000000000| 11,00000000000| 11,00000000000|  6,00000000000|  5,00000000000|  6,00000000000|  8,00000000000|  8,00000000000|  0,00000000000|  3,00000000000|  3,00000000000|  3,00000000000|  8,00000000000| 11,00000000000|  9,00000000000|  7,00000000000|  9,00000000000
Brown_Bear                | 15,00000000000| 17,00000000000| 17,00000000000| 13,00000000000| 14,00000000000| 13,00000000000| 14,00000000000| 15,00000000000| 15,00000000000| 16,00000000000|  7,00000000000|  7,00000000000|  9,00000000000| 12,00000000000| 12,00000000000| 12,00000000000| 12,00000000000|  7,00000000000|  6,00000000000|  7,00000000000|  9,00000000000|  9,00000000000|  3,00000000000|  0,00000000000|  2,00000000000|  4,00000000000|  9,00000000000| 12,00000000000| 10,00000000000|  8,00000000000| 10,00000000000
Polar_Bear                | 15,00000000000| 17,00000000000| 17,00000000000| 13,00000000000| 14,00000000000| 13,00000000000| 14,00000000000| 15,00000000000| 15,00000000000| 16,00000000000|  7,00000000000|  7,00000000000|  9,00000000000| 12,00000000000| 12,00000000000| 12,00000000000| 12,00000000000|  7,00000000000|  6,00000000000|  7,00000000000|  9,00000000000|  9,00000000000|  3,00000000000|  2,00000000000|  0,00000000000|  4,00000000000|  9,00000000000| 12,00000000000| 10,00000000000|  8,00000000000| 10,00000000000
Giant_Panda               | 13,00000000000| 15,00000000000| 15,00000000000| 11,00000000000| 12,00000000000| 11,00000000000| 12,00000000000| 13,00000000000| 13,00000000000| 14,00000000000|  5,00000000000|  5,00000000000|  7,00000000000| 10,00000000000| 10,00000000000| 10,00000000000| 10,00000000000|  5,00000000000|  4,00000000000|  5,00000000000|  7,00000000000|  7,00000000000|  3,00000000000|  4,00000000000|  4,00000000000|  0,00000000000|  7,00000000000| 10,00000000000|  8,00000000000|  6,00000000000|  8,00000000000
Rabbit                    |  8,00000000000| 10,00000000000| 10,00000000000|  6,00000000000|  7,00000000000|  6,00000000000|  7,00000000000|  8,00000000000|  8,00000000000|  9,00000000000|  8,00000000000|  6,00000000000|  6,00000000000|  9,00000000000|  9,00000000000|  9,00000000000|  9,00000000000|  6,00000000000|  7,00000000000|  8,00000000000|  6,00000000000|  6,00000000000|  8,00000000000|  9,00000000000|  9,00000000000|  7,00000000000|  0,00000000000|  5,00000000000|  3,00000000000|  3,00000000000|  7,00000000000
Hedgehog                  |  7,00000000000|  9,00000000000|  9,00000000000|  5,00000000000|  6,00000000000|  5,00000000000|  6,00000000000|  7,00000000000|  7,00000000000|  8,00000000000| 11,00000000000|  9,00000000000|  9,00000000000| 12,00000000000| 12,00000000000| 12,00000000000| 12,00000000000|  9,00000000000| 10,00000000000| 11,00000000000|  9,00000000000|  9,00000000000| 11,00000000000| 12,00000000000| 12,00000000000| 10,00000000000|  5,00000000000|  0,00000000000|  4,00000000000|  6,00000000000| 10,00000000000
Dormouse                  |  7,00000000000|  9,00000000000|  9,00000000000|  5,00000000000|  6,00000000000|  5,00000000000|  6,00000000000|  7,00000000000|  7,00000000000|  8,00000000000|  9,00000000000|  7,00000000000|  7,00000000000| 10,00000000000| 10,00000000000| 10,00000000000| 10,00000000000|  7,00000000000|  8,00000000000|  9,00000000000|  7,00000000000|  7,00000000000|  9,00000000000| 10,00000000000| 10,00000000000|  8,00000000000|  3,00000000000|  4,00000000000|  0,00000000000|  4,00000000000|  8,00000000000
Squirrel                  |  9,00000000000| 11,00000000000| 11,00000000000|  7,00000000000|  8,00000000000|  7,00000000000|  8,00000000000|  9,00000000000|  9,00000000000| 10,00000000000|  7,00000000000|  5,00000000000|  5,00000000000|  8,00000000000|  8,00000000000|  8,00000000000|  8,00000000000|  5,00000000000|  6,00000000000|  7,00000000000|  5,00000000000|  5,00000000000|  7,00000000000|  8,00000000000|  8,00000000000|  6,00000000000|  3,00000000000|  6,00000000000|  4,00000000000|  0,00000000000|  6,00000000000
Blue_Whale                | 13,00000000000| 15,00000000000| 15,00000000000| 11,00000000000| 12,00000000000| 11,00000000000| 12,00000000000| 13,00000000000| 13,00000000000| 14,00000000000|  9,00000000000|  7,00000000000|  3,00000000000|  4,00000000000|  4,00000000000|  4,00000000000|  4,00000000000|  7,00000000000|  8,00000000000|  9,00000000000|  5,00000000000|  5,00000000000|  9,00000000000| 10,00000000000| 10,00000000000|  8,00000000000|  7,00000000000| 10,00000000000|  8,00000000000|  6,00000000000|  0,00000000000
