                           |Human          |Pig_Chim       |Com_Chim       |Gibbon         |Baboon         |Ver_Monkey     |Macaca_Thibet  |Bor_Oran       |Sum_Oran       |Gorilla        |Cat            |Dog            |Pig            |Sheep          |Goat           |Cow            |Buffalo        |Wolf           |Tiger          |Leopard        |Indian_Rhino   |White_Rhino    |Black_Bear     |Brown_Bear     |Polar_Bear     |Giant_Panda    |Rabbit         |Hedgehog       |Dormouse       |Squirrel       |Blue_Whale     
Human                     |  0,00000000000|  7,43386845370|  7,37725892423|  8,51360801224|  9,10507391125|  9,49881856539|  9,30587986687|  8,43398239819|  8,60674984279|  7,48140232943| 10,52535869568| 10,50475227083| 11,20758921848| 11,06149837176| 10,89922604855| 10,64429185949| 10,31186945144| 10,48806522332| 10,18661901306| 10,54302650160| 10,42600467674| 10,01108646066| 10,97302281777| 10,93376611914| 11,20987377160| 11,79598806605| 10,54764357001| 12,33059154323| 11,67438585355| 11,48055427447| 10,50999107557
Pig_Chim                  |  7,43386845370|  0,00000000000|  6,21343462585|  8,52481710035|  9,05994214381|  9,46285932262|  9,24097411965|  8,51157828407|  8,62104393219|  7,19571262488| 10,27863361888| 10,16786213543| 10,81990563121| 10,77179792568| 10,71218395193| 10,42043070911| 10,14405742238| 10,14780422915| 10,02987269522| 10,36074901632| 10,12668895353|  9,75416239891| 10,66602113653| 10,66315641984| 10,98399771513| 11,44334625724| 10,25233345304| 11,91516061701| 11,29387643072| 11,09913592576| 10,24865999641
Com_Chim                  |  7,37725892423|  6,21343462585|  0,00000000000|  8,52545806597|  9,05917614258|  9,55194615451|  9,30883401689|  8,61392016885|  8,75902429777|  7,11059325701| 10,37602812577| 10,26006401784| 10,87427168216| 10,85821209857| 10,74566007833| 10,47693117075| 10,14811075853| 10,26310907204| 10,08387432193| 10,40160826697| 10,13927752130|  9,79119884985| 10,73751226444| 10,80612322438| 11,10490320957| 11,56340021125| 10,36572726525| 11,95418137697| 11,38819271573| 11,22779900836| 10,36231316508
Gibbon                    |  8,51360801224|  8,52481710035|  8,52545806597|  0,00000000000|  9,16202800807|  9,52636046581|  9,26724512984|  8,72720816995|  8,72371549142|  8,65539644467| 10,70880346127| 10,65813518282| 11,36655634775| 11,22107798173| 11,06308778241| 10,93517147109| 10,53616761313| 10,62077602437| 10,30609696759| 10,62201143084| 10,53261500858| 10,02876067029| 11,15028601883| 11,13435193410| 11,37991588124| 12,07353729471| 10,78614004240| 12,60611212028| 11,76834522433| 11,62888824591| 10,62475675362
Baboon                    |  9,10507391125|  9,05994214381|  9,05917614258|  9,16202800807|  0,00000000000|  9,10640981125|  8,73572037504|  9,25193453656|  9,22207779046|  9,03793083190| 10,48559083375| 10,50258114520| 11,02705502862| 10,95582053899| 10,88889274449| 10,68106161710| 10,22413610920| 10,50524146072| 10,22142463347| 10,47566605601| 10,34675752546|  9,91621834484| 10,86003518073| 10,83713585609| 11,04206794982| 11,66172325132| 10,50040291269| 12,35269310296| 11,49438992016| 11,39350389786| 10,42221207599
Ver_Monkey                |  9,49881856539|  9,46285932262|  9,55194615451|  9,52636046581|  9,10640981125|  0,00000000000|  8,83625932256|  9,53749638949|  9,74522190275|  9,50919536655| 10,28658602504| 10,32272321384| 10,83128555306| 10,66752005666| 10,58967998496| 10,53183104678| 10,17771250391| 10,28184984296| 10,17471738034| 10,21657116845| 10,28979659080|  9,95837944241| 10,49653819413| 10,56328230648| 10,74261761219| 11,28958129762| 10,20730182526| 11,84879710689| 11,08156503025| 10,99472291480| 10,14188233532
Macaca_Thibet             |  9,30587986687|  9,24097411965|  9,30883401689|  9,26724512984|  8,73572037504|  8,83625932256|  0,00000000000|  9,48439607899|  9,49636174722|  9,22453848200| 10,26730467137| 10,28563967106| 10,86466008598| 10,61313602995| 10,56358067971| 10,56388743095| 10,14749566084| 10,25596858364| 10,12948482473| 10,31214996160| 10,14058511761|  9,87201228552| 10,57608946476| 10,69190497838| 10,86126424950| 11,48729210779| 10,32747635488| 11,92066931345| 11,20833807766| 11,09646090625| 10,27198626771
Bor_Oran                  |  8,43398239819|  8,51157828407|  8,61392016885|  8,72720816995|  9,25193453656|  9,53749638949|  9,48439607899|  0,00000000000|  7,54651992806|  8,58959791949| 10,83461335045| 10,88949620382| 11,54070109525| 11,36302737994| 11,18734237151| 11,03640782644| 10,72593923403| 10,73901914012| 10,59449020014| 10,67754159400| 10,75085392404| 10,27480219676| 11,20309770148| 11,29337828060| 11,47505570681| 12,22443512381| 10,86865822303| 12,81291617103| 11,95303585185| 11,79311677228| 10,82007217839
Sum_Oran                  |  8,60674984279|  8,62104393219|  8,75902429777|  8,72371549142|  9,22207779046|  9,74522190275|  9,49636174722|  7,54651992806|  0,00000000000|  8,66928754254| 10,94391213796| 10,97821246885| 11,61544576604| 11,42979389111| 11,26186240763| 11,11834586930| 10,72399510153| 10,85667330983| 10,62635847509| 10,80770113708| 10,79848863148| 10,26399271343| 11,33519110420| 11,40822404193| 11,57944032065| 12,36268294576| 10,89052096100| 12,94403346937| 12,06077556673| 11,89957694238| 10,90763756233
Gorilla                   |  7,48140232943|  7,19571262488|  7,11059325701|  8,65539644467|  9,03793083190|  9,50919536655|  9,22453848200|  8,58959791949|  8,66928754254|  0,00000000000| 10,29622922041| 10,30941627647| 10,88450813004| 10,89270695355| 10,78588538202| 10,49796434398| 10,11174926611| 10,26443596675|  9,99366574657| 10,33473606981| 10,20873877296|  9,84994121052| 10,70644685576| 10,73429016300| 11,03766157622| 11,56835141273| 10,34527075929| 12,04202596800| 11,29604343469| 11,19428717028| 10,33836335552
Cat                       | 10,52535869568| 10,27863361888| 10,37602812577| 10,70880346127| 10,48559083375| 10,28658602504| 10,26730467137| 10,83461335045| 10,94391213796| 10,29622922041|  0,00000000000|  9,19951834363|  9,29516035969|  9,27568562893|  9,33024697606|  9,22174216740|  9,13525306850|  9,00715695727|  8,05855498529|  7,86536943780|  9,28252566604|  9,19708297798|  9,03408100043|  9,02784568454|  9,39711494835|  9,37814045365|  9,47254201906| 10,56537375126|  9,84173925660|  9,75917720935|  9,15227701126
Dog                       | 10,50475227083| 10,16786213543| 10,26006401784| 10,65813518282| 10,50258114520| 10,32272321384| 10,28563967106| 10,88949620382| 10,97821246885| 10,30941627647|  9,19951834363|  0,00000000000|  9,22112580792|  9,31416103672|  9,45114373331|  9,31326890614|  9,18073827162|  6,29235305154|  9,26393965337|  9,55111266907|  9,20778742800|  9,18364829966|  9,21521591773|  9,39714753225|  9,80126889320|  9,77328540521|  9,52856405054| 10,09602092549|  9,72275936896|  9,75375968804|  9,37884885135
Pig                       | 11,20758921848| 10,81990563121| 10,87427168216| 11,36655634775| 11,02705502862| 10,83128555306| 10,86466008598| 11,54070109525| 11,61544576604| 10,88450813004|  9,29516035969|  9,22112580792|  0,00000000000|  8,94934471842|  9,22112008354|  9,14087619845|  9,18284066251|  9,17155984473|  9,52990843458|  9,61320741553|  9,29242878975|  9,23596691928|  9,31400993142|  9,60758259825|  9,90614506402|  9,46574433059|  9,57847667033|  9,76497642197|  9,37585492035|  9,31465486510|  9,14301106780
Sheep                     | 11,06149837176| 10,77179792568| 10,85821209857| 11,22107798173| 10,95582053899| 10,66752005666| 10,61313602995| 11,36302737994| 11,42979389111| 10,89270695355|  9,27568562893|  9,31416103672|  8,94934471842|  0,00000000000|  7,52581699943|  8,18387828945|  8,35100995433|  9,18653135275|  9,54067305480|  9,53944767160|  9,47702233793|  9,44563229722|  9,25788778552|  9,54641789268|  9,66184669161|  9,33108601669|  9,46556563277| 10,02913544292|  9,60871539940|  9,38202567020|  8,90828737307
Goat                      | 10,89922604855| 10,71218395193| 10,74566007833| 11,06308778241| 10,88889274449| 10,58967998496| 10,56358067971| 11,18734237151| 11,26186240763| 10,78588538202|  9,33024697606|  9,45114373331|  9,22112008354|  7,52581699943|  0,00000000000|  8,29244483147|  8,36833527027|  9,30210761836|  9,57144305002|  9,62513763698|  9,54651403409|  9,51990462432|  9,28433242518|  9,58477093436|  9,63252340638|  9,58339744271|  9,57706981186| 10,25706819412|  9,76736969624|  9,75726033204|  8,93136692634
Cow                       | 10,64429185949| 10,42043070911| 10,47693117075| 10,93517147109| 10,68106161710| 10,53183104678| 10,56388743095| 11,03640782644| 11,11834586930| 10,49796434398|  9,22174216740|  9,31326890614|  9,14087619845|  8,18387828945|  8,29244483147|  0,00000000000|  8,03212701759|  9,17465864299|  9,40923435339|  9,50999940908|  9,49691949621|  9,27631337185|  9,17320471274|  9,38968592432|  9,55677557536|  9,52885997525|  9,43576113194| 10,15395670540|  9,87925131337|  9,66969524592|  8,89960436597
Buffalo                   | 10,31186945144| 10,14405742238| 10,14811075853| 10,53616761313| 10,22413610920| 10,17771250391| 10,14749566084| 10,72593923403| 10,72399510153| 10,11174926611|  9,13525306850|  9,18073827162|  9,18284066251|  8,35100995433|  8,36833527027|  8,03212701759|  0,00000000000|  9,17675605609|  9,31390134577|  9,40806377090|  9,33982270230|  9,14106307962|  9,28927371321|  9,50092839309|  9,72603541695|  9,82616376419|  9,47568054631| 10,42072922747| 10,01024985307|  9,80137219032|  8,99910088552
Wolf                      | 10,48806522332| 10,14780422915| 10,26310907204| 10,62077602437| 10,50524146072| 10,28184984296| 10,25596858364| 10,73901914012| 10,85667330983| 10,26443596675|  9,00715695727|  6,29235305154|  9,17155984473|  9,18653135275|  9,30210761836|  9,17465864299|  9,17675605609|  0,00000000000|  9,10448999533|  9,38332441797|  9,11360460334|  9,09512207269|  9,13837886873|  9,33497074631|  9,66035127754|  9,73303449318|  9,50498330630| 10,18396620912|  9,70139930085|  9,75182678393|  9,32921648085
Tiger                     | 10,18661901306| 10,02987269522| 10,08387432193| 10,30609696759| 10,22142463347| 10,17471738034| 10,12948482473| 10,59449020014| 10,62635847509|  9,99366574657|  8,05855498529|  9,26393965337|  9,52990843458|  9,54067305480|  9,57144305002|  9,40923435339|  9,31390134577|  9,10448999533|  0,00000000000|  7,99909550050|  9,32597404898|  9,22439508001|  9,33182149029|  9,18984209947|  9,55337271127|  9,69405195817|  9,63330623651| 10,83186925476| 10,07551350582|  9,95108864361|  9,36828470066
Leopard                   | 10,54302650160| 10,36074901632| 10,40160826697| 10,62201143084| 10,47566605601| 10,21657116845| 10,31214996160| 10,67754159400| 10,80770113708| 10,33473606981|  7,86536943780|  9,55111266907|  9,61320741553|  9,53944767160|  9,62513763698|  9,50999940908|  9,40806377090|  9,38332441797|  7,99909550050|  0,00000000000|  9,61303710458|  9,31751409883|  9,16998830060|  9,11988283680|  9,30856923691|  9,56692248451|  9,68209639971| 10,92064700549| 10,13976562966|  9,99708209970|  9,36249162220
Indian_Rhino              | 10,42600467674| 10,12668895353| 10,13927752130| 10,53261500858| 10,34675752546| 10,28979659080| 10,14058511761| 10,75085392404| 10,79848863148| 10,20873877296|  9,28252566604|  9,20778742800|  9,29242878975|  9,47702233793|  9,54651403409|  9,49691949621|  9,33982270230|  9,11360460334|  9,32597404898|  9,61303710458|  0,00000000000|  7,68899757366|  9,59690004170|  9,78370007408| 10,18423099925| 10,15411407657|  9,65201563654| 10,38210858281|  9,82428409165|  9,97276737373|  9,33723022817
White_Rhino               | 10,01108646066|  9,75416239891|  9,79119884985| 10,02876067029|  9,91621834484|  9,95837944241|  9,87201228552| 10,27480219676| 10,26399271343|  9,84994121052|  9,19708297798|  9,18364829966|  9,23596691928|  9,44563229722|  9,51990462432|  9,27631337185|  9,14106307962|  9,09512207269|  9,22439508001|  9,31751409883|  7,68899757366|  0,00000000000|  9,65457500433|  9,81545211106| 10,09515871301| 10,11587683043|  9,54620082164| 10,67703509524| 10,07247496845| 10,10570671851|  9,31750846897
Black_Bear                | 10,97302281777| 10,66602113653| 10,73751226444| 11,15028601883| 10,86003518073| 10,49653819413| 10,57608946476| 11,20309770148| 11,33519110420| 10,70644685576|  9,03408100043|  9,21521591773|  9,31400993142|  9,25788778552|  9,28433242518|  9,17320471274|  9,28927371321|  9,13837886873|  9,33182149029|  9,16998830060|  9,59690004170|  9,65457500433|  0,00000000000|  7,60971402478|  7,60780512949|  8,64855401962|  9,39303758642| 10,35942199524|  9,85519764403|  9,59460034816|  9,25173619665
Brown_Bear                | 10,93376611914| 10,66315641984| 10,80612322438| 11,13435193410| 10,83713585609| 10,56328230648| 10,69190497838| 11,29337828060| 11,40822404193| 10,73429016300|  9,02784568454|  9,39714753225|  9,60758259825|  9,54641789268|  9,58477093436|  9,38968592432|  9,50092839309|  9,33497074631|  9,18984209947|  9,11988283680|  9,78370007408|  9,81545211106|  7,60971402478|  0,00000000000|  6,13187489578|  8,61634487136|  9,60500507941| 10,67849187346| 10,22988971164|  9,94237509214|  9,34481763018
Polar_Bear                | 11,20987377160| 10,98399771513| 11,10490320957| 11,37991588124| 11,04206794982| 10,74261761219| 10,86126424950| 11,47505570681| 11,57944032065| 11,03766157622|  9,39711494835|  9,80126889320|  9,90614506402|  9,66184669161|  9,63252340638|  9,55677557536|  9,72603541695|  9,66035127754|  9,55337271127|  9,30856923691| 10,18423099925| 10,09515871301|  7,60780512949|  6,13187489578|  0,00000000000|  8,73249222408|  9,79154451900| 11,05946016695| 10,43329476667| 10,18444366183|  9,60910994929
Giant_Panda               | 11,79598806605| 11,44334625724| 11,56340021125| 12,07353729471| 11,66172325132| 11,28958129762| 11,48729210779| 12,22443512381| 12,36268294576| 11,56835141273|  9,37814045365|  9,77328540521|  9,46574433059|  9,33108601669|  9,58339744271|  9,52885997525|  9,82616376419|  9,73303449318|  9,69405195817|  9,56692248451| 10,15411407657| 10,11587683043|  8,64855401962|  8,61634487136|  8,73249222408|  0,00000000000|  9,78169803893| 10,10752027394|  9,76936727561|  9,59516404872|  9,60323644768
Rabbit                    | 10,54764357001| 10,25233345304| 10,36572726525| 10,78614004240| 10,50040291269| 10,20730182526| 10,32747635488| 10,86865822303| 10,89052096100| 10,34527075929|  9,47254201906|  9,52856405054|  9,57847667033|  9,46556563277|  9,57706981186|  9,43576113194|  9,47568054631|  9,50498330630|  9,63330623651|  9,68209639971|  9,65201563654|  9,54620082164|  9,39303758642|  9,60500507941|  9,79154451900|  9,78169803893|  0,00000000000| 10,43672808543|  9,75575524388|  9,70490366397|  9,27156308047
Hedgehog                  | 12,33059154323| 11,91516061701| 11,95418137697| 12,60611212028| 12,35269310296| 11,84879710689| 11,92066931345| 12,81291617103| 12,94403346937| 12,04202596800| 10,56537375126| 10,09602092549|  9,76497642197| 10,02913544292| 10,25706819412| 10,15395670540| 10,42072922747| 10,18396620912| 10,83186925476| 10,92064700549| 10,38210858281| 10,67703509524| 10,35942199524| 10,67849187346| 11,05946016695| 10,10752027394| 10,43672808543|  0,00000000000|  9,68453282999|  9,73318796277| 10,37221460400
Dormouse                  | 11,67438585355| 11,29387643072| 11,38819271573| 11,76834522433| 11,49438992016| 11,08156503025| 11,20833807766| 11,95303585185| 12,06077556673| 11,29604343469|  9,84173925660|  9,72275936896|  9,37585492035|  9,60871539940|  9,76736969624|  9,87925131337| 10,01024985307|  9,70139930085| 10,07551350582| 10,13976562966|  9,82428409165| 10,07247496845|  9,85519764403| 10,22988971164| 10,43329476667|  9,76936727561|  9,75575524388|  9,68453282999|  0,00000000000|  9,38929977381|  9,76307523542
Squirrel                  | 11,48055427447| 11,09913592576| 11,22779900836| 11,62888824591| 11,39350389786| 10,99472291480| 11,09646090625| 11,79311677228| 11,89957694238| 11,19428717028|  9,75917720935|  9,75375968804|  9,31465486510|  9,38202567020|  9,75726033204|  9,66969524592|  9,80137219032|  9,75182678393|  9,95108864361|  9,99708209970|  9,97276737373| 10,10570671851|  9,59460034816|  9,94237509214| 10,18444366183|  9,59516404872|  9,70490366397|  9,73318796277|  9,38929977381|  0,00000000000|  9,63075001564
Blue_Whale                | 10,50999107557| 10,24865999641| 10,36231316508| 10,62475675362| 10,42221207599| 10,14188233532| 10,27198626771| 10,82007217839| 10,90763756233| 10,33836335552|  9,15227701126|  9,37884885135|  9,14301106780|  8,90828737307|  8,93136692634|  8,89960436597|  8,99910088552|  9,32921648085|  9,36828470066|  9,36249162220|  9,33723022817|  9,31750846897|  9,25173619665|  9,34481763018|  9,60910994929|  9,60323644768|  9,27156308047| 10,37221460400|  9,76307523542|  9,63075001564|  0,00000000000
