                           |Human          |Pig_Chim       |Com_Chim       |Gibbon         |Baboon         |Ver_Monkey     |Macaca_Thibet  |Bor_Oran       |Sum_Oran       |Gorilla        |Cat            |Dog            |Pig            |Sheep          |Goat           |Cow            |Buffalo        |Wolf           |Tiger          |Leopard        |Indian_Rhino   |White_Rhino    |Black_Bear     |Brown_Bear     |Polar_Bear     |Giant_Panda    |Rabbit         |Hedgehog       |Dormouse       |Squirrel       |Blue_Whale     
Human                     |  0,00000000000|  0,03629075509|  0,03629075509|  0,05373431618|  0,07184875289|  0,07184875289|  0,07184875289|  0,05698933920|  0,05698933920|  0,03629075509|  0,09688191183|  0,09688191183|  0,09688191183|  0,09688191183|  0,09688191183|  0,09688191183|  0,09688191183|  0,09688191183|  0,09688191183|  0,09688191183|  0,09688191183|  0,09688191183|  0,09688191183|  0,09688191183|  0,09688191183|  0,09688191183|  0,09688191183|  0,09688191183|  0,09688191183|  0,09688191183|  0,09688191183
Pig_Chim                  |  0,03629075509|  0,00000000000|  0,01653951957|  0,05373431618|  0,07184875289|  0,07184875289|  0,07184875289|  0,05698933920|  0,05698933920|  0,02964547188|  0,09688191183|  0,09688191183|  0,09688191183|  0,09688191183|  0,09688191183|  0,09688191183|  0,09688191183|  0,09688191183|  0,09688191183|  0,09688191183|  0,09688191183|  0,09688191183|  0,09688191183|  0,09688191183|  0,09688191183|  0,09688191183|  0,09688191183|  0,09688191183|  0,09688191183|  0,09688191183|  0,09688191183
Com_Chim                  |  0,03629075509|  0,01653951957|  0,00000000000|  0,05373431618|  0,07184875289|  0,07184875289|  0,07184875289|  0,05698933920|  0,05698933920|  0,02964547188|  0,09688191183|  0,09688191183|  0,09688191183|  0,09688191183|  0,09688191183|  0,09688191183|  0,09688191183|  0,09688191183|  0,09688191183|  0,09688191183|  0,09688191183|  0,09688191183|  0,09688191183|  0,09688191183|  0,09688191183|  0,09688191183|  0,09688191183|  0,09688191183|  0,09688191183|  0,09688191183|  0,09688191183
Gibbon                    |  0,05373431618|  0,05373431618|  0,05373431618|  0,00000000000|  0,07184875289|  0,07184875289|  0,07184875289|  0,05698933920|  0,05698933920|  0,05373431618|  0,09688191183|  0,09688191183|  0,09688191183|  0,09688191183|  0,09688191183|  0,09688191183|  0,09688191183|  0,09688191183|  0,09688191183|  0,09688191183|  0,09688191183|  0,09688191183|  0,09688191183|  0,09688191183|  0,09688191183|  0,09688191183|  0,09688191183|  0,09688191183|  0,09688191183|  0,09688191183|  0,09688191183
Baboon                    |  0,07184875289|  0,07184875289|  0,07184875289|  0,07184875289|  0,00000000000|  0,06832176387|  0,05674331585|  0,07184875289|  0,07184875289|  0,07184875289|  0,09688191183|  0,09688191183|  0,09688191183|  0,09688191183|  0,09688191183|  0,09688191183|  0,09688191183|  0,09688191183|  0,09688191183|  0,09688191183|  0,09688191183|  0,09688191183|  0,09688191183|  0,09688191183|  0,09688191183|  0,09688191183|  0,09688191183|  0,09688191183|  0,09688191183|  0,09688191183|  0,09688191183
Ver_Monkey                |  0,07184875289|  0,07184875289|  0,07184875289|  0,07184875289|  0,06832176387|  0,00000000000|  0,06832176387|  0,07184875289|  0,07184875289|  0,07184875289|  0,09688191183|  0,09688191183|  0,09688191183|  0,09688191183|  0,09688191183|  0,09688191183|  0,09688191183|  0,09688191183|  0,09688191183|  0,09688191183|  0,09688191183|  0,09688191183|  0,09688191183|  0,09688191183|  0,09688191183|  0,09688191183|  0,09688191183|  0,09688191183|  0,09688191183|  0,09688191183|  0,09688191183
Macaca_Thibet             |  0,07184875289|  0,07184875289|  0,07184875289|  0,07184875289|  0,05674331585|  0,06832176387|  0,00000000000|  0,07184875289|  0,07184875289|  0,07184875289|  0,09688191183|  0,09688191183|  0,09688191183|  0,09688191183|  0,09688191183|  0,09688191183|  0,09688191183|  0,09688191183|  0,09688191183|  0,09688191183|  0,09688191183|  0,09688191183|  0,09688191183|  0,09688191183|  0,09688191183|  0,09688191183|  0,09688191183|  0,09688191183|  0,09688191183|  0,09688191183|  0,09688191183
Bor_Oran                  |  0,05698933920|  0,05698933920|  0,05698933920|  0,05698933920|  0,07184875289|  0,07184875289|  0,07184875289|  0,00000000000|  0,03510640961|  0,05698933920|  0,09688191183|  0,09688191183|  0,09688191183|  0,09688191183|  0,09688191183|  0,09688191183|  0,09688191183|  0,09688191183|  0,09688191183|  0,09688191183|  0,09688191183|  0,09688191183|  0,09688191183|  0,09688191183|  0,09688191183|  0,09688191183|  0,09688191183|  0,09688191183|  0,09688191183|  0,09688191183|  0,09688191183
Sum_Oran                  |  0,05698933920|  0,05698933920|  0,05698933920|  0,05698933920|  0,07184875289|  0,07184875289|  0,07184875289|  0,03510640961|  0,00000000000|  0,05698933920|  0,09688191183|  0,09688191183|  0,09688191183|  0,09688191183|  0,09688191183|  0,09688191183|  0,09688191183|  0,09688191183|  0,09688191183|  0,09688191183|  0,09688191183|  0,09688191183|  0,09688191183|  0,09688191183|  0,09688191183|  0,09688191183|  0,09688191183|  0,09688191183|  0,09688191183|  0,09688191183|  0,09688191183
Gorilla                   |  0,03629075509|  0,02964547188|  0,02964547188|  0,05373431618|  0,07184875289|  0,07184875289|  0,07184875289|  0,05698933920|  0,05698933920|  0,00000000000|  0,09688191183|  0,09688191183|  0,09688191183|  0,09688191183|  0,09688191183|  0,09688191183|  0,09688191183|  0,09688191183|  0,09688191183|  0,09688191183|  0,09688191183|  0,09688191183|  0,09688191183|  0,09688191183|  0,09688191183|  0,09688191183|  0,09688191183|  0,09688191183|  0,09688191183|  0,09688191183|  0,09688191183
Cat                       |  0,09688191183|  0,09688191183|  0,09688191183|  0,09688191183|  0,09688191183|  0,09688191183|  0,09688191183|  0,09688191183|  0,09688191183|  0,09688191183|  0,00000000000|  0,06887425813|  0,07073173983|  0,07073173983|  0,07073173983|  0,07073173983|  0,07073173983|  0,06887425813|  0,04500029235|  0,04431866249|  0,06887425813|  0,06887425813|  0,07001618246|  0,07001618246|  0,07001618246|  0,07001618246|  0,07555901887|  0,08215856385|  0,07130058398|  0,07073173983|  0,07073173983
Dog                       |  0,09688191183|  0,09688191183|  0,09688191183|  0,09688191183|  0,09688191183|  0,09688191183|  0,09688191183|  0,09688191183|  0,09688191183|  0,09688191183|  0,06887425813|  0,00000000000|  0,07073173983|  0,07073173983|  0,07073173983|  0,07073173983|  0,07073173983|  0,01527898645|  0,06887425813|  0,06887425813|  0,06747403411|  0,06747403411|  0,07001618246|  0,07001618246|  0,07001618246|  0,07001618246|  0,07555901887|  0,08215856385|  0,07130058398|  0,07073173983|  0,07073173983
Pig                       |  0,09688191183|  0,09688191183|  0,09688191183|  0,09688191183|  0,09688191183|  0,09688191183|  0,09688191183|  0,09688191183|  0,09688191183|  0,09688191183|  0,07073173983|  0,07073173983|  0,00000000000|  0,06341589936|  0,06341589936|  0,06341589936|  0,06341589936|  0,07073173983|  0,07073173983|  0,07073173983|  0,07073173983|  0,07073173983|  0,07073173983|  0,07073173983|  0,07073173983|  0,07073173983|  0,07555901887|  0,08215856385|  0,07130058398|  0,07059119684|  0,06346967515
Sheep                     |  0,09688191183|  0,09688191183|  0,09688191183|  0,09688191183|  0,09688191183|  0,09688191183|  0,09688191183|  0,09688191183|  0,09688191183|  0,09688191183|  0,07073173983|  0,07073173983|  0,06341589936|  0,00000000000|  0,03535485961|  0,04853146650|  0,04909376620|  0,07073173983|  0,07073173983|  0,07073173983|  0,07073173983|  0,07073173983|  0,07073173983|  0,07073173983|  0,07073173983|  0,07073173983|  0,07555901887|  0,08215856385|  0,07130058398|  0,07059119684|  0,06346967515
Goat                      |  0,09688191183|  0,09688191183|  0,09688191183|  0,09688191183|  0,09688191183|  0,09688191183|  0,09688191183|  0,09688191183|  0,09688191183|  0,09688191183|  0,07073173983|  0,07073173983|  0,06341589936|  0,03535485961|  0,00000000000|  0,04853146650|  0,04909376620|  0,07073173983|  0,07073173983|  0,07073173983|  0,07073173983|  0,07073173983|  0,07073173983|  0,07073173983|  0,07073173983|  0,07073173983|  0,07555901887|  0,08215856385|  0,07130058398|  0,07059119684|  0,06346967515
Cow                       |  0,09688191183|  0,09688191183|  0,09688191183|  0,09688191183|  0,09688191183|  0,09688191183|  0,09688191183|  0,09688191183|  0,09688191183|  0,09688191183|  0,07073173983|  0,07073173983|  0,06341589936|  0,04853146650|  0,04853146650|  0,00000000000|  0,04909376620|  0,07073173983|  0,07073173983|  0,07073173983|  0,07073173983|  0,07073173983|  0,07073173983|  0,07073173983|  0,07073173983|  0,07073173983|  0,07555901887|  0,08215856385|  0,07130058398|  0,07059119684|  0,06346967515
Buffalo                   |  0,09688191183|  0,09688191183|  0,09688191183|  0,09688191183|  0,09688191183|  0,09688191183|  0,09688191183|  0,09688191183|  0,09688191183|  0,09688191183|  0,07073173983|  0,07073173983|  0,06341589936|  0,04909376620|  0,04909376620|  0,04909376620|  0,00000000000|  0,07073173983|  0,07073173983|  0,07073173983|  0,07073173983|  0,07073173983|  0,07073173983|  0,07073173983|  0,07073173983|  0,07073173983|  0,07555901887|  0,08215856385|  0,07130058398|  0,07059119684|  0,06346967515
Wolf                      |  0,09688191183|  0,09688191183|  0,09688191183|  0,09688191183|  0,09688191183|  0,09688191183|  0,09688191183|  0,09688191183|  0,09688191183|  0,09688191183|  0,06887425813|  0,01527898645|  0,07073173983|  0,07073173983|  0,07073173983|  0,07073173983|  0,07073173983|  0,00000000000|  0,06887425813|  0,06887425813|  0,06747403411|  0,06747403411|  0,07001618246|  0,07001618246|  0,07001618246|  0,07001618246|  0,07555901887|  0,08215856385|  0,07130058398|  0,07073173983|  0,07073173983
Tiger                     |  0,09688191183|  0,09688191183|  0,09688191183|  0,09688191183|  0,09688191183|  0,09688191183|  0,09688191183|  0,09688191183|  0,09688191183|  0,09688191183|  0,04500029235|  0,06887425813|  0,07073173983|  0,07073173983|  0,07073173983|  0,07073173983|  0,07073173983|  0,06887425813|  0,00000000000|  0,04500029235|  0,06887425813|  0,06887425813|  0,07001618246|  0,07001618246|  0,07001618246|  0,07001618246|  0,07555901887|  0,08215856385|  0,07130058398|  0,07073173983|  0,07073173983
Leopard                   |  0,09688191183|  0,09688191183|  0,09688191183|  0,09688191183|  0,09688191183|  0,09688191183|  0,09688191183|  0,09688191183|  0,09688191183|  0,09688191183|  0,04431866249|  0,06887425813|  0,07073173983|  0,07073173983|  0,07073173983|  0,07073173983|  0,07073173983|  0,06887425813|  0,04500029235|  0,00000000000|  0,06887425813|  0,06887425813|  0,07001618246|  0,07001618246|  0,07001618246|  0,07001618246|  0,07555901887|  0,08215856385|  0,07130058398|  0,07073173983|  0,07073173983
Indian_Rhino              |  0,09688191183|  0,09688191183|  0,09688191183|  0,09688191183|  0,09688191183|  0,09688191183|  0,09688191183|  0,09688191183|  0,09688191183|  0,09688191183|  0,06887425813|  0,06747403411|  0,07073173983|  0,07073173983|  0,07073173983|  0,07073173983|  0,07073173983|  0,06747403411|  0,06887425813|  0,06887425813|  0,00000000000|  0,03814209966|  0,07001618246|  0,07001618246|  0,07001618246|  0,07001618246|  0,07555901887|  0,08215856385|  0,07130058398|  0,07073173983|  0,07073173983
White_Rhino               |  0,09688191183|  0,09688191183|  0,09688191183|  0,09688191183|  0,09688191183|  0,09688191183|  0,09688191183|  0,09688191183|  0,09688191183|  0,09688191183|  0,06887425813|  0,06747403411|  0,07073173983|  0,07073173983|  0,07073173983|  0,07073173983|  0,07073173983|  0,06747403411|  0,06887425813|  0,06887425813|  0,03814209966|  0,00000000000|  0,07001618246|  0,07001618246|  0,07001618246|  0,07001618246|  0,07555901887|  0,08215856385|  0,07130058398|  0,07073173983|  0,07073173983
Black_Bear                |  0,09688191183|  0,09688191183|  0,09688191183|  0,09688191183|  0,09688191183|  0,09688191183|  0,09688191183|  0,09688191183|  0,09688191183|  0,09688191183|  0,07001618246|  0,07001618246|  0,07073173983|  0,07073173983|  0,07073173983|  0,07073173983|  0,07073173983|  0,07001618246|  0,07001618246|  0,07001618246|  0,07001618246|  0,07001618246|  0,00000000000|  0,03905961731|  0,03905961731|  0,05988657756|  0,07555901887|  0,08215856385|  0,07130058398|  0,07073173983|  0,07073173983
Brown_Bear                |  0,09688191183|  0,09688191183|  0,09688191183|  0,09688191183|  0,09688191183|  0,09688191183|  0,09688191183|  0,09688191183|  0,09688191183|  0,09688191183|  0,07001618246|  0,07001618246|  0,07073173983|  0,07073173983|  0,07073173983|  0,07073173983|  0,07073173983|  0,07001618246|  0,07001618246|  0,07001618246|  0,07001618246|  0,07001618246|  0,03905961731|  0,00000000000|  0,01473590124|  0,05988657756|  0,07555901887|  0,08215856385|  0,07130058398|  0,07073173983|  0,07073173983
Polar_Bear                |  0,09688191183|  0,09688191183|  0,09688191183|  0,09688191183|  0,09688191183|  0,09688191183|  0,09688191183|  0,09688191183|  0,09688191183|  0,09688191183|  0,07001618246|  0,07001618246|  0,07073173983|  0,07073173983|  0,07073173983|  0,07073173983|  0,07073173983|  0,07001618246|  0,07001618246|  0,07001618246|  0,07001618246|  0,07001618246|  0,03905961731|  0,01473590124|  0,00000000000|  0,05988657756|  0,07555901887|  0,08215856385|  0,07130058398|  0,07073173983|  0,07073173983
Giant_Panda               |  0,09688191183|  0,09688191183|  0,09688191183|  0,09688191183|  0,09688191183|  0,09688191183|  0,09688191183|  0,09688191183|  0,09688191183|  0,09688191183|  0,07001618246|  0,07001618246|  0,07073173983|  0,07073173983|  0,07073173983|  0,07073173983|  0,07073173983|  0,07001618246|  0,07001618246|  0,07001618246|  0,07001618246|  0,07001618246|  0,05988657756|  0,05988657756|  0,05988657756|  0,00000000000|  0,07555901887|  0,08215856385|  0,07130058398|  0,07073173983|  0,07073173983
Rabbit                    |  0,09688191183|  0,09688191183|  0,09688191183|  0,09688191183|  0,09688191183|  0,09688191183|  0,09688191183|  0,09688191183|  0,09688191183|  0,09688191183|  0,07555901887|  0,07555901887|  0,07555901887|  0,07555901887|  0,07555901887|  0,07555901887|  0,07555901887|  0,07555901887|  0,07555901887|  0,07555901887|  0,07555901887|  0,07555901887|  0,07555901887|  0,07555901887|  0,07555901887|  0,07555901887|  0,00000000000|  0,08215856385|  0,07555901887|  0,07555901887|  0,07555901887
Hedgehog                  |  0,09688191183|  0,09688191183|  0,09688191183|  0,09688191183|  0,09688191183|  0,09688191183|  0,09688191183|  0,09688191183|  0,09688191183|  0,09688191183|  0,08215856385|  0,08215856385|  0,08215856385|  0,08215856385|  0,08215856385|  0,08215856385|  0,08215856385|  0,08215856385|  0,08215856385|  0,08215856385|  0,08215856385|  0,08215856385|  0,08215856385|  0,08215856385|  0,08215856385|  0,08215856385|  0,08215856385|  0,00000000000|  0,08215856385|  0,08215856385|  0,08215856385
Dormouse                  |  0,09688191183|  0,09688191183|  0,09688191183|  0,09688191183|  0,09688191183|  0,09688191183|  0,09688191183|  0,09688191183|  0,09688191183|  0,09688191183|  0,07130058398|  0,07130058398|  0,07130058398|  0,07130058398|  0,07130058398|  0,07130058398|  0,07130058398|  0,07130058398|  0,07130058398|  0,07130058398|  0,07130058398|  0,07130058398|  0,07130058398|  0,07130058398|  0,07130058398|  0,07130058398|  0,07555901887|  0,08215856385|  0,00000000000|  0,07130058398|  0,07130058398
Squirrel                  |  0,09688191183|  0,09688191183|  0,09688191183|  0,09688191183|  0,09688191183|  0,09688191183|  0,09688191183|  0,09688191183|  0,09688191183|  0,09688191183|  0,07073173983|  0,07073173983|  0,07059119684|  0,07059119684|  0,07059119684|  0,07059119684|  0,07059119684|  0,07073173983|  0,07073173983|  0,07073173983|  0,07073173983|  0,07073173983|  0,07073173983|  0,07073173983|  0,07073173983|  0,07073173983|  0,07555901887|  0,08215856385|  0,07130058398|  0,00000000000|  0,07059119684
Blue_Whale                |  0,09688191183|  0,09688191183|  0,09688191183|  0,09688191183|  0,09688191183|  0,09688191183|  0,09688191183|  0,09688191183|  0,09688191183|  0,09688191183|  0,07073173983|  0,07073173983|  0,06346967515|  0,06346967515|  0,06346967515|  0,06346967515|  0,06346967515|  0,07073173983|  0,07073173983|  0,07073173983|  0,07073173983|  0,07073173983|  0,07073173983|  0,07073173983|  0,07073173983|  0,07073173983|  0,07555901887|  0,08215856385|  0,07130058398|  0,07059119684|  0,00000000000
                           |Human          |Pig_Chim       |Com_Chim       |Gibbon         |Baboon         |Ver_Monkey     |Macaca_Thibet  |Bor_Oran       |Sum_Oran       |Gorilla        |Cat            |Dog            |Pig            |Sheep          |Goat           |Cow            |Buffalo        |Wolf           |Tiger          |Leopard        |Indian_Rhino   |White_Rhino    |Black_Bear     |Brown_Bear     |Polar_Bear     |Giant_Panda    |Rabbit         |Hedgehog       |Dormouse       |Squirrel       |Blue_Whale     
Human                     |  0,00000000000|  7,30897526340|  7,30897526340|  8,35955287947|  9,45053548508|  9,45053548508|  9,45053548508|  8,55559394635|  8,55559394635|  7,30897526340| 10,95821366532| 10,95821366532| 10,95821366532| 10,95821366532| 10,95821366532| 10,95821366532| 10,95821366532| 10,95821366532| 10,95821366532| 10,95821366532| 10,95821366532| 10,95821366532| 10,95821366532| 10,95821366532| 10,95821366532| 10,95821366532| 10,95821366532| 10,95821366532| 10,95821366532| 10,95821366532| 10,95821366532
Pig_Chim                  |  7,30897526340|  0,00000000000|  6,11941277567|  8,35955287947|  9,45053548508|  9,45053548508|  9,45053548508|  8,55559394635|  8,55559394635|  6,90874816768| 10,95821366532| 10,95821366532| 10,95821366532| 10,95821366532| 10,95821366532| 10,95821366532| 10,95821366532| 10,95821366532| 10,95821366532| 10,95821366532| 10,95821366532| 10,95821366532| 10,95821366532| 10,95821366532| 10,95821366532| 10,95821366532| 10,95821366532| 10,95821366532| 10,95821366532| 10,95821366532| 10,95821366532
Com_Chim                  |  7,30897526340|  6,11941277567|  0,00000000000|  8,35955287947|  9,45053548508|  9,45053548508|  9,45053548508|  8,55559394635|  8,55559394635|  6,90874816768| 10,95821366532| 10,95821366532| 10,95821366532| 10,95821366532| 10,95821366532| 10,95821366532| 10,95821366532| 10,95821366532| 10,95821366532| 10,95821366532| 10,95821366532| 10,95821366532| 10,95821366532| 10,95821366532| 10,95821366532| 10,95821366532| 10,95821366532| 10,95821366532| 10,95821366532| 10,95821366532| 10,95821366532
Gibbon                    |  8,35955287947|  8,35955287947|  8,35955287947|  0,00000000000|  9,45053548508|  9,45053548508|  9,45053548508|  8,55559394635|  8,55559394635|  8,35955287947| 10,95821366532| 10,95821366532| 10,95821366532| 10,95821366532| 10,95821366532| 10,95821366532| 10,95821366532| 10,95821366532| 10,95821366532| 10,95821366532| 10,95821366532| 10,95821366532| 10,95821366532| 10,95821366532| 10,95821366532| 10,95821366532| 10,95821366532| 10,95821366532| 10,95821366532| 10,95821366532| 10,95821366532
Baboon                    |  9,45053548508|  9,45053548508|  9,45053548508|  9,45053548508|  0,00000000000|  9,23811465565|  8,54077663750|  9,45053548508|  9,45053548508|  9,45053548508| 10,95821366532| 10,95821366532| 10,95821366532| 10,95821366532| 10,95821366532| 10,95821366532| 10,95821366532| 10,95821366532| 10,95821366532| 10,95821366532| 10,95821366532| 10,95821366532| 10,95821366532| 10,95821366532| 10,95821366532| 10,95821366532| 10,95821366532| 10,95821366532| 10,95821366532| 10,95821366532| 10,95821366532
Ver_Monkey                |  9,45053548508|  9,45053548508|  9,45053548508|  9,45053548508|  9,23811465565|  0,00000000000|  9,23811465565|  9,45053548508|  9,45053548508|  9,45053548508| 10,95821366532| 10,95821366532| 10,95821366532| 10,95821366532| 10,95821366532| 10,95821366532| 10,95821366532| 10,95821366532| 10,95821366532| 10,95821366532| 10,95821366532| 10,95821366532| 10,95821366532| 10,95821366532| 10,95821366532| 10,95821366532| 10,95821366532| 10,95821366532| 10,95821366532| 10,95821366532| 10,95821366532
Macaca_Thibet             |  9,45053548508|  9,45053548508|  9,45053548508|  9,45053548508|  8,54077663750|  9,23811465565|  0,00000000000|  9,45053548508|  9,45053548508|  9,45053548508| 10,95821366532| 10,95821366532| 10,95821366532| 10,95821366532| 10,95821366532| 10,95821366532| 10,95821366532| 10,95821366532| 10,95821366532| 10,95821366532| 10,95821366532| 10,95821366532| 10,95821366532| 10,95821366532| 10,95821366532| 10,95821366532| 10,95821366532| 10,95821366532| 10,95821366532| 10,95821366532| 10,95821366532
Bor_Oran                  |  8,55559394635|  8,55559394635|  8,55559394635|  8,55559394635|  9,45053548508|  9,45053548508|  9,45053548508|  0,00000000000|  7,23764539835|  8,55559394635| 10,95821366532| 10,95821366532| 10,95821366532| 10,95821366532| 10,95821366532| 10,95821366532| 10,95821366532| 10,95821366532| 10,95821366532| 10,95821366532| 10,95821366532| 10,95821366532| 10,95821366532| 10,95821366532| 10,95821366532| 10,95821366532| 10,95821366532| 10,95821366532| 10,95821366532| 10,95821366532| 10,95821366532
Sum_Oran                  |  8,55559394635|  8,55559394635|  8,55559394635|  8,55559394635|  9,45053548508|  9,45053548508|  9,45053548508|  7,23764539835|  0,00000000000|  8,55559394635| 10,95821366532| 10,95821366532| 10,95821366532| 10,95821366532| 10,95821366532| 10,95821366532| 10,95821366532| 10,95821366532| 10,95821366532| 10,95821366532| 10,95821366532| 10,95821366532| 10,95821366532| 10,95821366532| 10,95821366532| 10,95821366532| 10,95821366532| 10,95821366532| 10,95821366532| 10,95821366532| 10,95821366532
Gorilla                   |  7,30897526340|  6,90874816768|  6,90874816768|  8,35955287947|  9,45053548508|  9,45053548508|  9,45053548508|  8,55559394635|  8,55559394635|  0,00000000000| 10,95821366532| 10,95821366532| 10,95821366532| 10,95821366532| 10,95821366532| 10,95821366532| 10,95821366532| 10,95821366532| 10,95821366532| 10,95821366532| 10,95821366532| 10,95821366532| 10,95821366532| 10,95821366532| 10,95821366532| 10,95821366532| 10,95821366532| 10,95821366532| 10,95821366532| 10,95821366532| 10,95821366532
Cat                       | 10,95821366532| 10,95821366532| 10,95821366532| 10,95821366532| 10,95821366532| 10,95821366532| 10,95821366532| 10,95821366532| 10,95821366532| 10,95821366532|  0,00000000000|  9,27138986250|  9,38326086674|  9,38326086674|  9,38326086674|  9,38326086674|  9,38326086674|  9,27138986250|  7,83352669166|  7,79247400394|  9,27138986250|  9,27138986250|  9,34016481818|  9,34016481818|  9,34016481818|  9,34016481818|  9,67399458095| 10,07146698883|  9,41752078240|  9,38326086674|  9,38326086674
Dog                       | 10,95821366532| 10,95821366532| 10,95821366532| 10,95821366532| 10,95821366532| 10,95821366532| 10,95821366532| 10,95821366532| 10,95821366532| 10,95821366532|  9,27138986250|  0,00000000000|  9,38326086674|  9,38326086674|  9,38326086674|  9,38326086674|  9,38326086674|  6,04349433913|  9,27138986250|  9,27138986250|  9,18705822831|  9,18705822831|  9,34016481818|  9,34016481818|  9,34016481818|  9,34016481818|  9,67399458095| 10,07146698883|  9,41752078240|  9,38326086674|  9,38326086674
Pig                       | 10,95821366532| 10,95821366532| 10,95821366532| 10,95821366532| 10,95821366532| 10,95821366532| 10,95821366532| 10,95821366532| 10,95821366532| 10,95821366532|  9,38326086674|  9,38326086674|  0,00000000000|  8,94264795521|  8,94264795521|  8,94264795521|  8,94264795521|  9,38326086674|  9,38326086674|  9,38326086674|  9,38326086674|  9,38326086674|  9,38326086674|  9,38326086674|  9,38326086674|  9,38326086674|  9,67399458095| 10,07146698883|  9,41752078240|  9,37479634989|  8,94588672296
Sheep                     | 10,95821366532| 10,95821366532| 10,95821366532| 10,95821366532| 10,95821366532| 10,95821366532| 10,95821366532| 10,95821366532| 10,95821366532| 10,95821366532|  9,38326086674|  9,38326086674|  8,94264795521|  0,00000000000|  7,25260885725|  8,04619958004|  8,08006534184|  9,38326086674|  9,38326086674|  9,38326086674|  9,38326086674|  9,38326086674|  9,38326086674|  9,38326086674|  9,38326086674|  9,38326086674|  9,67399458095| 10,07146698883|  9,41752078240|  9,37479634989|  8,94588672296
Goat                      | 10,95821366532| 10,95821366532| 10,95821366532| 10,95821366532| 10,95821366532| 10,95821366532| 10,95821366532| 10,95821366532| 10,95821366532| 10,95821366532|  9,38326086674|  9,38326086674|  8,94264795521|  7,25260885725|  0,00000000000|  8,04619958004|  8,08006534184|  9,38326086674|  9,38326086674|  9,38326086674|  9,38326086674|  9,38326086674|  9,38326086674|  9,38326086674|  9,38326086674|  9,38326086674|  9,67399458095| 10,07146698883|  9,41752078240|  9,37479634989|  8,94588672296
Cow                       | 10,95821366532| 10,95821366532| 10,95821366532| 10,95821366532| 10,95821366532| 10,95821366532| 10,95821366532| 10,95821366532| 10,95821366532| 10,95821366532|  9,38326086674|  9,38326086674|  8,94264795521|  8,04619958004|  8,04619958004|  0,00000000000|  8,08006534184|  9,38326086674|  9,38326086674|  9,38326086674|  9,38326086674|  9,38326086674|  9,38326086674|  9,38326086674|  9,38326086674|  9,38326086674|  9,67399458095| 10,07146698883|  9,41752078240|  9,37479634989|  8,94588672296
Buffalo                   | 10,95821366532| 10,95821366532| 10,95821366532| 10,95821366532| 10,95821366532| 10,95821366532| 10,95821366532| 10,95821366532| 10,95821366532| 10,95821366532|  9,38326086674|  9,38326086674|  8,94264795521|  8,08006534184|  8,08006534184|  8,08006534184|  0,00000000000|  9,38326086674|  9,38326086674|  9,38326086674|  9,38326086674|  9,38326086674|  9,38326086674|  9,38326086674|  9,38326086674|  9,38326086674|  9,67399458095| 10,07146698883|  9,41752078240|  9,37479634989|  8,94588672296
Wolf                      | 10,95821366532| 10,95821366532| 10,95821366532| 10,95821366532| 10,95821366532| 10,95821366532| 10,95821366532| 10,95821366532| 10,95821366532| 10,95821366532|  9,27138986250|  6,04349433913|  9,38326086674|  9,38326086674|  9,38326086674|  9,38326086674|  9,38326086674|  0,00000000000|  9,27138986250|  9,27138986250|  9,18705822831|  9,18705822831|  9,34016481818|  9,34016481818|  9,34016481818|  9,34016481818|  9,67399458095| 10,07146698883|  9,41752078240|  9,38326086674|  9,38326086674
Tiger                     | 10,95821366532| 10,95821366532| 10,95821366532| 10,95821366532| 10,95821366532| 10,95821366532| 10,95821366532| 10,95821366532| 10,95821366532| 10,95821366532|  7,83352669166|  9,27138986250|  9,38326086674|  9,38326086674|  9,38326086674|  9,38326086674|  9,38326086674|  9,27138986250|  0,00000000000|  7,83352669166|  9,27138986250|  9,27138986250|  9,34016481818|  9,34016481818|  9,34016481818|  9,34016481818|  9,67399458095| 10,07146698883|  9,41752078240|  9,38326086674|  9,38326086674
Leopard                   | 10,95821366532| 10,95821366532| 10,95821366532| 10,95821366532| 10,95821366532| 10,95821366532| 10,95821366532| 10,95821366532| 10,95821366532| 10,95821366532|  7,79247400394|  9,27138986250|  9,38326086674|  9,38326086674|  9,38326086674|  9,38326086674|  9,38326086674|  9,27138986250|  7,83352669166|  0,00000000000|  9,27138986250|  9,27138986250|  9,34016481818|  9,34016481818|  9,34016481818|  9,34016481818|  9,67399458095| 10,07146698883|  9,41752078240|  9,38326086674|  9,38326086674
Indian_Rhino              | 10,95821366532| 10,95821366532| 10,95821366532| 10,95821366532| 10,95821366532| 10,95821366532| 10,95821366532| 10,95821366532| 10,95821366532| 10,95821366532|  9,27138986250|  9,18705822831|  9,38326086674|  9,38326086674|  9,38326086674|  9,38326086674|  9,38326086674|  9,18705822831|  9,27138986250|  9,27138986250|  0,00000000000|  7,42047664511|  9,34016481818|  9,34016481818|  9,34016481818|  9,34016481818|  9,67399458095| 10,07146698883|  9,41752078240|  9,38326086674|  9,38326086674
White_Rhino               | 10,95821366532| 10,95821366532| 10,95821366532| 10,95821366532| 10,95821366532| 10,95821366532| 10,95821366532| 10,95821366532| 10,95821366532| 10,95821366532|  9,27138986250|  9,18705822831|  9,38326086674|  9,38326086674|  9,38326086674|  9,38326086674|  9,38326086674|  9,18705822831|  9,27138986250|  9,27138986250|  7,42047664511|  0,00000000000|  9,34016481818|  9,34016481818|  9,34016481818|  9,34016481818|  9,67399458095| 10,07146698883|  9,41752078240|  9,38326086674|  9,38326086674
Black_Bear                | 10,95821366532| 10,95821366532| 10,95821366532| 10,95821366532| 10,95821366532| 10,95821366532| 10,95821366532| 10,95821366532| 10,95821366532| 10,95821366532|  9,34016481818|  9,34016481818|  9,38326086674|  9,38326086674|  9,38326086674|  9,38326086674|  9,38326086674|  9,34016481818|  9,34016481818|  9,34016481818|  9,34016481818|  9,34016481818|  0,00000000000|  7,47573620444|  7,47573620444|  8,73008662893|  9,67399458095| 10,07146698883|  9,41752078240|  9,38326086674|  9,38326086674
Brown_Bear                | 10,95821366532| 10,95821366532| 10,95821366532| 10,95821366532| 10,95821366532| 10,95821366532| 10,95821366532| 10,95821366532| 10,95821366532| 10,95821366532|  9,34016481818|  9,34016481818|  9,38326086674|  9,38326086674|  9,38326086674|  9,38326086674|  9,38326086674|  9,34016481818|  9,34016481818|  9,34016481818|  9,34016481818|  9,34016481818|  7,47573620444|  0,00000000000|  6,01078581337|  8,73008662893|  9,67399458095| 10,07146698883|  9,41752078240|  9,38326086674|  9,38326086674
Polar_Bear                | 10,95821366532| 10,95821366532| 10,95821366532| 10,95821366532| 10,95821366532| 10,95821366532| 10,95821366532| 10,95821366532| 10,95821366532| 10,95821366532|  9,34016481818|  9,34016481818|  9,38326086674|  9,38326086674|  9,38326086674|  9,38326086674|  9,38326086674|  9,34016481818|  9,34016481818|  9,34016481818|  9,34016481818|  9,34016481818|  7,47573620444|  6,01078581337|  0,00000000000|  8,73008662893|  9,67399458095| 10,07146698883|  9,41752078240|  9,38326086674|  9,38326086674
Giant_Panda               | 10,95821366532| 10,95821366532| 10,95821366532| 10,95821366532| 10,95821366532| 10,95821366532| 10,95821366532| 10,95821366532| 10,95821366532| 10,95821366532|  9,34016481818|  9,34016481818|  9,38326086674|  9,38326086674|  9,38326086674|  9,38326086674|  9,38326086674|  9,34016481818|  9,34016481818|  9,34016481818|  9,34016481818|  9,34016481818|  8,73008662893|  8,73008662893|  8,73008662893|  0,00000000000|  9,67399458095| 10,07146698883|  9,41752078240|  9,38326086674|  9,38326086674
Rabbit                    | 10,95821366532| 10,95821366532| 10,95821366532| 10,95821366532| 10,95821366532| 10,95821366532| 10,95821366532| 10,95821366532| 10,95821366532| 10,95821366532|  9,67399458095|  9,67399458095|  9,67399458095|  9,67399458095|  9,67399458095|  9,67399458095|  9,67399458095|  9,67399458095|  9,67399458095|  9,67399458095|  9,67399458095|  9,67399458095|  9,67399458095|  9,67399458095|  9,67399458095|  9,67399458095|  0,00000000000| 10,07146698883|  9,67399458095|  9,67399458095|  9,67399458095
Hedgehog                  | 10,95821366532| 10,95821366532| 10,95821366532| 10,95821366532| 10,95821366532| 10,95821366532| 10,95821366532| 10,95821366532| 10,95821366532| 10,95821366532| 10,07146698883| 10,07146698883| 10,07146698883| 10,07146698883| 10,07146698883| 10,07146698883| 10,07146698883| 10,07146698883| 10,07146698883| 10,07146698883| 10,07146698883| 10,07146698883| 10,07146698883| 10,07146698883| 10,07146698883| 10,07146698883| 10,07146698883|  0,00000000000| 10,07146698883| 10,07146698883| 10,07146698883
Dormouse                  | 10,95821366532| 10,95821366532| 10,95821366532| 10,95821366532| 10,95821366532| 10,95821366532| 10,95821366532| 10,95821366532| 10,95821366532| 10,95821366532|  9,41752078240|  9,41752078240|  9,41752078240|  9,41752078240|  9,41752078240|  9,41752078240|  9,41752078240|  9,41752078240|  9,41752078240|  9,41752078240|  9,41752078240|  9,41752078240|  9,41752078240|  9,41752078240|  9,41752078240|  9,41752078240|  9,67399458095| 10,07146698883|  0,00000000000|  9,41752078240|  9,41752078240
Squirrel                  | 10,95821366532| 10,95821366532| 10,95821366532| 10,95821366532| 10,95821366532| 10,95821366532| 10,95821366532| 10,95821366532| 10,95821366532| 10,95821366532|  9,38326086674|  9,38326086674|  9,37479634989|  9,37479634989|  9,37479634989|  9,37479634989|  9,37479634989|  9,38326086674|  9,38326086674|  9,38326086674|  9,38326086674|  9,38326086674|  9,38326086674|  9,38326086674|  9,38326086674|  9,38326086674|  9,67399458095| 10,07146698883|  9,41752078240|  0,00000000000|  9,37479634989
Blue_Whale                | 10,95821366532| 10,95821366532| 10,95821366532| 10,95821366532| 10,95821366532| 10,95821366532| 10,95821366532| 10,95821366532| 10,95821366532| 10,95821366532|  9,38326086674|  9,38326086674|  8,94588672296|  8,94588672296|  8,94588672296|  8,94588672296|  8,94588672296|  9,38326086674|  9,38326086674|  9,38326086674|  9,38326086674|  9,38326086674|  9,38326086674|  9,38326086674|  9,38326086674|  9,38326086674|  9,67399458095| 10,07146698883|  9,41752078240|  9,37479634989|  0,00000000000
                           |Human          |Pig_Chim       |Com_Chim       |Gibbon         |Baboon         |Ver_Monkey     |Macaca_Thibet  |Bor_Oran       |Sum_Oran       |Gorilla        |Cat            |Dog            |Pig            |Sheep          |Goat           |Cow            |Buffalo        |Wolf           |Tiger          |Leopard        |Indian_Rhino   |White_Rhino    |Black_Bear     |Brown_Bear     |Polar_Bear     |Giant_Panda    |Rabbit         |Hedgehog       |Dormouse       |Squirrel       |Blue_Whale     
Human                     |  0,00000000000|  4,00000000000|  4,00000000000|  3,00000000000|  7,00000000000|  6,00000000000|  7,00000000000|  5,00000000000|  5,00000000000|  3,00000000000| 14,00000000000| 14,00000000000| 13,00000000000| 16,00000000000| 16,00000000000| 15,00000000000| 14,00000000000| 14,00000000000| 13,00000000000| 14,00000000000| 14,00000000000| 14,00000000000| 13,00000000000| 14,00000000000| 14,00000000000| 12,00000000000|  8,00000000000|  7,00000000000|  9,00000000000| 11,00000000000| 12,00000000000
Pig_Chim                  |  4,00000000000|  0,00000000000|  2,00000000000|  5,00000000000|  9,00000000000|  8,00000000000|  9,00000000000|  7,00000000000|  7,00000000000|  3,00000000000| 16,00000000000| 16,00000000000| 15,00000000000| 18,00000000000| 18,00000000000| 17,00000000000| 16,00000000000| 16,00000000000| 15,00000000000| 16,00000000000| 16,00000000000| 16,00000000000| 15,00000000000| 16,00000000000| 16,00000000000| 14,00000000000| 10,00000000000|  9,00000000000| 11,00000000000| 13,00000000000| 14,00000000000
Com_Chim                  |  4,00000000000|  2,00000000000|  0,00000000000|  5,00000000000|  9,00000000000|  8,00000000000|  9,00000000000|  7,00000000000|  7,00000000000|  3,00000000000| 16,00000000000| 16,00000000000| 15,00000000000| 18,00000000000| 18,00000000000| 17,00000000000| 16,00000000000| 16,00000000000| 15,00000000000| 16,00000000000| 16,00000000000| 16,00000000000| 15,00000000000| 16,00000000000| 16,00000000000| 14,00000000000| 10,00000000000|  9,00000000000| 11,00000000000| 13,00000000000| 14,00000000000
Gibbon                    |  3,00000000000|  5,00000000000|  5,00000000000|  0,00000000000|  6,00000000000|  5,00000000000|  6,00000000000|  4,00000000000|  4,00000000000|  4,00000000000| 13,00000000000| 13,00000000000| 12,00000000000| 15,00000000000| 15,00000000000| 14,00000000000| 13,00000000000| 13,00000000000| 12,00000000000| 13,00000000000| 13,00000000000| 13,00000000000| 12,00000000000| 13,00000000000| 13,00000000000| 11,00000000000|  7,00000000000|  6,00000000000|  8,00000000000| 10,00000000000| 11,00000000000
Baboon                    |  7,00000000000|  9,00000000000|  9,00000000000|  6,00000000000|  0,00000000000|  3,00000000000|  2,00000000000|  6,00000000000|  6,00000000000|  8,00000000000| 13,00000000000| 13,00000000000| 12,00000000000| 15,00000000000| 15,00000000000| 14,00000000000| 13,00000000000| 13,00000000000| 12,00000000000| 13,00000000000| 13,00000000000| 13,00000000000| 12,00000000000| 13,00000000000| 13,00000000000| 11,00000000000|  7,00000000000|  6,00000000000|  8,00000000000| 10,00000000000| 11,00000000000
Ver_Monkey                |  6,00000000000|  8,00000000000|  8,00000000000|  5,00000000000|  3,00000000000|  0,00000000000|  3,00000000000|  5,00000000000|  5,00000000000|  7,00000000000| 12,00000000000| 12,00000000000| 11,00000000000| 14,00000000000| 14,00000000000| 13,00000000000| 12,00000000000| 12,00000000000| 11,00000000000| 12,00000000000| 12,00000000000| 12,00000000000| 11,00000000000| 12,00000000000| 12,00000000000| 10,00000000000|  6,00000000000|  5,00000000000|  7,00000000000|  9,00000000000| 10,00000000000
Macaca_Thibet             |  7,00000000000|  9,00000000000|  9,00000000000|  6,00000000000|  2,00000000000|  3,00000000000|  0,00000000000|  6,00000000000|  6,00000000000|  8,00000000000| 13,00000000000| 13,00000000000| 12,00000000000| 15,00000000000| 15,00000000000| 14,00000000000| 13,00000000000| 13,00000000000| 12,00000000000| 13,00000000000| 13,00000000000| 13,00000000000| 12,00000000000| 13,00000000000| 13,00000000000| 11,00000000000|  7,00000000000|  6,00000000000|  8,00000000000| 10,00000000000| 11,00000000000
Bor_Oran                  |  5,00000000000|  7,00000000000|  7,00000000000|  4,00000000000|  6,00000000000|  5,00000000000|  6,00000000000|  0,00000000000|  2,00000000000|  6,00000000000| 13,00000000000| 13,00000000000| 12,00000000000| 15,00000000000| 15,00000000000| 14,00000000000| 13,00000000000| 13,00000000000| 12,00000000000| 13,00000000000| 13,00000000000| 13,00000000000| 12,00000000000| 13,00000000000| 13,00000000000| 11,00000000000|  7,00000000000|  6,00000000000|  8,00000000000| 10,00000000000| 11,00000000000
Sum_Oran                  |  5,00000000000|  7,00000000000|  7,00000000000|  4,00000000000|  6,00000000000|  5,00000000000|  6,00000000000|  2,00000000000|  0,00000000000|  6,00000000000| 13,00000000000| 13,00000000000| 12,00000000000| 15,00000000000| 15,00000000000| 14,00000000000| 13,00000000000| 13,00000000000| 12,00000000000| 13,00000000000| 13,00000000000| 13,00000000000| 12,00000000000| 13,00000000000| 13,00000000000| 11,00000000000|  7,00000000000|  6,00000000000|  8,00000000000| 10,00000000000| 11,00000000000
Gorilla                   |  3,00000000000|  3,00000000000|  3,00000000000|  4,00000000000|  8,00000000000|  7,00000000000|  8,00000000000|  6,00000000000|  6,00000000000|  0,00000000000| 15,00000000000| 15,00000000000| 14,00000000000| 17,00000000000| 17,00000000000| 16,00000000000| 15,00000000000| 15,00000000000| 14,00000000000| 15,00000000000| 15,00000000000| 15,00000000000| 14,00000000000| 15,00000000000| 15,00000000000| 13,00000000000|  9,00000000000|  8,00000000000| 10,00000000000| 12,00000000000| 13,00000000000
Cat                       | 14,00000000000| 16,00000000000| 16,00000000000| 13,00000000000| 13,00000000000| 12,00000000000| 13,00000000000| 13,00000000000| 13,00000000000| 15,00000000000|  0,00000000000|  6,00000000000|  9,00000000000| 12,00000000000| 12,00000000000| 11,00000000000| 10,00000000000|  6,00000000000|  3,00000000000|  2,00000000000|  6,00000000000|  6,00000000000|  7,00000000000|  8,00000000000|  8,00000000000|  6,00000000000|  8,00000000000|  9,00000000000|  7,00000000000|  7,00000000000|  8,00000000000
Dog                       | 14,00000000000| 16,00000000000| 16,00000000000| 13,00000000000| 13,00000000000| 12,00000000000| 13,00000000000| 13,00000000000| 13,00000000000| 15,00000000000|  6,00000000000|  0,00000000000|  9,00000000000| 12,00000000000| 12,00000000000| 11,00000000000| 10,00000000000|  2,00000000000|  5,00000000000|  6,00000000000|  4,00000000000|  4,00000000000|  7,00000000000|  8,00000000000|  8,00000000000|  6,00000000000|  8,00000000000|  9,00000000000|  7,00000000000|  7,00000000000|  8,00000000000
Pig                       | 13,00000000000| 15,00000000000| 15,00000000000| 12,00000000000| 12,00000000000| 11,00000000000| 12,00000000000| 12,00000000000| 12,00000000000| 14,00000000000|  9,00000000000|  9,00000000000|  0,00000000000|  5,00000000000|  5,00000000000|  4,00000000000|  3,00000000000|  9,00000000000|  8,00000000000|  9,00000000000|  9,00000000000|  9,00000000000|  8,00000000000|  9,00000000000|  9,00000000000|  7,00000000000|  7,00000000000|  8,00000000000|  6,00000000000|  4,00000000000|  3,00000000000
Sheep                     | 16,00000000000| 18,00000000000| 18,00000000000| 15,00000000000| 15,00000000000| 14,00000000000| 15,00000000000| 15,00000000000| 15,00000000000| 17,00000000000| 12,00000000000| 12,00000000000|  5,00000000000|  0,00000000000|  2,00000000000|  3,00000000000|  4,00000000000| 12,00000000000| 11,00000000000| 12,00000000000| 12,00000000000| 12,00000000000| 11,00000000000| 12,00000000000| 12,00000000000| 10,00000000000| 10,00000000000| 11,00000000000|  9,00000000000|  7,00000000000|  6,00000000000
Goat                      | 16,00000000000| 18,00000000000| 18,00000000000| 15,00000000000| 15,00000000000| 14,00000000000| 15,00000000000| 15,00000000000| 15,00000000000| 17,00000000000| 12,00000000000| 12,00000000000|  5,00000000000|  2,00000000000|  0,00000000000|  3,00000000000|  4,00000000000| 12,00000000000| 11,00000000000| 12,00000000000| 12,00000000000| 12,00000000000| 11,00000000000| 12,00000000000| 12,00000000000| 10,00000000000| 10,00000000000| 11,00000000000|  9,00000000000|  7,00000000000|  6,00000000000
Cow                       | 15,00000000000| 17,00000000000| 17,00000000000| 14,00000000000| 14,00000000000| 13,00000000000| 14,00000000000| 14,00000000000| 14,00000000000| 16,00000000000| 11,00000000000| 11,00000000000|  4,00000000000|  3,00000000000|  3,00000000000|  0,00000000000|  3,00000000000| 11,00000000000| 10,00000000000| 11,00000000000| 11,00000000000| 11,00000000000| 10,00000000000| 11,00000000000| 11,00000000000|  9,00000000000|  9,00000000000| 10,00000000000|  8,00000000000|  6,00000000000|  5,00000000000
Buffalo                   | 14,00000000000| 16,00000000000| 16,00000000000| 13,00000000000| 13,00000000000| 12,00000000000| 13,00000000000| 13,00000000000| 13,00000000000| 15,00000000000| 10,00000000000| 10,00000000000|  3,00000000000|  4,00000000000|  4,00000000000|  3,00000000000|  0,00000000000| 10,00000000000|  9,00000000000| 10,00000000000| 10,00000000000| 10,00000000000|  9,00000000000| 10,00000000000| 10,00000000000|  8,00000000000|  8,00000000000|  9,00000000000|  7,00000000000|  5,00000000000|  4,00000000000
Wolf                      | 14,00000000000| 16,00000000000| 16,00000000000| 13,00000000000| 13,00000000000| 12,00000000000| 13,00000000000| 13,00000000000| 13,00000000000| 15,00000000000|  6,00000000000|  2,00000000000|  9,00000000000| 12,00000000000| 12,00000000000| 11,00000000000| 10,00000000000|  0,00000000000|  5,00000000000|  6,00000000000|  4,00000000000|  4,00000000000|  7,00000000000|  8,00000000000|  8,00000000000|  6,00000000000|  8,00000000000|  9,00000000000|  7,00000000000|  7,00000000000|  8,00000000000
Tiger                     | 13,00000000000| 15,00000000000| 15,00000000000| 12,00000000000| 12,00000000000| 11,00000000000| 12,00000000000| 12,00000000000| 12,00000000000| 14,00000000000|  3,00000000000|  5,00000000000|  8,00000000000| 11,00000000000| 11,00000000000| 10,00000000000|  9,00000000000|  5,00000000000|  0,00000000000|  3,00000000000|  5,00000000000|  5,00000000000|  6,00000000000|  7,00000000000|  7,00000000000|  5,00000000000|  7,00000000000|  8,00000000000|  6,00000000000|  6,00000000000|  7,00000000000
Leopard                   | 14,00000000000| 16,00000000000| 16,00000000000| 13,00000000000| 13,00000000000| 12,00000000000| 13,00000000000| 13,00000000000| 13,00000000000| 15,00000000000|  2,00000000000|  6,00000000000|  9,00000000000| 12,00000000000| 12,00000000000| 11,00000000000| 10,00000000000|  6,00000000000|  3,00000000000|  0,00000000000|  6,00000000000|  6,00000000000|  7,00000000000|  8,00000000000|  8,00000000000|  6,00000000000|  8,00000000000|  9,00000000000|  7,00000000000|  7,00000000000|  8,00000000000
Indian_Rhino              | 14,00000000000| 16,00000000000| 16,00000000000| 13,00000000000| 13,00000000000| 12,00000000000| 13,00000000000| 13,00000000000| 13,00000000000| 15,00000000000|  6,00000000000|  4,00000000000|  9,00000000000| 12,00000000000| 12,00000000000| 11,00000000000| 10,00000000000|  4,00000000000|  5,00000000000|  6,00000000000|  0,00000000000|  2,00000000000|  7,00000000000|  8,00000000000|  8,00000000000|  6,00000000000|  8,00000000000|  9,00000000000|  7,00000000000|  7,00000000000|  8,00000000000
White_Rhino               | 14,00000000000| 16,00000000000| 16,00000000000| 13,00000000000| 13,00000000000| 12,00000000000| 13,00000000000| 13,00000000000| 13,00000000000| 15,00000000000|  6,00000000000|  4,00000000000|  9,00000000000| 12,00000000000| 12,00000000000| 11,00000000000| 10,00000000000|  4,00000000000|  5,00000000000|  6,00000000000|  2,00000000000|  0,00000000000|  7,00000000000|  8,00000000000|  8,00000000000|  6,00000000000|  8,00000000000|  9,00000000000|  7,00000000000|  7,00000000000|  8,00000000000
Black_Bear                | 13,00000000000| 15,00000000000| 15,00000000000| 12,00000000000| 12,00000000000| 11,00000000000| 12,00000000000| 12,00000000000| 12,00000000000| 14,00000000000|  7,00000000000|  7,00000000000|  8,00000000000| 11,00000000000| 11,00000000000| 10,00000000000|  9,00000000000|  7,00000000000|  6,00000000000|  7,00000000000|  7,00000000000|  7,00000000000|  0,00000000000|  3,00000000000|  3,00000000000|  3,00000000000|  7,00000000000|  8,00000000000|  6,00000000000|  6,00000000000|  7,00000000000
Brown_Bear                | 14,00000000000| 16,00000000000| 16,00000000000| 13,00000000000| 13,00000000000| 12,00000000000| 13,00000000000| 13,00000000000| 13,00000000000| 15,00000000000|  8,00000000000|  8,00000000000|  9,00000000000| 12,00000000000| 12,00000000000| 11,00000000000| 10,00000000000|  8,00000000000|  7,00000000000|  8,00000000000|  8,00000000000|  8,00000000000|  3,00000000000|  0,00000000000|  2,00000000000|  4,00000000000|  8,00000000000|  9,00000000000|  7,00000000000|  7,00000000000|  8,00000000000
Polar_Bear                | 14,00000000000| 16,00000000000| 16,00000000000| 13,00000000000| 13,00000000000| 12,00000000000| 13,00000000000| 13,00000000000| 13,00000000000| 15,00000000000|  8,00000000000|  8,00000000000|  9,00000000000| 12,00000000000| 12,00000000000| 11,00000000000| 10,00000000000|  8,00000000000|  7,00000000000|  8,00000000000|  8,00000000000|  8,00000000000|  3,00000000000|  2,00000000000|  0,00000000000|  4,00000000000|  8,00000000000|  9,00000000000|  7,00000000000|  7,00000000000|  8,00000000000
Giant_Panda               | 12,00000000000| 14,00000000000| 14,00000000000| 11,00000000000| 11,00000000000| 10,00000000000| 11,00000000000| 11,00000000000| 11,00000000000| 13,00000000000|  6,00000000000|  6,00000000000|  7,00000000000| 10,00000000000| 10,00000000000|  9,00000000000|  8,00000000000|  6,00000000000|  5,00000000000|  6,00000000000|  6,00000000000|  6,00000000000|  3,00000000000|  4,00000000000|  4,00000000000|  0,00000000000|  6,00000000000|  7,00000000000|  5,00000000000|  5,00000000000|  6,00000000000
Rabbit                    |  8,00000000000| 10,00000000000| 10,00000000000|  7,00000000000|  7,00000000000|  6,00000000000|  7,00000000000|  7,00000000000|  7,00000000000|  9,00000000000|  8,00000000000|  8,00000000000|  7,00000000000| 10,00000000000| 10,00000000000|  9,00000000000|  8,00000000000|  8,00000000000|  7,00000000000|  8,00000000000|  8,00000000000|  8,00000000000|  7,00000000000|  8,00000000000|  8,00000000000|  6,00000000000|  0,00000000000|  3,00000000000|  3,00000000000|  5,00000000000|  6,00000000000
Hedgehog                  |  7,00000000000|  9,00000000000|  9,00000000000|  6,00000000000|  6,00000000000|  5,00000000000|  6,00000000000|  6,00000000000|  6,00000000000|  8,00000000000|  9,00000000000|  9,00000000000|  8,00000000000| 11,00000000000| 11,00000000000| 10,00000000000|  9,00000000000|  9,00000000000|  8,00000000000|  9,00000000000|  9,00000000000|  9,00000000000|  8,00000000000|  9,00000000000|  9,00000000000|  7,00000000000|  3,00000000000|  0,00000000000|  4,00000000000|  6,00000000000|  7,00000000000
Dormouse                  |  9,00000000000| 11,00000000000| 11,00000000000|  8,00000000000|  8,00000000000|  7,00000000000|  8,00000000000|  8,00000000000|  8,00000000000| 10,00000000000|  7,00000000000|  7,00000000000|  6,00000000000|  9,00000000000|  9,00000000000|  8,00000000000|  7,00000000000|  7,00000000000|  6,00000000000|  7,00000000000|  7,00000000000|  7,00000000000|  6,00000000000|  7,00000000000|  7,00000000000|  5,00000000000|  3,00000000000|  4,00000000000|  0,00000000000|  4,00000000000|  5,00000000000
Squirrel                  | 11,00000000000| 13,00000000000| 13,00000000000| 10,00000000000| 10,00000000000|  9,00000000000| 10,00000000000| 10,00000000000| 10,00000000000| 12,00000000000|  7,00000000000|  7,00000000000|  4,00000000000|  7,00000000000|  7,00000000000|  6,00000000000|  5,00000000000|  7,00000000000|  6,00000000000|  7,00000000000|  7,00000000000|  7,00000000000|  6,00000000000|  7,00000000000|  7,00000000000|  5,00000000000|  5,00000000000|  6,00000000000|  4,00000000000|  0,00000000000|  3,00000000000
Blue_Whale                | 12,00000000000| 14,00000000000| 14,00000000000| 11,00000000000| 11,00000000000| 10,00000000000| 11,00000000000| 11,00000000000| 11,00000000000| 13,00000000000|  8,00000000000|  8,00000000000|  3,00000000000|  6,00000000000|  6,00000000000|  5,00000000000|  4,00000000000|  8,00000000000|  7,00000000000|  8,00000000000|  8,00000000000|  8,00000000000|  7,00000000000|  8,00000000000|  8,00000000000|  6,00000000000|  6,00000000000|  7,00000000000|  5,00000000000|  3,00000000000|  0,00000000000
