                           |Human          |Pig_Chim       |Com_Chim       |Gibbon         |Baboon         |Ver_Monkey     |Macaca_Thibet  |Bor_Oran       |Sum_Oran       |Gorilla        |Cat            |Dog            |Pig            |Sheep          |Goat           |Cow            |Buffalo        |Wolf           |Tiger          |Leopard        |Indian_Rhino   |White_Rhino    |Black_Bear     |Brown_Bear     |Polar_Bear     |Giant_Panda    |Rabbit         |Hedgehog       |Dormouse       |Squirrel       |Blue_Whale     
Human                     |  0,00000000000|50612,18616859718|50612,18616859718|52662,79324206123|58535,21514693312|58535,21514693312|58535,21514693312|54218,14528734538|54218,14528734538|50612,18616859718|67688,87226885224|67688,87226885224|67688,87226885224|67688,87226885224|67688,87226885224|67688,87226885224|67688,87226885224|67688,87226885224|67688,87226885224|67688,87226885224|67688,87226885224|67688,87226885224|67688,87226885224|67688,87226885224|67688,87226885224|67688,87226885224|67688,87226885224|67688,87226885224|67688,87226885224|67688,87226885224|67688,87226885224
Pig_Chim                  |50612,18616859718|  0,00000000000|30575,02250898900|52662,79324206123|58535,21514693312|58535,21514693312|58535,21514693312|54218,14528734538|54218,14528734538|37802,39048729161|67688,87226885224|67688,87226885224|67688,87226885224|67688,87226885224|67688,87226885224|67688,87226885224|67688,87226885224|67688,87226885224|67688,87226885224|67688,87226885224|67688,87226885224|67688,87226885224|67688,87226885224|67688,87226885224|67688,87226885224|67688,87226885224|67688,87226885224|67688,87226885224|67688,87226885224|67688,87226885224|67688,87226885224
Com_Chim                  |50612,18616859718|30575,02250898900|  0,00000000000|52662,79324206123|58535,21514693312|58535,21514693312|58535,21514693312|54218,14528734538|54218,14528734538|37802,39048729161|67688,87226885224|67688,87226885224|67688,87226885224|67688,87226885224|67688,87226885224|67688,87226885224|67688,87226885224|67688,87226885224|67688,87226885224|67688,87226885224|67688,87226885224|67688,87226885224|67688,87226885224|67688,87226885224|67688,87226885224|67688,87226885224|67688,87226885224|67688,87226885224|67688,87226885224|67688,87226885224|67688,87226885224
Gibbon                    |52662,79324206123|52662,79324206123|52662,79324206123|  0,00000000000|58535,21514693312|58535,21514693312|58535,21514693312|54218,14528734538|54218,14528734538|52662,79324206123|67688,87226885224|67688,87226885224|67688,87226885224|67688,87226885224|67688,87226885224|67688,87226885224|67688,87226885224|67688,87226885224|67688,87226885224|67688,87226885224|67688,87226885224|67688,87226885224|67688,87226885224|67688,87226885224|67688,87226885224|67688,87226885224|67688,87226885224|67688,87226885224|67688,87226885224|67688,87226885224|67688,87226885224
Baboon                    |58535,21514693312|58535,21514693312|58535,21514693312|58535,21514693312|  0,00000000000|57790,25250710389|55082,53467215977|58535,21514693312|58535,21514693312|58535,21514693312|67688,87226885224|67688,87226885224|67688,87226885224|67688,87226885224|67688,87226885224|67688,87226885224|67688,87226885224|67688,87226885224|67688,87226885224|67688,87226885224|67688,87226885224|67688,87226885224|67688,87226885224|67688,87226885224|67688,87226885224|67688,87226885224|67688,87226885224|67688,87226885224|67688,87226885224|67688,87226885224|67688,87226885224
Ver_Monkey                |58535,21514693312|58535,21514693312|58535,21514693312|58535,21514693312|57790,25250710389|  0,00000000000|57790,25250710389|58535,21514693312|58535,21514693312|58535,21514693312|67688,87226885224|67688,87226885224|67688,87226885224|67688,87226885224|67688,87226885224|67688,87226885224|67688,87226885224|67688,87226885224|67688,87226885224|67688,87226885224|67688,87226885224|67688,87226885224|67688,87226885224|67688,87226885224|67688,87226885224|67688,87226885224|67688,87226885224|67688,87226885224|67688,87226885224|67688,87226885224|67688,87226885224
Macaca_Thibet             |58535,21514693312|58535,21514693312|58535,21514693312|58535,21514693312|55082,53467215977|57790,25250710389|  0,00000000000|58535,21514693312|58535,21514693312|58535,21514693312|67688,87226885224|67688,87226885224|67688,87226885224|67688,87226885224|67688,87226885224|67688,87226885224|67688,87226885224|67688,87226885224|67688,87226885224|67688,87226885224|67688,87226885224|67688,87226885224|67688,87226885224|67688,87226885224|67688,87226885224|67688,87226885224|67688,87226885224|67688,87226885224|67688,87226885224|67688,87226885224|67688,87226885224
Bor_Oran                  |54218,14528734538|54218,14528734538|54218,14528734538|54218,14528734538|58535,21514693312|58535,21514693312|58535,21514693312|  0,00000000000|42722,05474456131|54218,14528734538|67688,87226885224|67688,87226885224|67688,87226885224|67688,87226885224|67688,87226885224|67688,87226885224|67688,87226885224|67688,87226885224|67688,87226885224|67688,87226885224|67688,87226885224|67688,87226885224|67688,87226885224|67688,87226885224|67688,87226885224|67688,87226885224|67688,87226885224|67688,87226885224|67688,87226885224|67688,87226885224|67688,87226885224
Sum_Oran                  |54218,14528734538|54218,14528734538|54218,14528734538|54218,14528734538|58535,21514693312|58535,21514693312|58535,21514693312|42722,05474456131|  0,00000000000|54218,14528734538|67688,87226885224|67688,87226885224|67688,87226885224|67688,87226885224|67688,87226885224|67688,87226885224|67688,87226885224|67688,87226885224|67688,87226885224|67688,87226885224|67688,87226885224|67688,87226885224|67688,87226885224|67688,87226885224|67688,87226885224|67688,87226885224|67688,87226885224|67688,87226885224|67688,87226885224|67688,87226885224|67688,87226885224
Gorilla                   |50612,18616859718|37802,39048729161|37802,39048729161|52662,79324206123|58535,21514693312|58535,21514693312|58535,21514693312|54218,14528734538|54218,14528734538|  0,00000000000|67688,87226885224|67688,87226885224|67688,87226885224|67688,87226885224|67688,87226885224|67688,87226885224|67688,87226885224|67688,87226885224|67688,87226885224|67688,87226885224|67688,87226885224|67688,87226885224|67688,87226885224|67688,87226885224|67688,87226885224|67688,87226885224|67688,87226885224|67688,87226885224|67688,87226885224|67688,87226885224|67688,87226885224
Cat                       |67688,87226885224|67688,87226885224|67688,87226885224|67688,87226885224|67688,87226885224|67688,87226885224|67688,87226885224|67688,87226885224|67688,87226885224|67688,87226885224|  0,00000000000|62579,49788352734|62579,49788352734|62579,49788352734|62579,49788352734|62579,49788352734|62579,49788352734|62579,49788352734|50337,84261755420|50337,84261755420|62579,49788352734|62579,49788352734|62260,62598459831|62260,62598459831|62260,62598459831|62260,62598459831|64200,58740598919|66398,10122655010|62737,51948284490|62579,49788352734|62579,49788352734
Dog                       |67688,87226885224|67688,87226885224|67688,87226885224|67688,87226885224|67688,87226885224|67688,87226885224|67688,87226885224|67688,87226885224|67688,87226885224|67688,87226885224|62579,49788352734|  0,00000000000|61130,03028615340|61130,03028615340|61130,03028615340|61130,03028615340|61130,03028615340|29950,56784650360|62579,49788352734|62579,49788352734|58351,80201128994|58351,80201128994|62579,49788352734|62579,49788352734|62579,49788352734|62579,49788352734|64200,58740598919|66398,10122655010|62737,51948284490|61340,71044089983|61130,03028615340
Pig                       |67688,87226885224|67688,87226885224|67688,87226885224|67688,87226885224|67688,87226885224|67688,87226885224|67688,87226885224|67688,87226885224|67688,87226885224|67688,87226885224|62579,49788352734|61130,03028615340|  0,00000000000|58246,53176999082|58246,53176999082|58246,53176999082|58246,53176999082|61130,03028615340|62579,49788352734|62579,49788352734|61130,03028615340|61130,03028615340|62579,49788352734|62579,49788352734|62579,49788352734|62579,49788352734|64200,58740598919|66398,10122655010|62737,51948284490|61340,71044089983|59537,29126147652
Sheep                     |67688,87226885224|67688,87226885224|67688,87226885224|67688,87226885224|67688,87226885224|67688,87226885224|67688,87226885224|67688,87226885224|67688,87226885224|67688,87226885224|62579,49788352734|61130,03028615340|58246,53176999082|  0,00000000000|43675,79109172713|55361,68477370760|52049,19311044424|61130,03028615340|62579,49788352734|62579,49788352734|61130,03028615340|61130,03028615340|62579,49788352734|62579,49788352734|62579,49788352734|62579,49788352734|64200,58740598919|66398,10122655010|62737,51948284490|61340,71044089983|59537,29126147652
Goat                      |67688,87226885224|67688,87226885224|67688,87226885224|67688,87226885224|67688,87226885224|67688,87226885224|67688,87226885224|67688,87226885224|67688,87226885224|67688,87226885224|62579,49788352734|61130,03028615340|58246,53176999082|43675,79109172713|  0,00000000000|55361,68477370760|52049,19311044424|61130,03028615340|62579,49788352734|62579,49788352734|61130,03028615340|61130,03028615340|62579,49788352734|62579,49788352734|62579,49788352734|62579,49788352734|64200,58740598919|66398,10122655010|62737,51948284490|61340,71044089983|59537,29126147652
Cow                       |67688,87226885224|67688,87226885224|67688,87226885224|67688,87226885224|67688,87226885224|67688,87226885224|67688,87226885224|67688,87226885224|67688,87226885224|67688,87226885224|62579,49788352734|61130,03028615340|58246,53176999082|55361,68477370760|55361,68477370760|  0,00000000000|55361,68477370760|61130,03028615340|62579,49788352734|62579,49788352734|61130,03028615340|61130,03028615340|62579,49788352734|62579,49788352734|62579,49788352734|62579,49788352734|64200,58740598919|66398,10122655010|62737,51948284490|61340,71044089983|59537,29126147652
Buffalo                   |67688,87226885224|67688,87226885224|67688,87226885224|67688,87226885224|67688,87226885224|67688,87226885224|67688,87226885224|67688,87226885224|67688,87226885224|67688,87226885224|62579,49788352734|61130,03028615340|58246,53176999082|52049,19311044424|52049,19311044424|55361,68477370760|  0,00000000000|61130,03028615340|62579,49788352734|62579,49788352734|61130,03028615340|61130,03028615340|62579,49788352734|62579,49788352734|62579,49788352734|62579,49788352734|64200,58740598919|66398,10122655010|62737,51948284490|61340,71044089983|59537,29126147652
Wolf                      |67688,87226885224|67688,87226885224|67688,87226885224|67688,87226885224|67688,87226885224|67688,87226885224|67688,87226885224|67688,87226885224|67688,87226885224|67688,87226885224|62579,49788352734|29950,56784650360|61130,03028615340|61130,03028615340|61130,03028615340|61130,03028615340|61130,03028615340|  0,00000000000|62579,49788352734|62579,49788352734|58351,80201128994|58351,80201128994|62579,49788352734|62579,49788352734|62579,49788352734|62579,49788352734|64200,58740598919|66398,10122655010|62737,51948284490|61340,71044089983|61130,03028615340
Tiger                     |67688,87226885224|67688,87226885224|67688,87226885224|67688,87226885224|67688,87226885224|67688,87226885224|67688,87226885224|67688,87226885224|67688,87226885224|67688,87226885224|50337,84261755420|62579,49788352734|62579,49788352734|62579,49788352734|62579,49788352734|62579,49788352734|62579,49788352734|62579,49788352734|  0,00000000000|49116,91837867860|62579,49788352734|62579,49788352734|62260,62598459831|62260,62598459831|62260,62598459831|62260,62598459831|64200,58740598919|66398,10122655010|62737,51948284490|62579,49788352734|62579,49788352734
Leopard                   |67688,87226885224|67688,87226885224|67688,87226885224|67688,87226885224|67688,87226885224|67688,87226885224|67688,87226885224|67688,87226885224|67688,87226885224|67688,87226885224|50337,84261755420|62579,49788352734|62579,49788352734|62579,49788352734|62579,49788352734|62579,49788352734|62579,49788352734|62579,49788352734|49116,91837867860|  0,00000000000|62579,49788352734|62579,49788352734|62260,62598459831|62260,62598459831|62260,62598459831|62260,62598459831|64200,58740598919|66398,10122655010|62737,51948284490|62579,49788352734|62579,49788352734
Indian_Rhino              |67688,87226885224|67688,87226885224|67688,87226885224|67688,87226885224|67688,87226885224|67688,87226885224|67688,87226885224|67688,87226885224|67688,87226885224|67688,87226885224|62579,49788352734|58351,80201128994|61130,03028615340|61130,03028615340|61130,03028615340|61130,03028615340|61130,03028615340|58351,80201128994|62579,49788352734|62579,49788352734|  0,00000000000|45067,56281985962|62579,49788352734|62579,49788352734|62579,49788352734|62579,49788352734|64200,58740598919|66398,10122655010|62737,51948284490|61340,71044089983|61130,03028615340
White_Rhino               |67688,87226885224|67688,87226885224|67688,87226885224|67688,87226885224|67688,87226885224|67688,87226885224|67688,87226885224|67688,87226885224|67688,87226885224|67688,87226885224|62579,49788352734|58351,80201128994|61130,03028615340|61130,03028615340|61130,03028615340|61130,03028615340|61130,03028615340|58351,80201128994|62579,49788352734|62579,49788352734|45067,56281985962|  0,00000000000|62579,49788352734|62579,49788352734|62579,49788352734|62579,49788352734|64200,58740598919|66398,10122655010|62737,51948284490|61340,71044089983|61130,03028615340
Black_Bear                |67688,87226885224|67688,87226885224|67688,87226885224|67688,87226885224|67688,87226885224|67688,87226885224|67688,87226885224|67688,87226885224|67688,87226885224|67688,87226885224|62260,62598459831|62579,49788352734|62579,49788352734|62579,49788352734|62579,49788352734|62579,49788352734|62579,49788352734|62579,49788352734|62260,62598459831|62260,62598459831|62579,49788352734|62579,49788352734|  0,00000000000|51644,85892137943|51644,85892137943|61647,82729167106|64200,58740598919|66398,10122655010|62737,51948284490|62579,49788352734|62579,49788352734
Brown_Bear                |67688,87226885224|67688,87226885224|67688,87226885224|67688,87226885224|67688,87226885224|67688,87226885224|67688,87226885224|67688,87226885224|67688,87226885224|67688,87226885224|62260,62598459831|62579,49788352734|62579,49788352734|62579,49788352734|62579,49788352734|62579,49788352734|62579,49788352734|62579,49788352734|62260,62598459831|62260,62598459831|62579,49788352734|62579,49788352734|51644,85892137943|  0,00000000000|28768,22116343543|61647,82729167106|64200,58740598919|66398,10122655010|62737,51948284490|62579,49788352734|62579,49788352734
Polar_Bear                |67688,87226885224|67688,87226885224|67688,87226885224|67688,87226885224|67688,87226885224|67688,87226885224|67688,87226885224|67688,87226885224|67688,87226885224|67688,87226885224|62260,62598459831|62579,49788352734|62579,49788352734|62579,49788352734|62579,49788352734|62579,49788352734|62579,49788352734|62579,49788352734|62260,62598459831|62260,62598459831|62579,49788352734|62579,49788352734|51644,85892137943|28768,22116343543|  0,00000000000|61647,82729167106|64200,58740598919|66398,10122655010|62737,51948284490|62579,49788352734|62579,49788352734
Giant_Panda               |67688,87226885224|67688,87226885224|67688,87226885224|67688,87226885224|67688,87226885224|67688,87226885224|67688,87226885224|67688,87226885224|67688,87226885224|67688,87226885224|62260,62598459831|62579,49788352734|62579,49788352734|62579,49788352734|62579,49788352734|62579,49788352734|62579,49788352734|62579,49788352734|62260,62598459831|62260,62598459831|62579,49788352734|62579,49788352734|61647,82729167106|61647,82729167106|61647,82729167106|  0,00000000000|64200,58740598919|66398,10122655010|62737,51948284490|62579,49788352734|62579,49788352734
Rabbit                    |67688,87226885224|67688,87226885224|67688,87226885224|67688,87226885224|67688,87226885224|67688,87226885224|67688,87226885224|67688,87226885224|67688,87226885224|67688,87226885224|64200,58740598919|64200,58740598919|64200,58740598919|64200,58740598919|64200,58740598919|64200,58740598919|64200,58740598919|64200,58740598919|64200,58740598919|64200,58740598919|64200,58740598919|64200,58740598919|64200,58740598919|64200,58740598919|64200,58740598919|64200,58740598919|  0,00000000000|66398,10122655010|64200,58740598919|64200,58740598919|64200,58740598919
Hedgehog                  |67688,87226885224|67688,87226885224|67688,87226885224|67688,87226885224|67688,87226885224|67688,87226885224|67688,87226885224|67688,87226885224|67688,87226885224|67688,87226885224|66398,10122655010|66398,10122655010|66398,10122655010|66398,10122655010|66398,10122655010|66398,10122655010|66398,10122655010|66398,10122655010|66398,10122655010|66398,10122655010|66398,10122655010|66398,10122655010|66398,10122655010|66398,10122655010|66398,10122655010|66398,10122655010|66398,10122655010|  0,00000000000|66398,10122655010|66398,10122655010|66398,10122655010
Dormouse                  |67688,87226885224|67688,87226885224|67688,87226885224|67688,87226885224|67688,87226885224|67688,87226885224|67688,87226885224|67688,87226885224|67688,87226885224|67688,87226885224|62737,51948284490|62737,51948284490|62737,51948284490|62737,51948284490|62737,51948284490|62737,51948284490|62737,51948284490|62737,51948284490|62737,51948284490|62737,51948284490|62737,51948284490|62737,51948284490|62737,51948284490|62737,51948284490|62737,51948284490|62737,51948284490|64200,58740598919|66398,10122655010|  0,00000000000|62737,51948284490|62737,51948284490
Squirrel                  |67688,87226885224|67688,87226885224|67688,87226885224|67688,87226885224|67688,87226885224|67688,87226885224|67688,87226885224|67688,87226885224|67688,87226885224|67688,87226885224|62579,49788352734|61340,71044089983|61340,71044089983|61340,71044089983|61340,71044089983|61340,71044089983|61340,71044089983|61340,71044089983|62579,49788352734|62579,49788352734|61340,71044089983|61340,71044089983|62579,49788352734|62579,49788352734|62579,49788352734|62579,49788352734|64200,58740598919|66398,10122655010|62737,51948284490|  0,00000000000|61340,71044089983
Blue_Whale                |67688,87226885224|67688,87226885224|67688,87226885224|67688,87226885224|67688,87226885224|67688,87226885224|67688,87226885224|67688,87226885224|67688,87226885224|67688,87226885224|62579,49788352734|61130,03028615340|59537,29126147652|59537,29126147652|59537,29126147652|59537,29126147652|59537,29126147652|61130,03028615340|62579,49788352734|62579,49788352734|61130,03028615340|61130,03028615340|62579,49788352734|62579,49788352734|62579,49788352734|62579,49788352734|64200,58740598919|66398,10122655010|62737,51948284490|61340,71044089983|  0,00000000000
                           |Human          |Pig_Chim       |Com_Chim       |Gibbon         |Baboon         |Ver_Monkey     |Macaca_Thibet  |Bor_Oran       |Sum_Oran       |Gorilla        |Cat            |Dog            |Pig            |Sheep          |Goat           |Cow            |Buffalo        |Wolf           |Tiger          |Leopard        |Indian_Rhino   |White_Rhino    |Black_Bear     |Brown_Bear     |Polar_Bear     |Giant_Panda    |Rabbit         |Hedgehog       |Dormouse       |Squirrel       |Blue_Whale     
Human                     |  0,00000000000|  7,62751435403|  7,62751435403|  7,99980503440|  9,06595172562|  9,06595172562|  9,06595172562|  8,28218144802|  8,28218144802|  7,62751435403| 10,72781141677| 10,72781141677| 10,72781141677| 10,72781141677| 10,72781141677| 10,72781141677| 10,72781141677| 10,72781141677| 10,72781141677| 10,72781141677| 10,72781141677| 10,72781141677| 10,72781141677| 10,72781141677| 10,72781141677| 10,72781141677| 10,72781141677| 10,72781141677| 10,72781141677| 10,72781141677| 10,72781141677
Pig_Chim                  |  7,62751435403|  0,00000000000|  3,98973830810|  7,99980503440|  9,06595172562|  9,06595172562|  9,06595172562|  8,28218144802|  8,28218144802|  5,30187741887| 10,72781141677| 10,72781141677| 10,72781141677| 10,72781141677| 10,72781141677| 10,72781141677| 10,72781141677| 10,72781141677| 10,72781141677| 10,72781141677| 10,72781141677| 10,72781141677| 10,72781141677| 10,72781141677| 10,72781141677| 10,72781141677| 10,72781141677| 10,72781141677| 10,72781141677| 10,72781141677| 10,72781141677
Com_Chim                  |  7,62751435403|  3,98973830810|  0,00000000000|  7,99980503440|  9,06595172562|  9,06595172562|  9,06595172562|  8,28218144802|  8,28218144802|  5,30187741887| 10,72781141677| 10,72781141677| 10,72781141677| 10,72781141677| 10,72781141677| 10,72781141677| 10,72781141677| 10,72781141677| 10,72781141677| 10,72781141677| 10,72781141677| 10,72781141677| 10,72781141677| 10,72781141677| 10,72781141677| 10,72781141677| 10,72781141677| 10,72781141677| 10,72781141677| 10,72781141677| 10,72781141677
Gibbon                    |  7,99980503440|  7,99980503440|  7,99980503440|  0,00000000000|  9,06595172562|  9,06595172562|  9,06595172562|  8,28218144802|  8,28218144802|  7,99980503440| 10,72781141677| 10,72781141677| 10,72781141677| 10,72781141677| 10,72781141677| 10,72781141677| 10,72781141677| 10,72781141677| 10,72781141677| 10,72781141677| 10,72781141677| 10,72781141677| 10,72781141677| 10,72781141677| 10,72781141677| 10,72781141677| 10,72781141677| 10,72781141677| 10,72781141677| 10,72781141677| 10,72781141677
Baboon                    |  9,06595172562|  9,06595172562|  9,06595172562|  9,06595172562|  0,00000000000|  8,93070268078|  8,43911259116|  9,06595172562|  9,06595172562|  9,06595172562| 10,72781141677| 10,72781141677| 10,72781141677| 10,72781141677| 10,72781141677| 10,72781141677| 10,72781141677| 10,72781141677| 10,72781141677| 10,72781141677| 10,72781141677| 10,72781141677| 10,72781141677| 10,72781141677| 10,72781141677| 10,72781141677| 10,72781141677| 10,72781141677| 10,72781141677| 10,72781141677| 10,72781141677
Ver_Monkey                |  9,06595172562|  9,06595172562|  9,06595172562|  9,06595172562|  8,93070268078|  0,00000000000|  8,93070268078|  9,06595172562|  9,06595172562|  9,06595172562| 10,72781141677| 10,72781141677| 10,72781141677| 10,72781141677| 10,72781141677| 10,72781141677| 10,72781141677| 10,72781141677| 10,72781141677| 10,72781141677| 10,72781141677| 10,72781141677| 10,72781141677| 10,72781141677| 10,72781141677| 10,72781141677| 10,72781141677| 10,72781141677| 10,72781141677| 10,72781141677| 10,72781141677
Macaca_Thibet             |  9,06595172562|  9,06595172562|  9,06595172562|  9,06595172562|  8,43911259116|  8,93070268078|  0,00000000000|  9,06595172562|  9,06595172562|  9,06595172562| 10,72781141677| 10,72781141677| 10,72781141677| 10,72781141677| 10,72781141677| 10,72781141677| 10,72781141677| 10,72781141677| 10,72781141677| 10,72781141677| 10,72781141677| 10,72781141677| 10,72781141677| 10,72781141677| 10,72781141677| 10,72781141677| 10,72781141677| 10,72781141677| 10,72781141677| 10,72781141677| 10,72781141677
Bor_Oran                  |  8,28218144802|  8,28218144802|  8,28218144802|  8,28218144802|  9,06595172562|  9,06595172562|  9,06595172562|  0,00000000000|  6,19504958102|  8,28218144802| 10,72781141677| 10,72781141677| 10,72781141677| 10,72781141677| 10,72781141677| 10,72781141677| 10,72781141677| 10,72781141677| 10,72781141677| 10,72781141677| 10,72781141677| 10,72781141677| 10,72781141677| 10,72781141677| 10,72781141677| 10,72781141677| 10,72781141677| 10,72781141677| 10,72781141677| 10,72781141677| 10,72781141677
Sum_Oran                  |  8,28218144802|  8,28218144802|  8,28218144802|  8,28218144802|  9,06595172562|  9,06595172562|  9,06595172562|  6,19504958102|  0,00000000000|  8,28218144802| 10,72781141677| 10,72781141677| 10,72781141677| 10,72781141677| 10,72781141677| 10,72781141677| 10,72781141677| 10,72781141677| 10,72781141677| 10,72781141677| 10,72781141677| 10,72781141677| 10,72781141677| 10,72781141677| 10,72781141677| 10,72781141677| 10,72781141677| 10,72781141677| 10,72781141677| 10,72781141677| 10,72781141677
Gorilla                   |  7,62751435403|  5,30187741887|  5,30187741887|  7,99980503440|  9,06595172562|  9,06595172562|  9,06595172562|  8,28218144802|  8,28218144802|  0,00000000000| 10,72781141677| 10,72781141677| 10,72781141677| 10,72781141677| 10,72781141677| 10,72781141677| 10,72781141677| 10,72781141677| 10,72781141677| 10,72781141677| 10,72781141677| 10,72781141677| 10,72781141677| 10,72781141677| 10,72781141677| 10,72781141677| 10,72781141677| 10,72781141677| 10,72781141677| 10,72781141677| 10,72781141677
Cat                       | 10,72781141677| 10,72781141677| 10,72781141677| 10,72781141677| 10,72781141677| 10,72781141677| 10,72781141677| 10,72781141677| 10,72781141677| 10,72781141677|  0,00000000000|  9,80019710646|  9,80019710646|  9,80019710646|  9,80019710646|  9,80019710646|  9,80019710646|  9,80019710646|  7,57770688551|  7,57770688551|  9,80019710646|  9,80019710646|  9,74230545196|  9,74230545196|  9,74230545196|  9,74230545196| 10,09450825415| 10,49347006695|  9,82888615639|  9,80019710646|  9,80019710646
Dog                       | 10,72781141677| 10,72781141677| 10,72781141677| 10,72781141677| 10,72781141677| 10,72781141677| 10,72781141677| 10,72781141677| 10,72781141677| 10,72781141677|  9,80019710646|  0,00000000000|  9,53704416752|  9,53704416752|  9,53704416752|  9,53704416752|  9,53704416752|  3,87636766086|  9,80019710646|  9,80019710646|  9,03265280554|  9,03265280554|  9,80019710646|  9,80019710646|  9,80019710646|  9,80019710646| 10,09450825415| 10,49347006695|  9,82888615639|  9,57529345436|  9,53704416752
Pig                       | 10,72781141677| 10,72781141677| 10,72781141677| 10,72781141677| 10,72781141677| 10,72781141677| 10,72781141677| 10,72781141677| 10,72781141677| 10,72781141677|  9,80019710646|  9,53704416752|  0,00000000000|  9,01354084096|  9,01354084096|  9,01354084096|  9,01354084096|  9,53704416752|  9,80019710646|  9,80019710646|  9,53704416752|  9,53704416752|  9,80019710646|  9,80019710646|  9,80019710646|  9,80019710646| 10,09450825415| 10,49347006695|  9,82888615639|  9,57529345436|  9,24788009371
Sheep                     | 10,72781141677| 10,72781141677| 10,72781141677| 10,72781141677| 10,72781141677| 10,72781141677| 10,72781141677| 10,72781141677| 10,72781141677| 10,72781141677|  9,80019710646|  9,53704416752|  9,01354084096|  0,00000000000|  6,36820179441|  8,48979269589|  7,88840504294|  9,53704416752|  9,80019710646|  9,80019710646|  9,53704416752|  9,53704416752|  9,80019710646|  9,80019710646|  9,80019710646|  9,80019710646| 10,09450825415| 10,49347006695|  9,82888615639|  9,57529345436|  9,24788009371
Goat                      | 10,72781141677| 10,72781141677| 10,72781141677| 10,72781141677| 10,72781141677| 10,72781141677| 10,72781141677| 10,72781141677| 10,72781141677| 10,72781141677|  9,80019710646|  9,53704416752|  9,01354084096|  6,36820179441|  0,00000000000|  8,48979269589|  7,88840504294|  9,53704416752|  9,80019710646|  9,80019710646|  9,53704416752|  9,53704416752|  9,80019710646|  9,80019710646|  9,80019710646|  9,80019710646| 10,09450825415| 10,49347006695|  9,82888615639|  9,57529345436|  9,24788009371
Cow                       | 10,72781141677| 10,72781141677| 10,72781141677| 10,72781141677| 10,72781141677| 10,72781141677| 10,72781141677| 10,72781141677| 10,72781141677| 10,72781141677|  9,80019710646|  9,53704416752|  9,01354084096|  8,48979269589|  8,48979269589|  0,00000000000|  8,48979269589|  9,53704416752|  9,80019710646|  9,80019710646|  9,53704416752|  9,53704416752|  9,80019710646|  9,80019710646|  9,80019710646|  9,80019710646| 10,09450825415| 10,49347006695|  9,82888615639|  9,57529345436|  9,24788009371
Buffalo                   | 10,72781141677| 10,72781141677| 10,72781141677| 10,72781141677| 10,72781141677| 10,72781141677| 10,72781141677| 10,72781141677| 10,72781141677| 10,72781141677|  9,80019710646|  9,53704416752|  9,01354084096|  7,88840504294|  7,88840504294|  8,48979269589|  0,00000000000|  9,53704416752|  9,80019710646|  9,80019710646|  9,53704416752|  9,53704416752|  9,80019710646|  9,80019710646|  9,80019710646|  9,80019710646| 10,09450825415| 10,49347006695|  9,82888615639|  9,57529345436|  9,24788009371
Wolf                      | 10,72781141677| 10,72781141677| 10,72781141677| 10,72781141677| 10,72781141677| 10,72781141677| 10,72781141677| 10,72781141677| 10,72781141677| 10,72781141677|  9,80019710646|  3,87636766086|  9,53704416752|  9,53704416752|  9,53704416752|  9,53704416752|  9,53704416752|  0,00000000000|  9,80019710646|  9,80019710646|  9,03265280554|  9,03265280554|  9,80019710646|  9,80019710646|  9,80019710646|  9,80019710646| 10,09450825415| 10,49347006695|  9,82888615639|  9,57529345436|  9,53704416752
Tiger                     | 10,72781141677| 10,72781141677| 10,72781141677| 10,72781141677| 10,72781141677| 10,72781141677| 10,72781141677| 10,72781141677| 10,72781141677| 10,72781141677|  7,57770688551|  9,80019710646|  9,80019710646|  9,80019710646|  9,80019710646|  9,80019710646|  9,80019710646|  9,80019710646|  0,00000000000|  7,35604632389|  9,80019710646|  9,80019710646|  9,74230545196|  9,74230545196|  9,74230545196|  9,74230545196| 10,09450825415| 10,49347006695|  9,82888615639|  9,80019710646|  9,80019710646
Leopard                   | 10,72781141677| 10,72781141677| 10,72781141677| 10,72781141677| 10,72781141677| 10,72781141677| 10,72781141677| 10,72781141677| 10,72781141677| 10,72781141677|  7,57770688551|  9,80019710646|  9,80019710646|  9,80019710646|  9,80019710646|  9,80019710646|  9,80019710646|  9,80019710646|  7,35604632389|  0,00000000000|  9,80019710646|  9,80019710646|  9,74230545196|  9,74230545196|  9,74230545196|  9,74230545196| 10,09450825415| 10,49347006695|  9,82888615639|  9,80019710646|  9,80019710646
Indian_Rhino              | 10,72781141677| 10,72781141677| 10,72781141677| 10,72781141677| 10,72781141677| 10,72781141677| 10,72781141677| 10,72781141677| 10,72781141677| 10,72781141677|  9,80019710646|  9,03265280554|  9,53704416752|  9,53704416752|  9,53704416752|  9,53704416752|  9,53704416752|  9,03265280554|  9,80019710646|  9,80019710646|  0,00000000000|  6,62087996484|  9,80019710646|  9,80019710646|  9,80019710646|  9,80019710646| 10,09450825415| 10,49347006695|  9,82888615639|  9,57529345436|  9,53704416752
White_Rhino               | 10,72781141677| 10,72781141677| 10,72781141677| 10,72781141677| 10,72781141677| 10,72781141677| 10,72781141677| 10,72781141677| 10,72781141677| 10,72781141677|  9,80019710646|  9,03265280554|  9,53704416752|  9,53704416752|  9,53704416752|  9,53704416752|  9,53704416752|  9,03265280554|  9,80019710646|  9,80019710646|  6,62087996484|  0,00000000000|  9,80019710646|  9,80019710646|  9,80019710646|  9,80019710646| 10,09450825415| 10,49347006695|  9,82888615639|  9,57529345436|  9,53704416752
Black_Bear                | 10,72781141677| 10,72781141677| 10,72781141677| 10,72781141677| 10,72781141677| 10,72781141677| 10,72781141677| 10,72781141677| 10,72781141677| 10,72781141677|  9,74230545196|  9,80019710646|  9,80019710646|  9,80019710646|  9,80019710646|  9,80019710646|  9,80019710646|  9,80019710646|  9,74230545196|  9,74230545196|  9,80019710646|  9,80019710646|  0,00000000000|  7,81499758605|  7,81499758605|  9,63105096286| 10,09450825415| 10,49347006695|  9,82888615639|  9,80019710646|  9,80019710646
Brown_Bear                | 10,72781141677| 10,72781141677| 10,72781141677| 10,72781141677| 10,72781141677| 10,72781141677| 10,72781141677| 10,72781141677| 10,72781141677| 10,72781141677|  9,74230545196|  9,80019710646|  9,80019710646|  9,80019710646|  9,80019710646|  9,80019710646|  9,80019710646|  9,80019710646|  9,74230545196|  9,74230545196|  9,80019710646|  9,80019710646|  7,81499758605|  0,00000000000|  3,66171091030|  9,63105096286| 10,09450825415| 10,49347006695|  9,82888615639|  9,80019710646|  9,80019710646
Polar_Bear                | 10,72781141677| 10,72781141677| 10,72781141677| 10,72781141677| 10,72781141677| 10,72781141677| 10,72781141677| 10,72781141677| 10,72781141677| 10,72781141677|  9,74230545196|  9,80019710646|  9,80019710646|  9,80019710646|  9,80019710646|  9,80019710646|  9,80019710646|  9,80019710646|  9,74230545196|  9,74230545196|  9,80019710646|  9,80019710646|  7,81499758605|  3,66171091030|  0,00000000000|  9,63105096286| 10,09450825415| 10,49347006695|  9,82888615639|  9,80019710646|  9,80019710646
Giant_Panda               | 10,72781141677| 10,72781141677| 10,72781141677| 10,72781141677| 10,72781141677| 10,72781141677| 10,72781141677| 10,72781141677| 10,72781141677| 10,72781141677|  9,74230545196|  9,80019710646|  9,80019710646|  9,80019710646|  9,80019710646|  9,80019710646|  9,80019710646|  9,80019710646|  9,74230545196|  9,74230545196|  9,80019710646|  9,80019710646|  9,63105096286|  9,63105096286|  9,63105096286|  0,00000000000| 10,09450825415| 10,49347006695|  9,82888615639|  9,80019710646|  9,80019710646
Rabbit                    | 10,72781141677| 10,72781141677| 10,72781141677| 10,72781141677| 10,72781141677| 10,72781141677| 10,72781141677| 10,72781141677| 10,72781141677| 10,72781141677| 10,09450825415| 10,09450825415| 10,09450825415| 10,09450825415| 10,09450825415| 10,09450825415| 10,09450825415| 10,09450825415| 10,09450825415| 10,09450825415| 10,09450825415| 10,09450825415| 10,09450825415| 10,09450825415| 10,09450825415| 10,09450825415|  0,00000000000| 10,49347006695| 10,09450825415| 10,09450825415| 10,09450825415
Hedgehog                  | 10,72781141677| 10,72781141677| 10,72781141677| 10,72781141677| 10,72781141677| 10,72781141677| 10,72781141677| 10,72781141677| 10,72781141677| 10,72781141677| 10,49347006695| 10,49347006695| 10,49347006695| 10,49347006695| 10,49347006695| 10,49347006695| 10,49347006695| 10,49347006695| 10,49347006695| 10,49347006695| 10,49347006695| 10,49347006695| 10,49347006695| 10,49347006695| 10,49347006695| 10,49347006695| 10,49347006695|  0,00000000000| 10,49347006695| 10,49347006695| 10,49347006695
Dormouse                  | 10,72781141677| 10,72781141677| 10,72781141677| 10,72781141677| 10,72781141677| 10,72781141677| 10,72781141677| 10,72781141677| 10,72781141677| 10,72781141677|  9,82888615639|  9,82888615639|  9,82888615639|  9,82888615639|  9,82888615639|  9,82888615639|  9,82888615639|  9,82888615639|  9,82888615639|  9,82888615639|  9,82888615639|  9,82888615639|  9,82888615639|  9,82888615639|  9,82888615639|  9,82888615639| 10,09450825415| 10,49347006695|  0,00000000000|  9,82888615639|  9,82888615639
Squirrel                  | 10,72781141677| 10,72781141677| 10,72781141677| 10,72781141677| 10,72781141677| 10,72781141677| 10,72781141677| 10,72781141677| 10,72781141677| 10,72781141677|  9,80019710646|  9,57529345436|  9,57529345436|  9,57529345436|  9,57529345436|  9,57529345436|  9,57529345436|  9,57529345436|  9,80019710646|  9,80019710646|  9,57529345436|  9,57529345436|  9,80019710646|  9,80019710646|  9,80019710646|  9,80019710646| 10,09450825415| 10,49347006695|  9,82888615639|  0,00000000000|  9,57529345436
Blue_Whale                | 10,72781141677| 10,72781141677| 10,72781141677| 10,72781141677| 10,72781141677| 10,72781141677| 10,72781141677| 10,72781141677| 10,72781141677| 10,72781141677|  9,80019710646|  9,53704416752|  9,24788009371|  9,24788009371|  9,24788009371|  9,24788009371|  9,24788009371|  9,53704416752|  9,80019710646|  9,80019710646|  9,53704416752|  9,53704416752|  9,80019710646|  9,80019710646|  9,80019710646|  9,80019710646| 10,09450825415| 10,49347006695|  9,82888615639|  9,57529345436|  0,00000000000
                           |Human          |Pig_Chim       |Com_Chim       |Gibbon         |Baboon         |Ver_Monkey     |Macaca_Thibet  |Bor_Oran       |Sum_Oran       |Gorilla        |Cat            |Dog            |Pig            |Sheep          |Goat           |Cow            |Buffalo        |Wolf           |Tiger          |Leopard        |Indian_Rhino   |White_Rhino    |Black_Bear     |Brown_Bear     |Polar_Bear     |Giant_Panda    |Rabbit         |Hedgehog       |Dormouse       |Squirrel       |Blue_Whale     
Human                     |  0,00000000000|  4,00000000000|  4,00000000000|  3,00000000000|  7,00000000000|  6,00000000000|  7,00000000000|  5,00000000000|  5,00000000000|  3,00000000000| 12,00000000000| 14,00000000000| 14,00000000000| 17,00000000000| 17,00000000000| 15,00000000000| 16,00000000000| 14,00000000000| 13,00000000000| 13,00000000000| 14,00000000000| 14,00000000000| 13,00000000000| 14,00000000000| 14,00000000000| 12,00000000000|  8,00000000000|  7,00000000000|  9,00000000000| 11,00000000000| 13,00000000000
Pig_Chim                  |  4,00000000000|  0,00000000000|  2,00000000000|  5,00000000000|  9,00000000000|  8,00000000000|  9,00000000000|  7,00000000000|  7,00000000000|  3,00000000000| 14,00000000000| 16,00000000000| 16,00000000000| 19,00000000000| 19,00000000000| 17,00000000000| 18,00000000000| 16,00000000000| 15,00000000000| 15,00000000000| 16,00000000000| 16,00000000000| 15,00000000000| 16,00000000000| 16,00000000000| 14,00000000000| 10,00000000000|  9,00000000000| 11,00000000000| 13,00000000000| 15,00000000000
Com_Chim                  |  4,00000000000|  2,00000000000|  0,00000000000|  5,00000000000|  9,00000000000|  8,00000000000|  9,00000000000|  7,00000000000|  7,00000000000|  3,00000000000| 14,00000000000| 16,00000000000| 16,00000000000| 19,00000000000| 19,00000000000| 17,00000000000| 18,00000000000| 16,00000000000| 15,00000000000| 15,00000000000| 16,00000000000| 16,00000000000| 15,00000000000| 16,00000000000| 16,00000000000| 14,00000000000| 10,00000000000|  9,00000000000| 11,00000000000| 13,00000000000| 15,00000000000
Gibbon                    |  3,00000000000|  5,00000000000|  5,00000000000|  0,00000000000|  6,00000000000|  5,00000000000|  6,00000000000|  4,00000000000|  4,00000000000|  4,00000000000| 11,00000000000| 13,00000000000| 13,00000000000| 16,00000000000| 16,00000000000| 14,00000000000| 15,00000000000| 13,00000000000| 12,00000000000| 12,00000000000| 13,00000000000| 13,00000000000| 12,00000000000| 13,00000000000| 13,00000000000| 11,00000000000|  7,00000000000|  6,00000000000|  8,00000000000| 10,00000000000| 12,00000000000
Baboon                    |  7,00000000000|  9,00000000000|  9,00000000000|  6,00000000000|  0,00000000000|  3,00000000000|  2,00000000000|  6,00000000000|  6,00000000000|  8,00000000000| 11,00000000000| 13,00000000000| 13,00000000000| 16,00000000000| 16,00000000000| 14,00000000000| 15,00000000000| 13,00000000000| 12,00000000000| 12,00000000000| 13,00000000000| 13,00000000000| 12,00000000000| 13,00000000000| 13,00000000000| 11,00000000000|  7,00000000000|  6,00000000000|  8,00000000000| 10,00000000000| 12,00000000000
Ver_Monkey                |  6,00000000000|  8,00000000000|  8,00000000000|  5,00000000000|  3,00000000000|  0,00000000000|  3,00000000000|  5,00000000000|  5,00000000000|  7,00000000000| 10,00000000000| 12,00000000000| 12,00000000000| 15,00000000000| 15,00000000000| 13,00000000000| 14,00000000000| 12,00000000000| 11,00000000000| 11,00000000000| 12,00000000000| 12,00000000000| 11,00000000000| 12,00000000000| 12,00000000000| 10,00000000000|  6,00000000000|  5,00000000000|  7,00000000000|  9,00000000000| 11,00000000000
Macaca_Thibet             |  7,00000000000|  9,00000000000|  9,00000000000|  6,00000000000|  2,00000000000|  3,00000000000|  0,00000000000|  6,00000000000|  6,00000000000|  8,00000000000| 11,00000000000| 13,00000000000| 13,00000000000| 16,00000000000| 16,00000000000| 14,00000000000| 15,00000000000| 13,00000000000| 12,00000000000| 12,00000000000| 13,00000000000| 13,00000000000| 12,00000000000| 13,00000000000| 13,00000000000| 11,00000000000|  7,00000000000|  6,00000000000|  8,00000000000| 10,00000000000| 12,00000000000
Bor_Oran                  |  5,00000000000|  7,00000000000|  7,00000000000|  4,00000000000|  6,00000000000|  5,00000000000|  6,00000000000|  0,00000000000|  2,00000000000|  6,00000000000| 11,00000000000| 13,00000000000| 13,00000000000| 16,00000000000| 16,00000000000| 14,00000000000| 15,00000000000| 13,00000000000| 12,00000000000| 12,00000000000| 13,00000000000| 13,00000000000| 12,00000000000| 13,00000000000| 13,00000000000| 11,00000000000|  7,00000000000|  6,00000000000|  8,00000000000| 10,00000000000| 12,00000000000
Sum_Oran                  |  5,00000000000|  7,00000000000|  7,00000000000|  4,00000000000|  6,00000000000|  5,00000000000|  6,00000000000|  2,00000000000|  0,00000000000|  6,00000000000| 11,00000000000| 13,00000000000| 13,00000000000| 16,00000000000| 16,00000000000| 14,00000000000| 15,00000000000| 13,00000000000| 12,00000000000| 12,00000000000| 13,00000000000| 13,00000000000| 12,00000000000| 13,00000000000| 13,00000000000| 11,00000000000|  7,00000000000|  6,00000000000|  8,00000000000| 10,00000000000| 12,00000000000
Gorilla                   |  3,00000000000|  3,00000000000|  3,00000000000|  4,00000000000|  8,00000000000|  7,00000000000|  8,00000000000|  6,00000000000|  6,00000000000|  0,00000000000| 13,00000000000| 15,00000000000| 15,00000000000| 18,00000000000| 18,00000000000| 16,00000000000| 17,00000000000| 15,00000000000| 14,00000000000| 14,00000000000| 15,00000000000| 15,00000000000| 14,00000000000| 15,00000000000| 15,00000000000| 13,00000000000|  9,00000000000|  8,00000000000| 10,00000000000| 12,00000000000| 14,00000000000
Cat                       | 12,00000000000| 14,00000000000| 14,00000000000| 11,00000000000| 11,00000000000| 10,00000000000| 11,00000000000| 11,00000000000| 11,00000000000| 13,00000000000|  0,00000000000|  8,00000000000|  8,00000000000| 11,00000000000| 11,00000000000|  9,00000000000| 10,00000000000|  8,00000000000|  3,00000000000|  3,00000000000|  8,00000000000|  8,00000000000|  5,00000000000|  6,00000000000|  6,00000000000|  4,00000000000|  6,00000000000|  7,00000000000|  5,00000000000|  5,00000000000|  7,00000000000
Dog                       | 14,00000000000| 16,00000000000| 16,00000000000| 13,00000000000| 13,00000000000| 12,00000000000| 13,00000000000| 13,00000000000| 13,00000000000| 15,00000000000|  8,00000000000|  0,00000000000|  6,00000000000|  9,00000000000|  9,00000000000|  7,00000000000|  8,00000000000|  2,00000000000|  9,00000000000|  9,00000000000|  4,00000000000|  4,00000000000|  9,00000000000| 10,00000000000| 10,00000000000|  8,00000000000|  8,00000000000|  9,00000000000|  7,00000000000|  5,00000000000|  5,00000000000
Pig                       | 14,00000000000| 16,00000000000| 16,00000000000| 13,00000000000| 13,00000000000| 12,00000000000| 13,00000000000| 13,00000000000| 13,00000000000| 15,00000000000|  8,00000000000|  6,00000000000|  0,00000000000|  5,00000000000|  5,00000000000|  3,00000000000|  4,00000000000|  6,00000000000|  9,00000000000|  9,00000000000|  6,00000000000|  6,00000000000|  9,00000000000| 10,00000000000| 10,00000000000|  8,00000000000|  8,00000000000|  9,00000000000|  7,00000000000|  5,00000000000|  3,00000000000
Sheep                     | 17,00000000000| 19,00000000000| 19,00000000000| 16,00000000000| 16,00000000000| 15,00000000000| 16,00000000000| 16,00000000000| 16,00000000000| 18,00000000000| 11,00000000000|  9,00000000000|  5,00000000000|  0,00000000000|  2,00000000000|  4,00000000000|  3,00000000000|  9,00000000000| 12,00000000000| 12,00000000000|  9,00000000000|  9,00000000000| 12,00000000000| 13,00000000000| 13,00000000000| 11,00000000000| 11,00000000000| 12,00000000000| 10,00000000000|  8,00000000000|  6,00000000000
Goat                      | 17,00000000000| 19,00000000000| 19,00000000000| 16,00000000000| 16,00000000000| 15,00000000000| 16,00000000000| 16,00000000000| 16,00000000000| 18,00000000000| 11,00000000000|  9,00000000000|  5,00000000000|  2,00000000000|  0,00000000000|  4,00000000000|  3,00000000000|  9,00000000000| 12,00000000000| 12,00000000000|  9,00000000000|  9,00000000000| 12,00000000000| 13,00000000000| 13,00000000000| 11,00000000000| 11,00000000000| 12,00000000000| 10,00000000000|  8,00000000000|  6,00000000000
Cow                       | 15,00000000000| 17,00000000000| 17,00000000000| 14,00000000000| 14,00000000000| 13,00000000000| 14,00000000000| 14,00000000000| 14,00000000000| 16,00000000000|  9,00000000000|  7,00000000000|  3,00000000000|  4,00000000000|  4,00000000000|  0,00000000000|  3,00000000000|  7,00000000000| 10,00000000000| 10,00000000000|  7,00000000000|  7,00000000000| 10,00000000000| 11,00000000000| 11,00000000000|  9,00000000000|  9,00000000000| 10,00000000000|  8,00000000000|  6,00000000000|  4,00000000000
Buffalo                   | 16,00000000000| 18,00000000000| 18,00000000000| 15,00000000000| 15,00000000000| 14,00000000000| 15,00000000000| 15,00000000000| 15,00000000000| 17,00000000000| 10,00000000000|  8,00000000000|  4,00000000000|  3,00000000000|  3,00000000000|  3,00000000000|  0,00000000000|  8,00000000000| 11,00000000000| 11,00000000000|  8,00000000000|  8,00000000000| 11,00000000000| 12,00000000000| 12,00000000000| 10,00000000000| 10,00000000000| 11,00000000000|  9,00000000000|  7,00000000000|  5,00000000000
Wolf                      | 14,00000000000| 16,00000000000| 16,00000000000| 13,00000000000| 13,00000000000| 12,00000000000| 13,00000000000| 13,00000000000| 13,00000000000| 15,00000000000|  8,00000000000|  2,00000000000|  6,00000000000|  9,00000000000|  9,00000000000|  7,00000000000|  8,00000000000|  0,00000000000|  9,00000000000|  9,00000000000|  4,00000000000|  4,00000000000|  9,00000000000| 10,00000000000| 10,00000000000|  8,00000000000|  8,00000000000|  9,00000000000|  7,00000000000|  5,00000000000|  5,00000000000
Tiger                     | 13,00000000000| 15,00000000000| 15,00000000000| 12,00000000000| 12,00000000000| 11,00000000000| 12,00000000000| 12,00000000000| 12,00000000000| 14,00000000000|  3,00000000000|  9,00000000000|  9,00000000000| 12,00000000000| 12,00000000000| 10,00000000000| 11,00000000000|  9,00000000000|  0,00000000000|  2,00000000000|  9,00000000000|  9,00000000000|  6,00000000000|  7,00000000000|  7,00000000000|  5,00000000000|  7,00000000000|  8,00000000000|  6,00000000000|  6,00000000000|  8,00000000000
Leopard                   | 13,00000000000| 15,00000000000| 15,00000000000| 12,00000000000| 12,00000000000| 11,00000000000| 12,00000000000| 12,00000000000| 12,00000000000| 14,00000000000|  3,00000000000|  9,00000000000|  9,00000000000| 12,00000000000| 12,00000000000| 10,00000000000| 11,00000000000|  9,00000000000|  2,00000000000|  0,00000000000|  9,00000000000|  9,00000000000|  6,00000000000|  7,00000000000|  7,00000000000|  5,00000000000|  7,00000000000|  8,00000000000|  6,00000000000|  6,00000000000|  8,00000000000
Indian_Rhino              | 14,00000000000| 16,00000000000| 16,00000000000| 13,00000000000| 13,00000000000| 12,00000000000| 13,00000000000| 13,00000000000| 13,00000000000| 15,00000000000|  8,00000000000|  4,00000000000|  6,00000000000|  9,00000000000|  9,00000000000|  7,00000000000|  8,00000000000|  4,00000000000|  9,00000000000|  9,00000000000|  0,00000000000|  2,00000000000|  9,00000000000| 10,00000000000| 10,00000000000|  8,00000000000|  8,00000000000|  9,00000000000|  7,00000000000|  5,00000000000|  5,00000000000
White_Rhino               | 14,00000000000| 16,00000000000| 16,00000000000| 13,00000000000| 13,00000000000| 12,00000000000| 13,00000000000| 13,00000000000| 13,00000000000| 15,00000000000|  8,00000000000|  4,00000000000|  6,00000000000|  9,00000000000|  9,00000000000|  7,00000000000|  8,00000000000|  4,00000000000|  9,00000000000|  9,00000000000|  2,00000000000|  0,00000000000|  9,00000000000| 10,00000000000| 10,00000000000|  8,00000000000|  8,00000000000|  9,00000000000|  7,00000000000|  5,00000000000|  5,00000000000
Black_Bear                | 13,00000000000| 15,00000000000| 15,00000000000| 12,00000000000| 12,00000000000| 11,00000000000| 12,00000000000| 12,00000000000| 12,00000000000| 14,00000000000|  5,00000000000|  9,00000000000|  9,00000000000| 12,00000000000| 12,00000000000| 10,00000000000| 11,00000000000|  9,00000000000|  6,00000000000|  6,00000000000|  9,00000000000|  9,00000000000|  0,00000000000|  3,00000000000|  3,00000000000|  3,00000000000|  7,00000000000|  8,00000000000|  6,00000000000|  6,00000000000|  8,00000000000
Brown_Bear                | 14,00000000000| 16,00000000000| 16,00000000000| 13,00000000000| 13,00000000000| 12,00000000000| 13,00000000000| 13,00000000000| 13,00000000000| 15,00000000000|  6,00000000000| 10,00000000000| 10,00000000000| 13,00000000000| 13,00000000000| 11,00000000000| 12,00000000000| 10,00000000000|  7,00000000000|  7,00000000000| 10,00000000000| 10,00000000000|  3,00000000000|  0,00000000000|  2,00000000000|  4,00000000000|  8,00000000000|  9,00000000000|  7,00000000000|  7,00000000000|  9,00000000000
Polar_Bear                | 14,00000000000| 16,00000000000| 16,00000000000| 13,00000000000| 13,00000000000| 12,00000000000| 13,00000000000| 13,00000000000| 13,00000000000| 15,00000000000|  6,00000000000| 10,00000000000| 10,00000000000| 13,00000000000| 13,00000000000| 11,00000000000| 12,00000000000| 10,00000000000|  7,00000000000|  7,00000000000| 10,00000000000| 10,00000000000|  3,00000000000|  2,00000000000|  0,00000000000|  4,00000000000|  8,00000000000|  9,00000000000|  7,00000000000|  7,00000000000|  9,00000000000
Giant_Panda               | 12,00000000000| 14,00000000000| 14,00000000000| 11,00000000000| 11,00000000000| 10,00000000000| 11,00000000000| 11,00000000000| 11,00000000000| 13,00000000000|  4,00000000000|  8,00000000000|  8,00000000000| 11,00000000000| 11,00000000000|  9,00000000000| 10,00000000000|  8,00000000000|  5,00000000000|  5,00000000000|  8,00000000000|  8,00000000000|  3,00000000000|  4,00000000000|  4,00000000000|  0,00000000000|  6,00000000000|  7,00000000000|  5,00000000000|  5,00000000000|  7,00000000000
Rabbit                    |  8,00000000000| 10,00000000000| 10,00000000000|  7,00000000000|  7,00000000000|  6,00000000000|  7,00000000000|  7,00000000000|  7,00000000000|  9,00000000000|  6,00000000000|  8,00000000000|  8,00000000000| 11,00000000000| 11,00000000000|  9,00000000000| 10,00000000000|  8,00000000000|  7,00000000000|  7,00000000000|  8,00000000000|  8,00000000000|  7,00000000000|  8,00000000000|  8,00000000000|  6,00000000000|  0,00000000000|  3,00000000000|  3,00000000000|  5,00000000000|  7,00000000000
Hedgehog                  |  7,00000000000|  9,00000000000|  9,00000000000|  6,00000000000|  6,00000000000|  5,00000000000|  6,00000000000|  6,00000000000|  6,00000000000|  8,00000000000|  7,00000000000|  9,00000000000|  9,00000000000| 12,00000000000| 12,00000000000| 10,00000000000| 11,00000000000|  9,00000000000|  8,00000000000|  8,00000000000|  9,00000000000|  9,00000000000|  8,00000000000|  9,00000000000|  9,00000000000|  7,00000000000|  3,00000000000|  0,00000000000|  4,00000000000|  6,00000000000|  8,00000000000
Dormouse                  |  9,00000000000| 11,00000000000| 11,00000000000|  8,00000000000|  8,00000000000|  7,00000000000|  8,00000000000|  8,00000000000|  8,00000000000| 10,00000000000|  5,00000000000|  7,00000000000|  7,00000000000| 10,00000000000| 10,00000000000|  8,00000000000|  9,00000000000|  7,00000000000|  6,00000000000|  6,00000000000|  7,00000000000|  7,00000000000|  6,00000000000|  7,00000000000|  7,00000000000|  5,00000000000|  3,00000000000|  4,00000000000|  0,00000000000|  4,00000000000|  6,00000000000
Squirrel                  | 11,00000000000| 13,00000000000| 13,00000000000| 10,00000000000| 10,00000000000|  9,00000000000| 10,00000000000| 10,00000000000| 10,00000000000| 12,00000000000|  5,00000000000|  5,00000000000|  5,00000000000|  8,00000000000|  8,00000000000|  6,00000000000|  7,00000000000|  5,00000000000|  6,00000000000|  6,00000000000|  5,00000000000|  5,00000000000|  6,00000000000|  7,00000000000|  7,00000000000|  5,00000000000|  5,00000000000|  6,00000000000|  4,00000000000|  0,00000000000|  4,00000000000
Blue_Whale                | 13,00000000000| 15,00000000000| 15,00000000000| 12,00000000000| 12,00000000000| 11,00000000000| 12,00000000000| 12,00000000000| 12,00000000000| 14,00000000000|  7,00000000000|  5,00000000000|  3,00000000000|  6,00000000000|  6,00000000000|  4,00000000000|  5,00000000000|  5,00000000000|  8,00000000000|  8,00000000000|  5,00000000000|  5,00000000000|  8,00000000000|  9,00000000000|  9,00000000000|  7,00000000000|  7,00000000000|  8,00000000000|  6,00000000000|  4,00000000000|  0,00000000000
