 | Hedgehog | Dormouse | Squirrel | Rabbit | Ver_Monkey | Baboon | Macaca_Thibet | Gibbon | Bor_Oran | Sum_Oran | Gorilla | Human | Pig_Chim | Com_Chim | Giant_Panda | Black_Bear | Brown_Bear | Polar_Bear | Dog | Wolf | Cat | Tiger | Leopard | Indian_Rhino | White_Rhino | Blue_Whale | Sheep | Goat | Cow | Buffalo | Pig
Hedgehog | 0 | 3 | 3 | 3 | 6 | 7 | 7 | 6 | 8 | 8 | 8 | 9 | 10 | 10 | 8 | 9 | 10 | 10 | 8 | 8 | 7 | 8 | 8 | 7 | 7 | 8 | 10 | 10 | 10 | 10 | 7
Dormouse | 3 | 0 | 2 | 4 | 7 | 8 | 8 | 7 | 9 | 9 | 9 | 10 | 11 | 11 | 9 | 10 | 11 | 11 | 9 | 9 | 8 | 9 | 9 | 8 | 8 | 9 | 11 | 11 | 11 | 11 | 8
Squirrel | 3 | 2 | 0 | 4 | 7 | 8 | 8 | 7 | 9 | 9 | 9 | 10 | 11 | 11 | 9 | 10 | 11 | 11 | 9 | 9 | 8 | 9 | 9 | 8 | 8 | 9 | 11 | 11 | 11 | 11 | 8
Rabbit | 3 | 4 | 4 | 0 | 5 | 6 | 6 | 5 | 7 | 7 | 7 | 8 | 9 | 9 | 7 | 8 | 9 | 9 | 7 | 7 | 6 | 7 | 7 | 6 | 6 | 7 | 9 | 9 | 9 | 9 | 6
Ver_Monkey | 6 | 7 | 7 | 5 | 0 | 3 | 3 | 4 | 6 | 6 | 6 | 7 | 8 | 8 | 8 | 9 | 10 | 10 | 8 | 8 | 7 | 8 | 8 | 7 | 7 | 8 | 10 | 10 | 10 | 10 | 7
Baboon | 7 | 8 | 8 | 6 | 3 | 0 | 2 | 5 | 7 | 7 | 7 | 8 | 9 | 9 | 9 | 10 | 11 | 11 | 9 | 9 | 8 | 9 | 9 | 8 | 8 | 9 | 11 | 11 | 11 | 11 | 8
Macaca_Thibet | 7 | 8 | 8 | 6 | 3 | 2 | 0 | 5 | 7 | 7 | 7 | 8 | 9 | 9 | 9 | 10 | 11 | 11 | 9 | 9 | 8 | 9 | 9 | 8 | 8 | 9 | 11 | 11 | 11 | 11 | 8
Gibbon | 6 | 7 | 7 | 5 | 4 | 5 | 5 | 0 | 4 | 4 | 4 | 5 | 6 | 6 | 8 | 9 | 10 | 10 | 8 | 8 | 7 | 8 | 8 | 7 | 7 | 8 | 10 | 10 | 10 | 10 | 7
Bor_Oran | 8 | 9 | 9 | 7 | 6 | 7 | 7 | 4 | 0 | 2 | 4 | 5 | 6 | 6 | 10 | 11 | 12 | 12 | 10 | 10 | 9 | 10 | 10 | 9 | 9 | 10 | 12 | 12 | 12 | 12 | 9
Sum_Oran | 8 | 9 | 9 | 7 | 6 | 7 | 7 | 4 | 2 | 0 | 4 | 5 | 6 | 6 | 10 | 11 | 12 | 12 | 10 | 10 | 9 | 10 | 10 | 9 | 9 | 10 | 12 | 12 | 12 | 12 | 9
Gorilla | 8 | 9 | 9 | 7 | 6 | 7 | 7 | 4 | 4 | 4 | 0 | 3 | 4 | 4 | 10 | 11 | 12 | 12 | 10 | 10 | 9 | 10 | 10 | 9 | 9 | 10 | 12 | 12 | 12 | 12 | 9
Human | 9 | 10 | 10 | 8 | 7 | 8 | 8 | 5 | 5 | 5 | 3 | 0 | 3 | 3 | 11 | 12 | 13 | 13 | 11 | 11 | 10 | 11 | 11 | 10 | 10 | 11 | 13 | 13 | 13 | 13 | 10
Pig_Chim | 10 | 11 | 11 | 9 | 8 | 9 | 9 | 6 | 6 | 6 | 4 | 3 | 0 | 2 | 12 | 13 | 14 | 14 | 12 | 12 | 11 | 12 | 12 | 11 | 11 | 12 | 14 | 14 | 14 | 14 | 11
Com_Chim | 10 | 11 | 11 | 9 | 8 | 9 | 9 | 6 | 6 | 6 | 4 | 3 | 2 | 0 | 12 | 13 | 14 | 14 | 12 | 12 | 11 | 12 | 12 | 11 | 11 | 12 | 14 | 14 | 14 | 14 | 11
Giant_Panda | 8 | 9 | 9 | 7 | 8 | 9 | 9 | 8 | 10 | 10 | 10 | 11 | 12 | 12 | 0 | 3 | 4 | 4 | 4 | 4 | 5 | 6 | 6 | 7 | 7 | 8 | 10 | 10 | 10 | 10 | 7
Black_Bear | 9 | 10 | 10 | 8 | 9 | 10 | 10 | 9 | 11 | 11 | 11 | 12 | 13 | 13 | 3 | 0 | 3 | 3 | 5 | 5 | 6 | 7 | 7 | 8 | 8 | 9 | 11 | 11 | 11 | 11 | 8
Brown_Bear | 10 | 11 | 11 | 9 | 10 | 11 | 11 | 10 | 12 | 12 | 12 | 13 | 14 | 14 | 4 | 3 | 0 | 2 | 6 | 6 | 7 | 8 | 8 | 9 | 9 | 10 | 12 | 12 | 12 | 12 | 9
Polar_Bear | 10 | 11 | 11 | 9 | 10 | 11 | 11 | 10 | 12 | 12 | 12 | 13 | 14 | 14 | 4 | 3 | 2 | 0 | 6 | 6 | 7 | 8 | 8 | 9 | 9 | 10 | 12 | 12 | 12 | 12 | 9
Dog | 8 | 9 | 9 | 7 | 8 | 9 | 9 | 8 | 10 | 10 | 10 | 11 | 12 | 12 | 4 | 5 | 6 | 6 | 0 | 2 | 5 | 6 | 6 | 7 | 7 | 8 | 10 | 10 | 10 | 10 | 7
Wolf | 8 | 9 | 9 | 7 | 8 | 9 | 9 | 8 | 10 | 10 | 10 | 11 | 12 | 12 | 4 | 5 | 6 | 6 | 2 | 0 | 5 | 6 | 6 | 7 | 7 | 8 | 10 | 10 | 10 | 10 | 7
Cat | 7 | 8 | 8 | 6 | 7 | 8 | 8 | 7 | 9 | 9 | 9 | 10 | 11 | 11 | 5 | 6 | 7 | 7 | 5 | 5 | 0 | 3 | 3 | 6 | 6 | 7 | 9 | 9 | 9 | 9 | 6
Tiger | 8 | 9 | 9 | 7 | 8 | 9 | 9 | 8 | 10 | 10 | 10 | 11 | 12 | 12 | 6 | 7 | 8 | 8 | 6 | 6 | 3 | 0 | 2 | 7 | 7 | 8 | 10 | 10 | 10 | 10 | 7
Leopard | 8 | 9 | 9 | 7 | 8 | 9 | 9 | 8 | 10 | 10 | 10 | 11 | 12 | 12 | 6 | 7 | 8 | 8 | 6 | 6 | 3 | 2 | 0 | 7 | 7 | 8 | 10 | 10 | 10 | 10 | 7
Indian_Rhino | 7 | 8 | 8 | 6 | 7 | 8 | 8 | 7 | 9 | 9 | 9 | 10 | 11 | 11 | 7 | 8 | 9 | 9 | 7 | 7 | 6 | 7 | 7 | 0 | 2 | 5 | 7 | 7 | 7 | 7 | 4
White_Rhino | 7 | 8 | 8 | 6 | 7 | 8 | 8 | 7 | 9 | 9 | 9 | 10 | 11 | 11 | 7 | 8 | 9 | 9 | 7 | 7 | 6 | 7 | 7 | 2 | 0 | 5 | 7 | 7 | 7 | 7 | 4
Blue_Whale | 8 | 9 | 9 | 7 | 8 | 9 | 9 | 8 | 10 | 10 | 10 | 11 | 12 | 12 | 8 | 9 | 10 | 10 | 8 | 8 | 7 | 8 | 8 | 5 | 5 | 0 | 4 | 4 | 4 | 4 | 3
Sheep | 10 | 11 | 11 | 9 | 10 | 11 | 11 | 10 | 12 | 12 | 12 | 13 | 14 | 14 | 10 | 11 | 12 | 12 | 10 | 10 | 9 | 10 | 10 | 7 | 7 | 4 | 0 | 2 | 4 | 4 | 5
Goat | 10 | 11 | 11 | 9 | 10 | 11 | 11 | 10 | 12 | 12 | 12 | 13 | 14 | 14 | 10 | 11 | 12 | 12 | 10 | 10 | 9 | 10 | 10 | 7 | 7 | 4 | 2 | 0 | 4 | 4 | 5
Cow | 10 | 11 | 11 | 9 | 10 | 11 | 11 | 10 | 12 | 12 | 12 | 13 | 14 | 14 | 10 | 11 | 12 | 12 | 10 | 10 | 9 | 10 | 10 | 7 | 7 | 4 | 4 | 4 | 0 | 2 | 5
Buffalo | 10 | 11 | 11 | 9 | 10 | 11 | 11 | 10 | 12 | 12 | 12 | 13 | 14 | 14 | 10 | 11 | 12 | 12 | 10 | 10 | 9 | 10 | 10 | 7 | 7 | 4 | 4 | 4 | 2 | 0 | 5
Pig | 7 | 8 | 8 | 6 | 7 | 8 | 8 | 7 | 9 | 9 | 9 | 10 | 11 | 11 | 7 | 8 | 9 | 9 | 7 | 7 | 6 | 7 | 7 | 4 | 4 | 3 | 5 | 5 | 5 | 5 | 0
