<?xml version="1.0" encoding="UTF-8"?>
<svg xmlns="http://www.w3.org/2000/svg" xmlns:xlink="http://www.w3.org/1999/xlink" contentScriptType="text/ecmascript" width="20cm" zoomAndPan="magnify" contentStyleType="text/css" height="15.037593984962406cm" viewBox="0 0 1.33 1.0" preserveAspectRatio="xMidYMid meet" version="1.0">
<defs/>
<style type="text/css" xml:space="preserve">
.axis-label{fill:black;
font-family:'Times New Roman', serif;
font-size:2.0;
}

.key-caption{font-size:0.7000000000000001;
font-family:'Times New Roman', serif;
fill:black;
font-weight:bold;
}

.key-hierarchy{stroke:black;
stroke-width:0.4170323914242463;
stroke-linecap:round;
fill:none;
}

.axis{stroke:black;
stroke-width:0.2;
}

.key-hierarchy_0{stroke:#ed420e;
stroke-width:0.4170323914242463;
stroke-linecap:round;
fill:none;
}

.key-hierarchy_1{stroke:#fdca19;
stroke-width:0.4170323914242463;
stroke-linecap:round;
fill:none;
}

.axis-tick{stroke:grey;
stroke-width:0.2;
}
</style>
<g transform="scale(0.0105055292) translate(13.3 10)">
<line y2="0" x1="0" x2="0" class="axis" y1="75.1879699248"/>
<line y2="75.1879699248" x1="0.7518796992" x2="-0.7518796992" class="axis-tick" y1="75.1879699248"/>
<text x="-1.8796992481" y="75.8879699248" class="axis-label" text-anchor="end">0</text>
<line y2="68.9223057644" x1="0.7518796992" x2="-0.7518796992" class="axis-tick" y1="68.9223057644"/>
<text x="-1.8796992481" y="69.6223057644" class="axis-label" text-anchor="end">1,000</text>
<line y2="62.656641604" x1="0.7518796992" x2="-0.7518796992" class="axis-tick" y1="62.656641604"/>
<text x="-1.8796992481" y="63.356641604" class="axis-label" text-anchor="end">2,000</text>
<line y2="56.3909774436" x1="0.7518796992" x2="-0.7518796992" class="axis-tick" y1="56.3909774436"/>
<text x="-1.8796992481" y="57.0909774436" class="axis-label" text-anchor="end">3,000</text>
<line y2="50.1253132832" x1="0.7518796992" x2="-0.7518796992" class="axis-tick" y1="50.1253132832"/>
<text x="-1.8796992481" y="50.8253132832" class="axis-label" text-anchor="end">4,000</text>
<line y2="43.8596491228" x1="0.7518796992" x2="-0.7518796992" class="axis-tick" y1="43.8596491228"/>
<text x="-1.8796992481" y="44.5596491228" class="axis-label" text-anchor="end">5,000</text>
<line y2="37.5939849624" x1="0.7518796992" x2="-0.7518796992" class="axis-tick" y1="37.5939849624"/>
<text x="-1.8796992481" y="38.2939849624" class="axis-label" text-anchor="end">6,000</text>
<line y2="31.328320802" x1="0.7518796992" x2="-0.7518796992" class="axis-tick" y1="31.328320802"/>
<text x="-1.8796992481" y="32.028320802" class="axis-label" text-anchor="end">7,000</text>
<line y2="25.0626566416" x1="0.7518796992" x2="-0.7518796992" class="axis-tick" y1="25.0626566416"/>
<text x="-1.8796992481" y="25.7626566416" class="axis-label" text-anchor="end">8,000</text>
<line y2="18.7969924812" x1="0.7518796992" x2="-0.7518796992" class="axis-tick" y1="18.7969924812"/>
<text x="-1.8796992481" y="19.4969924812" class="axis-label" text-anchor="end">9,000</text>
<line y2="12.5313283208" x1="0.7518796992" x2="-0.7518796992" class="axis-tick" y1="12.5313283208"/>
<text x="-1.8796992481" y="13.2313283208" class="axis-label" text-anchor="end">10,000</text>
<line y2="6.2656641604" x1="0.7518796992" x2="-0.7518796992" class="axis-tick" y1="6.2656641604"/>
<text x="-1.8796992481" y="6.9656641604" class="axis-label" text-anchor="end">11,000</text>
<line y2="0" x1="0.7518796992" x2="-0.7518796992" class="axis-tick" y1="0"/>
<text x="-1.8796992481" y="0.7" class="axis-label" text-anchor="end">12,000</text>
<text x="85" y="78.9473684211" style="font-size: 2.5; font-family:'Times New Roman';" transform="rotate(60 85.0 78.94736842105263)">sacPas</text>
<text x="35" y="78.9473684211" style="font-size: 2.5; font-family:'Times New Roman';" transform="rotate(60 35.0 78.94736842105263)">canAlb</text>
<text x="55" y="78.9473684211" style="font-size: 2.5; font-family:'Times New Roman';" transform="rotate(60 55.0 78.94736842105263)">canSoj</text>
<text x="45" y="78.9473684211" style="font-size: 2.5; font-family:'Times New Roman';" transform="rotate(60 45.0 78.94736842105263)">canDub</text>
<text x="65" y="78.9473684211" style="font-size: 2.5; font-family:'Times New Roman';" transform="rotate(60 65.0 78.94736842105263)">canTro</text>
<text x="25" y="78.9473684211" style="font-size: 2.5; font-family:'Times New Roman';" transform="rotate(60 25.0 78.94736842105263)">canMal</text>
<text x="75" y="78.9473684211" style="font-size: 2.5; font-family:'Times New Roman';" transform="rotate(60 75.0 78.94736842105263)">canPar</text>
<text x="15" y="78.9473684211" style="font-size: 2.5; font-family:'Times New Roman';" transform="rotate(60 15.0 78.94736842105263)">debHan</text>
<text x="5" y="78.9473684211" style="font-size: 2.5; font-family:'Times New Roman';" transform="rotate(60 5.0 78.94736842105263)">aspNig</text>
<text x="95" y="78.9473684211" style="font-size: 2.5; font-family:'Times New Roman';" transform="rotate(60 95.0 78.94736842105263)">sacCer</text>
<path class="key-hierarchy_0" d="M85 75.1879699248 V59.5231962908 H95 V75.1879699248 M35 75.1879699248 V56.2446895004 H45 V75.1879699248 M55 75.1879699248 V55.0460241776 H65 V75.1879699248 M40 56.2446895004 V53.9380498494 H60 V55.0460241776 M50 53.9380498494 V49.244251073 H75 V75.1879699248 M25 75.1879699248 V48.8238253862 H62.5 V49.244251073 M43.75 48.8238253862 V42.8648901204 H90 V59.5231962908 M15 75.1879699248 V38.1564736028 H66.875 V42.8648901204 M5 75.1879699248 V5.3464460788 H40.9375 V38.1564736028 M22.96875 5.3464460788 "/>
</g>
</svg>
