<?xml version="1.0" encoding="UTF-8"?>
<svg xmlns="http://www.w3.org/2000/svg" xmlns:xlink="http://www.w3.org/1999/xlink" contentScriptType="text/ecmascript" width="20cm" zoomAndPan="magnify" contentStyleType="text/css" height="15.037593984962406cm" viewBox="0 0 1.33 1.0" preserveAspectRatio="xMidYMid meet" version="1.0">
<defs/>
<style type="text/css" xml:space="preserve">
.axis-label{fill:black;
font-family:'Times New Roman', serif;
font-size:2.0;
}

.key-caption{font-size:0.7000000000000001;
font-family:'Times New Roman', serif;
fill:black;
font-weight:bold;
}

.key-hierarchy{stroke:black;
stroke-width:0.4170323914242463;
stroke-linecap:round;
fill:none;
}

.axis{stroke:black;
stroke-width:0.2;
}

.key-hierarchy_0{stroke:#ed420e;
stroke-width:0.4170323914242463;
stroke-linecap:round;
fill:none;
}

.key-hierarchy_1{stroke:#fdca19;
stroke-width:0.4170323914242463;
stroke-linecap:round;
fill:none;
}

.axis-tick{stroke:grey;
stroke-width:0.2;
}
</style>
<g transform="scale(0.0105055292) translate(13.3 10)">
<line y2="0" x1="0" x2="0" class="axis" y1="75.1879699248"/>
<line y2="75.1879699248" x1="0.7518796992" x2="-0.7518796992" class="axis-tick" y1="75.1879699248"/>
<text x="-1.8796992481" y="75.8879699248" class="axis-label" text-anchor="end">0</text>
<line y2="56.3909774436" x1="0.7518796992" x2="-0.7518796992" class="axis-tick" y1="56.3909774436"/>
<text x="-1.8796992481" y="57.0909774436" class="axis-label" text-anchor="end">10,000</text>
<line y2="37.5939849624" x1="0.7518796992" x2="-0.7518796992" class="axis-tick" y1="37.5939849624"/>
<text x="-1.8796992481" y="38.2939849624" class="axis-label" text-anchor="end">20,000</text>
<line y2="18.7969924812" x1="0.7518796992" x2="-0.7518796992" class="axis-tick" y1="18.7969924812"/>
<text x="-1.8796992481" y="19.4969924812" class="axis-label" text-anchor="end">30,000</text>
<line y2="0" x1="0.7518796992" x2="-0.7518796992" class="axis-tick" y1="0"/>
<text x="-1.8796992481" y="0.7" class="axis-label" text-anchor="end">40,000</text>
<text x="85" y="78.9473684211" style="font-size: 2.5; font-family:'Times New Roman';" transform="rotate(60 85.0 78.94736842105263)">sacPas</text>
<text x="55" y="78.9473684211" style="font-size: 2.5; font-family:'Times New Roman';" transform="rotate(60 55.0 78.94736842105263)">canSoj</text>
<text x="35" y="78.9473684211" style="font-size: 2.5; font-family:'Times New Roman';" transform="rotate(60 35.0 78.94736842105263)">canAlb</text>
<text x="45" y="78.9473684211" style="font-size: 2.5; font-family:'Times New Roman';" transform="rotate(60 45.0 78.94736842105263)">canDub</text>
<text x="25" y="78.9473684211" style="font-size: 2.5; font-family:'Times New Roman';" transform="rotate(60 25.0 78.94736842105263)">canMal</text>
<text x="65" y="78.9473684211" style="font-size: 2.5; font-family:'Times New Roman';" transform="rotate(60 65.0 78.94736842105263)">canTro</text>
<text x="75" y="78.9473684211" style="font-size: 2.5; font-family:'Times New Roman';" transform="rotate(60 75.0 78.94736842105263)">canPar</text>
<text x="15" y="78.9473684211" style="font-size: 2.5; font-family:'Times New Roman';" transform="rotate(60 15.0 78.94736842105263)">debHan</text>
<text x="5" y="78.9473684211" style="font-size: 2.5; font-family:'Times New Roman';" transform="rotate(60 5.0 78.94736842105263)">aspNig</text>
<text x="95" y="78.9473684211" style="font-size: 2.5; font-family:'Times New Roman';" transform="rotate(60 95.0 78.94736842105263)">sacCer</text>
<path class="key-hierarchy_0" d="M85 75.1879699248 V56.5229372883 H95 V75.1879699248 M55 75.1879699248 V53.7943319124 H65 V75.1879699248 M35 75.1879699248 V53.1700058792 H45 V75.1879699248 M40 53.1700058792 V52.8442194846 H60 V53.7943319124 M25 75.1879699248 V49.1415533771 H50 V52.8442194846 M37.5 49.1415533771 V48.344107541 H75 V75.1879699248 M56.25 48.344107541 V45.8780272044 H90 V56.5229372883 M15 75.1879699248 V39.8766345357 H73.125 V45.8780272044 M5 75.1879699248 V13.1955621855 H44.0625 V39.8766345357 M24.53125 13.1955621855 "/>
</g>
</svg>
