<?xml version="1.0" encoding="UTF-8"?>
<svg xmlns="http://www.w3.org/2000/svg" xmlns:xlink="http://www.w3.org/1999/xlink" contentScriptType="text/ecmascript" width="20cm" zoomAndPan="magnify" contentStyleType="text/css" height="15.037593984962406cm" viewBox="0 0 1.33 1.0" preserveAspectRatio="xMidYMid meet" version="1.0">
<defs/>
<style type="text/css" xml:space="preserve">
.axis-label{fill:black;
font-family:'Times New Roman', serif;
font-size:2.0;
}

.key-caption{font-size:0.7000000000000001;
font-family:'Times New Roman', serif;
fill:black;
font-weight:bold;
}

.key-hierarchy{stroke:black;
stroke-width:0.4170323914242463;
stroke-linecap:round;
fill:none;
}

.axis{stroke:black;
stroke-width:0.2;
}

.key-hierarchy_0{stroke:#ed420e;
stroke-width:0.4170323914242463;
stroke-linecap:round;
fill:none;
}

.key-hierarchy_1{stroke:#fdca19;
stroke-width:0.4170323914242463;
stroke-linecap:round;
fill:none;
}

.axis-tick{stroke:grey;
stroke-width:0.2;
}
</style>
<g transform="scale(0.0105055292) translate(13.3 10)">
<line y2="0" x1="0" x2="0" class="axis" y1="75.1879699248"/>
<line y2="75.1879699248" x1="0.7518796992" x2="-0.7518796992" class="axis-tick" y1="75.1879699248"/>
<text x="-1.8796992481" y="75.8879699248" class="axis-label" text-anchor="end">0</text>
<line y2="71.6075904046" x1="0.7518796992" x2="-0.7518796992" class="axis-tick" y1="71.6075904046"/>
<text x="-1.8796992481" y="72.3075904046" class="axis-label" text-anchor="end">1</text>
<line y2="68.0272108844" x1="0.7518796992" x2="-0.7518796992" class="axis-tick" y1="68.0272108844"/>
<text x="-1.8796992481" y="68.7272108844" class="axis-label" text-anchor="end">2</text>
<line y2="64.4468313641" x1="0.7518796992" x2="-0.7518796992" class="axis-tick" y1="64.4468313641"/>
<text x="-1.8796992481" y="65.1468313641" class="axis-label" text-anchor="end">3</text>
<line y2="60.8664518439" x1="0.7518796992" x2="-0.7518796992" class="axis-tick" y1="60.8664518439"/>
<text x="-1.8796992481" y="61.5664518439" class="axis-label" text-anchor="end">4</text>
<line y2="57.2860723237" x1="0.7518796992" x2="-0.7518796992" class="axis-tick" y1="57.2860723237"/>
<text x="-1.8796992481" y="57.9860723237" class="axis-label" text-anchor="end">5</text>
<line y2="53.7056928034" x1="0.7518796992" x2="-0.7518796992" class="axis-tick" y1="53.7056928034"/>
<text x="-1.8796992481" y="54.4056928034" class="axis-label" text-anchor="end">6</text>
<line y2="50.1253132832" x1="0.7518796992" x2="-0.7518796992" class="axis-tick" y1="50.1253132832"/>
<text x="-1.8796992481" y="50.8253132832" class="axis-label" text-anchor="end">7</text>
<line y2="46.544933763" x1="0.7518796992" x2="-0.7518796992" class="axis-tick" y1="46.544933763"/>
<text x="-1.8796992481" y="47.244933763" class="axis-label" text-anchor="end">8</text>
<line y2="42.9645542427" x1="0.7518796992" x2="-0.7518796992" class="axis-tick" y1="42.9645542427"/>
<text x="-1.8796992481" y="43.6645542427" class="axis-label" text-anchor="end">9</text>
<line y2="39.3841747225" x1="0.7518796992" x2="-0.7518796992" class="axis-tick" y1="39.3841747225"/>
<text x="-1.8796992481" y="40.0841747225" class="axis-label" text-anchor="end">10</text>
<line y2="35.8037952023" x1="0.7518796992" x2="-0.7518796992" class="axis-tick" y1="35.8037952023"/>
<text x="-1.8796992481" y="36.5037952023" class="axis-label" text-anchor="end">11</text>
<line y2="32.2234156821" x1="0.7518796992" x2="-0.7518796992" class="axis-tick" y1="32.2234156821"/>
<text x="-1.8796992481" y="32.9234156821" class="axis-label" text-anchor="end">12</text>
<line y2="28.6430361618" x1="0.7518796992" x2="-0.7518796992" class="axis-tick" y1="28.6430361618"/>
<text x="-1.8796992481" y="29.3430361618" class="axis-label" text-anchor="end">13</text>
<line y2="25.0626566416" x1="0.7518796992" x2="-0.7518796992" class="axis-tick" y1="25.0626566416"/>
<text x="-1.8796992481" y="25.7626566416" class="axis-label" text-anchor="end">14</text>
<line y2="21.4822771214" x1="0.7518796992" x2="-0.7518796992" class="axis-tick" y1="21.4822771214"/>
<text x="-1.8796992481" y="22.1822771214" class="axis-label" text-anchor="end">15</text>
<line y2="17.9018976011" x1="0.7518796992" x2="-0.7518796992" class="axis-tick" y1="17.9018976011"/>
<text x="-1.8796992481" y="18.6018976011" class="axis-label" text-anchor="end">16</text>
<line y2="14.3215180809" x1="0.7518796992" x2="-0.7518796992" class="axis-tick" y1="14.3215180809"/>
<text x="-1.8796992481" y="15.0215180809" class="axis-label" text-anchor="end">17</text>
<line y2="10.7411385607" x1="0.7518796992" x2="-0.7518796992" class="axis-tick" y1="10.7411385607"/>
<text x="-1.8796992481" y="11.4411385607" class="axis-label" text-anchor="end">18</text>
<line y2="7.1607590405" x1="0.7518796992" x2="-0.7518796992" class="axis-tick" y1="7.1607590405"/>
<text x="-1.8796992481" y="7.8607590405" class="axis-label" text-anchor="end">19</text>
<line y2="3.5803795202" x1="0.7518796992" x2="-0.7518796992" class="axis-tick" y1="3.5803795202"/>
<text x="-1.8796992481" y="4.2803795202" class="axis-label" text-anchor="end">20</text>
<line y2="0" x1="0.7518796992" x2="-0.7518796992" class="axis-tick" y1="0"/>
<text x="-1.8796992481" y="0.7" class="axis-label" text-anchor="end">21</text>
<text x="25" y="78.9473684211" style="font-size: 2.5; font-family:'Times New Roman';" transform="rotate(60 25.0 78.94736842105263)">canAlb</text>
<text x="85" y="78.9473684211" style="font-size: 2.5; font-family:'Times New Roman';" transform="rotate(60 85.0 78.94736842105263)">sacPas</text>
<text x="45" y="78.9473684211" style="font-size: 2.5; font-family:'Times New Roman';" transform="rotate(60 45.0 78.94736842105263)">canSoj</text>
<text x="35" y="78.9473684211" style="font-size: 2.5; font-family:'Times New Roman';" transform="rotate(60 35.0 78.94736842105263)">canDub</text>
<text x="15" y="78.9473684211" style="font-size: 2.5; font-family:'Times New Roman';" transform="rotate(60 15.0 78.94736842105263)">canMal</text>
<text x="75" y="78.9473684211" style="font-size: 2.5; font-family:'Times New Roman';" transform="rotate(60 75.0 78.94736842105263)">debHan</text>
<text x="65" y="78.9473684211" style="font-size: 2.5; font-family:'Times New Roman';" transform="rotate(60 65.0 78.94736842105263)">canPar</text>
<text x="55" y="78.9473684211" style="font-size: 2.5; font-family:'Times New Roman';" transform="rotate(60 55.0 78.94736842105263)">canTro</text>
<text x="5" y="78.9473684211" style="font-size: 2.5; font-family:'Times New Roman';" transform="rotate(60 5.0 78.94736842105263)">aspNig</text>
<text x="95" y="78.9473684211" style="font-size: 2.5; font-family:'Times New Roman';" transform="rotate(60 95.0 78.94736842105263)">sacCer</text>
<path class="key-hierarchy_0" d="M25 75.1879699248 V15.1004330122 H35 V75.1879699248 M85 75.1879699248 V14.9155322097 H95 V75.1879699248 M45 75.1879699248 V14.5056577673 H55 V75.1879699248 M30 15.1004330122 V11.7703922105 H50 V14.5056577673 M15 75.1879699248 V11.7390315862 H40 V11.7703922105 M75 75.1879699248 V10.9687246048 H90 V14.9155322097 M65 75.1879699248 V8.6431316223 H82.5 V10.9687246048 M27.5 11.7390315862 V6.2409190624 H73.75 V8.6431316223 M5 75.1879699248 V0.8762670734 H50.625 V6.2409190624 M27.8125 0.8762670734 "/>
</g>
</svg>
