                           |aspNig         |debHan         |canMal         |canAlb         |canDub         |canSoj         |canTro         |canPar         |sacPas         |sacCer         
aspNig                    |  0,00000000000| 11,23410739212| 11,71160822254| 11,07855781626| 11,34881073384| 11,16758482694| 11,42237268369| 10,84353130572| 11,04992348336| 11,10848990522
debHan                    | 11,23410739212|  0,00000000000| 11,56099377089| 11,00749870057| 11,56744998728| 10,69479731869| 10,89260106578| 10,29915789576|  9,50452679019|  9,39190963658
canMal                    | 11,71160822254| 11,56099377089|  0,00000000000|  8,99683923449|  8,96100832989|  9,07391422317|  8,88903047987|  9,64172309463| 10,70649739262| 10,75252514715
canAlb                    | 11,07855781626| 11,00749870057|  8,99683923449|  0,00000000000|  8,59045424258|  8,53395205395|  8,69597884980|  9,01103252341| 10,04975285790| 10,11349535686
canDub                    | 11,34881073384| 11,56744998728|  8,96100832989|  8,59045424258|  0,00000000000|  8,96200523630|  8,93883319960|  9,53562541192| 10,57532979677| 10,64247266113
canSoj                    | 11,16758482694| 10,69479731869|  9,07391422317|  8,53395205395|  8,96200523630|  0,00000000000|  8,54883306127|  8,88104656211|  9,80064465636|  9,85389109707
canTro                    | 11,42237268369| 10,89260106578|  8,88903047987|  8,69597884980|  8,93883319960|  8,54883306127|  0,00000000000|  9,24364114334| 10,11841508794| 10,15186378623
canPar                    | 10,84353130572| 10,29915789576|  9,64172309463|  9,01103252341|  9,53562541192|  8,88104656211|  9,24364114334|  0,00000000000|  9,20547374715|  9,28908716464
sacPas                    | 11,04992348336|  9,50452679019| 10,70649739262| 10,04975285790| 10,57532979677|  9,80064465636| 10,11841508794|  9,20547374715|  0,00000000000|  8,35271206639
sacCer                    | 11,10848990522|  9,39190963658| 10,75252514715| 10,11349535686| 10,64247266113|  9,85389109707| 10,15186378623|  9,28908716464|  8,35271206639|  0,00000000000
