                           |aspNig         |debHan         |canMal         |canAlb         |canDub         |canSoj         |canTro         |canPar         |sacPas         |sacCer         
aspNig                    |  0,00000000000|20236,98665345697|20236,98665345697|20236,98665345697|20236,98665345697|20236,98665345697|20236,98665345697|20236,98665345697|20236,98665345697|20236,98665345697
debHan                    |20236,98665345697|  0,00000000000|10354,63172069138|10354,63172069138|10354,63172069138|10354,63172069138|10354,63172069138|10354,63172069138|10354,63172069138|10354,63172069138
canMal                    |20236,98665345697|10354,63172069138|  0,00000000000|6678,33988224692|6678,33988224692|6678,33988224692|6678,33988224692|6678,33988224692|8888,13849360589|8888,13849360589
canAlb                    |20236,98665345697|10354,63172069138|6678,33988224692|  0,00000000000|4908,03866945664|4374,85256961112|4572,53708128528|6628,71522921886|8888,13849360589|8888,13849360589
canDub                    |20236,98665345697|10354,63172069138|6678,33988224692|4908,03866945664|  0,00000000000|4908,03866945664|4908,03866945664|6628,71522921886|8888,13849360589|8888,13849360589
canSoj                    |20236,98665345697|10354,63172069138|6678,33988224692|4374,85256961112|4908,03866945664|  0,00000000000|4572,53708128528|6628,71522921886|8888,13849360589|8888,13849360589
canTro                    |20236,98665345697|10354,63172069138|6678,33988224692|4572,53708128528|4908,03866945664|4572,53708128528|  0,00000000000|6628,71522921886|8888,13849360589|8888,13849360589
canPar                    |20236,98665345697|10354,63172069138|6678,33988224692|6628,71522921886|6628,71522921886|6628,71522921886|6628,71522921886|  0,00000000000|8888,13849360589|8888,13849360589
sacPas                    |20236,98665345697|10354,63172069138|8888,13849360589|8888,13849360589|8888,13849360589|8888,13849360589|8888,13849360589|8888,13849360589|  0,00000000000|3390,65826902927
sacCer                    |20236,98665345697|10354,63172069138|8888,13849360589|8888,13849360589|8888,13849360589|8888,13849360589|8888,13849360589|8888,13849360589|3390,65826902927|  0,00000000000
                           |aspNig         |debHan         |canMal         |canAlb         |canDub         |canSoj         |canTro         |canPar         |sacPas         |sacCer         
aspNig                    |  0,00000000000| 11,87351148309| 11,87351148309| 11,87351148309| 11,87351148309| 11,87351148309| 11,87351148309| 11,87351148309| 11,87351148309| 11,87351148309
debHan                    | 11,87351148309|  0,00000000000| 10,01167898205| 10,01167898205| 10,01167898205| 10,01167898205| 10,01167898205| 10,01167898205| 10,01167898205| 10,01167898205
canMal                    | 11,87351148309| 10,01167898205|  0,00000000000|  9,31906677831|  9,31906677831|  9,31906677831|  9,31906677831|  9,31906677831|  9,73539212823|  9,73539212823
canAlb                    | 11,87351148309| 10,01167898205|  9,31906677831|  0,00000000000|  8,98554259738|  8,88509050711|  8,92233420574|  9,30971750959|  9,73539212823|  9,73539212823
canDub                    | 11,87351148309| 10,01167898205|  9,31906677831|  8,98554259738|  0,00000000000|  8,98554259738|  8,98554259738|  9,30971750959|  9,73539212823|  9,73539212823
canSoj                    | 11,87351148309| 10,01167898205|  9,31906677831|  8,88509050711|  8,98554259738|  0,00000000000|  8,92233420574|  9,30971750959|  9,73539212823|  9,73539212823
canTro                    | 11,87351148309| 10,01167898205|  9,31906677831|  8,92233420574|  8,98554259738|  8,92233420574|  0,00000000000|  9,30971750959|  9,73539212823|  9,73539212823
canPar                    | 11,87351148309| 10,01167898205|  9,31906677831|  9,30971750959|  9,30971750959|  9,30971750959|  9,30971750959|  0,00000000000|  9,73539212823|  9,73539212823
sacPas                    | 11,87351148309| 10,01167898205|  9,73539212823|  9,73539212823|  9,73539212823|  9,73539212823|  9,73539212823|  9,73539212823|  0,00000000000|  8,69966861642
sacCer                    | 11,87351148309| 10,01167898205|  9,73539212823|  9,73539212823|  9,73539212823|  9,73539212823|  9,73539212823|  9,73539212823|  8,69966861642|  0,00000000000
                           |aspNig         |debHan         |canMal         |canAlb         |canDub         |canSoj         |canTro         |canPar         |sacPas         |sacCer         
aspNig                    |  0,00000000000|  3,00000000000|  5,00000000000|  9,00000000000|  7,00000000000|  9,00000000000|  8,00000000000|  6,00000000000|  5,00000000000|  5,00000000000
debHan                    |  3,00000000000|  0,00000000000|  4,00000000000|  8,00000000000|  6,00000000000|  8,00000000000|  7,00000000000|  5,00000000000|  4,00000000000|  4,00000000000
canMal                    |  5,00000000000|  4,00000000000|  0,00000000000|  6,00000000000|  4,00000000000|  6,00000000000|  5,00000000000|  3,00000000000|  4,00000000000|  4,00000000000
canAlb                    |  9,00000000000|  8,00000000000|  6,00000000000|  0,00000000000|  4,00000000000|  2,00000000000|  3,00000000000|  5,00000000000|  8,00000000000|  8,00000000000
canDub                    |  7,00000000000|  6,00000000000|  4,00000000000|  4,00000000000|  0,00000000000|  4,00000000000|  3,00000000000|  3,00000000000|  6,00000000000|  6,00000000000
canSoj                    |  9,00000000000|  8,00000000000|  6,00000000000|  2,00000000000|  4,00000000000|  0,00000000000|  3,00000000000|  5,00000000000|  8,00000000000|  8,00000000000
canTro                    |  8,00000000000|  7,00000000000|  5,00000000000|  3,00000000000|  3,00000000000|  3,00000000000|  0,00000000000|  4,00000000000|  7,00000000000|  7,00000000000
canPar                    |  6,00000000000|  5,00000000000|  3,00000000000|  5,00000000000|  3,00000000000|  5,00000000000|  4,00000000000|  0,00000000000|  5,00000000000|  5,00000000000
sacPas                    |  5,00000000000|  4,00000000000|  4,00000000000|  8,00000000000|  6,00000000000|  8,00000000000|  7,00000000000|  5,00000000000|  0,00000000000|  2,00000000000
sacCer                    |  5,00000000000|  4,00000000000|  4,00000000000|  8,00000000000|  6,00000000000|  8,00000000000|  7,00000000000|  5,00000000000|  2,00000000000|  0,00000000000
