                           |aspNig         |canZem         |yarLip         |canSub         |canAlb         |canNer         |canFri         |canPar         |sacPas         |sacCer         |sacSer         
aspNig                    |  0,00000000000|886,69623972746|886,69623972746|913,98983268251|886,69623972746|886,69623972746|886,69623972746|886,69623972746|886,69623972746|886,69623972746|886,69623972746
canZem                    |886,69623972746|  0,00000000000|880,69841052480|913,98983268251|882,51414559197|882,51414559197|882,51414559197|882,51414559197|880,69841052480|880,69841052480|880,69841052480
yarLip                    |886,69623972746|880,69841052480|  0,00000000000|913,98983268251|882,51414559197|882,51414559197|882,51414559197|882,51414559197|872,82720160892|872,82720160892|872,82720160892
canSub                    |913,98983268251|913,98983268251|913,98983268251|  0,00000000000|913,98983268251|913,98983268251|913,98983268251|913,98983268251|913,98983268251|913,98983268251|913,98983268251
canAlb                    |886,69623972746|882,51414559197|882,51414559197|913,98983268251|  0,00000000000|817,25329448871|817,25329448871|829,68883276232|882,51414559197|882,51414559197|882,51414559197
canNer                    |886,69623972746|882,51414559197|882,51414559197|913,98983268251|817,25329448871|  0,00000000000|691,43116476619|829,68883276232|882,51414559197|882,51414559197|882,51414559197
canFri                    |886,69623972746|882,51414559197|882,51414559197|913,98983268251|817,25329448871|691,43116476619|  0,00000000000|829,68883276232|882,51414559197|882,51414559197|882,51414559197
canPar                    |886,69623972746|882,51414559197|882,51414559197|913,98983268251|829,68883276232|829,68883276232|829,68883276232|  0,00000000000|882,51414559197|882,51414559197|882,51414559197
sacPas                    |886,69623972746|880,69841052480|872,82720160892|913,98983268251|882,51414559197|882,51414559197|882,51414559197|882,51414559197|  0,00000000000|618,43217535906|824,75433087066
sacCer                    |886,69623972746|880,69841052480|872,82720160892|913,98983268251|882,51414559197|882,51414559197|882,51414559197|882,51414559197|618,43217535906|  0,00000000000|824,75433087066
sacSer                    |886,69623972746|880,69841052480|872,82720160892|913,98983268251|882,51414559197|882,51414559197|882,51414559197|882,51414559197|824,75433087066|824,75433087066|  0,00000000000
                           |aspNig         |canZem         |yarLip         |canSub         |canAlb         |canNer         |canFri         |canPar         |sacPas         |sacCer         |sacSer         
aspNig                    |  0,00000000000| 10,28412149143| 10,28412149143| 10,83543259039| 10,28412149143| 10,28412149143| 10,28412149143| 10,28412149143| 10,28412149143| 10,28412149143| 10,28412149143
canZem                    | 10,28412149143|  0,00000000000| 10,16296962204| 10,83543259039| 10,19964617455| 10,19964617455| 10,19964617455| 10,19964617455| 10,16296962204| 10,16296962204| 10,16296962204
yarLip                    | 10,28412149143| 10,16296962204|  0,00000000000| 10,83543259039| 10,19964617455| 10,19964617455| 10,19964617455| 10,19964617455| 10,00397681941| 10,00397681941| 10,00397681941
canSub                    | 10,83543259039| 10,83543259039| 10,83543259039|  0,00000000000| 10,83543259039| 10,83543259039| 10,83543259039| 10,83543259039| 10,83543259039| 10,83543259039| 10,83543259039
canAlb                    | 10,28412149143| 10,19964617455| 10,19964617455| 10,83543259039|  0,00000000000|  8,88142355725|  8,88142355725|  9,13261255546| 10,19964617455| 10,19964617455| 10,19964617455
canNer                    | 10,28412149143| 10,19964617455| 10,19964617455| 10,83543259039|  8,88142355725|  0,00000000000|  6,33990633288|  9,13261255546| 10,19964617455| 10,19964617455| 10,19964617455
canFri                    | 10,28412149143| 10,19964617455| 10,19964617455| 10,83543259039|  8,88142355725|  6,33990633288|  0,00000000000|  9,13261255546| 10,19964617455| 10,19964617455| 10,19964617455
canPar                    | 10,28412149143| 10,19964617455| 10,19964617455| 10,83543259039|  9,13261255546|  9,13261255546|  9,13261255546|  0,00000000000| 10,19964617455| 10,19964617455| 10,19964617455
sacPas                    | 10,28412149143| 10,16296962204| 10,00397681941| 10,83543259039| 10,19964617455| 10,19964617455| 10,19964617455| 10,19964617455|  0,00000000000|  4,86537884435|  9,03293913887
sacCer                    | 10,28412149143| 10,16296962204| 10,00397681941| 10,83543259039| 10,19964617455| 10,19964617455| 10,19964617455| 10,19964617455|  4,86537884435|  0,00000000000|  9,03293913887
sacSer                    | 10,28412149143| 10,16296962204| 10,00397681941| 10,83543259039| 10,19964617455| 10,19964617455| 10,19964617455| 10,19964617455|  9,03293913887|  9,03293913887|  0,00000000000
                           |aspNig         |canZem         |yarLip         |canSub         |canAlb         |canNer         |canFri         |canPar         |sacPas         |sacCer         |sacSer         
aspNig                    |  0,00000000000|  4,00000000000|  5,00000000000|  3,00000000000|  5,00000000000|  6,00000000000|  6,00000000000|  4,00000000000|  7,00000000000|  7,00000000000|  6,00000000000
canZem                    |  4,00000000000|  0,00000000000|  3,00000000000|  5,00000000000|  5,00000000000|  6,00000000000|  6,00000000000|  4,00000000000|  5,00000000000|  5,00000000000|  4,00000000000
yarLip                    |  5,00000000000|  3,00000000000|  0,00000000000|  6,00000000000|  6,00000000000|  7,00000000000|  7,00000000000|  5,00000000000|  4,00000000000|  4,00000000000|  3,00000000000
canSub                    |  3,00000000000|  5,00000000000|  6,00000000000|  0,00000000000|  6,00000000000|  7,00000000000|  7,00000000000|  5,00000000000|  8,00000000000|  8,00000000000|  7,00000000000
canAlb                    |  5,00000000000|  5,00000000000|  6,00000000000|  6,00000000000|  0,00000000000|  3,00000000000|  3,00000000000|  3,00000000000|  8,00000000000|  8,00000000000|  7,00000000000
canNer                    |  6,00000000000|  6,00000000000|  7,00000000000|  7,00000000000|  3,00000000000|  0,00000000000|  2,00000000000|  4,00000000000|  9,00000000000|  9,00000000000|  8,00000000000
canFri                    |  6,00000000000|  6,00000000000|  7,00000000000|  7,00000000000|  3,00000000000|  2,00000000000|  0,00000000000|  4,00000000000|  9,00000000000|  9,00000000000|  8,00000000000
canPar                    |  4,00000000000|  4,00000000000|  5,00000000000|  5,00000000000|  3,00000000000|  4,00000000000|  4,00000000000|  0,00000000000|  7,00000000000|  7,00000000000|  6,00000000000
sacPas                    |  7,00000000000|  5,00000000000|  4,00000000000|  8,00000000000|  8,00000000000|  9,00000000000|  9,00000000000|  7,00000000000|  0,00000000000|  2,00000000000|  3,00000000000
sacCer                    |  7,00000000000|  5,00000000000|  4,00000000000|  8,00000000000|  8,00000000000|  9,00000000000|  9,00000000000|  7,00000000000|  2,00000000000|  0,00000000000|  3,00000000000
sacSer                    |  6,00000000000|  4,00000000000|  3,00000000000|  7,00000000000|  7,00000000000|  8,00000000000|  8,00000000000|  6,00000000000|  3,00000000000|  3,00000000000|  0,00000000000
