                           |aspNig         |canZem         |yarLip         |canSub         |canAlb         |canNer         |canFri         |canPar         |sacPas         |sacCer         |sacSer         
aspNig                    |  0,00000000000|802359,97816497520|822955,14606555640|3640381,92243137440|822955,14606555640|802359,97816497520|802359,97816497520|802359,97816497520|802359,97816497520|802359,97816497520|802359,97816497520
canZem                    |802359,97816497520|  0,00000000000|822955,14606555640|3640381,92243137400|822955,14606555640|727478,63484309100|727478,63484309100|727478,63484309100|727478,63484309100|727478,63484309100|727478,63484309100
yarLip                    |822955,14606555640|822955,14606555640|  0,00000000000|3640381,92243137440|463564,80070135894|822955,14606555640|822955,14606555640|822955,14606555640|822955,14606555640|822955,14606555640|822955,14606555640
canSub                    |3640381,92243137440|3640381,92243137400|3640381,92243137440|  0,00000000000|3640381,92243137440|3640381,92243137500|3640381,92243137440|3640381,92243137440|3640381,92243137440|3640381,92243137440|3640381,92243137440
canAlb                    |822955,14606555640|822955,14606555640|463564,80070135894|3640381,92243137440|  0,00000000000|822955,14606555640|822955,14606555640|822955,14606555640|822955,14606555640|822955,14606555640|822955,14606555640
canNer                    |802359,97816497520|727478,63484309100|822955,14606555640|3640381,92243137500|822955,14606555640|  0,00000000000|622753,11571680290|630025,48571731020|612156,29520407830|612156,29520407830|612156,29520407830
canFri                    |802359,97816497520|727478,63484309100|822955,14606555640|3640381,92243137440|822955,14606555640|622753,11571680290|  0,00000000000|630025,48571731020|622753,11571680290|622753,11571680290|622753,11571680290
canPar                    |802359,97816497520|727478,63484309100|822955,14606555640|3640381,92243137440|822955,14606555640|630025,48571731020|630025,48571731020|  0,00000000000|630025,48571731020|630025,48571731020|630025,48571731020
sacPas                    |802359,97816497520|727478,63484309100|822955,14606555640|3640381,92243137440|822955,14606555640|612156,29520407830|622753,11571680290|630025,48571731020|  0,00000000000|238185,63171849895|607306,78326807670
sacCer                    |802359,97816497520|727478,63484309100|822955,14606555640|3640381,92243137440|822955,14606555640|612156,29520407830|622753,11571680290|630025,48571731020|238185,63171849895|  0,00000000000|607306,78326807670
sacSer                    |802359,97816497520|727478,63484309100|822955,14606555640|3640381,92243137440|822955,14606555640|612156,29520407830|622753,11571680290|630025,48571731020|607306,78326807670|607306,78326807670|  0,00000000000
                           |aspNig         |canZem         |yarLip         |canSub         |canAlb         |canNer         |canFri         |canPar         |sacPas         |sacCer         |sacSer         
aspNig                    |  0,00000000000|  9,60084572258|  9,61906475704| 12,11143557847|  9,61906475704|  9,60084572258|  9,60084572258|  9,60084572258|  9,60084572258|  9,60084572258|  9,60084572258
canZem                    |  9,60084572258|  0,00000000000|  9,61906475704| 12,11143557847|  9,61906475704|  9,53460369041|  9,53460369041|  9,53460369041|  9,53460369041|  9,53460369041|  9,53460369041
yarLip                    |  9,61906475704|  9,61906475704|  0,00000000000| 12,11143557847|  9,30113847843|  9,61906475704|  9,61906475704|  9,61906475704|  9,61906475704|  9,61906475704|  9,61906475704
canSub                    | 12,11143557847| 12,11143557847| 12,11143557847|  0,00000000000| 12,11143557847| 12,11143557847| 12,11143557847| 12,11143557847| 12,11143557847| 12,11143557847| 12,11143557847
canAlb                    |  9,61906475704|  9,61906475704|  9,30113847843| 12,11143557847|  0,00000000000|  9,61906475704|  9,61906475704|  9,61906475704|  9,61906475704|  9,61906475704|  9,61906475704
canNer                    |  9,60084572258|  9,53460369041|  9,61906475704| 12,11143557847|  9,61906475704|  0,00000000000|  9,44196070486|  9,44839403720|  9,43258647499|  9,43258647499|  9,43258647499
canFri                    |  9,60084572258|  9,53460369041|  9,61906475704| 12,11143557847|  9,61906475704|  9,44196070486|  0,00000000000|  9,44839403720|  9,44196070486|  9,44196070486|  9,44196070486
canPar                    |  9,60084572258|  9,53460369041|  9,61906475704| 12,11143557847|  9,61906475704|  9,44839403720|  9,44839403720|  0,00000000000|  9,44839403720|  9,44839403720|  9,44839403720
sacPas                    |  9,60084572258|  9,53460369041|  9,61906475704| 12,11143557847|  9,61906475704|  9,43258647499|  9,44196070486|  9,44839403720|  0,00000000000|  9,10176205834|  9,42829646747
sacCer                    |  9,60084572258|  9,53460369041|  9,61906475704| 12,11143557847|  9,61906475704|  9,43258647499|  9,44196070486|  9,44839403720|  9,10176205834|  0,00000000000|  9,42829646747
sacSer                    |  9,60084572258|  9,53460369041|  9,61906475704| 12,11143557847|  9,61906475704|  9,43258647499|  9,44196070486|  9,44839403720|  9,42829646747|  9,42829646747|  0,00000000000
                           |aspNig         |canZem         |yarLip         |canSub         |canAlb         |canNer         |canFri         |canPar         |sacPas         |sacCer         |sacSer         
aspNig                    |  0,00000000000|  3,00000000000|  4,00000000000|  4,00000000000|  4,00000000000|  6,00000000000|  5,00000000000|  4,00000000000|  8,00000000000|  8,00000000000|  7,00000000000
canZem                    |  3,00000000000|  0,00000000000|  5,00000000000|  5,00000000000|  5,00000000000|  5,00000000000|  4,00000000000|  3,00000000000|  7,00000000000|  7,00000000000|  6,00000000000
yarLip                    |  4,00000000000|  5,00000000000|  0,00000000000|  4,00000000000|  2,00000000000|  8,00000000000|  7,00000000000|  6,00000000000| 10,00000000000| 10,00000000000|  9,00000000000
canSub                    |  4,00000000000|  5,00000000000|  4,00000000000|  0,00000000000|  4,00000000000|  8,00000000000|  7,00000000000|  6,00000000000| 10,00000000000| 10,00000000000|  9,00000000000
canAlb                    |  4,00000000000|  5,00000000000|  2,00000000000|  4,00000000000|  0,00000000000|  8,00000000000|  7,00000000000|  6,00000000000| 10,00000000000| 10,00000000000|  9,00000000000
canNer                    |  6,00000000000|  5,00000000000|  8,00000000000|  8,00000000000|  8,00000000000|  0,00000000000|  3,00000000000|  4,00000000000|  4,00000000000|  4,00000000000|  3,00000000000
canFri                    |  5,00000000000|  4,00000000000|  7,00000000000|  7,00000000000|  7,00000000000|  3,00000000000|  0,00000000000|  3,00000000000|  5,00000000000|  5,00000000000|  4,00000000000
canPar                    |  4,00000000000|  3,00000000000|  6,00000000000|  6,00000000000|  6,00000000000|  4,00000000000|  3,00000000000|  0,00000000000|  6,00000000000|  6,00000000000|  5,00000000000
sacPas                    |  8,00000000000|  7,00000000000| 10,00000000000| 10,00000000000| 10,00000000000|  4,00000000000|  5,00000000000|  6,00000000000|  0,00000000000|  2,00000000000|  3,00000000000
sacCer                    |  8,00000000000|  7,00000000000| 10,00000000000| 10,00000000000| 10,00000000000|  4,00000000000|  5,00000000000|  6,00000000000|  2,00000000000|  0,00000000000|  3,00000000000
sacSer                    |  7,00000000000|  6,00000000000|  9,00000000000|  9,00000000000|  9,00000000000|  3,00000000000|  4,00000000000|  5,00000000000|  3,00000000000|  3,00000000000|  0,00000000000
