<?xml version="1.0" encoding="UTF-8"?>
<svg xmlns="http://www.w3.org/2000/svg" xmlns:xlink="http://www.w3.org/1999/xlink" contentScriptType="text/ecmascript" width="20cm" zoomAndPan="magnify" contentStyleType="text/css" height="15.037593984962406cm" viewBox="0 0 1.33 1.0" preserveAspectRatio="xMidYMid meet" version="1.0">
<defs/>
<style type="text/css" xml:space="preserve">
.axis-label{fill:black;
font-family:'Times New Roman', serif;
font-size:2.0;
}

.key-caption{font-size:0.7000000000000001;
font-family:'Times New Roman', serif;
fill:black;
font-weight:bold;
}

.key-hierarchy{stroke:black;
stroke-width:0.4024296043818446;
stroke-linecap:round;
fill:none;
}

.axis{stroke:black;
stroke-width:0.2;
}

.key-hierarchy_0{stroke:#ed420e;
stroke-width:0.4024296043818446;
stroke-linecap:round;
fill:none;
}

.key-hierarchy_1{stroke:#fdca19;
stroke-width:0.4024296043818446;
stroke-linecap:round;
fill:none;
}

.axis-tick{stroke:grey;
stroke-width:0.2;
}
</style>
<g transform="scale(0.0105055292) translate(13.3 10)">
<line y2="0" x1="0" x2="0" class="axis" y1="75.1879699248"/>
<line y2="75.1879699248" x1="0.7518796992" x2="-0.7518796992" class="axis-tick" y1="75.1879699248"/>
<text x="-1.8796992481" y="75.8879699248" class="axis-label" text-anchor="end">0</text>
<line y2="65.7894736842" x1="0.7518796992" x2="-0.7518796992" class="axis-tick" y1="65.7894736842"/>
<text x="-1.8796992481" y="66.4894736842" class="axis-label" text-anchor="end">100</text>
<line y2="56.3909774436" x1="0.7518796992" x2="-0.7518796992" class="axis-tick" y1="56.3909774436"/>
<text x="-1.8796992481" y="57.0909774436" class="axis-label" text-anchor="end">200</text>
<line y2="46.992481203" x1="0.7518796992" x2="-0.7518796992" class="axis-tick" y1="46.992481203"/>
<text x="-1.8796992481" y="47.692481203" class="axis-label" text-anchor="end">300</text>
<line y2="37.5939849624" x1="0.7518796992" x2="-0.7518796992" class="axis-tick" y1="37.5939849624"/>
<text x="-1.8796992481" y="38.2939849624" class="axis-label" text-anchor="end">400</text>
<line y2="28.1954887218" x1="0.7518796992" x2="-0.7518796992" class="axis-tick" y1="28.1954887218"/>
<text x="-1.8796992481" y="28.8954887218" class="axis-label" text-anchor="end">500</text>
<line y2="18.7969924812" x1="0.7518796992" x2="-0.7518796992" class="axis-tick" y1="18.7969924812"/>
<text x="-1.8796992481" y="19.4969924812" class="axis-label" text-anchor="end">600</text>
<line y2="9.3984962406" x1="0.7518796992" x2="-0.7518796992" class="axis-tick" y1="9.3984962406"/>
<text x="-1.8796992481" y="10.0984962406" class="axis-label" text-anchor="end">700</text>
<line y2="0" x1="0.7518796992" x2="-0.7518796992" class="axis-tick" y1="0"/>
<text x="-1.8796992481" y="0.7" class="axis-label" text-anchor="end">800</text>
<text x="77.2727272727" y="78.9473684211" style="font-size: 2.5; font-family:'Times New Roman';" transform="rotate(60 77.27272727272728 78.94736842105263)">sacPas</text>
<text x="50" y="78.9473684211" style="font-size: 2.5; font-family:'Times New Roman';" transform="rotate(60 50.00000000000001 78.94736842105263)">canNer</text>
<text x="59.0909090909" y="78.9473684211" style="font-size: 2.5; font-family:'Times New Roman';" transform="rotate(60 59.09090909090909 78.94736842105263)">canFri</text>
<text x="86.3636363636" y="78.9473684211" style="font-size: 2.5; font-family:'Times New Roman';" transform="rotate(60 86.36363636363637 78.94736842105263)">sacCer</text>
<text x="40.9090909091" y="78.9473684211" style="font-size: 2.5; font-family:'Times New Roman';" transform="rotate(60 40.909090909090914 78.94736842105263)">canAlb</text>
<text x="68.1818181818" y="78.9473684211" style="font-size: 2.5; font-family:'Times New Roman';" transform="rotate(60 68.18181818181819 78.94736842105263)">canPar</text>
<text x="31.8181818182" y="78.9473684211" style="font-size: 2.5; font-family:'Times New Roman';" transform="rotate(60 31.81818181818182 78.94736842105263)">yarLip</text>
<text x="22.7272727273" y="78.9473684211" style="font-size: 2.5; font-family:'Times New Roman';" transform="rotate(60 22.72727272727273 78.94736842105263)">canZem</text>
<text x="13.6363636364" y="78.9473684211" style="font-size: 2.5; font-family:'Times New Roman';" transform="rotate(60 13.636363636363637 78.94736842105263)">aspNig</text>
<text x="4.5454545455" y="78.9473684211" style="font-size: 2.5; font-family:'Times New Roman';" transform="rotate(60 4.545454545454546 78.94736842105263)">canSub</text>
<text x="95.4545454545" y="78.9473684211" style="font-size: 2.5; font-family:'Times New Roman';" transform="rotate(60 95.45454545454547 78.94736842105263)">sacSer</text>
<path class="key-hierarchy_0" d="M77.2727272727 75.1879699248 V52.2209281551 H86.3636363636 V75.1879699248 M50 75.1879699248 V48.3605291723 H59.0909090909 V75.1879699248 M54.5454545455 48.3605291723 V42.6426251415 H68.1818181818 V75.1879699248 M81.8181818182 52.2209281551 V42.3539720137 H95.4545454545 V75.1879699248 M40.9090909091 75.1879699248 V39.2321007816 H61.3636363636 V42.6426251415 M51.1363636364 39.2321007816 V37.3884201134 H88.6363636364 V42.3539720137 M31.8181818182 75.1879699248 V36.6655312257 H69.8863636364 V37.3884201134 M22.7272727273 75.1879699248 V36.5803938561 H50.8522727273 V36.6655312257 M13.6363636364 75.1879699248 V35.039571506 H36.7897727273 V36.5803938561 M4.5454545455 75.1879699248 V6.4319591863 H25.2130681818 V35.039571506 M14.8792613636 6.4319591863 "/>
</g>
</svg>
