                           |aspNig         |canZem         |yarLip         |canSub         |canAlb         |canNer         |canFri         |canPar         |sacPas         |sacCer         |sacSer         
aspNig                    |  0,00000000000|  9,70245740519|  9,31313208030|  9,74306364693|  9,74306364693|  9,74306364693|  9,74306364693|  9,74306364693|  9,39625847310|  9,39625847310|  9,39625847310
canZem                    |  9,70245740519|  0,00000000000|  9,70245740519|  9,74306364693|  9,74306364693|  9,74306364693|  9,74306364693|  9,74306364693|  9,70245740519|  9,70245740519|  9,70245740519
yarLip                    |  9,31313208030|  9,70245740519|  0,00000000000|  9,74306364693|  9,74306364693|  9,74306364693|  9,74306364693|  9,74306364693|  9,39625847310|  9,39625847310|  9,39625847310
canSub                    |  9,74306364693|  9,74306364693|  9,74306364693|  0,00000000000|  9,20347641723|  9,20347641723|  9,20347641723|  9,20347641723|  9,74306364693|  9,74306364693|  9,74306364693
canAlb                    |  9,74306364693|  9,74306364693|  9,74306364693|  9,20347641723|  0,00000000000|  8,10579559119|  8,10579559119|  8,54462115174|  9,74306364693|  9,74306364693|  9,74306364693
canNer                    |  9,74306364693|  9,74306364693|  9,74306364693|  9,20347641723|  8,10579559119|  0,00000000000|  5,62868725501|  8,54462115174|  9,74306364693|  9,74306364693|  9,74306364693
canFri                    |  9,74306364693|  9,74306364693|  9,74306364693|  9,20347641723|  8,10579559119|  5,62868725501|  0,00000000000|  8,54462115174|  9,74306364693|  9,74306364693|  9,74306364693
canPar                    |  9,74306364693|  9,74306364693|  9,74306364693|  9,20347641723|  8,54462115174|  8,54462115174|  8,54462115174|  0,00000000000|  9,74306364693|  9,74306364693|  9,74306364693
sacPas                    |  9,39625847310|  9,70245740519|  9,39625847310|  9,74306364693|  9,74306364693|  9,74306364693|  9,74306364693|  9,74306364693|  0,00000000000|  5,00749968190|  7,43216692751
sacCer                    |  9,39625847310|  9,70245740519|  9,39625847310|  9,74306364693|  9,74306364693|  9,74306364693|  9,74306364693|  9,74306364693|  5,00749968190|  0,00000000000|  7,43216692751
sacSer                    |  9,39625847310|  9,70245740519|  9,39625847310|  9,74306364693|  9,74306364693|  9,74306364693|  9,74306364693|  9,74306364693|  7,43216692751|  7,43216692751|  0,00000000000
                           |aspNig         |canZem         |yarLip         |canSub         |canAlb         |canNer         |canFri         |canPar         |sacPas         |sacCer         |sacSer         
aspNig                    |  0,00000000000| 10,43723715415| 10,02982415743| 10,47972992197| 10,47972992197| 10,47972992197| 10,47972992197| 10,47972992197| 10,11681252071| 10,11681252071| 10,11681252071
canZem                    | 10,43723715415|  0,00000000000| 10,43723715415| 10,47972992197| 10,47972992197| 10,47972992197| 10,47972992197| 10,47972992197| 10,43723715415| 10,43723715415| 10,43723715415
yarLip                    | 10,02982415743| 10,43723715415|  0,00000000000| 10,47972992197| 10,47972992197| 10,47972992197| 10,47972992197| 10,47972992197| 10,11681252071| 10,11681252071| 10,11681252071
canSub                    | 10,47972992197| 10,47972992197| 10,47972992197|  0,00000000000|  9,91507400005|  9,91507400005|  9,91507400005|  9,91507400005| 10,47972992197| 10,47972992197| 10,47972992197
canAlb                    | 10,47972992197| 10,47972992197| 10,47972992197|  9,91507400005|  0,00000000000|  8,76639600199|  8,76639600199|  9,22560896666| 10,47972992197| 10,47972992197| 10,47972992197
canNer                    | 10,47972992197| 10,47972992197| 10,47972992197|  9,91507400005|  8,76639600199|  0,00000000000|  6,17420364780|  9,22560896666| 10,47972992197| 10,47972992197| 10,47972992197
canFri                    | 10,47972992197| 10,47972992197| 10,47972992197|  9,91507400005|  8,76639600199|  6,17420364780|  0,00000000000|  9,22560896666| 10,47972992197| 10,47972992197| 10,47972992197
canPar                    | 10,47972992197| 10,47972992197| 10,47972992197|  9,91507400005|  9,22560896666|  9,22560896666|  9,22560896666|  0,00000000000| 10,47972992197| 10,47972992197| 10,47972992197
sacPas                    | 10,11681252071| 10,43723715415| 10,11681252071| 10,47972992197| 10,47972992197| 10,47972992197| 10,47972992197| 10,47972992197|  0,00000000000|  5,52415631073|  8,06147121285
sacCer                    | 10,11681252071| 10,43723715415| 10,11681252071| 10,47972992197| 10,47972992197| 10,47972992197| 10,47972992197| 10,47972992197|  5,52415631073|  0,00000000000|  8,06147121285
sacSer                    | 10,11681252071| 10,43723715415| 10,11681252071| 10,47972992197| 10,47972992197| 10,47972992197| 10,47972992197| 10,47972992197|  8,06147121285|  8,06147121285|  0,00000000000
                           |aspNig         |canZem         |yarLip         |canSub         |canAlb         |canNer         |canFri         |canPar         |sacPas         |sacCer         |sacSer         
aspNig                    |  0,00000000000|  4,00000000000|  2,00000000000|  6,00000000000|  8,00000000000|  9,00000000000|  9,00000000000|  7,00000000000|  5,00000000000|  5,00000000000|  4,00000000000
canZem                    |  4,00000000000|  0,00000000000|  4,00000000000|  4,00000000000|  6,00000000000|  7,00000000000|  7,00000000000|  5,00000000000|  5,00000000000|  5,00000000000|  4,00000000000
yarLip                    |  2,00000000000|  4,00000000000|  0,00000000000|  6,00000000000|  8,00000000000|  9,00000000000|  9,00000000000|  7,00000000000|  5,00000000000|  5,00000000000|  4,00000000000
canSub                    |  6,00000000000|  4,00000000000|  6,00000000000|  0,00000000000|  4,00000000000|  5,00000000000|  5,00000000000|  3,00000000000|  7,00000000000|  7,00000000000|  6,00000000000
canAlb                    |  8,00000000000|  6,00000000000|  8,00000000000|  4,00000000000|  0,00000000000|  3,00000000000|  3,00000000000|  3,00000000000|  9,00000000000|  9,00000000000|  8,00000000000
canNer                    |  9,00000000000|  7,00000000000|  9,00000000000|  5,00000000000|  3,00000000000|  0,00000000000|  2,00000000000|  4,00000000000| 10,00000000000| 10,00000000000|  9,00000000000
canFri                    |  9,00000000000|  7,00000000000|  9,00000000000|  5,00000000000|  3,00000000000|  2,00000000000|  0,00000000000|  4,00000000000| 10,00000000000| 10,00000000000|  9,00000000000
canPar                    |  7,00000000000|  5,00000000000|  7,00000000000|  3,00000000000|  3,00000000000|  4,00000000000|  4,00000000000|  0,00000000000|  8,00000000000|  8,00000000000|  7,00000000000
sacPas                    |  5,00000000000|  5,00000000000|  5,00000000000|  7,00000000000|  9,00000000000| 10,00000000000| 10,00000000000|  8,00000000000|  0,00000000000|  2,00000000000|  3,00000000000
sacCer                    |  5,00000000000|  5,00000000000|  5,00000000000|  7,00000000000|  9,00000000000| 10,00000000000| 10,00000000000|  8,00000000000|  2,00000000000|  0,00000000000|  3,00000000000
sacSer                    |  4,00000000000|  4,00000000000|  4,00000000000|  6,00000000000|  8,00000000000|  9,00000000000|  9,00000000000|  7,00000000000|  3,00000000000|  3,00000000000|  0,00000000000
