                           |aspNig         |canZem         |yarLip         |canSub         |canAlb         |canNer         |canFri         |canPar         |sacPas         |sacCer         |sacSer         
aspNig                    |  0,00000000000|  7,79562796440|  7,12310990802|  7,88860919929|  7,85249862976|  7,85249862976|  7,85249862976|  7,85249862976|  7,16309198731|  7,16309198731|  7,16309198731
canZem                    |  7,79562796440|  0,00000000000|  7,79562796440|  7,88860919929|  7,85249862976|  7,85249862976|  7,85249862976|  7,85249862976|  7,79562796440|  7,79562796440|  7,79562796440
yarLip                    |  7,12310990802|  7,79562796440|  0,00000000000|  7,88860919929|  7,85249862976|  7,85249862976|  7,85249862976|  7,85249862976|  7,16309198731|  7,16309198731|  7,16309198731
canSub                    |  7,88860919929|  7,88860919929|  7,88860919929|  0,00000000000|  7,88860919929|  7,88860919929|  7,88860919929|  7,88860919929|  7,88860919929|  7,88860919929|  7,88860919929
canAlb                    |  7,85249862976|  7,85249862976|  7,85249862976|  7,88860919929|  0,00000000000|  6,35122293171|  6,35122293171|  6,67770798893|  7,85249862976|  7,85249862976|  7,85249862976
canNer                    |  7,85249862976|  7,85249862976|  7,85249862976|  7,88860919929|  6,35122293171|  0,00000000000|  4,88698256074|  6,67770798893|  7,85249862976|  7,85249862976|  7,85249862976
canFri                    |  7,85249862976|  7,85249862976|  7,85249862976|  7,88860919929|  6,35122293171|  4,88698256074|  0,00000000000|  6,67770798893|  7,85249862976|  7,85249862976|  7,85249862976
canPar                    |  7,85249862976|  7,85249862976|  7,85249862976|  7,88860919929|  6,67770798893|  6,67770798893|  6,67770798893|  0,00000000000|  7,85249862976|  7,85249862976|  7,85249862976
sacPas                    |  7,16309198731|  7,79562796440|  7,16309198731|  7,88860919929|  7,85249862976|  7,85249862976|  7,85249862976|  7,85249862976|  0,00000000000|  3,41277079211|  6,17345555023
sacCer                    |  7,16309198731|  7,79562796440|  7,16309198731|  7,88860919929|  7,85249862976|  7,85249862976|  7,85249862976|  7,85249862976|  3,41277079211|  0,00000000000|  6,17345555023
sacSer                    |  7,16309198731|  7,79562796440|  7,16309198731|  7,88860919929|  7,85249862976|  7,85249862976|  7,85249862976|  7,85249862976|  6,17345555023|  6,17345555023|  0,00000000000
                           |aspNig         |canZem         |yarLip         |canSub         |canAlb         |canNer         |canFri         |canPar         |sacPas         |sacCer         |sacSer         
aspNig                    |  0,00000000000| 10,41818326392|  9,60199376455| 10,53102827505| 10,48720332880| 10,48720332880| 10,48720332880| 10,48720332880|  9,65051729931|  9,65051729931|  9,65051729931
canZem                    | 10,41818326392|  0,00000000000| 10,41818326392| 10,53102827505| 10,48720332880| 10,48720332880| 10,48720332880| 10,48720332880| 10,41818326392| 10,41818326392| 10,41818326392
yarLip                    |  9,60199376455| 10,41818326392|  0,00000000000| 10,53102827505| 10,48720332880| 10,48720332880| 10,48720332880| 10,48720332880|  9,65051729931|  9,65051729931|  9,65051729931
canSub                    | 10,53102827505| 10,53102827505| 10,53102827505|  0,00000000000| 10,53102827505| 10,53102827505| 10,53102827505| 10,53102827505| 10,53102827505| 10,53102827505| 10,53102827505
canAlb                    | 10,48720332880| 10,48720332880| 10,48720332880| 10,53102827505|  0,00000000000|  8,66520695446|  8,66520695446|  9,06143969926| 10,48720332880| 10,48720332880| 10,48720332880
canNer                    | 10,48720332880| 10,48720332880| 10,48720332880| 10,53102827505|  8,66520695446|  0,00000000000|  6,88815784181|  9,06143969926| 10,48720332880| 10,48720332880| 10,48720332880
canFri                    | 10,48720332880| 10,48720332880| 10,48720332880| 10,53102827505|  8,66520695446|  6,88815784181|  0,00000000000|  9,06143969926| 10,48720332880| 10,48720332880| 10,48720332880
canPar                    | 10,48720332880| 10,48720332880| 10,48720332880| 10,53102827505|  9,06143969926|  9,06143969926|  9,06143969926|  0,00000000000| 10,48720332880| 10,48720332880| 10,48720332880
sacPas                    |  9,65051729931| 10,41818326392|  9,65051729931| 10,53102827505| 10,48720332880| 10,48720332880| 10,48720332880| 10,48720332880|  0,00000000000|  5,09900712090|  8,44946275441
sacCer                    |  9,65051729931| 10,41818326392|  9,65051729931| 10,53102827505| 10,48720332880| 10,48720332880| 10,48720332880| 10,48720332880|  5,09900712090|  0,00000000000|  8,44946275441
sacSer                    |  9,65051729931| 10,41818326392|  9,65051729931| 10,53102827505| 10,48720332880| 10,48720332880| 10,48720332880| 10,48720332880|  8,44946275441|  8,44946275441|  0,00000000000
                           |aspNig         |canZem         |yarLip         |canSub         |canAlb         |canNer         |canFri         |canPar         |sacPas         |sacCer         |sacSer         
aspNig                    |  0,00000000000|  4,00000000000|  2,00000000000|  6,00000000000|  7,00000000000|  8,00000000000|  8,00000000000|  6,00000000000|  5,00000000000|  5,00000000000|  4,00000000000
canZem                    |  4,00000000000|  0,00000000000|  4,00000000000|  4,00000000000|  5,00000000000|  6,00000000000|  6,00000000000|  4,00000000000|  5,00000000000|  5,00000000000|  4,00000000000
yarLip                    |  2,00000000000|  4,00000000000|  0,00000000000|  6,00000000000|  7,00000000000|  8,00000000000|  8,00000000000|  6,00000000000|  5,00000000000|  5,00000000000|  4,00000000000
canSub                    |  6,00000000000|  4,00000000000|  6,00000000000|  0,00000000000|  5,00000000000|  6,00000000000|  6,00000000000|  4,00000000000|  7,00000000000|  7,00000000000|  6,00000000000
canAlb                    |  7,00000000000|  5,00000000000|  7,00000000000|  5,00000000000|  0,00000000000|  3,00000000000|  3,00000000000|  3,00000000000|  8,00000000000|  8,00000000000|  7,00000000000
canNer                    |  8,00000000000|  6,00000000000|  8,00000000000|  6,00000000000|  3,00000000000|  0,00000000000|  2,00000000000|  4,00000000000|  9,00000000000|  9,00000000000|  8,00000000000
canFri                    |  8,00000000000|  6,00000000000|  8,00000000000|  6,00000000000|  3,00000000000|  2,00000000000|  0,00000000000|  4,00000000000|  9,00000000000|  9,00000000000|  8,00000000000
canPar                    |  6,00000000000|  4,00000000000|  6,00000000000|  4,00000000000|  3,00000000000|  4,00000000000|  4,00000000000|  0,00000000000|  7,00000000000|  7,00000000000|  6,00000000000
sacPas                    |  5,00000000000|  5,00000000000|  5,00000000000|  7,00000000000|  8,00000000000|  9,00000000000|  9,00000000000|  7,00000000000|  0,00000000000|  2,00000000000|  3,00000000000
sacCer                    |  5,00000000000|  5,00000000000|  5,00000000000|  7,00000000000|  8,00000000000|  9,00000000000|  9,00000000000|  7,00000000000|  2,00000000000|  0,00000000000|  3,00000000000
sacSer                    |  4,00000000000|  4,00000000000|  4,00000000000|  6,00000000000|  7,00000000000|  8,00000000000|  8,00000000000|  6,00000000000|  3,00000000000|  3,00000000000|  0,00000000000
