                           |aspNig         |canZem         |yarLip         |canSub         |canAlb         |canNer         |canFri         |canPar         |sacPas         |sacCer         |sacSer         
aspNig                    |  0,00000000000|1438,15541408180|1437,13986855321|1863,99777966607|1409,88353488263|1409,88353488263|1512,03251300934|1409,88353488263|1398,61061305458|1398,61061305458|1436,30904052879
canZem                    |1438,15541408180|  0,00000000000|1438,15541408180|1863,99777966607|1438,15541408180|1438,15541408180|1512,03251300934|1438,15541408180|1438,15541408180|1438,15541408180|1438,15541408180
yarLip                    |1437,13986855321|1438,15541408180|  0,00000000000|1863,99777966607|1437,13986855321|1437,13986855321|1512,03251300934|1437,13986855321|1437,13986855321|1437,13986855321|1437,13986855321
canSub                    |1863,99777966607|1863,99777966607|1863,99777966607|  0,00000000000|1863,99777966607|1863,99777966607|1863,99777966607|1863,99777966607|1863,99777966607|1863,99777966607|1863,99777966607
canAlb                    |1409,88353488263|1438,15541408180|1437,13986855321|1863,99777966607|  0,00000000000|1174,07254116190|1512,03251300934|1237,00197968025|1409,88353488263|1409,88353488263|1436,30904052879
canNer                    |1409,88353488263|1438,15541408180|1437,13986855321|1863,99777966607|1174,07254116190|  0,00000000000|1512,03251300934|1237,00197968025|1409,88353488263|1409,88353488263|1436,30904052879
canFri                    |1512,03251300934|1512,03251300934|1512,03251300934|1863,99777966607|1512,03251300934|1512,03251300934|  0,00000000000|1512,03251300934|1512,03251300934|1512,03251300934|1512,03251300934
canPar                    |1409,88353488263|1438,15541408180|1437,13986855321|1863,99777966607|1237,00197968025|1237,00197968025|1512,03251300934|  0,00000000000|1409,88353488263|1409,88353488263|1436,30904052879
sacPas                    |1398,61061305458|1438,15541408180|1437,13986855321|1863,99777966607|1409,88353488263|1409,88353488263|1512,03251300934|1409,88353488263|  0,00000000000|1202,60128449922|1436,30904052879
sacCer                    |1398,61061305458|1438,15541408180|1437,13986855321|1863,99777966607|1409,88353488263|1409,88353488263|1512,03251300934|1409,88353488263|1202,60128449922|  0,00000000000|1436,30904052879
sacSer                    |1436,30904052879|1438,15541408180|1437,13986855321|1863,99777966607|1436,30904052879|1436,30904052879|1512,03251300934|1436,30904052879|1436,30904052879|1436,30904052879|  0,00000000000
                           |aspNig         |canZem         |yarLip         |canSub         |canAlb         |canNer         |canFri         |canPar         |sacPas         |sacCer         |sacSer         
aspNig                    |  0,00000000000|  9,63464038041|  9,62907931533| 11,96652707940|  9,47982530237|  9,47982530237| 10,03918684707|  9,47982530237|  9,41809547323|  9,41809547323|  9,62452975198
canZem                    |  9,63464038041|  0,00000000000|  9,63464038041| 11,96652707940|  9,63464038041|  9,63464038041| 10,03918684707|  9,63464038041|  9,63464038041|  9,63464038041|  9,63464038041
yarLip                    |  9,62907931533|  9,63464038041|  0,00000000000| 11,96652707940|  9,62907931533|  9,62907931533| 10,03918684707|  9,62907931533|  9,62907931533|  9,62907931533|  9,62907931533
canSub                    | 11,96652707940| 11,96652707940| 11,96652707940|  0,00000000000| 11,96652707940| 11,96652707940| 11,96652707940| 11,96652707940| 11,96652707940| 11,96652707940| 11,96652707940
canAlb                    |  9,47982530237|  9,63464038041|  9,62907931533| 11,96652707940|  0,00000000000|  8,18853875088| 10,03918684707|  8,53313649999|  9,47982530237|  9,47982530237|  9,62452975198
canNer                    |  9,47982530237|  9,63464038041|  9,62907931533| 11,96652707940|  8,18853875088|  0,00000000000| 10,03918684707|  8,53313649999|  9,47982530237|  9,47982530237|  9,62452975198
canFri                    | 10,03918684707| 10,03918684707| 10,03918684707| 11,96652707940| 10,03918684707| 10,03918684707|  0,00000000000| 10,03918684707| 10,03918684707| 10,03918684707| 10,03918684707
canPar                    |  9,47982530237|  9,63464038041|  9,62907931533| 11,96652707940|  8,53313649999|  8,53313649999| 10,03918684707|  0,00000000000|  9,47982530237|  9,47982530237|  9,62452975198
sacPas                    |  9,41809547323|  9,63464038041|  9,62907931533| 11,96652707940|  9,47982530237|  9,47982530237| 10,03918684707|  9,47982530237|  0,00000000000|  8,34476040120|  9,62452975198
sacCer                    |  9,41809547323|  9,63464038041|  9,62907931533| 11,96652707940|  9,47982530237|  9,47982530237| 10,03918684707|  9,47982530237|  8,34476040120|  0,00000000000|  9,62452975198
sacSer                    |  9,62452975198|  9,63464038041|  9,62907931533| 11,96652707940|  9,62452975198|  9,62452975198| 10,03918684707|  9,62452975198|  9,62452975198|  9,62452975198|  0,00000000000
                           |aspNig         |canZem         |yarLip         |canSub         |canAlb         |canNer         |canFri         |canPar         |sacPas         |sacCer         |sacSer         
aspNig                    |  0,00000000000|  6,00000000000|  5,00000000000|  8,00000000000|  5,00000000000|  5,00000000000|  7,00000000000|  4,00000000000|  3,00000000000|  3,00000000000|  4,00000000000
canZem                    |  6,00000000000|  0,00000000000|  3,00000000000|  4,00000000000|  7,00000000000|  7,00000000000|  3,00000000000|  6,00000000000|  7,00000000000|  7,00000000000|  4,00000000000
yarLip                    |  5,00000000000|  3,00000000000|  0,00000000000|  5,00000000000|  6,00000000000|  6,00000000000|  4,00000000000|  5,00000000000|  6,00000000000|  6,00000000000|  3,00000000000
canSub                    |  8,00000000000|  4,00000000000|  5,00000000000|  0,00000000000|  9,00000000000|  9,00000000000|  3,00000000000|  8,00000000000|  9,00000000000|  9,00000000000|  6,00000000000
canAlb                    |  5,00000000000|  7,00000000000|  6,00000000000|  9,00000000000|  0,00000000000|  2,00000000000|  8,00000000000|  3,00000000000|  6,00000000000|  6,00000000000|  5,00000000000
canNer                    |  5,00000000000|  7,00000000000|  6,00000000000|  9,00000000000|  2,00000000000|  0,00000000000|  8,00000000000|  3,00000000000|  6,00000000000|  6,00000000000|  5,00000000000
canFri                    |  7,00000000000|  3,00000000000|  4,00000000000|  3,00000000000|  8,00000000000|  8,00000000000|  0,00000000000|  7,00000000000|  8,00000000000|  8,00000000000|  5,00000000000
canPar                    |  4,00000000000|  6,00000000000|  5,00000000000|  8,00000000000|  3,00000000000|  3,00000000000|  7,00000000000|  0,00000000000|  5,00000000000|  5,00000000000|  4,00000000000
sacPas                    |  3,00000000000|  7,00000000000|  6,00000000000|  9,00000000000|  6,00000000000|  6,00000000000|  8,00000000000|  5,00000000000|  0,00000000000|  2,00000000000|  5,00000000000
sacCer                    |  3,00000000000|  7,00000000000|  6,00000000000|  9,00000000000|  6,00000000000|  6,00000000000|  8,00000000000|  5,00000000000|  2,00000000000|  0,00000000000|  5,00000000000
sacSer                    |  4,00000000000|  4,00000000000|  3,00000000000|  6,00000000000|  5,00000000000|  5,00000000000|  5,00000000000|  4,00000000000|  5,00000000000|  5,00000000000|  0,00000000000
